max_relative_error,mean_reached,mean_relative_error,n_iterations,nh_size,std_reached,std_relative_error,tabu_size
0.026632700324224177,229.85,0.0013316350162112089,500,12,218.31153771617295,0.005804462465344805,5
0.0,206.0,0.0,500,14,191.99140605766706,0.0,5
