n_iterations,tabu_size,nh_size,max_relative_error,mean_relative_error,std_relative_error,mean_reached,std_reached
1500,5,15,1.0,0.8250230725804346,0.3577541238657982,3897.0,1311.2612401806132
1500,5,17,1.0,0.7866863968087072,0.38669969201954063,3856.8,1337.0339711465824
1500,5,20,1.0,0.7511308412531517,0.40645079944710977,3647.3,1542.647714159004
1500,6,15,1.0,0.8268322318533259,0.35534258520600537,3952.9,1190.8596096937708
1500,6,17,1.0,0.7887399241610182,0.3841920050134563,3838.34,1300.8992983317348
1500,6,20,1.0,0.7649424558065878,0.4047915089169112,3674.0,1507.1295631099538
1500,7,15,1.0,0.8268322318533259,0.35534258520600537,3952.9,1190.8596096937708
1500,7,17,1.0,0.7887399241610182,0.3841920050134563,3838.34,1300.8992983317348
1500,7,20,1.0,0.7649424558065878,0.4047915089169112,3674.0,1507.1295631099538
