mean_reached,mean_relative_error,n_iterations,nh_size,std_reached,std_relative_error,tabu_size
229.85,0.0013316350162112089,500,12,218.31153771617295,0.005804462465344805,5
206.0,0.0,500,14,191.99140605766706,0.0,5
175.0,0.0,500,16,149.69869738912226,0.0,5
187.2,0.0,500,18,160.28680544573842,0.0,5
165.2,0.014586190390889523,500,20,153.69404672920808,0.060036416191400335,5
229.85,0.0013316350162112089,750,12,218.31153771617295,0.005804462465344805,5
206.0,0.0,750,14,191.99140605766706,0.0,5
175.0,0.0,750,16,149.69869738912226,0.0,5
187.2,0.0,750,18,160.28680544573842,0.0,5
165.2,0.014586190390889523,750,20,153.69404672920808,0.060036416191400335,5
230.4,0.0,1000,12,219.6236326081508,0.0,5
206.0,0.0,1000,14,191.99140605766706,0.0,5
175.0,0.0,1000,16,149.69869738912226,0.0,5
187.2,0.0,1000,18,160.28680544573842,0.0,5
165.2,0.014586190390889523,1000,20,153.69404672920808,0.060036416191400335,5
239.35,0.0013316350162112089,500,12,270.9548440238705,0.005804462465344805,7
212.8,0.0,500,14,251.50479120684759,0.0,7
152.0,0.01379224652087475,500,16,128.01523346852125,0.06011900878889348,7
150.7,0.01379224652087475,500,18,127.07639434607832,0.06011900878889348,7
149.5,0.014586190390889523,500,20,126.97105969471941,0.060036416191400335,7
239.35,0.0013316350162112089,750,12,270.9548440238705,0.005804462465344805,7
212.8,0.0,750,14,251.50479120684759,0.0,7
184.0,0.0,750,16,166.09605654560255,0.0,7
150.7,0.01379224652087475,750,18,127.07639434607832,0.06011900878889348,7
149.5,0.014586190390889523,750,20,126.97105969471941,0.060036416191400335,7
239.9,0.0,1000,12,271.99391537312005,0.0,7
212.8,0.0,1000,14,251.50479120684759,0.0,7
184.0,0.0,1000,16,166.09605654560255,0.0,7
150.7,0.01379224652087475,1000,18,127.07639434607832,0.06011900878889348,7
149.5,0.014586190390889523,1000,20,126.97105969471941,0.060036416191400335,7
230.85,0.012598986737862552,500,12,269.6639158285735,0.04915073616839478,10
211.0,0.0,500,14,250.62621570777466,0.0,10
161.3,0.0,500,16,123.32238239670852,0.0,10
164.85,0.008761492698756085,500,18,131.32375070793555,0.038190461268447225,10
143.55,0.022553739219630838,500,20,118.67033117001066,0.06950629622754793,10
247.05,0.0013316350162112089,750,12,278.99721772806265,0.005804462465344805,10
211.0,0.0,750,14,250.62621570777466,0.0,10
161.3,0.0,750,16,123.32238239670852,0.0,10
188.4,0.0,750,18,176.18268927451413,0.0,10
143.55,0.022553739219630838,750,20,118.67033117001066,0.06950629622754793,10
247.6,0.0,1000,12,279.99132129407155,0.0,10
211.0,0.0,1000,14,250.62621570777466,0.0,10
161.3,0.0,1000,16,123.32238239670852,0.0,10
188.4,0.0,1000,18,176.18268927451413,0.0,10
143.55,0.022553739219630838,1000,20,118.67033117001066,0.06950629622754793,10
228.05,0.012598986737862552,500,12,270.76068307640236,0.04915073616839478,12
213.0,0.0,500,14,251.70121175711492,0.0,12
170.4,0.0,500,16,134.67716955742722,0.0,12
146.6,0.01379224652087475,500,18,121.69691861341437,0.06011900878889348,12
143.55,0.022553739219630838,500,20,118.67033117001066,0.06950629622754793,12
244.25,0.0013316350162112089,750,12,280.2193560409416,0.005804462465344805,12
213.0,0.0,750,14,251.70121175711492,0.0,12
170.4,0.0,750,16,134.67716955742722,0.0,12
178.5,0.0,750,18,161.25709286725964,0.0,12
143.55,0.022553739219630838,750,20,118.67033117001066,0.06950629622754793,12
244.8,0.0,1000,12,281.21461555189484,0.0,12
213.0,0.0,1000,14,251.70121175711492,0.0,12
170.4,0.0,1000,16,134.67716955742722,0.0,12
178.5,0.0,1000,18,161.25709286725964,0.0,12
143.55,0.022553739219630838,1000,20,118.67033117001066,0.06950629622754793,12
228.85,0.012598986737862552,500,12,270.17962080808394,0.04915073616839478,15
207.15,0.008761492698756085,500,14,249.40314252230263,0.038190461268447225,15
175.8,0.0,500,16,144.2749458499292,0.0,15
177.2,0.0,500,18,147.82374640090814,0.0,15
143.55,0.022553739219630838,500,20,118.67033117001066,0.06950629622754793,15
245.05,0.0013316350162112089,750,12,279.61160115417243,0.005804462465344805,15
225.0,0.0,750,14,264.1694531924537,0.0,15
175.8,0.0,750,16,144.2749458499292,0.0,15
177.2,0.0,750,18,147.82374640090814,0.0,15
143.55,0.022553739219630838,750,20,118.67033117001066,0.06950629622754793,15
245.6,0.0,1000,12,280.6074482261652,0.0,15
225.0,0.0,1000,14,264.1694531924537,0.0,15
175.8,0.0,1000,16,144.2749458499292,0.0,15
177.2,0.0,1000,18,147.82374640090814,0.0,15
143.55,0.022553739219630838,1000,20,118.67033117001066,0.06950629622754793,15
