n_iterations,tabu_size,nh_size,max_relative_error,mean_relative_error,std_relative_error,mean_reached,std_reached
1000,5,10,1.0,0.788702605154264,0.3710084180890942,3892.44,1255.2878739157804
1000,5,15,1.0,0.7446760220484324,0.4013411896259342,3766.76,1332.2770516675575
1000,5,20,1.0,0.7133203666286217,0.41661804672222963,3677.42,1437.398456796166
1000,10,10,1.0,0.8143256120763769,0.3400970727287255,3904.32,1251.1456899977716
1000,10,15,1.0,0.7908887590743063,0.3643874445026499,3841.06,1298.5809856916894
1000,10,20,1.0,0.7364188044436049,0.39661976240492464,3727.64,1324.1526310814777
1000,20,10,1.0,0.8477541835049481,0.314653947263337,3953.38,1242.6154335111084
1000,20,15,1.0,0.8071744733600207,0.3550532531591197,3827.88,1336.02873681669
1000,20,20,1.0,0.7527045187293191,0.3903408805574737,3714.46,1359.7980175011287
1000,50,10,1.0,0.8477541835049481,0.314653947263337,3953.38,1242.6154335111084
1000,50,15,1.0,0.8271744733600207,0.3367132810633895,3890.1,1292.786946870984
1000,50,20,1.0,0.7727045187293191,0.3766401761432404,3776.68,1322.6828560165131
