n_iterations,tabu_size,nh_size,max_relative_error,mean_relative_error,std_relative_error,mean_reached,std_reached
1500,5,15,1.0,0.2750948186349831,0.29914518953491115,1853.5,1446.6154050057671
1500,5,17,1.0,0.28472225640263815,0.29294243770471856,1686.44,1488.925131227222
1500,5,20,1.0,0.24650019939473944,0.25414269419756,1330.54,1390.0241754732183
1500,6,15,1.0,0.28253334723171675,0.2980526208651069,1733.32,1491.3120859162914
1500,6,17,1.0,0.27000217820206507,0.27723172985900474,1602.68,1472.0072478082436
1500,6,20,1.0,0.24080567995540064,0.26046788050728703,1318.32,1355.2823682170444
1500,7,15,1.0,0.28253334723171675,0.2980526208651069,1733.32,1491.3120859162914
1500,7,17,1.0,0.27000217820206507,0.27723172985900474,1602.68,1472.0072478082436
1500,7,20,1.0,0.24080567995540064,0.26046788050728703,1318.32,1355.2823682170444
