max_relative_error,mean_reached,mean_relative_error,n_iterations,nh_size,std_reached,std_relative_error,tabu_size
0.20876288659793815,381.85,0.025619728463238234,500,12,289.43207752424405,0.04900566901661249,3
0.27702089009990916,304.85,0.06423672843535114,500,14,288.7463030066359,0.08615011776479976,3
0.375386012715713,303.45,0.08749162763382878,500,16,210.42777264420207,0.09765373588524641,3
0.375386012715713,227.15,0.10575471295524289,500,18,214.8425644512744,0.10429973131089684,3
0.375386012715713,219.25,0.13407992578742084,500,20,211.1058679904469,0.10031399363357434,3
0.20876288659793815,421.25,0.018841056206226215,750,12,317.60476617960256,0.04679973317336655,3
0.27702089009990916,399.1,0.04875011641731428,750,14,281.0286284348981,0.08524647200537872,3
0.375386012715713,358.6,0.057418646986879616,750,16,242.0911811694098,0.09822201610997748,3
0.375386012715713,262.4,0.10116394695314423,750,18,235.3156178412304,0.10680283915192525,3
0.375386012715713,219.25,0.13407992578742084,750,20,211.1058679904469,0.10031399363357434,3
0.20876288659793815,466.95,0.01630772287289288,1000,12,323.5775757063521,0.046377829220542996,3
0.27702089009990916,500.55,0.030846286117788186,1000,14,307.7582614650661,0.0633145990802373,3
0.375386012715713,388.75,0.05315491072314336,1000,16,275.72502153413643,0.09876959045168325,3
0.375386012715713,281.5,0.09958363607231521,1000,18,259.9987499969952,0.10588829650030074,3
0.375386012715713,219.25,0.13407992578742084,1000,20,211.1058679904469,0.10031399363357434,3
0.20876288659793815,315.85,0.03433205696236165,500,12,245.59647289812614,0.054812015228264024,5
0.27702089009990916,295.8,0.025691779785802577,500,14,206.42688778354432,0.06247631580466584,5
0.27702089009990916,270.8,0.043908510809640644,500,16,202.69252576254507,0.0765404147093037,5
0.375386012715713,245.5,0.04962676694043083,500,18,205.66781469155546,0.09273913588470686,5
0.375386012715713,222.4,0.07264194610646102,500,20,206.67762336547227,0.0962054937848326,5
0.20876288659793815,365.45,0.024191673689477486,750,12,275.9207268401561,0.05357130126805009,5
0.27702089009990916,295.8,0.025691779785802577,750,14,206.42688778354432,0.06247631580466584,5
0.27702089009990916,299.45,0.03804271819447294,750,16,231.85566091859823,0.07645195658329194,5
0.375386012715713,251.4,0.04475630061918732,750,18,211.51014160082255,0.09265963540161136,5
0.375386012715713,222.4,0.07264194610646102,750,20,206.67762336547227,0.0962054937848326,5
0.14102564102564102,395.5,0.01809201733208917,1000,12,289.42434244548264,0.03640264717053667,5
0.27702089009990916,362.65,0.01993106959107176,1000,14,268.17984171074454,0.060712406431959756,5
0.27702089009990916,338.1,0.031943061837084626,1000,16,271.581461075678,0.06685165136499382,5
0.375386012715713,251.4,0.04475630061918732,1000,18,211.51014160082255,0.09265963540161136,5
0.375386012715713,222.4,0.07264194610646102,1000,20,206.67762336547227,0.0962054937848326,5
0.20876288659793815,291.3,0.028340438352001805,500,12,215.99168965494945,0.050412780452885324,7
0.27702089009990916,283.4,0.034148162744239166,500,14,207.29963820518356,0.06674611195497286,7
0.27702089009990916,243.8,0.05350423220058388,500,16,201.94420021382143,0.07764353557842821,7
0.375386012715713,260.1,0.037705018567905264,500,18,200.8389653428836,0.09040384107621693,7
0.375386012715713,223.45,0.06434020554216426,500,20,207.42335331394102,0.09850562465165232,7
0.20876288659793815,346.25,0.018041056206226213,750,12,254.91741309686947,0.046383769234093104,7
0.0936426116838488,332.15,0.01333549438894241,750,14,236.12608390434124,0.02523870557430242,7
0.27702089009990916,348.0,0.03769600000507635,750,16,246.1926075250839,0.07361017052567803,7
0.375386012715713,270.95,0.03670969227398108,750,18,208.93981789022408,0.0907034062814735,7
0.375386012715713,223.45,0.06434020554216426,750,20,207.42335331394102,0.09850562465165232,7
0.13058419243986255,389.85,0.013231456930291655,1000,12,293.76270610817835,0.030970192061737428,7
0.0936426116838488,355.75,0.012184377892490965,1000,14,272.07404782521985,0.025295596875123602,7
0.27702089009990916,405.85,0.030991436143190887,1000,16,298.72550527198047,0.07305661768440633,7
0.375386012715713,270.95,0.03670969227398108,1000,18,208.93981789022408,0.0907034062814735,7
0.375386012715713,223.45,0.06434020554216426,1000,20,207.42335331394102,0.09850562465165232,7
0.3553846153846154,342.55,0.0408076151871418,500,12,224.94365405585464,0.08689807978307422,10
0.27702089009990916,283.5,0.04263697784005135,500,14,230.41690476178175,0.07652090172563282,10
0.375386012715713,272.3,0.033322829995366225,500,16,242.86994462057262,0.08532064726261646,10
0.375386012715713,272.25,0.031741904048460896,500,18,231.38126004497425,0.08240228074128993,10
0.375386012715713,227.85,0.0716747110929587,500,20,217.08921553131097,0.09751976004730281,10
0.3553846153846154,349.2,0.0351243990397286,750,12,230.59631393411297,0.08736415179190656,10
0.27702089009990916,316.8,0.03520152367966442,750,14,230.3752590882971,0.07357369077073958,10
0.27702089009990916,302.8,0.02840457386457603,750,16,252.650470017374,0.06614000137769102,10
0.375386012715713,272.25,0.031741904048460896,750,18,231.38126004497425,0.08240228074128993,10
0.375386012715713,227.85,0.0716747110929587,750,20,217.08921553131097,0.09751976004730281,10
0.3553846153846154,349.2,0.0351243990397286,1000,12,230.59631393411297,0.08736415179190656,10
0.27702089009990916,351.45,0.029101867322276105,1000,14,259.1652899213164,0.06326664980913625,10
0.27702089009990916,302.8,0.02840457386457603,1000,16,252.650470017374,0.06614000137769102,10
0.27702089009990916,310.45,0.026823647917670706,1000,18,255.34241226243634,0.06220508023332278,10
0.375386012715713,228.25,0.06872965614790374,1000,20,218.04698461570158,0.09806527749203255,10
0.3553846153846154,324.75,0.05343786243531705,500,12,229.81620373681227,0.1000730973156487,12
0.27702089009990916,253.25,0.05604863425894483,500,14,231.28356513163664,0.07546265617969683,12
0.27702089009990916,263.1,0.03278676243711507,500,16,232.22293168419006,0.07287555739676627,12
0.27702089009990916,259.25,0.045840378941508775,500,18,231.93142844383985,0.07601934779986502,12
0.375386012715713,226.85,0.06658240030767508,500,20,216.5927688081945,0.09569439957493887,12
0.3553846153846154,332.75,0.04831217025622399,750,12,236.00336332349164,0.10129872881599922,12
0.27702089009990916,348.9,0.042252805730946474,750,14,266.4387171564974,0.07655943587955655,12
0.27702089009990916,271.55,0.03179143614319089,750,16,237.8733854385564,0.07317998193716006,12
0.27702089009990916,320.4,0.023480486239086294,750,18,253.73832978089848,0.060671334180952934,12
0.375386012715713,226.85,0.06658240030767508,750,20,216.5927688081945,0.09569439957493887,12
0.3553846153846154,359.85,0.04792799814711911,1000,12,265.4767927710443,0.10134935511541018,12
0.27702089009990916,433.2,0.03484057306098184,1000,14,303.81714895640766,0.06553149624117177,12
0.27702089009990916,271.55,0.03179143614319089,1000,16,237.8733854385564,0.07317998193716006,12
0.27702089009990916,386.5,0.01958473192083231,1000,18,298.38272403073205,0.06050387721291941,12
0.375386012715713,227.25,0.06363734536262014,1000,20,217.55456212178132,0.09609432288014717,12
0.27702089009990916,321.05,0.03740196499941961,500,12,243.469397460954,0.0722253460252749,15
0.27702089009990916,277.85,0.05238436723821795,500,14,225.06582925890814,0.07618634979565221,15
0.27702089009990916,259.7,0.039838044488397124,500,16,243.9733796954086,0.07611281389931879,15
0.27702089009990916,270.25,0.03804271819447294,500,18,241.36960765597644,0.07645195658329194,15
0.375386012715713,250.0,0.05199529730923945,500,20,229.05959923129177,0.0957309012349932,15
0.27702089009990916,341.75,0.03189210071122167,750,12,256.3405693603726,0.07277950499426611,15
0.27702089009990916,294.65,0.04712972880786955,750,14,237.30113252995653,0.07632907820090146,15
0.27702089009990916,294.6,0.02840457386457603,750,16,266.01304479291986,0.06614000137769102,15
0.27702089009990916,270.25,0.03804271819447294,750,18,241.36960765597644,0.07645195658329194,15
0.375386012715713,250.0,0.05199529730923945,750,20,229.05959923129177,0.0957309012349932,15
0.27702089009990916,341.75,0.03189210071122167,1000,12,256.3405693603726,0.07277950499426611,15
0.27702089009990916,380.75,0.039278446756587496,1000,14,275.5407184065542,0.07376899686786628,15
0.27702089009990916,384.5,0.020553291813293982,1000,16,305.76240776132045,0.06079641071893467,15
0.27702089009990916,347.1,0.024891779785802575,1000,18,290.81899869162606,0.06225343538725357,15
0.375386012715713,250.0,0.05199529730923945,1000,20,229.05959923129177,0.0957309012349932,15
