n_iterations,tabu_size,nh_size,max_relative_error,mean_relative_error,std_relative_error,mean_reached,std_reached
1000,4,5,0.24703125,0.06009528005598813,0.07153890093841311,598.35,516.8463287090275
1000,4,7,0.13732928679817905,0.011948881922326534,0.036287880085125825,312.1,281.1815961260623
1000,4,10,0.09968602825745683,0.004984301412872842,0.02172606616285971,226.1,217.42697624719892
1000,4,13,0.0,0.0,0.0,198.05,215.16098043093226
1000,4,15,0.0,0.0,0.0,191.25,214.05019855164818
1000,4,17,0.0,0.0,0.0,202.65,220.5081120956778
1000,4,20,0.16171224732461356,0.008308146917647872,0.03520664247077697,159.05,133.2619506836066
1000,5,5,0.24703125,0.06009528005598813,0.07153890093841311,598.35,516.8463287090275
1000,5,7,0.13732928679817905,0.011948881922326534,0.036287880085125825,312.1,281.1815961260623
1000,5,10,0.09968602825745683,0.004984301412872842,0.02172606616285971,226.1,217.42697624719892
1000,5,13,0.0,0.0,0.0,198.05,215.16098043093226
1000,5,15,0.0,0.0,0.0,191.25,214.05019855164818
1000,5,17,0.0,0.0,0.0,202.65,220.5081120956778
1000,5,20,0.16171224732461356,0.008308146917647872,0.03520664247077697,159.05,133.2619506836066
1000,10,5,0.26406015037593983,0.06173719559468212,0.07897003061047035,628.35,788.7148581711898
1000,10,7,0.26406015037593983,0.03392873351208524,0.07304433619576395,441.1,794.690184914851
1000,10,10,0.17111459968602827,0.008555729984301413,0.037293562389790695,277.65,289.1296032923644
1000,10,13,0.0,0.0,0.0,226.25,291.4323034599974
1000,10,15,0.0,0.0,0.0,192.15,214.2121086680209
1000,10,17,0.0,0.0,0.0,188.15,214.688209969714
1000,10,20,0.0,0.0,0.0,161.55,132.9595709228937
1000,20,5,0.26406015037593983,0.058133834543916574,0.07690128886796738,618.35,793.824998031682
1000,20,7,0.26406015037593983,0.03392873351208524,0.07304433619576395,448.7,791.2554644361073
1000,20,10,0.17111459968602827,0.008555729984301413,0.037293562389790695,276.65,290.0855520359468
1000,20,13,0.0,0.0,0.0,225.05,291.7573435236892
1000,20,15,0.0,0.0,0.0,191.85,214.54982521549627
1000,20,17,0.0,0.0,0.0,188.15,214.75434221454057
1000,20,20,0.0,0.0,0.0,161.25,132.88373677768098
1000,50,5,0.26406015037593983,0.05708135472846097,0.07754299204608246,645.1,787.1509321597733
1000,50,7,0.26406015037593983,0.03392873351208524,0.07304433619576395,447.1,791.9606619018397
1000,50,10,0.17111459968602827,0.008555729984301413,0.037293562389790695,276.65,290.0855520359468
1000,50,13,0.0,0.0,0.0,225.65,291.60645997645526
1000,50,15,0.0,0.0,0.0,191.05,214.48810573083068
1000,50,17,0.0,0.0,0.0,188.15,214.75434221454057
1000,50,20,0.0,0.0,0.0,161.25,132.88373677768098
1000,100,5,0.26406015037593983,0.05716624333428062,0.0771274322943577,670.5,779.5440654639094
1000,100,7,0.26406015037593983,0.03392873351208524,0.07304433619576395,447.1,791.9606619018397
1000,100,10,0.17111459968602827,0.008555729984301413,0.037293562389790695,276.65,290.0855520359468
1000,100,13,0.0,0.0,0.0,225.65,291.60645997645526
1000,100,15,0.0,0.0,0.0,191.05,214.48810573083068
1000,100,17,0.0,0.0,0.0,188.15,214.75434221454057
1000,100,20,0.0,0.0,0.0,161.25,132.88373677768098
