max_relative_error,mean_reached,mean_relative_error,n_iterations,nh_size,std_reached,std_relative_error,tabu_size
0.0,329.9,0.0,500,12,313.0902266120742,0.0,3
0.0,310.6,0.0,500,14,286.84584710258576,0.0,3
0.03431531239883458,254.55,0.0017157656199417288,500,16,218.69281538267325,0.0074788489481274105,3
0.23522129371711545,226.25,0.011761064685855773,500,18,206.23696928533448,0.05126529243409024,3
0.23522129371711545,220.75,0.012256712654907997,500,20,210.28263718148486,0.05119706225924692,3
0.0,329.9,0.0,750,12,313.0902266120742,0.0,3
0.0,310.6,0.0,750,14,286.84584710258576,0.0,3
0.0,254.6,0.0,750,16,218.7490342835826,0.0,3
0.23522129371711545,226.25,0.011761064685855773,750,18,206.23696928533448,0.05126529243409024,3
0.23522129371711545,220.75,0.012256712654907997,750,20,210.28263718148486,0.05119706225924692,3
0.0,329.9,0.0,1000,12,313.0902266120742,0.0,3
0.0,310.6,0.0,1000,14,286.84584710258576,0.0,3
0.0,254.6,0.0,1000,16,218.7490342835826,0.0,3
0.23522129371711545,226.25,0.011761064685855773,1000,18,206.23696928533448,0.05126529243409024,3
0.23522129371711545,220.75,0.012256712654907997,1000,20,210.28263718148486,0.05119706225924692,3
0.31872909698996654,294.4,0.01776373783476176,500,12,250.9978884373333,0.06931262407420699,5
0.31872909698996654,232.25,0.01593645484949833,500,14,201.29527441050374,0.0694653962072619,5
0.0,236.4,0.0,500,16,209.09839788960602,0.0,5
0.23522129371711545,232.65,0.011761064685855773,500,18,209.64094900567494,0.05126529243409024,5
0.31872909698996654,218.5,0.028193167504406324,500,20,209.77762035069424,0.08399954379966983,5
0.31872909698996654,329.8,0.017268089865709536,750,12,259.1718734739555,0.0694023772800309,5
0.31872909698996654,232.25,0.01593645484949833,750,14,201.29527441050374,0.0694653962072619,5
0.0,236.4,0.0,750,16,209.09839788960602,0.0,5
0.23522129371711545,232.65,0.011761064685855773,750,18,209.64094900567494,0.05126529243409024,5
0.31872909698996654,218.5,0.028193167504406324,750,20,209.77762035069424,0.08399954379966983,5
0.31872909698996654,330.35,0.01593645484949833,1000,12,260.06677507901696,0.0694653962072619,5
0.31872909698996654,232.25,0.01593645484949833,1000,14,201.29527441050374,0.0694653962072619,5
0.0,236.4,0.0,1000,16,209.09839788960602,0.0,5
0.23522129371711545,232.65,0.011761064685855773,1000,18,209.64094900567494,0.05126529243409024,5
0.31872909698996654,218.5,0.028193167504406324,1000,20,209.77762035069424,0.08399954379966983,5
0.31872909698996654,268.05,0.029029154551565305,500,12,220.2306688451906,0.08389659073316974,7
0.31872909698996654,231.55,0.01593645484949833,500,14,202.0169485464029,0.0694653962072619,7
0.31872909698996654,224.85,0.01593645484949833,500,16,207.06406617276693,0.0694653962072619,7
0.31872909698996654,221.3,0.027697519535354098,500,18,207.21633622858982,0.08413508261057527,7
0.31872909698996654,217.95,0.03477211487282737,500,20,209.70085240646972,0.08664484433181323,7
0.31872909698996654,268.05,0.029029154551565305,750,12,220.2306688451906,0.08389659073316974,7
0.31872909698996654,231.55,0.01593645484949833,750,14,202.0169485464029,0.0694653962072619,7
0.31872909698996654,224.85,0.01593645484949833,750,16,207.06406617276693,0.0694653962072619,7
0.31872909698996654,221.3,0.027697519535354098,750,18,207.21633622858982,0.08413508261057527,7
0.31872909698996654,217.95,0.03477211487282737,750,20,209.70085240646972,0.08664484433181323,7
0.0,339.7,0.0,1000,12,285.1967917070597,0.0,7
0.0,264.2,0.0,1000,14,237.19709104455728,0.0,7
0.0,257.5,0.0,1000,16,242.41421162959898,0.0,7
0.0,283.5,0.0,1000,18,268.18771411084435,0.0,7
0.31872909698996654,217.95,0.03477211487282737,1000,20,209.70085240646972,0.08664484433181323,7
0.35161214403389035,278.2,0.03484869706740405,500,12,244.12304274689023,0.10040916394453117,10
0.35161214403389035,242.15,0.03351706205119285,500,14,228.43517132876013,0.10068551736205125,10
0.31872909698996654,237.35,0.01593645484949833,500,16,234.21534428811447,0.0694653962072619,10
0.31872909698996654,232.15,0.01593645484949833,500,18,235.76689228982087,0.0694653962072619,10
0.0,243.0,0.0,500,20,224.05512714508453,0.0,10
0.35161214403389035,278.2,0.03484869706740405,750,12,244.12304274689023,0.10040916394453117,10
0.31872909698996654,252.85,0.01593645484949833,750,14,261.02936137530577,0.0694653962072619,10
0.31872909698996654,237.35,0.01593645484949833,750,16,234.21534428811447,0.0694653962072619,10
0.31872909698996654,232.15,0.01593645484949833,750,18,235.76689228982087,0.0694653962072619,10
0.0,243.0,0.0,750,20,224.05512714508453,0.0,10
0.35161214403389035,313.8,0.017580607201694517,1000,12,273.85116395589773,0.0766320901582698,10
0.35161214403389035,274.8,0.017580607201694517,1000,14,258.73163702956776,0.0766320901582698,10
0.0,270.0,0.0,1000,16,264.44224322146414,0.0,10
0.0,264.7,0.0,1000,18,266.2506525813599,0.0,10
0.0,243.0,0.0,1000,20,224.05512714508453,0.0,10
0.35161214403389035,279.4,0.03484869706740405,500,12,243.22446423006056,0.10040916394453117,12
0.35161214403389035,241.65,0.03351706205119285,500,14,228.93957172144795,0.10068551736205125,12
0.31872909698996654,236.85,0.01593645484949833,500,16,234.59737317369945,0.0694653962072619,12
0.31872909698996654,231.45,0.01593645484949833,500,18,236.36528404145986,0.0694653962072619,12
0.0,243.0,0.0,500,20,224.05512714508453,0.0,12
0.35161214403389035,279.4,0.03484869706740405,750,12,243.22446423006056,0.10040916394453117,12
0.31872909698996654,252.35,0.01593645484949833,750,14,261.4913526294894,0.0694653962072619,12
0.31872909698996654,236.85,0.01593645484949833,750,16,234.59737317369945,0.0694653962072619,12
0.31872909698996654,231.45,0.01593645484949833,750,18,236.36528404145986,0.0694653962072619,12
0.0,243.0,0.0,750,20,224.05512714508453,0.0,12
0.35161214403389035,315.0,0.017580607201694517,1000,12,272.89393544012665,0.0766320901582698,12
0.35161214403389035,274.3,0.017580607201694517,1000,14,259.2400624903489,0.0766320901582698,12
0.0,269.5,0.0,1000,16,264.8423115742649,0.0,12
0.0,264.0,0.0,1000,18,266.8660712792093,0.0,12
0.0,243.0,0.0,1000,20,224.05512714508453,0.0,12
0.31872909698996654,279.8,0.017268089865709536,500,12,244.85844890466817,0.0694023772800309,15
0.31872909698996654,243.65,0.01593645484949833,500,14,229.6770069031726,0.0694653962072619,15
0.31872909698996654,236.25,0.01593645484949833,500,16,234.71682406678906,0.0694653962072619,15
0.31872909698996654,231.45,0.01593645484949833,500,18,236.36528404145986,0.0694653962072619,15
0.0,250.2,0.0,500,20,241.83974032404183,0.0,15
0.31872909698996654,279.8,0.017268089865709536,750,12,244.85844890466817,0.0694023772800309,15
0.31872909698996654,243.65,0.01593645484949833,750,14,229.6770069031726,0.0694653962072619,15
0.31872909698996654,236.25,0.01593645484949833,750,16,234.71682406678906,0.0694653962072619,15
0.31872909698996654,231.45,0.01593645484949833,750,18,236.36528404145986,0.0694653962072619,15
0.0,250.2,0.0,750,20,241.83974032404183,0.0,15
0.0,315.4,0.0,1000,12,274.2993620116533,0.0,15
0.0,276.3,0.0,1000,14,259.64015482971814,0.0,15
0.0,268.9,0.0,1000,16,265.0220556859372,0.0,15
0.0,264.0,0.0,1000,18,266.8660712792093,0.0,15
0.0,250.2,0.0,1000,20,241.83974032404183,0.0,15
