max_relative_error,mean_reached,mean_relative_error,n_iterations,nh_size,std_reached,std_relative_error,tabu_size
0.20962368440978268,381.75,0.025760368317650946,500,12,289.5542911096294,0.04923041488159867,3
0.27702919007013765,304.85,0.06434759860644632,500,14,288.7463030066359,0.08617635794776969,3
0.3754110765111609,303.45,0.08763464755911725,500,16,210.42777264420207,0.09766678642817408,3
0.3754110765111609,227.15,0.10589668202328026,500,18,214.8425644512744,0.10429127996550483,3
0.3754110765111609,219.25,0.13425023749362466,500,20,211.1058679904469,0.10022319108179667,3
0.20962368440978268,421.15,0.018984408095764967,750,12,317.72854372876225,0.04704703866757485,3
0.27702919007013765,399.1,0.04888405975108754,750,14,281.0286284348981,0.08531853049896809,3
0.3754110765111609,358.6,0.057490609164633645,750,16,242.0911811694098,0.09819841989759379,3
0.3754110765111609,262.4,0.10129979236640543,750,18,235.3156178412304,0.10680122900302474,3
0.3754110765111609,219.25,0.13425023749362466,750,20,211.1058679904469,0.10022319108179667,3
0.20962368440978268,421.15,0.018984408095764967,1000,12,317.72854372876225,0.04704703866757485,3
0.27702919007013765,500.55,0.03103255149742052,1000,14,307.7582614650661,0.06340898848838325,3
0.3754110765111609,388.75,0.053228712974642226,1000,16,275.72502153413643,0.0987498290878657,3
0.3754110765111609,281.5,0.0997198228110015,1000,18,259.9987499969952,0.10588786856799878,3
0.3754110765111609,219.25,0.13425023749362466,1000,20,211.1058679904469,0.10022319108179667,3
0.20962368440978268,332.15,0.03523931448256014,500,12,243.061365708333,0.055012308056996854,5
0.27702919007013765,295.8,0.02588927207308931,500,14,206.42688778354432,0.06261833419355596,5
0.27702919007013765,270.8,0.043995499004812366,500,16,202.69252576254507,0.07656904393481787,5
0.3754110765111609,245.5,0.04972210640003773,500,18,205.66781469155546,0.09277851472838093,5
0.3754110765111609,222.4,0.07281482061910646,500,20,206.67762336547227,0.09625533609924204,5
0.20962368440978268,381.75,0.025085461086003923,750,12,270.69630123073347,0.05393527211905782,5
0.27702919007013765,327.5,0.025081758999915105,750,14,211.03613434670376,0.06236916324315675,5
0.27702919007013765,299.45,0.0381294075163366,750,16,231.85566091859823,0.0764813558913821,5
0.3754110765111609,251.4,0.044845721958276144,750,18,211.51014160082255,0.09270069782706584,5
0.3754110765111609,222.4,0.07281482061910646,750,20,206.67762336547227,0.09625533609924204,5
0.1400511758255148,436.5,0.016398167241474297,1000,12,305.54942317078593,0.03641762525976671,5
0.27702919007013765,350.7,0.020645664504571733,1000,14,248.67410399959218,0.06082092574035443,5
0.27702919007013765,338.1,0.03208431779119085,1000,16,271.581461075678,0.06686045395120119,5
0.3754110765111609,251.4,0.044845721958276144,1000,18,211.51014160082255,0.09270069782706584,5
0.3754110765111609,222.4,0.07281482061910646,1000,20,206.67762336547227,0.09625533609924204,5
0.20962368440978268,288.3,0.030462248990623404,500,12,219.09178441922464,0.051634643579968366,7
0.27702919007013765,283.4,0.03427760496151035,500,14,207.29963820518356,0.06679585146322274,7
0.27702919007013765,243.8,0.0535992989959817,500,16,201.94420021382143,0.07768066599474449,7
0.3754110765111609,260.1,0.037843163167000406,500,18,200.8389653428836,0.09050821269141439,7
0.3754110765111609,223.45,0.06450603534494595,500,20,207.42335331394102,0.09856756416713645,7
0.20962368440978268,367.55,0.018176895022590765,750,12,250.7982206874682,0.046595375929416004,7
0.09413568562126146,332.15,0.013465295238726277,750,14,236.12608390434124,0.025475448488263382,7
0.27702919007013765,348.0,0.037838669865540395,750,16,246.1926075250839,0.07371381857433107,7
0.3754110765111609,270.95,0.03685345612028623,750,18,208.93981789022408,0.09080789577070016,7
0.3754110765111609,223.45,0.06450603534494595,750,20,207.42335331394102,0.09856756416713645,7
0.13082077686075566,411.15,0.013335243844102632,1000,12,286.97739893587436,0.031081263129804134,7
0.09413568562126146,355.75,0.012308502355302123,1000,14,272.07404782521985,0.02553527023179767,7
0.27702919007013765,405.85,0.031126848725060864,1000,16,298.72550527198047,0.0731686559427794,7
0.3754110765111609,270.95,0.03685345612028623,1000,18,208.93981789022408,0.09080789577070016,7
0.3754110765111609,223.45,0.06450603534494595,1000,20,207.42335331394102,0.09856756416713645,7
0.3552159501433874,325.25,0.04170487195456714,500,12,234.27886695133216,0.08691292896491595,10
0.27702919007013765,287.8,0.042730256788993136,500,14,227.26671555685402,0.07654541089711045,10
0.3754110765111609,272.3,0.03337483069107284,500,16,242.86994462057262,0.08528765431106242,10
0.3754110765111609,272.25,0.031935602556081986,500,18,231.38126004497425,0.08250003583695323,10
0.3754110765111609,227.85,0.0717756240051919,500,20,217.08921553131097,0.0975388546062354,10
0.3552159501433874,331.9,0.03602447514830477,750,12,240.1909448751139,0.0874366986962423,10
0.27702919007013765,321.1,0.03533942217591557,750,14,226.59344650717506,0.07367885494410845,10
0.27702919007013765,302.8,0.028455736369021677,750,16,252.650470017374,0.06609628702446292,10
0.3754110765111609,272.25,0.031935602556081986,750,18,231.38126004497425,0.08250003583695323,10
0.3754110765111609,227.85,0.0717756240051919,750,20,217.08921553131097,0.0975388546062354,10
0.3552159501433874,372.8,0.035216962075130566,1000,12,255.64088092478482,0.08735217022683614,10
0.27702919007013765,355.75,0.02929433245076981,1000,14,255.2263456228608,0.06337006190640852,10
0.27702919007013765,302.8,0.028455736369021677,1000,16,252.650470017374,0.06609628702446292,10
0.27702919007013765,310.45,0.027016508234030828,1000,18,255.34241226243634,0.0623444600244603,10
0.3754110765111609,228.25,0.06883773372450017,1000,20,218.04698461570158,0.09809099317688239,10
0.3552159501433874,317.95,0.05530026590064746,500,12,233.64127952911056,0.09945389640893455,12
0.27702919007013765,253.25,0.05616937380105341,500,14,231.28356513163664,0.0754989443061969,12
0.27702919007013765,263.1,0.032924068844949236,500,16,232.22293168419006,0.07300980785452013,12
0.27702919007013765,259.25,0.045930248238928086,500,18,231.93142844383985,0.07606938262668224,12
0.3754110765111609,226.85,0.06668442342809902,500,20,216.5927688081945,0.09571107851095181,12
0.3552159501433874,325.95,0.050177427855068846,750,12,239.95655335914458,0.10078115513540854,12
0.27702919007013765,348.9,0.04234198096719131,750,14,266.4387171564974,0.07658538807032343,12
0.27702919007013765,271.55,0.03193436179823507,750,16,237.8733854385564,0.07331461305929411,12
0.27702919007013765,320.4,0.02357012078540162,750,18,253.73832978089848,0.06072219143275842,12
0.3754110765111609,226.85,0.06668442342809902,750,20,216.5927688081945,0.09571107851095181,12
0.3552159501433874,353.05,0.04978915203326702,1000,12,269.6813814485531,0.1008402007129766,12
0.27702919007013765,433.2,0.03505648670932958,1000,14,303.81714895640766,0.06564307909708107,12
0.27702919007013765,271.55,0.03193436179823507,1000,16,237.8733854385564,0.07331461305929411,12
0.27702919007013765,386.5,0.019681685754343023,1000,18,298.38272403073205,0.060561732907765516,12
0.3754110765111609,227.25,0.06374653314740729,1000,20,217.55456212178132,0.09611821136951858,12
0.27702919007013765,318.95,0.03753946839347809,500,12,245.34251058469258,0.07232611333759739,15
0.27702919007013765,277.85,0.052479280745562185,500,14,225.06582925890814,0.07621935750689969,15
0.27702919007013765,259.7,0.03992662763622498,500,16,243.9733796954086,0.07616434435065142,15
0.27702919007013765,270.25,0.0381294075163366,500,18,241.36960765597644,0.0764813558913821,15
0.3754110765111609,250.0,0.0521470846992567,500,20,229.05959923129177,0.0958105845911733,15
0.27702919007013765,339.65,0.03202835452609765,750,12,258.288651512218,0.07289013434314899,15
0.27702919007013765,294.65,0.04721462048199876,750,14,237.30113252995653,0.07636591332556111,15
0.27702919007013765,294.6,0.028455736369021677,750,16,266.01304479291986,0.06609628702446292,15
0.27702919007013765,270.25,0.0381294075163366,750,18,241.36960765597644,0.0764813558913821,15
0.3754110765111609,250.0,0.0521470846992567,750,20,229.05959923129177,0.0958105845911733,15
0.27702919007013765,339.65,0.03202835452609765,1000,12,258.288651512218,0.07289013434314899,15
0.27702919007013765,342.85,0.04021206169072302,1000,14,269.6737426966148,0.07391377819718264,15
0.27702919007013765,338.5,0.02145317757774593,1000,16,286.5809658717759,0.06113503635425175,15
0.27702919007013765,347.1,0.025081758999915105,1000,18,290.81899869162606,0.06236916324315675,15
0.3754110765111609,250.0,0.0521470846992567,1000,20,229.05959923129177,0.0958105845911733,15
