,ID,status,opt price,max price,visited
0,1,1,6515,6515,83
1,2,1,7842,7842,151
2,3,1,9119,9119,93
3,4,1,8050,8050,167
4,5,1,7726,7726,109
5,6,1,9269,9269,219
6,7,1,9119,9119,116
7,8,1,9394,9394,215
8,9,1,9776,9776,200
9,10,1,7501,7501,104
10,11,1,10069,10069,351
11,12,1,9567,9567,193
12,13,1,7461,7461,183
13,14,1,9128,9128,153
14,15,1,8953,8953,193
15,16,1,10810,10810,206
16,17,1,9464,9464,146
17,18,1,9952,9952,163
18,19,1,8495,8495,198
19,20,1,8770,8770,149
20,21,1,9542,9542,153
21,22,1,8302,8302,148
22,23,1,8879,8879,162
23,24,1,9894,9894,190
24,25,1,9352,9352,290
25,26,1,9607,9607,190
26,27,1,10466,10466,212
27,28,1,7881,7881,230
28,29,1,8537,8537,113
29,30,1,8735,8735,192
30,31,1,7292,7292,109
31,32,1,8207,8207,216
32,33,1,8373,8373,111
33,34,1,10350,10350,219
34,35,1,9058,9058,246
35,36,1,6607,6607,154
36,37,1,8876,8876,213
37,38,1,7591,7591,172
38,39,1,8900,8900,134
39,40,1,8204,8204,245
40,41,1,7689,7689,84
41,42,1,7866,7866,54
42,43,1,8754,8754,141
43,44,1,9088,9088,170
44,45,1,7900,7900,104
45,46,1,8476,8476,184
46,47,1,10141,10141,190
47,48,1,8048,8048,208
48,49,1,10749,10749,196
49,50,1,9609,9609,198
50,51,1,8264,8264,177
51,52,1,6396,6396,222
52,53,1,10433,10433,207
53,54,1,9217,9217,127
54,55,1,10307,10307,246
55,56,1,10624,10624,149
56,57,1,9654,9654,169
57,58,1,7907,7907,95
58,59,1,8195,8195,165
59,60,1,7136,7136,158
60,61,1,9051,9051,144
61,62,1,9673,9673,208
62,63,1,9274,9274,177
63,64,1,9739,9739,161
64,65,1,7994,7994,175
65,66,1,7795,7795,165
66,67,1,8917,8917,148
67,68,1,8205,8205,142
68,69,1,6682,6682,141
69,70,1,11897,11897,227
70,71,1,7981,7981,170
71,72,1,9418,9418,162
72,73,1,7108,7108,110
73,74,1,8225,8225,190
74,75,1,7856,7856,63
75,76,1,9638,9638,168
76,77,1,7082,7082,194
77,78,1,10215,10215,154
78,79,1,8877,8877,175
79,80,1,10785,10785,230
80,81,1,6890,6890,100
81,82,1,7765,7765,75
82,83,1,9221,9221,110
83,84,1,9852,9852,153
84,85,1,7419,7419,80
85,86,1,9904,9904,184
86,87,1,9282,9282,220
87,88,1,9417,9417,190
88,89,1,9673,9673,167
89,90,1,7400,7400,139
90,91,1,10212,10212,251
91,92,1,8563,8563,117
92,93,1,8253,8253,229
93,94,1,9964,9964,199
94,95,1,9121,9121,156
95,96,1,10711,10711,201
96,97,1,8505,8505,89
97,98,1,8293,8293,119
98,99,1,7318,7318,199
99,100,1,10019,10019,140
100,101,1,9839,9839,133
101,102,1,7929,7929,212
102,103,1,7616,7616,176
103,104,1,8936,8936,89
104,105,1,9514,9514,151
105,106,1,10356,10356,209
106,107,1,8921,8921,130
107,108,1,8910,8910,112
108,109,1,6379,6379,217
109,110,1,8146,8146,252
110,111,1,10929,10929,184
111,112,1,8747,8747,220
112,113,1,9316,9316,254
113,114,1,8706,8706,171
114,115,1,9014,9014,156
115,116,1,9756,9756,168
116,117,1,7710,7710,84
117,118,1,9504,9504,186
118,119,1,8222,8222,109
119,120,1,9736,9736,223
120,121,1,7385,7385,95
121,122,1,8499,8499,109
122,123,1,9322,9322,205
123,124,1,8823,8823,222
124,125,1,7797,7797,126
125,126,1,9666,9666,184
126,127,1,8676,8676,135
127,128,1,8013,8013,151
128,129,1,9170,9170,207
129,130,1,7540,7540,106
130,131,1,7456,7456,173
131,132,1,8541,8541,178
132,133,1,10433,10433,162
133,134,1,8919,8919,137
134,135,1,7976,7976,180
135,136,1,7762,7762,188
136,137,1,7462,7462,132
137,138,1,10620,10620,204
138,139,1,9633,9633,142
139,140,1,8630,8630,98
140,141,1,9049,9049,136
141,142,1,9838,9838,190
142,143,1,8922,8922,156
143,144,1,7962,7962,167
144,145,1,6482,6482,115
145,146,1,9531,9531,193
146,147,1,9040,9040,172
147,148,1,7793,7793,194
148,149,1,8099,8099,88
149,150,1,5883,5883,197
150,151,1,10053,10053,185
151,152,1,8705,8705,158
152,153,1,9935,9935,211
153,154,1,8286,8286,178
154,155,1,8789,8789,152
155,156,1,8803,8803,198
156,157,1,9678,9678,202
157,158,1,8871,8871,135
158,159,1,6920,6920,80
159,160,1,9879,9879,264
160,161,1,9976,9976,209
161,162,1,9936,9936,150
162,163,1,7752,7752,211
163,164,1,8759,8759,120
164,165,1,9633,9633,120
165,166,1,7771,7771,118
166,167,1,8807,8807,114
167,168,1,8202,8202,151
168,169,1,7623,7623,157
169,170,1,8363,8363,181
170,171,1,6947,6947,166
171,172,1,8876,8876,193
172,173,1,7873,7873,147
173,174,1,9645,9645,221
174,175,1,9246,9246,113
175,176,1,8832,8832,115
176,177,1,7514,7514,135
177,178,1,8994,8994,124
178,179,1,9299,9299,167
179,180,1,8627,8627,150
180,181,1,8682,8682,169
181,182,1,6210,6210,117
182,183,1,9376,9376,245
183,184,1,8688,8688,197
184,185,1,7146,7146,140
185,186,1,8031,8031,126
186,187,1,9988,9988,160
187,188,1,9102,9102,125
188,189,1,8940,8940,200
189,190,1,9342,9342,114
190,191,1,8756,8756,157
191,192,1,10231,10231,255
192,193,1,9227,9227,180
193,194,1,7035,7035,219
194,195,1,10334,10334,317
195,196,1,10342,10342,154
196,197,1,8255,8255,159
197,198,1,11161,11161,223
198,199,1,7669,7669,148
199,200,1,8417,8417,123
200,201,1,9689,9689,205
201,202,1,8290,8290,125
202,203,1,8738,8738,198
203,204,1,7599,7599,100
204,205,1,9365,9365,206
205,206,1,7997,7997,196
206,207,1,7712,7712,140
207,208,1,7439,7439,91
208,209,1,7713,7713,78
209,210,1,8315,8315,250
210,211,1,7522,7522,137
211,212,1,8040,8040,253
212,213,1,9190,9190,198
213,214,1,9171,9171,128
214,215,1,7960,7960,149
215,216,1,9443,9443,229
216,217,1,10385,10385,166
217,218,1,7927,7927,173
218,219,1,9962,9962,275
219,220,1,9471,9471,160
220,221,1,7108,7108,175
221,222,1,10342,10342,278
222,223,1,8417,8417,154
223,224,1,9210,9210,254
224,225,1,8052,8052,131
225,226,1,9937,9937,210
226,227,1,6403,6403,117
227,228,1,10138,10138,131
228,229,1,10026,10026,275
229,230,1,8264,8264,224
230,231,1,6805,6805,103
231,232,1,10876,10876,194
232,233,1,6974,6974,49
233,234,1,11164,11164,185
234,235,1,6937,6937,216
235,236,1,7607,7607,164
236,237,1,8648,8648,110
237,238,1,10069,10069,287
238,239,1,9101,9101,183
239,240,1,8341,8341,229
240,241,1,10411,10411,273
241,242,1,6405,6405,223
242,243,1,7075,7075,164
243,244,1,8026,8026,171
244,245,1,8019,8019,109
245,246,1,8282,8282,139
246,247,1,10265,10265,156
247,248,1,6972,6972,108
248,249,1,10647,10647,218
249,250,1,10450,10450,167
250,251,1,8777,8777,157
251,252,1,7829,7829,148
252,253,1,10072,10072,216
253,254,1,8666,8666,100
254,255,1,9212,9212,229
255,256,1,8417,8417,154
256,257,1,8217,8217,161
257,258,1,8672,8672,126
258,259,1,9157,9157,86
259,260,1,10524,10524,143
260,261,1,8006,8006,107
261,262,1,8771,8771,161
262,263,1,7764,7764,183
263,264,1,6917,6917,135
264,265,1,10094,10094,275
265,266,1,10658,10658,197
266,267,1,6755,6755,114
267,268,1,11079,11079,240
268,269,1,8612,8612,154
269,270,1,9000,9000,116
270,271,1,9576,9576,193
271,272,1,10200,10200,156
272,273,1,7904,7904,142
273,274,1,7099,7099,114
274,275,1,8989,8989,133
275,276,1,7718,7718,149
276,277,1,9402,9402,166
277,278,1,9355,9355,145
278,279,1,7656,7656,149
279,280,1,8046,8046,154
280,281,1,8026,8026,159
281,282,1,10874,10874,222
282,283,1,10347,10347,204
283,284,1,9365,9365,210
284,285,1,10028,10028,193
285,286,1,10181,10181,200
286,287,1,8769,8769,129
287,288,1,9233,9233,191
288,289,1,9347,9347,138
289,290,1,7655,7655,95
290,291,1,6834,6834,114
291,292,1,8293,8293,208
292,293,1,8004,8004,238
293,294,1,7681,7681,215
294,295,1,9629,9629,144
295,296,1,8201,8201,117
296,297,1,6561,6561,125
297,298,1,9826,9826,225
298,299,1,8509,8509,139
299,300,1,9348,9348,307
300,301,1,8182,8182,266
301,302,1,8849,8849,198
302,303,1,7922,7922,137
303,304,1,9813,9813,186
304,305,1,11972,11972,338
305,306,1,8202,8202,143
306,307,1,6043,6043,106
307,308,1,9028,9028,128
308,309,1,7395,7395,209
309,310,1,7121,7121,32
310,311,1,8801,8801,180
311,312,1,8911,8911,132
312,313,1,10716,10716,245
313,314,1,7098,7098,181
314,315,1,7423,7423,145
315,316,1,11074,11074,180
316,317,1,8509,8509,166
317,318,1,8486,8486,187
318,319,1,8650,8650,226
319,320,1,12268,12268,253
320,321,1,9331,9331,175
321,322,1,8930,8930,140
322,323,1,11777,11777,196
323,324,1,7939,7939,129
324,325,1,10316,10316,157
325,326,1,9024,9024,191
326,327,1,10231,10231,292
327,328,1,9802,9802,176
328,329,1,7671,7671,75
329,330,1,7468,7468,80
330,331,1,8217,8217,142
331,332,1,7364,7364,159
332,333,1,7616,7616,233
333,334,1,8120,8120,135
334,335,1,7325,7325,118
335,336,1,8105,8105,169
336,337,1,10038,10038,178
337,338,1,10631,10631,229
338,339,1,10709,10709,197
339,340,1,9209,9209,181
340,341,1,9993,9993,155
341,342,1,8790,8790,202
342,343,1,9357,9357,234
343,344,1,10124,10124,120
344,345,1,10416,10416,205
345,346,1,9795,9795,179
346,347,1,8312,8312,140
347,348,1,10194,10194,172
348,349,1,9660,9660,146
349,350,1,9798,9798,156
350,351,1,7844,7844,87
351,352,1,6819,6819,143
352,353,1,9983,9983,310
353,354,1,9047,9047,168
354,355,1,9155,9155,176
355,356,1,7711,7711,136
356,357,1,10297,10297,237
357,358,1,10355,10355,160
358,359,1,9318,9318,189
359,360,1,9165,9165,137
360,361,1,8809,8809,171
361,362,1,7951,7951,135
362,363,1,8352,8352,92
363,364,1,9532,9532,254
364,365,1,7147,7147,127
365,366,1,11742,11742,316
366,367,1,10624,10624,216
367,368,1,8264,8264,156
368,369,1,8948,8948,133
369,370,1,7652,7652,176
370,371,1,10561,10561,201
371,372,1,7116,7116,129
372,373,1,9498,9498,132
373,374,1,10341,10341,257
374,375,1,7152,7152,192
375,376,1,7870,7870,110
376,377,1,10715,10715,174
377,378,1,7916,7916,90
378,379,1,7855,7855,162
379,380,1,7586,7586,204
380,381,1,9161,9161,211
381,382,1,7449,7449,169
382,383,1,8828,8828,176
383,384,1,8323,8323,91
384,385,1,6645,6645,262
385,386,1,7481,7481,172
386,387,1,8884,8884,89
387,388,1,9631,9631,220
388,389,1,9307,9307,128
389,390,1,7778,7778,150
390,391,1,9764,9764,168
391,392,1,9156,9156,193
392,393,1,8969,8969,240
393,394,1,8428,8428,83
394,395,1,6056,6056,169
395,396,1,8582,8582,117
396,397,1,7896,7896,147
397,398,1,6013,6013,213
398,399,1,8055,8055,187
399,400,1,9780,9780,161
400,401,1,8316,8316,157
401,402,1,9590,9590,193
402,403,1,7238,7238,64
403,404,1,8019,8019,131
404,405,1,9202,9202,196
405,406,1,6963,6963,100
406,407,1,9915,9915,253
407,408,1,10249,10249,162
408,409,1,7719,7719,161
409,410,1,9573,9573,129
410,411,1,10475,10475,272
411,412,1,10136,10136,205
412,413,1,8274,8274,185
413,414,1,6321,6321,196
414,415,1,10926,10926,253
415,416,1,8129,8129,139
416,417,1,7994,7994,130
417,418,1,9304,9304,80
418,419,1,7458,7458,142
419,420,1,6870,6870,124
420,421,1,7368,7368,185
421,422,1,8166,8166,211
422,423,1,9304,9304,159
423,424,1,9802,9802,260
424,425,1,7959,7959,284
425,426,1,8961,8961,115
426,427,1,8927,8927,202
427,428,1,7332,7332,129
428,429,1,10887,10887,266
429,430,1,8681,8681,152
430,431,1,10572,10572,220
431,432,1,7646,7646,85
432,433,1,9955,9955,232
433,434,1,7768,7768,157
434,435,1,7458,7458,134
435,436,1,9866,9866,147
436,437,1,7996,7996,150
437,438,1,9034,9034,103
438,439,1,8429,8429,181
439,440,1,8712,8712,107
440,441,1,7898,7898,122
441,442,1,10386,10386,238
442,443,1,7687,7687,108
443,444,1,7849,7849,165
444,445,1,8344,8344,111
445,446,1,8604,8604,153
446,447,1,8671,8671,112
447,448,1,9726,9726,156
448,449,1,7506,7506,167
449,450,1,9898,9898,190
450,451,1,8690,8690,176
451,452,1,8612,8612,160
452,453,1,10593,10593,161
453,454,1,7822,7822,139
454,455,1,9575,9575,158
455,456,1,11512,11512,253
456,457,1,9527,9527,164
457,458,1,9548,9548,184
458,459,1,9078,9078,175
459,460,1,6707,6707,164
460,461,1,10013,10013,349
461,462,1,11672,11672,270
462,463,1,9440,9440,119
463,464,1,8710,8710,108
464,465,1,6010,6010,76
465,466,1,7105,7105,162
466,467,1,8458,8458,105
467,468,1,6366,6366,129
468,469,1,10123,10123,165
469,470,1,11888,11888,257
470,471,1,9391,9391,166
471,472,1,7505,7505,123
472,473,1,9402,9402,175
473,474,1,7459,7459,82
474,475,1,9277,9277,194
475,476,1,10046,10046,182
476,477,1,9994,9994,245
477,478,1,7210,7210,100
478,479,1,8591,8591,127
479,480,1,9207,9207,182
480,481,1,7934,7934,92
481,482,1,9035,9035,149
482,483,1,6324,6324,192
483,484,1,8577,8577,87
484,485,1,7727,7727,149
485,486,1,11173,11173,159
486,487,1,8308,8308,186
487,488,1,7022,7022,205
488,489,1,9551,9551,242
489,490,1,7849,7849,92
490,491,1,10435,10435,338
491,492,1,8077,8077,144
492,493,1,9719,9719,221
493,494,1,10026,10026,218
494,495,1,6388,6388,156
495,496,1,10096,10096,140
496,497,1,7598,7598,121
497,498,1,10420,10420,218
498,499,1,7964,7964,126
499,500,1,6436,6436,137
