,ID,status,opt price,max price,visited
0,1,0,1207,1129,2
1,5,0,3037,2528,3
2,6,0,2256,1641,2
3,8,0,8360,4422,3
4,12,0,3487,1538,3
5,18,0,3088,2453,2
6,19,0,6384,3999,3
7,20,0,4919,4415,3
8,21,0,6540,2098,2
9,22,0,1891,1382,2
10,24,0,11186,3450,3
11,25,0,3927,2773,3
12,26,0,10802,2551,3
13,27,0,4267,3076,3
14,28,0,12485,1649,2
15,29,0,3076,2353,3
16,33,0,5474,2277,2
17,34,0,4834,1941,2
18,35,0,7649,2271,2
19,36,0,1630,1209,3
20,38,0,6232,3414,3
21,40,0,3855,2310,3
22,41,1,10120,10120,2
23,45,0,5446,4966,4
24,46,0,3611,1792,3
25,47,0,6193,4600,3
26,48,0,9277,3966,3
27,50,1,177150,177150,2
28,53,0,4404,4212,3
29,54,0,1681,523,2
30,55,0,4126,3260,4
31,56,0,3541,2137,3
32,58,0,3493,2090,2
33,59,0,7223,3526,3
34,62,0,3508,2537,3
35,66,0,6943,4371,3
36,67,0,4096,2065,2
37,75,0,6970,1884,2
38,77,0,6737,5098,4
39,78,0,4362,3590,3
40,80,0,8816,1548,2
41,84,0,2439,1872,2
42,86,0,8430,1958,2
43,87,0,3770,2283,2
44,89,0,1354,927,2
45,93,0,4864,1160,2
46,94,0,2188,1910,3
47,96,0,3538,2558,3
48,97,0,4286,3901,3
49,98,0,1870,1487,2
50,99,0,7178,4088,4
51,100,0,2710,1936,2
52,101,0,6154,5818,4
53,103,0,17186,1289,2
54,105,0,3802,2173,2
55,106,0,4266,3248,3
56,108,0,4475,3497,3
57,110,0,2464,1867,2
58,112,0,5917,2413,2
59,113,0,3668,3499,3
60,115,0,7284,5403,4
61,116,0,7144,3213,3
62,117,0,4480,2445,2
63,122,0,5671,4162,3
64,123,0,10052,5875,4
65,124,1,7685,7685,2
66,125,0,5047,3619,3
67,127,0,11043,3980,3
68,128,0,3467,2364,2
69,129,0,8979,2290,2
70,130,0,6068,5691,4
71,133,0,1731,926,3
72,134,0,4383,3184,3
73,135,0,4830,4346,4
74,136,0,2352,1144,2
75,137,0,3357,2117,3
76,138,0,2457,1390,2
77,146,0,4289,4195,3
78,149,0,3424,2446,2
79,151,0,4445,3714,4
80,152,0,3504,2197,2
81,153,0,1796,381,2
82,154,0,3708,3621,3
83,155,0,1935,1777,3
84,159,0,2877,2444,2
85,161,1,26832,26832,2
86,164,0,4295,4042,3
87,165,0,2162,1609,3
88,166,0,5101,1314,2
89,167,0,3857,2148,3
90,170,0,2995,2489,2
91,171,0,3381,2439,2
92,175,0,7038,4005,3
93,176,0,2117,1948,2
94,184,0,4727,4391,4
95,186,0,7881,1999,2
96,192,0,3681,3419,3
97,194,0,1279,1181,2
98,196,0,2881,1118,2
99,200,0,3591,2965,3
100,202,1,6925,6925,2
101,205,0,4170,2209,2
102,208,0,3213,1992,2
103,209,0,2679,2582,4
104,210,0,1018,924,2
105,211,0,4617,3052,3
106,213,0,3107,1537,2
107,214,0,7740,2859,3
108,217,0,1946,1742,2
109,218,0,1817,1664,2
110,219,0,7281,2403,2
111,220,0,2835,2193,3
112,221,1,82810,82810,2
113,223,0,5865,4469,4
114,224,0,3014,1185,2
115,225,0,3861,1712,2
116,226,0,5893,1360,2
117,227,0,2798,365,2
118,228,0,10819,4730,4
119,231,0,7190,4385,4
120,232,0,5886,5391,4
121,236,0,6441,2013,2
122,237,0,2269,1598,2
123,240,0,10966,1410,2
124,243,0,1770,1462,2
125,244,0,24500,2500,2
126,246,0,4224,3293,3
127,248,0,4679,2359,2
128,250,0,5359,3215,3
129,254,0,4055,1545,2
130,256,0,2501,1617,4
131,259,0,4166,3231,3
132,263,0,2995,1332,3
133,265,0,6424,3880,3
134,266,0,1486,1140,2
135,267,0,3904,1675,2
136,268,0,3658,2627,3
137,269,0,6366,5049,4
138,270,0,2064,1924,3
139,272,0,5270,3962,3
140,273,0,3481,2307,3
141,274,0,3044,2521,3
142,275,0,4422,3216,3
143,278,0,2112,631,2
144,280,0,3915,3135,3
145,281,0,2539,875,2
146,282,0,4361,2326,2
147,283,0,5040,3373,3
148,287,0,1273,1167,3
149,291,0,1809,1379,2
150,293,0,4311,3531,3
151,296,0,1784,1745,3
152,298,0,4314,3620,4
153,299,0,5815,2125,2
154,302,0,2569,2038,2
155,303,0,3578,1479,2
156,305,0,4654,4215,3
157,306,0,11736,2494,2
158,307,0,2661,2488,3
159,308,0,4425,3091,3
160,310,0,4631,4132,3
161,313,0,4867,2268,2
162,316,0,1483,1101,2
163,317,0,5870,4756,4
164,318,0,6116,2247,2
165,319,0,14721,1651,2
166,320,0,2962,2863,3
167,321,0,6226,3700,3
168,325,0,5728,4279,3
169,327,1,167463,167463,2
170,328,0,4468,3162,3
171,329,0,2924,2265,2
172,331,0,2982,2411,2
173,335,0,3930,3269,3
174,340,0,2643,1570,2
175,341,0,2860,2305,3
176,346,0,6083,3753,3
177,351,0,6039,4612,3
178,353,0,2534,2008,3
179,354,0,3812,3130,3
180,357,0,3864,3366,3
181,358,0,2856,2311,3
182,359,0,3002,2123,3
183,361,0,14144,2184,2
184,363,0,638,348,2
185,364,0,3053,1726,2
186,367,0,4735,2647,3
187,370,1,259327,259327,2
188,372,0,6988,6805,4
189,373,0,3438,2277,2
190,377,0,5295,2463,2
191,379,0,1978,804,3
192,380,0,4875,3606,3
193,383,0,3477,2024,2
194,387,0,2572,2385,2
195,388,0,4911,2604,3
196,391,0,4723,3640,3
197,393,0,5188,2644,3
198,397,0,5551,4096,3
199,399,0,4348,3785,3
200,400,0,3961,2984,3
201,401,0,2097,1839,2
202,403,0,2594,2376,2
203,404,0,4854,3811,3
204,406,0,5607,1800,2
205,409,0,11142,2400,2
206,410,0,1928,1800,4
207,417,0,4737,2120,2
208,418,0,2345,1425,2
209,420,0,9280,6119,4
210,421,0,4757,3941,3
211,423,0,6426,4750,4
212,424,0,3334,1659,2
213,426,0,3896,2381,2
214,427,0,3414,1118,2
215,429,0,3019,2724,3
216,430,0,4294,2649,4
217,433,0,3723,3591,3
218,434,0,1484,1470,3
219,442,0,5827,2919,3
220,444,0,5913,5022,4
221,446,0,5117,2772,3
222,447,0,4248,2383,2
223,449,0,6136,3079,3
224,450,0,3186,2845,3
225,455,0,6806,3271,3
226,457,0,4659,4532,4
227,458,0,2008,1921,3
228,459,0,7155,2300,2
229,462,0,3977,2464,3
230,463,0,2622,2476,3
231,464,0,4399,4205,3
232,466,0,2209,418,2
233,469,0,4187,3901,3
234,470,0,9878,2258,2
235,471,0,1407,802,2
236,472,0,3268,2623,3
237,473,0,2149,420,2
238,474,0,5508,2966,3
239,475,0,7925,6555,4
240,478,0,4134,3124,3
241,480,0,3983,3262,4
242,482,0,2795,215,2
243,486,0,2577,2035,2
244,490,0,4175,1787,2
245,493,0,3290,1341,3
246,494,0,2668,2178,3
247,498,0,2257,2145,2
248,499,0,11753,2036,2
249,500,0,3968,3027,4
250,502,0,3698,1531,2
251,504,0,4767,3331,3
252,505,0,2551,2416,3
253,507,0,4266,4117,3
254,508,0,3230,2417,2
255,509,0,1283,1135,3
256,515,0,5359,1521,2
257,517,0,13334,2076,2
258,519,0,2427,1970,3
259,520,0,6265,4258,3
260,525,0,5253,2465,2
261,526,0,4279,3480,3
262,527,0,1908,1525,2
263,528,0,10314,421,2
264,529,0,3377,2213,2
265,532,0,5488,784,2
266,534,0,5008,1444,2
267,539,0,4264,3747,4
268,540,0,5737,5456,4
269,543,0,3963,1417,3
270,544,0,3834,2875,3
271,545,0,9414,1634,2
272,546,1,17424,17424,2
273,548,0,8180,504,2
274,549,0,4606,3308,3
275,550,0,7626,1376,2
276,551,0,7038,4112,3
277,552,0,2147,2101,3
278,554,0,5409,2085,2
279,556,0,11160,2080,2
280,558,0,12579,1282,2
281,561,0,2729,1706,2
282,562,0,7048,546,2
283,563,0,5097,2150,2
284,564,0,3476,3358,3
285,566,0,5610,2930,3
286,569,1,21447,21447,2
287,571,0,4225,738,2
288,572,0,9106,2307,2
289,573,0,4348,3276,3
290,579,0,1346,1262,3
291,581,0,9509,2395,2
292,583,0,5903,5782,4
293,585,0,2626,1766,2
294,588,1,24388,24388,2
295,590,0,1140,1004,2
296,591,0,3902,1422,3
297,592,0,6420,2343,2
298,602,0,2921,2732,3
299,605,0,956,921,2
300,607,0,1630,1580,2
301,608,0,2363,1481,2
302,610,0,2422,1685,3
303,612,0,5591,3035,3
304,615,0,2639,2317,3
305,616,0,2682,2142,2
306,619,0,3490,2482,2
307,620,0,4256,1446,2
308,621,0,2564,2026,2
309,622,0,2463,1485,2
310,623,0,8615,1630,2
311,625,0,4919,4441,3
312,628,0,2768,2614,4
313,630,0,3747,1818,2
314,631,0,2577,1563,3
315,632,0,3110,2581,4
316,633,0,4906,4808,3
317,635,0,2909,1680,2
318,636,0,2446,973,2
319,637,0,1967,1293,2
320,638,0,5944,2116,2
321,641,0,3688,3415,3
322,642,0,3710,1756,2
323,643,0,10619,3619,3
324,646,0,3428,2300,2
325,647,0,550,408,2
326,649,0,4511,1930,2
327,650,0,4773,2986,3
328,652,0,4668,4601,3
329,656,0,3436,1562,2
330,658,0,10035,6082,4
331,659,0,4439,2988,3
332,661,0,3245,1427,2
333,662,0,5961,1746,2
334,666,0,2708,2240,2
335,669,0,3671,2319,2
336,670,0,1588,158,2
337,671,0,2903,2082,4
338,673,1,11860,11860,2
339,674,0,3670,3650,3
340,675,0,4289,3045,3
341,677,0,1632,1442,2
342,678,0,2242,1547,2
343,679,0,10173,4278,3
344,681,0,4120,4007,4
345,682,0,2700,1929,2
346,685,0,3126,2560,3
347,689,0,4957,4561,3
348,694,0,2468,2371,3
349,696,0,4179,1683,2
350,697,0,84084,1716,2
351,702,0,3359,3214,4
352,703,0,9971,965,2
353,707,0,2035,1503,2
354,711,0,75820,2230,2
355,712,0,32824,2238,2
356,713,0,800,594,2
357,715,0,3327,2886,3
358,716,0,49329,2349,2
359,717,0,5015,4251,3
360,719,0,5819,1548,2
361,720,0,2587,1848,2
362,721,0,3990,1944,2
363,723,0,5175,4395,3
364,724,0,4740,3525,3
365,726,0,3131,2264,3
366,727,0,2582,2185,3
367,729,0,2283,1903,2
368,730,0,5614,1319,2
369,737,0,4354,2929,3
370,739,0,7412,4546,3
371,741,0,17690,687,2
372,742,0,3754,2509,3
373,743,0,2703,1073,2
374,744,0,5826,3335,3
375,745,0,4813,1744,3
376,746,0,5764,2337,3
377,747,0,2407,1332,2
378,749,0,1914,677,2
379,752,0,4054,2332,3
380,754,0,3733,2808,3
381,758,0,2354,1158,2
382,762,0,2975,2389,2
383,766,0,4086,3461,3
384,769,0,2419,1779,2
385,773,0,3172,1803,2
386,776,0,3923,1292,2
387,777,0,4776,1899,2
388,778,0,3057,1711,3
389,779,0,7089,5336,4
390,786,0,4334,2801,3
391,787,0,1417,1038,2
392,788,0,3859,3752,3
393,790,0,2174,1415,2
394,797,0,2714,2364,2
395,798,0,6802,4202,3
396,801,0,2683,2498,3
397,803,0,4395,3839,3
398,804,0,3199,2085,2
399,805,0,52047,1513,2
400,808,0,3168,2786,3
401,810,0,2942,2939,3
402,812,0,2041,1107,2
403,813,0,2536,2128,2
404,818,0,5005,2197,3
405,819,0,1895,446,2
406,827,0,4104,2394,2
407,831,0,2472,1855,3
408,832,0,4624,4603,4
409,833,0,1621,408,2
410,834,0,2340,585,2
411,836,0,6107,3960,3
412,837,0,3171,3131,3
413,838,0,926,358,3
414,839,0,4726,4447,3
415,840,0,750,621,2
416,841,0,2740,1908,2
417,842,0,6940,4245,3
418,843,0,2082,830,3
419,845,0,7377,5253,4
420,846,0,5651,4276,3
421,849,0,5884,4355,3
422,850,0,4401,3701,3
423,851,0,4554,2133,2
424,852,0,1451,902,2
425,853,0,3003,2032,2
426,854,0,4543,2830,3
427,855,0,7537,1783,2
428,856,0,3644,2060,2
429,857,0,2374,1997,3
430,858,0,4460,2155,2
431,862,0,3307,1554,2
432,863,0,2097,795,2
433,865,0,5120,3875,3
434,866,0,5921,1995,2
435,868,0,2578,1971,3
436,870,0,2495,1648,2
437,871,0,1426,971,2
438,872,0,8837,1537,2
439,878,0,4177,3667,3
440,879,0,4369,4128,3
441,880,0,4629,1011,2
442,881,0,2704,2369,3
443,882,0,2510,2118,3
444,887,0,2372,1039,2
445,889,0,4653,4210,3
446,892,0,1406,1334,2
447,893,0,3982,3232,3
448,895,0,3348,1604,2
449,898,0,4725,3545,3
450,900,0,6199,5405,4
451,902,0,3106,1852,2
452,904,0,5284,3708,3
453,906,0,6570,1873,2
454,907,0,1476,278,2
455,908,0,2510,2250,3
456,911,0,2271,1353,2
457,912,0,2436,2351,2
458,915,0,2767,2289,2
459,916,0,4821,3440,4
460,917,0,10782,2281,2
461,918,0,6586,2213,2
462,919,0,6515,6025,4
463,920,0,5660,3464,3
464,922,0,4302,2340,2
465,923,0,4730,3778,4
466,924,0,4270,1659,2
467,925,0,5310,3197,3
468,926,0,4799,4683,4
469,927,0,4896,4255,3
470,929,0,4469,1392,2
471,935,0,3142,358,2
472,937,0,1692,677,2
473,938,1,2736,2736,2
474,940,0,4509,4054,3
475,946,0,7712,1006,2
476,948,0,3567,1946,2
477,950,0,5029,2445,2
478,952,0,2097,1501,3
479,956,0,2149,1471,2
480,957,0,6280,6151,4
481,958,0,5081,2150,2
482,959,0,3845,3160,3
483,960,0,5549,3977,3
484,961,0,6909,1711,2
485,966,0,2877,2501,3
486,969,0,4925,2333,2
487,970,0,5781,4771,4
488,974,0,2372,864,2
489,975,0,1080,984,2
490,976,0,2027,932,2
491,979,1,2117,2117,2
492,984,0,6220,3946,3
493,985,0,3531,2974,3
494,989,0,2880,1920,3
495,994,0,2053,1889,3
496,995,0,4192,2967,3
497,997,0,9197,3346,3
498,998,0,1721,540,2
499,1000,0,7610,6051,4
500,1001,0,2225,1947,3
501,1003,0,5916,3762,4
502,1008,0,5119,3845,3
503,1009,0,8792,1681,2
504,1011,0,4304,2386,2
505,1012,0,4680,2463,2
506,1013,0,4669,1804,2
507,1018,0,3719,1704,2
508,1019,0,7767,3400,3
509,1021,0,24514,2577,3
510,1022,0,2081,1665,2
511,1023,0,3751,3438,3
512,1025,0,6073,4115,3
513,1026,0,3184,894,2
514,1028,0,9576,1064,2
515,1029,0,6703,5850,4
516,1030,0,1995,1011,2
517,1034,0,2029,1507,2
518,1036,0,7812,5587,4
519,1038,0,3329,3065,3
520,1040,0,5348,4428,3
521,1042,0,8882,2394,2
522,1044,0,3377,2362,2
523,1048,0,3605,3076,3
524,1050,0,3178,2959,3
525,1051,0,3717,3131,4
526,1052,0,1813,1127,2
527,1054,0,7021,5873,4
528,1055,0,4201,3018,4
529,1056,0,5151,2318,3
530,1058,0,2986,1662,3
531,1061,0,4039,1656,2
532,1068,0,3704,3662,4
533,1070,0,2915,2509,3
534,1071,0,3964,3382,3
535,1072,0,5223,5034,4
536,1073,0,31037,2287,2
537,1076,0,27295,2323,2
538,1080,0,10622,2056,2
539,1081,0,6249,1971,2
540,1082,0,1899,1626,2
541,1086,0,2920,2083,2
542,1087,0,1555,1296,2
543,1089,0,3582,1617,2
544,1092,0,3175,2312,3
545,1093,0,4713,4319,4
546,1096,0,5475,3641,3
547,1100,0,3935,1926,3
548,1101,0,3429,3324,4
549,1104,0,11576,1091,2
550,1105,1,3486,3486,2
551,1106,1,42570,42570,2
552,1107,0,8385,3512,3
553,1109,0,2438,1708,3
554,1110,0,5023,2163,3
555,1112,0,6477,3660,3
556,1119,0,3717,1766,2
557,1124,0,2437,1422,2
558,1125,0,3820,3457,3
559,1126,0,4569,3455,3
560,1128,0,884,758,2
561,1129,0,4603,3675,3
562,1132,0,3539,1763,2
563,1137,0,3235,2187,2
564,1138,0,4281,2380,3
565,1141,0,3693,2009,2
566,1145,0,5322,4853,3
567,1147,0,4926,3793,4
568,1148,0,5615,2042,2
569,1156,0,2657,2504,3
570,1157,0,5135,4464,3
571,1158,0,2971,1510,2
572,1159,1,14560,14560,2
573,1160,0,4326,4235,3
574,1162,0,4303,3216,3
575,1163,0,2232,2033,2
576,1164,0,2429,2318,3
577,1165,0,3438,2249,2
578,1168,0,4051,2315,2
579,1171,0,2142,2101,3
580,1173,0,3024,1899,3
581,1174,0,3318,3196,4
582,1176,0,1440,890,2
583,1181,0,2088,2082,3
584,1183,0,2744,2381,2
585,1184,0,6118,4731,4
586,1185,0,3901,2967,3
587,1186,0,5020,1468,2
588,1188,0,4815,4444,4
589,1189,0,2675,321,2
590,1191,0,4307,2706,4
591,1193,0,4933,722,2
592,1194,0,3982,3835,3
593,1195,0,3930,3395,3
594,1196,0,5320,3552,3
595,1201,0,4956,4424,3
596,1202,0,8427,2483,2
597,1203,0,2933,2595,3
598,1204,0,2271,2150,2
599,1205,0,3785,3467,3
600,1206,0,1588,1444,2
601,1208,0,6153,1663,2
602,1209,0,4711,4674,3
603,1212,0,1395,1279,3
604,1216,0,2123,1419,3
605,1217,0,3899,1739,3
606,1218,0,5167,4384,3
607,1219,0,6255,3292,3
608,1222,0,3670,1752,2
609,1225,0,3696,1848,2
610,1227,0,4909,4400,3
611,1228,0,4299,2190,2
612,1229,0,3397,1853,2
613,1230,0,4613,3648,3
614,1231,0,5601,5422,4
615,1232,0,3392,2042,2
616,1236,0,5017,1642,2
617,1238,0,4846,4663,4
618,1239,0,5439,3489,3
619,1240,0,6219,5227,4
620,1245,0,4033,2993,3
621,1246,0,6047,5602,4
622,1247,0,3110,2936,4
623,1248,0,3804,3527,4
624,1252,0,2626,1170,2
625,1255,0,4276,2821,3
626,1257,0,4410,3748,3
627,1258,0,2660,2426,3
628,1259,0,3545,2306,2
629,1261,0,4138,2448,3
630,1266,0,3763,3437,3
631,1272,0,4420,2378,2
632,1278,0,5095,2208,2
633,1284,0,1817,1072,2
634,1285,0,1960,887,2
635,1291,0,3734,778,2
636,1292,0,17569,2067,2
637,1293,0,2431,2397,4
638,1294,0,8542,4094,3
639,1295,0,4861,1671,2
640,1298,0,8352,3753,4
641,1299,0,16852,1498,2
642,1304,0,4082,2389,2
643,1305,0,4796,4732,3
644,1307,0,4183,3109,3
645,1308,0,1893,439,2
646,1312,0,2040,386,2
647,1313,1,18030,18030,2
648,1314,0,270389,2033,2
649,1317,0,8861,1656,2
650,1320,0,4451,3484,3
651,1321,0,6275,6002,4
652,1324,0,7006,1727,2
653,1325,0,3309,2820,3
654,1327,1,2475,2475,2
655,1328,0,3235,1721,2
656,1332,0,3146,2056,2
657,1334,0,2197,1516,2
658,1335,0,5983,2410,2
659,1337,1,8025,8025,2
660,1338,0,4503,2466,2
661,1339,0,3009,2054,2
662,1341,0,2957,1662,2
663,1342,0,4202,2463,2
664,1344,0,4181,3891,4
665,1347,0,6459,2284,2
666,1348,0,4989,4072,3
667,1350,0,3083,1990,3
668,1354,0,8085,5979,4
669,1357,0,2144,1340,2
670,1358,0,2434,1987,2
671,1361,0,3918,3904,3
672,1363,0,943,487,2
673,1364,0,2740,1577,2
674,1367,0,4097,4072,3
675,1368,0,8764,2098,3
676,1369,0,5640,4459,3
677,1370,0,1939,168,2
678,1371,0,1002,501,2
679,1372,0,2946,2134,2
680,1375,0,6350,1931,2
681,1377,0,1665,1206,2
682,1380,1,2545,2545,2
683,1383,0,2880,2216,3
684,1384,0,2572,1908,2
685,1385,0,3476,2957,3
686,1386,0,3920,2147,2
687,1388,0,2011,1816,3
688,1390,0,5049,1945,2
689,1391,0,4785,2355,2
690,1393,0,5230,3437,3
691,1394,0,6074,3381,3
692,1396,0,646,235,2
693,1397,0,3344,1434,3
694,1400,0,9085,3734,3
695,1402,0,4753,4567,3
696,1404,0,3890,2038,2
697,1405,0,2046,1993,2
698,1409,0,3166,2512,4
699,1412,0,13840,1828,2
700,1414,0,3982,2460,2
701,1416,0,4230,2469,3
702,1417,0,2929,1295,2
703,1423,0,3373,2337,3
704,1425,0,1870,1765,2
705,1426,0,3031,1263,2
706,1429,0,4608,3473,3
707,1432,0,6515,5723,4
708,1439,1,1336,1336,2
709,1440,0,1005,603,2
710,1443,0,3475,1622,2
711,1444,0,3498,1009,2
712,1445,0,19847,3592,3
713,1450,0,3482,2323,3
714,1451,0,1625,502,2
715,1454,0,3300,2221,2
716,1455,0,2207,1709,3
717,1457,0,2955,2353,2
718,1459,0,5153,4346,4
719,1462,0,27227,2435,2
720,1464,0,3544,2951,4
721,1465,0,1232,827,2
722,1469,0,5367,2599,3
723,1476,0,7201,6180,4
724,1477,0,3458,1220,2
725,1478,0,5268,2298,2
726,1480,0,3197,3077,4
727,1482,0,2779,1150,2
728,1483,0,5831,4286,3
729,1484,0,3399,753,2
730,1486,0,11355,2353,2
731,1487,0,4299,3315,3
732,1488,0,4277,2803,3
733,1490,0,2757,1878,2
734,1491,0,7713,3761,3
735,1493,0,4095,2611,3
736,1495,0,5530,5207,4
737,1498,0,5724,4307,4
738,1502,0,3673,3244,3
739,1503,0,4236,895,2
740,1505,0,3683,2979,3
741,1506,0,7729,1760,3
742,1510,0,2964,1289,3
743,1511,0,1821,1461,2
744,1512,0,4041,999,2
745,1516,0,11480,1640,2
746,1517,0,2073,1296,2
747,1521,0,8258,558,2
748,1524,0,5639,4089,3
749,1525,0,2601,2081,2
750,1529,0,4640,1931,2
751,1531,0,5788,4851,4
752,1532,0,6938,2977,3
753,1533,0,2241,1913,3
754,1534,0,1910,1463,2
755,1535,0,7525,5200,4
756,1537,0,6826,4277,3
757,1539,0,5548,1233,2
758,1541,0,8751,4156,3
759,1549,0,5337,3640,3
760,1550,0,5737,5010,4
761,1551,0,5713,5420,4
762,1553,0,6416,4762,4
763,1554,0,3597,3122,3
764,1555,0,2707,869,2
765,1557,0,4045,3168,3
766,1566,0,4419,1390,2
767,1568,0,2626,1569,2
768,1569,0,3668,3514,4
769,1574,0,5050,3956,3
770,1576,0,2198,454,2
771,1577,0,2666,2074,3
772,1578,0,5247,906,2
773,1579,0,3986,2342,3
774,1580,0,6271,4237,3
775,1586,0,2300,1632,2
776,1587,0,3934,3595,3
777,1589,0,4213,2394,2
778,1591,0,2666,2633,4
779,1594,0,4205,2698,3
780,1595,0,5034,1373,2
781,1596,0,3270,2881,4
782,1598,0,2916,2309,2
783,1601,0,2628,1143,2
784,1603,0,4922,2405,3
785,1606,0,2006,1803,3
786,1608,0,3494,3112,4
787,1610,0,7470,1811,2
788,1614,0,2751,1626,2
789,1625,0,3669,3231,3
790,1626,0,2713,2408,2
791,1627,0,5618,3957,3
792,1628,0,3474,1964,2
793,1630,0,1915,1651,3
794,1632,0,2680,2457,4
795,1633,0,6623,6254,4
796,1634,0,3874,1523,2
797,1636,0,5692,2895,3
798,1638,0,3535,1038,2
799,1643,1,3055,3055,2
800,1644,0,2870,2416,4
801,1646,0,3001,2765,3
802,1647,0,1526,1298,2
803,1648,0,174002,2135,2
804,1649,0,3669,2335,2
805,1650,0,3578,3428,3
806,1653,0,3792,1230,2
807,1654,0,2063,1738,2
808,1657,0,2751,2227,3
809,1658,0,3113,2678,3
810,1663,0,5816,5442,4
811,1665,0,3339,3186,3
812,1667,0,2696,2054,3
813,1671,0,26004,2364,2
814,1681,0,7342,5594,4
815,1682,1,2585,2585,2
816,1683,0,5844,3173,4
817,1685,0,5863,1303,2
818,1689,0,2531,2126,3
819,1691,0,2457,1193,2
820,1694,0,3817,2499,2
821,1695,0,3245,2456,3
822,1700,0,3804,2573,4
823,1702,0,5111,3188,3
824,1703,0,4187,3743,3
825,1707,0,5730,764,2
826,1708,0,3669,2057,2
827,1709,0,3544,3007,3
828,1710,0,7236,4009,4
829,1711,0,4662,1945,2
830,1712,0,4670,4455,4
831,1714,0,3913,3772,4
832,1717,0,8473,5990,4
833,1720,0,1682,1257,2
834,1721,0,2968,2563,3
835,1727,0,3651,3420,3
836,1730,0,4047,3438,3
837,1731,0,2669,2212,4
838,1732,0,4848,1924,2
839,1734,0,16575,2210,2
840,1738,0,3508,2895,3
841,1739,0,8037,1791,2
842,1742,0,2324,2034,2
843,1743,0,4643,3391,3
844,1748,0,5931,4528,4
845,1750,0,2192,2010,2
846,1752,0,3755,2753,3
847,1756,0,3950,3203,4
848,1760,0,3118,2211,2
849,1766,0,3282,3249,3
850,1767,0,5280,3212,3
851,1772,0,3458,3166,4
852,1773,0,4109,4108,4
853,1776,0,3461,1827,2
854,1777,0,8296,1708,2
855,1781,0,1722,1195,2
856,1783,0,2393,2040,3
857,1785,0,5982,3922,3
858,1790,0,5588,4139,4
859,1792,0,3133,2019,2
860,1795,0,7928,1802,2
861,1796,0,1683,1508,2
862,1802,0,2747,2684,3
863,1807,0,4908,4069,4
864,1810,0,3672,2034,2
865,1812,0,7023,2341,2
866,1813,0,9660,2139,2
867,1815,0,23006,2465,2
868,1817,0,1377,1356,2
869,1819,0,2348,2213,2
870,1820,0,2275,1460,3
871,1823,0,4592,3012,3
872,1825,0,11116,4768,4
873,1826,1,3960,3960,2
874,1827,0,2395,1110,2
875,1829,0,2358,2221,2
876,1830,0,4795,3486,3
877,1831,0,5609,4120,3
878,1832,0,2086,681,3
879,1833,0,12451,2174,2
880,1834,0,6045,3860,3
881,1835,0,3644,1058,2
882,1837,0,4974,3850,3
883,1840,0,3452,2302,2
884,1843,0,13325,1974,3
885,1844,0,9918,2309,2
886,1845,0,4995,4330,3
887,1846,0,3988,3357,4
888,1850,0,2611,1955,2
889,1851,0,1040,957,2
890,1852,0,1919,1533,3
891,1854,0,4016,3951,4
892,1857,0,3411,2007,2
893,1862,0,4969,877,2
894,1864,0,4864,2459,2
895,1865,0,4310,3392,3
896,1866,0,3300,1578,3
897,1867,0,5170,943,2
898,1868,0,3398,2530,3
899,1869,0,1572,1240,4
900,1870,0,5002,2449,2
901,1871,0,2646,1947,2
902,1873,0,4457,950,2
903,1877,0,36518,1796,2
904,1883,0,3031,1832,2
905,1884,0,8259,1752,2
906,1885,0,4001,2455,2
907,1887,0,1617,786,2
908,1889,0,2962,1439,2
909,1891,0,4684,1788,2
910,1893,0,5825,4055,3
911,1897,0,1747,1638,3
912,1899,0,3527,745,2
913,1904,0,4164,2369,2
914,1905,0,3002,2455,2
915,1909,0,6142,4512,3
916,1910,0,4333,3863,3
917,1911,0,4203,2927,3
918,1912,0,3841,3795,4
919,1913,0,2837,2272,2
920,1916,0,4390,3540,3
921,1917,0,3813,2428,3
922,1922,0,3520,2532,3
923,1923,0,6548,3005,3
924,1925,0,3304,2280,2
925,1926,0,2381,2236,2
926,1927,0,1194,1167,3
927,1929,0,1966,1749,3
928,1930,0,2308,492,2
929,1932,0,1124,482,2
930,1933,0,27127,3334,3
931,1935,0,4512,1551,4
932,1936,0,4162,2004,2
933,1938,0,3874,3362,3
934,1940,0,2068,1926,2
935,1941,0,6617,3028,3
936,1944,0,2496,2477,4
937,1945,0,242379,1719,2
938,1946,0,4032,3864,3
939,1952,0,2623,1828,3
940,1956,0,2846,1708,2
941,1960,0,3311,3005,3
942,1969,0,4882,3252,4
943,1971,0,4428,3798,3
944,1974,1,51216,51216,2
945,1979,1,1598,1598,2
946,1980,0,11720,646,2
947,1981,0,8514,3137,3
948,1983,0,2383,2335,2
949,1985,0,4881,3875,3
950,1992,0,2571,1691,2
951,1995,0,2335,1718,3
952,1996,0,4128,3285,3
953,2000,0,5567,542,2
