,ID,status,opt price,max price,visited
0,2,1,2743,2743,1254
1,16,1,3266,3266,968
2,21,1,4851,4851,1408
3,27,1,5890,5890,1122
4,28,1,3759,3759,803
5,36,1,3844,3844,1749
6,40,1,4997,4997,5511
7,49,1,6504,6504,1771
8,69,1,6561,6561,539
9,76,1,3773,3773,1771
10,90,1,2250,2250,1056
11,101,1,4877,4877,3784
12,103,1,30316,30316,154
13,107,1,8596,8596,2101
14,110,1,4349,4349,2519
15,114,1,7161,7161,4411
16,115,1,2877,2877,1617
17,122,1,5065,5065,2970
18,133,1,9086,9086,1309
19,136,1,4691,4691,1089
20,138,1,2802,2802,660
21,141,1,6203,6203,4499
22,151,1,4957,4957,2728
23,173,1,8052,8052,352
24,179,1,8807,8807,6743
25,181,1,8183,8183,5764
26,191,1,5256,5256,1991
27,196,1,5333,5333,2464
28,202,1,3316,3316,528
29,204,1,2997,2997,1947
30,206,1,7348,7348,8613
31,208,1,4500,4500,2739
32,218,1,3408,3408,2706
33,219,1,4694,4694,572
34,223,1,11415,11415,451
35,234,1,34848,34848,539
36,245,1,3436,3436,682
37,250,1,4326,4326,1881
38,251,1,4528,4528,1111
39,264,1,7528,7528,3333
40,268,1,3702,3702,946
41,271,1,7389,7389,2640
42,280,1,5812,5812,506
43,287,1,2560,2560,594
44,293,1,6378,6378,5280
45,304,1,21241,21241,550
46,305,1,8145,8145,1793
47,317,1,6133,6133,1804
48,333,1,8878,8878,2134
49,344,1,6738,6738,2453
50,346,1,9098,9098,5005
51,351,1,7983,7983,935
52,357,1,7399,7399,4983
53,359,1,3932,3932,1100
54,360,1,3105,3105,1331
55,365,1,3600,3600,924
56,377,1,3343,3343,1518
57,387,1,3652,3652,2453
58,388,1,5536,5536,3630
59,402,1,4920,4920,1672
60,419,1,6391,6391,1441
61,421,1,3193,3193,1375
62,427,1,4098,4098,3366
63,438,1,6533,6533,7095
64,439,1,6157,6157,2134
65,451,1,6401,6401,2409
66,452,1,5566,5566,2794
67,453,1,75019,75019,550
68,467,1,5386,5386,5104
69,468,1,6079,6079,4114
70,469,1,2979,2979,1595
71,474,1,7913,7913,2563
72,499,1,1684,1684,627
73,503,1,6540,6540,7249
74,506,1,6105,6105,5049
75,507,1,6696,6696,4070
76,508,1,4229,4229,2552
77,525,1,5556,5556,3333
78,528,1,9314,9314,9900
79,538,1,4865,4865,1155
80,541,1,6501,6501,4180
81,549,1,7100,7100,5621
82,552,1,3786,3786,2189
83,557,1,3245,3245,297
84,559,1,2402,2402,1815
85,564,1,1913,1913,352
86,568,1,5951,5951,880
87,594,1,7434,7434,3135
88,603,1,4770,4770,2717
89,608,1,5232,5232,1397
90,610,1,7824,7824,7414
91,619,1,7849,7849,5236
92,623,1,7227,7227,3784
93,625,1,6482,6482,3443
94,640,1,1484,1484,781
95,647,1,10195,10195,286
96,653,1,4002,4002,660
97,656,1,3017,3017,2662
98,660,1,6747,6747,1496
99,668,1,1213,1213,418
100,677,1,6229,6229,4807
101,720,1,2014,2014,231
102,721,1,2330,2330,990
103,723,1,4378,4378,1056
104,736,1,5998,5998,5357
105,739,1,4085,4085,2750
106,749,1,4153,4153,3168
107,762,1,4568,4568,869
108,768,1,6969,6969,5544
109,770,1,11600,11600,1287
110,771,1,11455,11455,11462
111,772,1,11897,11897,902
112,781,1,8476,8476,3729
113,783,1,4670,4670,1045
114,790,1,9832,9832,9009
115,794,1,4721,4721,3520
116,798,1,3628,3628,1694
117,803,1,4583,4583,1012
118,807,1,6268,6268,6468
119,810,1,2067,2067,1375
120,815,1,25862,25862,561
121,827,1,4734,4734,3223
122,828,1,3791,3791,1309
123,834,1,8013,8013,5236
124,842,1,8305,8305,297
125,844,1,5949,5949,4323
126,847,1,3424,3424,1925
127,877,1,5063,5063,2167
128,879,1,4895,4895,1089
129,884,1,6729,6729,2200
130,889,1,5481,5481,990
131,893,1,6637,6637,4334
132,895,1,5248,5248,1793
133,900,1,4814,4814,1606
134,904,1,1770,1770,462
135,906,1,8117,8117,5280
136,911,1,5485,5485,1925
137,915,1,6169,6169,3476
138,922,1,5655,5655,4466
139,931,1,7331,7331,6017
140,936,1,8608,8608,4598
141,951,1,1843,1843,682
142,962,1,7846,7846,6226
143,981,1,10288,10288,1925
144,984,1,6365,6365,3718
145,993,1,2560,2560,1496
146,1005,1,2738,2738,1353
147,1012,1,4412,4412,1023
148,1013,1,6214,6214,1441
149,1015,1,2528,2528,550
150,1027,1,7287,7287,2101
151,1028,1,1522,1522,429
152,1042,1,1780,1780,1463
153,1043,1,13473,13473,308
154,1046,1,2903,2903,1485
155,1054,1,1136,1136,726
156,1055,1,2976,2976,1573
157,1063,1,4512,4512,495
158,1064,1,4686,4686,1320
159,1068,1,6743,6743,2453
160,1082,1,9129,9129,5313
161,1083,1,6404,6404,3927
162,1086,1,4682,4682,627
163,1097,1,3855,3855,2002
164,1104,1,4878,4878,1584
165,1105,1,5984,5984,2167
166,1115,1,5255,5255,2090
167,1116,1,6041,6041,2057
168,1117,1,12647,12647,13838
169,1123,1,2702,2702,1298
170,1139,1,1367,1367,132
171,1168,1,6610,6610,297
172,1171,1,5352,5352,2211
173,1183,1,4801,4801,2728
174,1197,1,5726,5726,4268
175,1202,1,7576,7576,2310
176,1206,1,1078,1078,462
177,1222,1,13623,13623,7590
178,1230,1,7339,7339,1529
179,1231,1,6706,6706,1705
180,1236,1,5004,5004,1628
181,1241,1,6914,6914,1100
182,1254,1,4166,4166,3091
183,1270,1,2311,2311,605
184,1272,1,3945,3945,1397
185,1273,1,4147,4147,1177
186,1275,1,1411,1411,616
187,1280,1,7976,7976,2035
188,1286,1,1702,1702,220
189,1320,1,4964,4964,836
190,1326,1,7489,7489,2244
191,1330,1,3247,3247,1221
192,1347,1,3836,3836,2761
193,1348,1,4992,4992,3355
194,1361,1,6350,6350,3971
195,1363,1,6962,6962,2860
196,1368,1,4780,4780,2244
197,1378,1,7029,7029,5379
198,1381,1,4687,4687,3102
199,1396,1,4382,4382,814
200,1401,1,2097,2097,1320
201,1406,1,10270,10270,7447
202,1410,1,3302,3302,671
203,1423,1,2829,2829,88
204,1424,1,3311,3311,979
205,1426,1,7761,7761,759
206,1444,1,2165,2165,550
207,1448,1,5063,5063,3366
208,1467,1,5663,5663,1320
209,1473,1,3449,3449,891
210,1475,1,4923,4923,3718
211,1484,1,4820,4820,880
212,1487,1,3405,3405,1496
213,1492,1,5653,5653,2684
214,1499,1,243425,243425,1188
215,1501,1,4035,4035,1969
216,1529,1,2822,2822,1716
217,1536,1,6171,6171,4026
218,1541,1,8043,8043,12430
219,1543,1,5707,5707,1254
220,1544,1,3070,3070,429
221,1550,1,4490,4490,2717
222,1556,1,7990,7990,4763
223,1558,1,3352,3352,2541
224,1577,1,2256,2256,1034
225,1578,1,2240,2240,858
226,1580,1,5624,5624,4554
227,1597,1,2605,2605,1188
228,1613,1,5623,5623,5335
229,1630,1,1412,1412,440
230,1636,1,6385,6385,3322
231,1637,1,4089,4089,1342
232,1639,1,6847,6847,2783
233,1642,1,7452,7452,5797
234,1643,1,5840,5840,3696
235,1657,1,5559,5559,4015
236,1665,1,10439,10439,6567
237,1666,1,2226,2226,649
238,1672,1,3511,3511,2860
239,1673,1,3659,3659,1078
240,1674,1,4219,4219,3201
241,1679,1,7416,7416,7293
242,1681,1,5791,5791,1144
243,1682,1,7546,7546,3740
244,1687,1,6076,6076,4213
245,1690,1,5003,5003,352
246,1693,1,10029,10029,6534
247,1696,1,3710,3710,902
248,1698,1,4776,4776,330
249,1699,1,4180,4180,1551
250,1710,1,3407,3407,1144
251,1716,1,4796,4796,5533
252,1724,1,3986,3986,869
253,1731,1,3276,3276,737
254,1732,1,5105,5105,3212
255,1737,1,3267,3267,2981
256,1738,1,9254,9254,5269
257,1749,1,7657,7657,8943
258,1754,1,5155,5155,2387
259,1756,1,3926,3926,1364
260,1758,1,5896,5896,1870
261,1785,1,4336,4336,2508
262,1787,1,1319,1319,484
263,1788,1,4690,4690,2871
264,1791,1,6355,6355,3113
265,1794,1,8213,8213,3399
266,1805,1,3886,3886,2926
267,1826,1,6310,6310,2464
268,1830,1,2345,2345,462
269,1834,1,6538,6538,1925
270,1837,1,813,813,264
271,1843,1,3796,3796,2728
272,1848,1,8693,8693,7304
273,1861,1,5901,5901,2244
274,1864,1,3260,3260,363
275,1870,1,4671,4671,1573
276,1872,1,1525,1525,286
277,1874,1,5768,5768,4719
278,1875,1,4661,4661,638
279,1887,1,4711,4711,3036
280,1894,1,8173,8173,5060
281,1900,1,6335,6335,4983
282,1915,1,2545,2545,1364
283,1919,1,5672,5672,1144
284,1922,1,5746,5746,1210
285,1935,1,15275,15275,627
286,1940,1,2418,2418,594
287,1944,1,2220,2220,825
288,1945,1,4774,4774,1001
289,1949,1,10220,10220,1386
290,1951,1,7718,7718,5951
291,1953,1,4164,4164,2607
292,1967,1,2554,2554,2101
293,1975,1,3435,3435,66
294,1986,1,4761,4761,2904
295,1991,1,155890,155890,1881
