,ID,status,opt price,max price,visited
0,6,1,4823,4823,3584
1,15,1,1898,1898,448
2,17,1,7010,7010,4768
3,48,1,5814,5814,3984
4,58,1,2128,2128,2832
5,59,1,2666,2666,144
6,107,1,3598,3598,2160
7,123,1,3567,3567,2160
8,151,1,1852,1852,992
9,164,1,9085,9085,10640
10,168,1,3372,3372,1168
11,183,1,6445,6445,4256
12,224,1,6520,6520,1760
13,230,1,3158,3158,2384
14,237,1,2881,2881,432
15,242,1,2462,2462,1152
16,262,1,4575,4575,736
17,301,1,6480,6480,9712
18,357,1,2504,2504,1184
19,358,1,6229,6229,6512
20,364,1,5147,5147,1744
21,371,1,5741,5741,3584
22,397,1,7198,7198,5248
23,404,1,8490,8490,3648
24,446,1,5675,5675,7184
25,454,1,11557,11557,4400
26,463,1,2703,2703,1408
27,467,1,5460,5460,496
28,468,1,3923,3923,848
29,486,1,2982,2982,768
30,489,1,2200,2200,384
31,535,1,4139,4139,1904
32,538,1,2521,2521,1232
33,540,1,4579,4579,1328
34,546,1,6668,6668,272
35,557,1,2736,2736,320
36,576,1,5700,5700,1840
37,581,1,7450,7450,6432
38,586,1,4150,4150,672
39,599,1,4434,4434,1312
40,635,1,8021,8021,7584
41,636,1,9612,9612,4096
42,653,1,2320,2320,2848
43,662,1,21144,21144,1360
44,685,1,4980,4980,2256
45,706,1,5396,5396,6416
46,721,1,2984,2984,592
47,727,1,2886,2886,1600
48,731,1,2787,2787,2352
49,747,1,7802,7802,5264
50,762,1,1300,1300,336
51,779,1,3574,3574,512
52,802,1,3347,3347,1424
53,808,1,4062,4062,1808
54,824,1,3393,3393,944
55,834,1,3934,3934,3072
56,858,1,4891,4891,1024
57,868,1,4737,4737,1536
58,871,1,4402,4402,2352
59,879,1,5588,5588,4784
60,880,1,8350,8350,8944
61,890,1,11384,11384,9328
62,899,1,4851,4851,5984
63,901,1,5920,5920,176
64,910,1,4791,4791,4512
65,927,1,4136,4136,3312
66,929,1,7150,7150,2704
67,946,1,9424,9424,2528
68,976,1,5587,5587,5696
69,989,1,7181,7181,2336
70,1002,1,6686,6686,3392
71,1014,1,3477,3477,2352
72,1018,1,5329,5329,1472
73,1025,1,4151,4151,1232
74,1035,1,5023,5023,3312
75,1038,1,4578,4578,1344
76,1117,1,6819,6819,1152
77,1126,1,1759,1759,944
78,1130,1,4899,4899,2832
79,1136,1,3418,3418,2176
80,1179,1,2880,2880,1984
81,1185,1,3697,3697,3504
82,1200,1,3528,3528,1024
83,1203,1,10420,10420,976
84,1215,1,5656,5656,960
85,1216,1,5500,5500,912
86,1245,1,4859,4859,2000
87,1253,1,4716,4716,3424
88,1264,1,6929,6929,3600
89,1271,1,6796,6796,5168
90,1275,1,10807,10807,10032
91,1283,1,2899,2899,1600
92,1308,1,8092,8092,7808
93,1357,1,2190,2190,1184
94,1363,1,5134,5134,3200
95,1366,1,4424,4424,2608
96,1369,1,13999,13999,18544
97,1370,1,4174,4174,2000
98,1379,1,7933,7933,5984
99,1389,1,5898,5898,2064
100,1394,1,1243,1243,96
101,1400,1,1764,1764,640
102,1450,1,3170,3170,512
103,1465,1,6051,6051,1344
104,1466,1,5670,5670,5280
105,1469,1,2002,2002,336
106,1474,1,5445,5445,3200
107,1486,1,318,318,48
108,1491,1,5109,5109,400
109,1497,1,9443,9443,4016
110,1515,1,5065,5065,5376
111,1516,1,3302,3302,2752
112,1554,1,7526,7526,4736
113,1556,1,9114,9114,7248
114,1563,1,10757,10757,4112
115,1570,1,3980,3980,2272
116,1572,1,6740,6740,6208
117,1582,1,2587,2587,1568
118,1589,1,2498,2498,2112
119,1591,1,4151,4151,2688
120,1608,1,2994,2994,512
121,1620,1,2368,2368,656
122,1637,1,2778,2778,592
123,1646,1,2211,2211,544
124,1662,1,6117,6117,2928
125,1665,1,6007,6007,1696
126,1671,1,4083,4083,832
127,1679,1,2354,2354,368
128,1696,1,2769,2769,1088
129,1703,1,39088,39088,272
130,1713,1,6196,6196,2448
131,1734,1,6107,6107,1712
132,1743,1,11406,11406,12400
133,1758,1,10665,10665,2160
134,1777,1,4287,4287,3968
135,1786,1,4250,4250,4432
136,1796,1,2526,2526,448
137,1806,1,6593,6593,1632
138,1808,1,6825,6825,2688
139,1839,1,4106,4106,2144
140,1848,1,4790,4790,2064
141,1862,1,2453,2453,1504
142,1865,1,7534,7534,3040
143,1866,1,6648,6648,7536
144,1872,1,5008,5008,3456
145,1892,1,6764,6764,4160
146,1898,1,5990,5990,1200
147,1911,1,4862,4862,288
148,1918,1,5055,5055,3792
149,1926,1,4267,4267,2912
150,1969,1,4351,4351,3936
151,1989,1,7448,7448,8896
152,1998,1,8602,8602,14000
153,1999,1,4456,4456,912
