,ID,status,opt price,max price,visited
0,1,1,1207,1207,235
1,5,1,3037,3037,1220
2,6,1,2256,2256,60
3,8,1,8360,8360,755
4,12,1,3487,3487,470
5,18,1,3088,3088,515
6,19,1,6384,6384,2095
7,20,1,4919,4919,2290
8,21,1,6540,6540,270
9,22,1,1891,1891,710
10,24,1,11186,11186,1180
11,25,1,3927,3927,2865
12,26,1,10802,10802,1090
13,27,1,4267,4267,1400
14,28,1,12485,12485,535
15,29,1,3076,3076,1100
16,33,1,5474,5474,570
17,34,1,4834,4834,690
18,35,1,7649,7649,325
19,36,1,1630,1630,450
20,38,1,6232,6232,585
21,40,1,3855,3855,1315
22,41,1,10120,10120,330
23,45,1,5446,5446,1800
24,46,1,3611,3611,585
25,47,1,6193,6193,1255
26,48,1,9277,9277,315
27,50,1,177150,177150,380
28,53,1,4404,4404,1065
29,54,1,1681,1681,1050
30,55,1,4126,4126,2020
31,56,1,3541,3541,1350
32,58,1,3493,3493,590
33,59,1,7223,7223,1535
34,62,1,3508,3508,1615
35,66,1,6943,6943,670
36,67,1,4096,4096,1830
37,75,1,6970,6970,1300
38,77,1,6737,6737,1940
39,78,1,4362,4362,2160
40,80,1,8816,8816,660
41,84,1,2439,2439,220
42,86,1,8430,8430,780
43,87,1,3770,3770,1095
44,89,1,1354,1354,1225
45,93,1,4864,4864,655
46,94,1,2188,2188,1225
47,96,1,3538,3538,2185
48,97,1,4286,4286,785
49,98,1,1870,1870,1420
50,99,1,7178,7178,430
51,100,1,2710,2710,40
52,101,1,6154,6154,2475
53,103,1,17186,17186,205
54,105,1,3802,3802,1615
55,106,1,4266,4266,1575
56,108,1,4475,4475,1525
57,110,1,2464,2464,170
58,112,1,5917,5917,520
59,113,1,3668,3668,1575
60,115,1,7284,7284,1890
61,116,1,7144,7144,650
62,117,1,4480,4480,2030
63,122,1,5671,5671,1455
64,123,1,10052,10052,1260
65,124,1,7685,7685,295
66,125,1,5047,5047,1615
67,127,1,11043,11043,1080
68,128,1,3467,3467,225
69,129,1,8979,8979,1495
70,130,1,6068,6068,3005
71,133,1,1731,1731,630
72,134,1,4383,4383,960
73,135,1,4830,4830,2740
74,136,1,2352,2352,2205
75,137,1,3357,3357,2340
76,138,1,2457,2457,1110
77,146,1,4289,4289,1500
78,149,1,3424,3424,180
79,151,1,4445,4445,2405
80,152,1,3504,3504,635
81,153,1,1796,1796,665
82,154,1,3708,3708,1495
83,155,1,1935,1935,900
84,159,1,2877,2877,370
85,161,1,26832,26832,125
86,164,1,4295,4295,1320
87,165,1,2162,2162,460
88,166,1,5101,5101,665
89,167,1,3857,3857,820
90,170,1,2995,2995,1365
91,171,1,3381,3381,310
92,175,1,7038,7038,1495
93,176,1,2117,2117,730
94,184,1,4727,4727,2615
95,186,1,7881,7881,695
96,192,1,3681,3681,1230
97,194,1,1279,1279,70
98,196,1,2881,2881,585
99,200,1,3591,3591,1490
100,202,1,6925,6925,505
101,205,1,4170,4170,1015
102,208,1,3213,3213,965
103,209,1,2679,2679,1475
104,210,1,1018,1018,220
105,211,1,4617,4617,1715
106,213,1,3107,3107,1410
107,214,1,7740,7740,1205
108,217,1,1946,1946,815
109,218,1,1817,1817,480
110,219,1,7281,7281,505
111,220,1,2835,2835,1815
112,221,1,82810,82810,1055
113,223,1,5865,5865,1605
114,224,1,3014,3014,590
115,225,1,3861,3861,1085
116,226,1,5893,5893,70
117,227,1,2798,2798,120
118,228,1,10819,10819,1310
119,231,1,7190,7190,1960
120,232,1,5886,5886,2330
121,236,1,6441,6441,325
122,237,1,2269,2269,360
123,240,1,10966,10966,355
124,243,1,1770,1770,1180
125,244,1,24500,24500,250
126,246,1,4224,4224,940
127,248,1,4679,4679,1235
128,250,1,5359,5359,870
129,254,1,4055,4055,530
130,256,1,2501,2501,2225
131,259,1,4166,4166,985
132,263,1,2995,2995,1195
133,265,1,6424,6424,1580
134,266,1,1486,1486,370
135,267,1,3904,3904,1835
136,268,1,3658,3658,2380
137,269,1,6366,6366,2870
138,270,1,2064,2064,600
139,272,1,5270,5270,750
140,273,1,3481,3481,580
141,274,1,3044,3044,1625
142,275,1,4422,4422,1520
143,278,1,2112,2112,390
144,280,1,3915,3915,1885
145,281,1,2539,2539,600
146,282,1,4361,4361,80
147,283,1,5040,5040,875
148,287,1,1273,1273,950
149,291,1,1809,1809,635
150,293,1,4311,4311,890
151,296,1,1784,1784,955
152,298,1,4314,4314,1220
153,299,1,5815,5815,785
154,302,1,2569,2569,1020
155,303,1,3578,3578,380
156,305,1,4654,4654,2260
157,306,1,11736,11736,405
158,307,1,2661,2661,975
159,308,1,4425,4425,800
160,310,1,4631,4631,515
161,313,1,4867,4867,960
162,316,1,1483,1483,160
163,317,1,5870,5870,1725
164,318,1,6116,6116,250
165,319,1,14721,14721,540
166,320,1,2962,2962,2120
167,321,1,6226,6226,250
168,325,1,5728,5728,1495
169,327,1,167463,167463,695
170,328,1,4468,4468,1670
171,329,1,2924,2924,825
172,331,1,2982,2982,1205
173,335,1,3930,3930,1520
174,340,1,2643,2643,1495
175,341,1,2860,2860,1670
176,346,1,6083,6083,1735
177,351,1,6039,6039,2285
178,353,1,2534,2534,2365
179,354,1,3812,3812,290
180,357,1,3864,3864,1085
181,358,1,2856,2856,1120
182,359,1,3002,3002,1395
183,361,1,14144,14144,685
184,363,1,638,638,225
185,364,1,3053,3053,1155
186,367,1,4735,4735,1835
187,370,1,259327,259327,870
188,372,1,6988,6988,2215
189,373,1,3438,3438,1515
190,377,1,5295,5295,650
191,379,1,1978,1978,635
192,380,1,4875,4875,1305
193,383,1,3477,3477,340
194,387,1,2572,2572,895
195,388,1,4911,4911,970
196,391,1,4723,4723,3060
197,393,1,5188,5188,1995
198,397,1,5551,5551,1730
199,399,1,4348,4348,2005
200,400,1,3961,3961,1540
201,401,1,2097,2097,655
202,403,1,2594,2594,1250
203,404,1,4854,4854,2025
204,406,1,5607,5607,410
205,409,1,11142,11142,330
206,410,1,1928,1928,3160
207,417,1,4737,4737,1290
208,418,1,2345,2345,400
209,420,1,9280,9280,2305
210,421,1,4757,4757,2360
211,423,1,6426,6426,1265
212,424,1,3334,3334,990
213,426,1,3896,3896,455
214,427,1,3414,3414,1425
215,429,1,3019,3019,1415
216,430,1,4294,4294,1385
217,433,1,3723,3723,2140
218,434,1,1484,1484,1190
219,442,1,5827,5827,665
220,444,1,5913,5913,580
221,446,1,5117,5117,435
222,447,1,4248,4248,1895
223,449,1,6136,6136,1230
224,450,1,3186,3186,220
225,455,1,6806,6806,845
226,457,1,4659,4659,2575
227,458,1,2008,2008,840
228,459,1,7155,7155,145
229,462,1,3977,3977,1975
230,463,1,2622,2622,725
231,464,1,4399,4399,595
232,466,1,2209,2209,560
233,469,1,4187,4187,835
234,470,1,9878,9878,705
235,471,1,1407,1407,900
236,472,1,3268,3268,1560
237,473,1,2149,2149,440
238,474,1,5508,5508,1600
239,475,1,7925,7925,1930
240,478,1,4134,4134,1605
241,480,1,3983,3983,1865
242,482,1,2795,2795,200
243,486,1,2577,2577,195
244,490,1,4175,4175,1115
245,493,1,3290,3290,355
246,494,1,2668,2668,1815
247,498,1,2257,2257,705
248,499,1,11753,11753,640
249,500,1,3968,3968,1290
250,502,1,3698,3698,1370
251,504,1,4767,4767,2245
252,505,1,2551,2551,1230
253,507,1,4266,4266,995
254,508,1,3230,3230,1435
255,509,1,1283,1283,570
256,515,1,5359,5359,745
257,517,1,13334,13334,840
258,519,1,2427,2427,1535
259,520,1,6265,6265,1365
260,525,1,5253,5253,515
261,526,1,4279,4279,2150
262,527,1,1908,1908,1100
263,528,1,10314,10314,495
264,529,1,3377,3377,1020
265,532,1,5488,5488,75
266,534,1,5008,5008,1570
267,539,1,4264,4264,990
268,540,1,5737,5737,2665
269,543,1,3963,3963,935
270,544,1,3834,3834,1210
271,545,1,9414,9414,610
272,546,1,17424,17424,125
273,548,1,8180,8180,1060
274,549,1,4606,4606,940
275,550,1,7626,7626,975
276,551,1,7038,7038,1040
277,552,1,2147,2147,1520
278,554,1,5409,5409,485
279,556,1,11160,11160,1400
280,558,1,12579,12579,790
281,561,1,2729,2729,965
282,562,1,7048,7048,715
283,563,1,5097,5097,1685
284,564,1,3476,3476,1415
285,566,1,5610,5610,700
286,569,1,21447,21447,500
287,571,1,4225,4225,1150
288,572,1,9106,9106,380
289,573,1,4348,4348,1480
290,579,1,1346,1346,630
291,581,1,9509,9509,1355
292,583,1,5903,5903,2080
293,585,1,2626,2626,295
294,588,1,24388,24388,460
295,590,1,1140,1140,465
296,591,1,3902,3902,1520
297,592,1,6420,6420,80
298,602,1,2921,2921,995
299,605,1,956,956,275
300,607,1,1630,1630,165
301,608,1,2363,2363,795
302,610,1,2422,2422,795
303,612,1,5591,5591,795
304,615,1,2639,2639,2730
305,616,1,2682,2682,700
306,619,1,3490,3490,870
307,620,1,4256,4256,1315
308,621,1,2564,2564,910
309,622,1,2463,2463,1100
310,623,1,8615,8615,930
311,625,1,4919,4919,1615
312,628,1,2768,2768,2695
313,630,1,3747,3747,510
314,631,1,2577,2577,1005
315,632,1,3110,3110,2700
316,633,1,4906,4906,1110
317,635,1,2909,2909,1200
318,636,1,2446,2446,445
319,637,1,1967,1967,705
320,638,1,5944,5944,595
321,641,1,3688,3688,825
322,642,1,3710,3710,565
323,643,1,10619,10619,615
324,646,1,3428,3428,1205
325,647,1,550,550,295
326,649,1,4511,4511,905
327,650,1,4773,4773,1030
328,652,1,4668,4668,1995
329,656,1,3436,3436,335
330,658,1,10035,10035,2715
331,659,1,4439,4439,900
332,661,1,3245,3245,585
333,662,1,5961,5961,1405
334,666,1,2708,2708,815
335,669,1,3671,3671,385
336,670,1,1588,1588,910
337,671,1,2903,2903,930
338,673,1,11860,11860,105
339,674,1,3670,3670,335
340,675,1,4289,4289,1905
341,677,1,1632,1632,820
342,678,1,2242,2242,650
343,679,1,10173,10173,1215
344,681,1,4120,4120,1165
345,682,1,2700,2700,320
346,685,1,3126,3126,845
347,689,1,4957,4957,1940
348,694,1,2468,2468,1280
349,696,1,4179,4179,750
350,697,1,84084,84084,250
351,702,1,3359,3359,1570
352,703,1,9971,9971,315
353,707,1,2035,2035,960
354,711,1,75820,75820,175
355,712,1,32824,32824,225
356,713,1,800,800,975
357,715,1,3327,3327,1120
358,716,1,49329,49329,845
359,717,1,5015,5015,485
360,719,1,5819,5819,1490
361,720,1,2587,2587,75
362,721,1,3990,3990,200
363,723,1,5175,5175,1095
364,724,1,4740,4740,1150
365,726,1,3131,3131,1230
366,727,1,2582,2582,1560
367,729,1,2283,2283,215
368,730,1,5614,5614,835
369,737,1,4354,4354,1975
370,739,1,7412,7412,990
371,741,1,17690,17690,520
372,742,1,3754,3754,1720
373,743,1,2703,2703,320
374,744,1,5826,5826,1310
375,745,1,4813,4813,505
376,746,1,5764,5764,575
377,747,1,2407,2407,475
378,749,1,1914,1914,825
379,752,1,4054,4054,1910
380,754,1,3733,3733,1340
381,758,1,2354,2354,310
382,762,1,2975,2975,360
383,766,1,4086,4086,1500
384,769,1,2419,2419,345
385,773,1,3172,3172,1360
386,776,1,3923,3923,825
387,777,1,4776,4776,420
388,778,1,3057,3057,1360
389,779,1,7089,7089,2180
390,786,1,4334,4334,765
391,787,1,1417,1417,1555
392,788,1,3859,3859,635
393,790,1,2174,2174,1150
394,797,1,2714,2714,160
395,798,1,6802,6802,590
396,801,1,2683,2683,1800
397,803,1,4395,4395,2155
398,804,1,3199,3199,450
399,805,1,52047,52047,865
400,808,1,3168,3168,990
401,810,1,2942,2942,895
402,812,1,2041,2041,1250
403,813,1,2536,2536,875
404,818,1,5005,5005,1480
405,819,1,1895,1895,90
406,827,1,4104,4104,845
407,831,1,2472,2472,285
408,832,1,4624,4624,3275
409,833,1,1621,1621,780
410,834,1,2340,2340,225
411,836,1,6107,6107,1595
412,837,1,3171,3171,1435
413,838,1,926,926,835
414,839,1,4726,4726,1060
415,840,1,750,750,150
416,841,1,2740,2740,795
417,842,1,6940,6940,1505
418,843,1,2082,2082,705
419,845,1,7377,7377,2230
420,846,1,5651,5651,445
421,849,1,5884,5884,1715
422,850,1,4401,4401,1115
423,851,1,4554,4554,400
424,852,1,1451,1451,745
425,853,1,3003,3003,855
426,854,1,4543,4543,595
427,855,1,7537,7537,470
428,856,1,3644,3644,465
429,857,1,2374,2374,2650
430,858,1,4460,4460,450
431,862,1,3307,3307,420
432,863,1,2097,2097,625
433,865,1,5120,5120,1300
434,866,1,5921,5921,1915
435,868,1,2578,2578,1160
436,870,1,2495,2495,270
437,871,1,1426,1426,625
438,872,1,8837,8837,120
439,878,1,4177,4177,1915
440,879,1,4369,4369,1780
441,880,1,4629,4629,440
442,881,1,2704,2704,1100
443,882,1,2510,2510,540
444,887,1,2372,2372,770
445,889,1,4653,4653,2135
446,892,1,1406,1406,590
447,893,1,3982,3982,1525
448,895,1,3348,3348,600
449,898,1,4725,4725,1970
450,900,1,6199,6199,1870
451,902,1,3106,3106,1070
452,904,1,5284,5284,2115
453,906,1,6570,6570,1110
454,907,1,1476,1476,430
455,908,1,2510,2510,1345
456,911,1,2271,2271,945
457,912,1,2436,2436,720
458,915,1,2767,2767,1075
459,916,1,4821,4821,1510
460,917,1,10782,10782,1045
461,918,1,6586,6586,1255
462,919,1,6515,6515,2670
463,920,1,5660,5660,1890
464,922,1,4302,4302,1770
465,923,1,4730,4730,875
466,924,1,4270,4270,700
467,925,1,5310,5310,1010
468,926,1,4799,4799,1065
469,927,1,4896,4896,1845
470,929,1,4469,4469,1225
471,935,1,3142,3142,795
472,937,1,1692,1692,155
473,938,1,2736,2736,290
474,940,1,4509,4509,2270
475,946,1,7712,7712,235
476,948,1,3567,3567,280
477,950,1,5029,5029,365
478,952,1,2097,2097,665
479,956,1,2149,2149,480
480,957,1,6280,6280,2800
481,958,1,5081,5081,135
482,959,1,3845,3845,2850
483,960,1,5549,5549,3585
484,961,1,6909,6909,530
485,966,1,2877,2877,1485
486,969,1,4925,4925,955
487,970,1,5781,5781,2800
488,974,1,2372,2372,815
489,975,1,1080,1080,340
490,976,1,2027,2027,440
491,979,1,2117,2117,370
492,984,1,6220,6220,755
493,985,1,3531,3531,1925
494,989,1,2880,2880,1445
495,994,1,2053,2053,965
496,995,1,4192,4192,1565
497,997,1,9197,9197,1205
498,998,1,1721,1721,260
499,1000,1,7610,7610,2405
500,1001,1,2225,2225,1305
501,1003,1,5916,5916,2335
502,1008,1,5119,5119,2110
503,1009,1,8792,8792,345
504,1011,1,4304,4304,1385
505,1012,1,4680,4680,1915
506,1013,1,4669,4669,445
507,1018,1,3719,3719,1260
508,1019,1,7767,7767,1180
509,1021,1,24514,24514,1225
510,1022,1,2081,2081,1530
511,1023,1,3751,3751,230
512,1025,1,6073,6073,2300
513,1026,1,3184,3184,860
514,1028,1,9576,9576,50
515,1029,1,6703,6703,1955
516,1030,1,1995,1995,380
517,1034,1,2029,2029,335
518,1036,1,7812,7812,1265
519,1038,1,3329,3329,875
520,1040,1,5348,5348,1435
521,1042,1,8882,8882,1285
522,1044,1,3377,3377,1485
523,1048,1,3605,3605,1715
524,1050,1,3178,3178,970
525,1051,1,3717,3717,2360
526,1052,1,1813,1813,1815
527,1054,1,7021,7021,2710
528,1055,1,4201,4201,1845
529,1056,1,5151,5151,1440
530,1058,1,2986,2986,815
531,1061,1,4039,4039,1505
532,1068,1,3704,3704,1175
533,1070,1,2915,2915,2065
534,1071,1,3964,3964,1310
535,1072,1,5223,5223,1905
536,1073,1,31037,31037,480
537,1076,1,27295,27295,240
538,1080,1,10622,10622,160
539,1081,1,6249,6249,655
540,1082,1,1899,1899,1080
541,1086,1,2920,2920,650
542,1087,1,1555,1555,35
543,1089,1,3582,3582,1545
544,1092,1,3175,3175,685
545,1093,1,4713,4713,2805
546,1096,1,5475,5475,705
547,1100,1,3935,3935,540
548,1101,1,3429,3429,2035
549,1104,1,11576,11576,960
550,1105,1,3486,3486,1185
551,1106,1,42570,42570,455
552,1107,1,8385,8385,735
553,1109,1,2438,2438,1335
554,1110,1,5023,5023,265
555,1112,1,6477,6477,2545
556,1119,1,3717,3717,205
557,1124,1,2437,2437,65
558,1125,1,3820,3820,1330
559,1126,1,4569,4569,1925
560,1128,1,884,884,460
561,1129,1,4603,4603,2145
562,1132,1,3539,3539,1270
563,1137,1,3235,3235,1795
564,1138,1,4281,4281,1570
565,1141,1,3693,3693,630
566,1145,1,5322,5322,755
567,1147,1,4926,4926,1080
568,1148,1,5615,5615,665
569,1156,1,2657,2657,1320
570,1157,1,5135,5135,2550
571,1158,1,2971,2971,310
572,1159,1,14560,14560,165
573,1160,1,4326,4326,1720
574,1162,1,4303,4303,1785
575,1163,1,2232,2232,620
576,1164,1,2429,2429,1490
577,1165,1,3438,3438,800
578,1168,1,4051,4051,810
579,1171,1,2142,2142,1090
580,1173,1,3024,3024,1345
581,1174,1,3318,3318,1325
582,1176,1,1440,1440,685
583,1181,1,2088,2088,1135
584,1183,1,2744,2744,760
585,1184,1,6118,6118,1920
586,1185,1,3901,3901,1480
587,1186,1,5020,5020,860
588,1188,1,4815,4815,2240
589,1189,1,2675,2675,255
590,1191,1,4307,4307,1440
591,1193,1,4933,4933,210
592,1194,1,3982,3982,520
593,1195,1,3930,3930,1980
594,1196,1,5320,5320,965
595,1201,1,4956,4956,470
596,1202,1,8427,8427,565
597,1203,1,2933,2933,620
598,1204,1,2271,2271,285
599,1205,1,3785,3785,1880
600,1206,1,1588,1588,335
601,1208,1,6153,6153,190
602,1209,1,4711,4711,2450
603,1212,1,1395,1395,530
604,1216,1,2123,2123,1645
605,1217,1,3899,3899,705
606,1218,1,5167,5167,2255
607,1219,1,6255,6255,1300
608,1222,1,3670,3670,445
609,1225,1,3696,3696,565
610,1227,1,4909,4909,2240
611,1228,1,4299,4299,1340
612,1229,1,3397,3397,500
613,1230,1,4613,4613,2180
614,1231,1,5601,5601,1675
615,1232,1,3392,3392,1550
616,1236,1,5017,5017,280
617,1238,1,4846,4846,1890
618,1239,1,5439,5439,410
619,1240,1,6219,6219,1740
620,1245,1,4033,4033,1695
621,1246,1,6047,6047,2520
622,1247,1,3110,3110,1790
623,1248,1,3804,3804,1265
624,1252,1,2626,2626,600
625,1255,1,4276,4276,875
626,1257,1,4410,4410,1805
627,1258,1,2660,2660,1135
628,1259,1,3545,3545,1750
629,1261,1,4138,4138,1185
630,1266,1,3763,3763,520
631,1272,1,4420,4420,795
632,1278,1,5095,5095,755
633,1284,1,1817,1817,1090
634,1285,1,1960,1960,215
635,1291,1,3734,3734,125
636,1292,1,17569,17569,515
637,1293,1,2431,2431,2245
638,1294,1,8542,8542,1970
639,1295,1,4861,4861,965
640,1298,1,8352,8352,1365
641,1299,1,16852,16852,680
642,1304,1,4082,4082,885
643,1305,1,4796,4796,255
644,1307,1,4183,4183,455
645,1308,1,1893,1893,695
646,1312,1,2040,2040,190
647,1313,1,18030,18030,355
648,1314,1,270389,270389,670
649,1317,1,8861,8861,995
650,1320,1,4451,4451,2355
651,1321,1,6275,6275,1660
652,1324,1,7006,7006,470
653,1325,1,3309,3309,1590
654,1327,1,2475,2475,1055
655,1328,1,3235,3235,475
656,1332,1,3146,3146,885
657,1334,1,2197,2197,1005
658,1335,1,5983,5983,365
659,1337,1,8025,8025,380
660,1338,1,4503,4503,1740
661,1339,1,3009,3009,1800
662,1341,1,2957,2957,610
663,1342,1,4202,4202,1080
664,1344,1,4181,4181,1755
665,1347,1,6459,6459,910
666,1348,1,4989,4989,1765
667,1350,1,3083,3083,1035
668,1354,1,8085,8085,1050
669,1357,1,2144,2144,45
670,1358,1,2434,2434,985
671,1361,1,3918,3918,1990
672,1363,1,943,943,315
673,1364,1,2740,2740,535
674,1367,1,4097,4097,1945
675,1368,1,8764,8764,1080
676,1369,1,5640,5640,500
677,1370,1,1939,1939,640
678,1371,1,1002,1002,25
679,1372,1,2946,2946,295
680,1375,1,6350,6350,1485
681,1377,1,1665,1665,295
682,1380,1,2545,2545,1155
683,1383,1,2880,2880,985
684,1384,1,2572,2572,915
685,1385,1,3476,3476,1120
686,1386,1,3920,3920,635
687,1388,1,2011,2011,520
688,1390,1,5049,5049,680
689,1391,1,4785,4785,320
690,1393,1,5230,5230,2100
691,1394,1,6074,6074,1335
692,1396,1,646,646,115
693,1397,1,3344,3344,765
694,1400,1,9085,9085,855
695,1402,1,4753,4753,1055
696,1404,1,3890,3890,320
697,1405,1,2046,2046,770
698,1409,1,3166,3166,1690
699,1412,1,13840,13840,270
700,1414,1,3982,3982,175
701,1416,1,4230,4230,1340
702,1417,1,2929,2929,955
703,1423,1,3373,3373,1560
704,1425,1,1870,1870,890
705,1426,1,3031,3031,365
706,1429,1,4608,4608,1175
707,1432,1,6515,6515,1385
708,1439,1,1336,1336,65
709,1440,1,1005,1005,130
710,1443,1,3475,3475,1130
711,1444,1,3498,3498,1080
712,1445,1,19847,19847,475
713,1450,1,3482,3482,910
714,1451,1,1625,1625,345
715,1454,1,3300,3300,1320
716,1455,1,2207,2207,745
717,1457,1,2955,2955,520
718,1459,1,5153,5153,1535
719,1462,1,27227,27227,620
720,1464,1,3544,3544,2395
721,1465,1,1232,1232,415
722,1469,1,5367,5367,915
723,1476,1,7201,7201,575
724,1477,1,3458,3458,1720
725,1478,1,5268,5268,945
726,1480,1,3197,3197,1330
727,1482,1,2779,2779,440
728,1483,1,5831,5831,1110
729,1484,1,3399,3399,795
730,1486,1,11355,11355,1115
731,1487,1,4299,4299,410
732,1488,1,4277,4277,1785
733,1490,1,2757,2757,1055
734,1491,1,7713,7713,595
735,1493,1,4095,4095,1310
736,1495,1,5530,5530,3270
737,1498,1,5724,5724,1420
738,1502,1,3673,3673,1990
739,1503,1,4236,4236,1070
740,1505,1,3683,3683,835
741,1506,1,7729,7729,830
742,1510,1,2964,2964,1060
743,1511,1,1821,1821,460
744,1512,1,4041,4041,450
745,1516,1,11480,11480,530
746,1517,1,2073,2073,85
747,1521,1,8258,8258,375
748,1524,1,5639,5639,2035
749,1525,1,2601,2601,1155
750,1529,1,4640,4640,1615
751,1531,1,5788,5788,660
752,1532,1,6938,6938,590
753,1533,1,2241,2241,615
754,1534,1,1910,1910,1115
755,1535,1,7525,7525,1320
756,1537,1,6826,6826,1945
757,1539,1,5548,5548,275
758,1541,1,8751,8751,795
759,1549,1,5337,5337,2750
760,1550,1,5737,5737,2385
761,1551,1,5713,5713,2965
762,1553,1,6416,6416,1740
763,1554,1,3597,3597,1305
764,1555,1,2707,2707,815
765,1557,1,4045,4045,665
766,1566,1,4419,4419,1245
767,1568,1,2626,2626,810
768,1569,1,3668,3668,1495
769,1574,1,5050,5050,2590
770,1576,1,2198,2198,465
771,1577,1,2666,2666,1305
772,1578,1,5247,5247,700
773,1579,1,3986,3986,1400
774,1580,1,6271,6271,835
775,1586,1,2300,2300,1055
776,1587,1,3934,3934,1070
777,1589,1,4213,4213,445
778,1591,1,2666,2666,2505
779,1594,1,4205,4205,1515
780,1595,1,5034,5034,225
781,1596,1,3270,3270,1830
782,1598,1,2916,2916,725
783,1601,1,2628,2628,695
784,1603,1,4922,4922,675
785,1606,1,2006,2006,830
786,1608,1,3494,3494,960
787,1610,1,7470,7470,500
788,1614,1,2751,2751,115
789,1625,1,3669,3669,1590
790,1626,1,2713,2713,1250
791,1627,1,5618,5618,2750
792,1628,1,3474,3474,120
793,1630,1,1915,1915,1175
794,1632,1,2680,2680,2395
795,1633,1,6623,6623,2000
796,1634,1,3874,3874,1315
797,1636,1,5692,5692,1395
798,1638,1,3535,3535,550
799,1643,1,3055,3055,655
800,1644,1,2870,2870,1955
801,1646,1,3001,3001,1835
802,1647,1,1526,1526,540
803,1648,1,174002,174002,820
804,1649,1,3669,3669,445
805,1650,1,3578,3578,1925
806,1653,1,3792,3792,485
807,1654,1,2063,2063,830
808,1657,1,2751,2751,1060
809,1658,1,3113,3113,2160
810,1663,1,5816,5816,2205
811,1665,1,3339,3339,1915
812,1667,1,2696,2696,1680
813,1671,1,26004,26004,60
814,1681,1,7342,7342,1970
815,1682,1,2585,2585,170
816,1683,1,5844,5844,755
817,1685,1,5863,5863,95
818,1689,1,2531,2531,800
819,1691,1,2457,2457,860
820,1694,1,3817,3817,555
821,1695,1,3245,3245,1165
822,1700,1,3804,3804,1265
823,1702,1,5111,5111,1370
824,1703,1,4187,4187,930
825,1707,1,5730,5730,605
826,1708,1,3669,3669,2235
827,1709,1,3544,3544,1505
828,1710,1,7236,7236,1245
829,1711,1,4662,4662,880
830,1712,1,4670,4670,950
831,1714,1,3913,3913,1610
832,1717,1,8473,8473,1115
833,1720,1,1682,1682,855
834,1721,1,2968,2968,1785
835,1727,1,3651,3651,2365
836,1730,1,4047,4047,2315
837,1731,1,2669,2669,885
838,1732,1,4848,4848,320
839,1734,1,16575,16575,1130
840,1738,1,3508,3508,785
841,1739,1,8037,8037,925
842,1742,1,2324,2324,605
843,1743,1,4643,4643,930
844,1748,1,5931,5931,475
845,1750,1,2192,2192,965
846,1752,1,3755,3755,395
847,1756,1,3950,3950,1260
848,1760,1,3118,3118,1345
849,1766,1,3282,3282,1030
850,1767,1,5280,5280,2095
851,1772,1,3458,3458,2610
852,1773,1,4109,4109,985
853,1776,1,3461,3461,1805
854,1777,1,8296,8296,1025
855,1781,1,1722,1722,1540
856,1783,1,2393,2393,765
857,1785,1,5982,5982,2380
858,1790,1,5588,5588,2275
859,1792,1,3133,3133,975
860,1795,1,7928,7928,885
861,1796,1,1683,1683,965
862,1802,1,2747,2747,945
863,1807,1,4908,4908,725
864,1810,1,3672,3672,330
865,1812,1,7023,7023,230
866,1813,1,9660,9660,705
867,1815,1,23006,23006,285
868,1817,1,1377,1377,635
869,1819,1,2348,2348,785
870,1820,1,2275,2275,910
871,1823,1,4592,4592,705
872,1825,1,11116,11116,1455
873,1826,1,3960,3960,725
874,1827,1,2395,2395,210
875,1829,1,2358,2358,775
876,1830,1,4795,4795,1515
877,1831,1,5609,5609,2560
878,1832,1,2086,2086,945
879,1833,1,12451,12451,320
880,1834,1,6045,6045,1685
881,1835,1,3644,3644,470
882,1837,1,4974,4974,1935
883,1840,1,3452,3452,215
884,1843,1,13325,13325,1100
885,1844,1,9918,9918,950
886,1845,1,4995,4995,515
887,1846,1,3988,3988,2320
888,1850,1,2611,2611,840
889,1851,1,1040,1040,315
890,1852,1,1919,1919,1835
891,1854,1,4016,4016,1015
892,1857,1,3411,3411,1620
893,1862,1,4969,4969,430
894,1864,1,4864,4864,460
895,1865,1,4310,4310,1275
896,1866,1,3300,3300,1055
897,1867,1,5170,5170,1330
898,1868,1,3398,3398,1515
899,1869,1,1572,1572,980
900,1870,1,5002,5002,1680
901,1871,1,2646,2646,875
902,1873,1,4457,4457,310
903,1877,1,36518,36518,310
904,1883,1,3031,3031,1395
905,1884,1,8259,8259,170
906,1885,1,4001,4001,1260
907,1887,1,1617,1617,540
908,1889,1,2962,2962,705
909,1891,1,4684,4684,935
910,1893,1,5825,5825,955
911,1897,1,1747,1747,960
912,1899,1,3527,3527,810
913,1904,1,4164,4164,2000
914,1905,1,3002,3002,965
915,1909,1,6142,6142,1370
916,1910,1,4333,4333,1735
917,1911,1,4203,4203,1250
918,1912,1,3841,3841,1835
919,1913,1,2837,2837,1435
920,1916,1,4390,4390,755
921,1917,1,3813,3813,755
922,1922,1,3520,3520,1130
923,1923,1,6548,6548,1890
924,1925,1,3304,3304,505
925,1926,1,2381,2381,415
926,1927,1,1194,1194,860
927,1929,1,1966,1966,640
928,1930,1,2308,2308,1225
929,1932,1,1124,1124,180
930,1933,1,27127,27127,720
931,1935,1,4512,4512,1125
932,1936,1,4162,4162,140
933,1938,1,3874,3874,1585
934,1940,1,2068,2068,295
935,1941,1,6617,6617,1315
936,1944,1,2496,2496,980
937,1945,1,242379,242379,710
938,1946,1,4032,4032,1200
939,1952,1,2623,2623,1160
940,1956,1,2846,2846,55
941,1960,1,3311,3311,1665
942,1969,1,4882,4882,1660
943,1971,1,4428,4428,905
944,1974,1,51216,51216,335
945,1979,1,1598,1598,175
946,1980,1,11720,11720,640
947,1981,1,8514,8514,1555
948,1983,1,2383,2383,250
949,1985,1,4881,4881,2670
950,1992,1,2571,2571,925
951,1995,1,2335,2335,2130
952,1996,1,4128,4128,775
953,2000,1,5567,5567,570
