,ID,opt price,0.01 max price,0.01 err:,0.05 max price,0.05 err:,0.1 max price,0.1 err:,0.2 max price,0.2 err:
0,1,14216,14216,0.0,14216,0.0,14216,0.0,14216,0.0
1,2,17577,17577,0.0,17577,0.0,17577,0.0,17577,0.0
2,3,17732,17731,5.6395217685540266e-05,17731,5.6395217685540266e-05,17728,0.00022558087074216106,17731,5.6395217685540266e-05
3,4,17955,17955,0.0,17955,0.0,17955,0.0,17955,0.0
4,5,19153,19153,0.0,19153,0.0,19150,0.00015663342557301727,19153,0.0
5,6,18639,18639,0.0,18632,0.00037555662857449436,18638,5.365094693921348e-05,18624,0.0008047642040882022
6,7,17517,17517,0.0,17506,0.000627961408917052,17506,0.000627961408917052,17500,0.0009704858137808986
7,8,19246,19246,0.0,19233,0.0006754650316948977,19233,0.0006754650316948977,19222,0.0012470123662059649
8,9,19337,19337,0.0,19337,0.0,19337,0.0,19337,0.0
9,10,19075,19075,0.0,19071,0.00020969855832241152,19071,0.00020969855832241152,19071,0.00020969855832241152
10,11,18260,18260,0.0,18258,0.0001095290251916758,18258,0.0001095290251916758,18258,0.0001095290251916758
11,12,17604,17604,0.0,17604,0.0,17604,0.0,17596,0.0004544421722335833
12,13,19951,19951,0.0,19948,0.00015036840258633654,19951,0.0,19930,0.0010525788181043557
13,14,20808,20808,0.0,20808,0.0,20808,0.0,20787,0.0010092272202998846
14,15,17069,17069,0.0,17069,0.0,17069,0.0,17069,0.0
15,16,16109,16109,0.0,16109,0.0,16109,0.0,16109,0.0
16,17,16105,16105,0.0,16105,0.0,16105,0.0,16105,0.0
17,18,18565,18565,0.0,18565,0.0,18558,0.00037705359547535687,18558,0.00037705359547535687
18,19,16955,16955,0.0,16955,0.0,16955,0.0,16955,0.0
19,20,17788,17788,0.0,17788,0.0,17788,0.0,17788,0.0
20,21,16942,16942,0.0,16942,0.0,16942,0.0,16942,0.0
21,22,16351,16351,0.0,16351,0.0,16351,0.0,16351,0.0
22,23,17502,17502,0.0,17502,0.0,17502,0.0,17494,0.0004570906182150611
23,24,17746,17746,0.0,17742,0.00022540290769750929,17742,0.00022540290769750929,17742,0.00022540290769750929
24,25,18397,18397,0.0,18397,0.0,18388,0.0004892101973147795,18388,0.0004892101973147795
25,26,20511,20511,0.0,20511,0.0,20505,0.000292525961679099,20511,0.0
26,27,15783,15783,0.0,15778,0.0003167965532535006,15783,0.0,15770,0.0008236710384591016
27,28,19217,19217,0.0,19217,0.0,19217,0.0,19207,0.0005203725867721289
28,29,20082,20082,0.0,20082,0.0,20082,0.0,20056,0.001294691763768549
29,30,18708,18708,0.0,18708,0.0,18708,0.0,18705,0.00016035920461834508
30,31,17120,17120,0.0,17120,0.0,17120,0.0,17120,0.0
31,32,15384,15384,0.0,15384,0.0,15384,0.0,15384,0.0
32,33,19894,19894,0.0,19891,0.00015079923595053785,19891,0.00015079923595053785,19877,0.0008545290037197145
33,34,18354,18354,0.0,18351,0.00016345210853220007,18340,0.0007627765064836003,18331,0.0012531328320802004
34,35,16359,16359,0.0,16359,0.0,16359,0.0,16359,0.0
35,36,16032,16032,0.0,16032,0.0,16032,0.0,16011,0.001309880239520958
36,37,19596,19596,0.0,19596,0.0,19596,0.0,19582,0.0007144315166360481
37,38,18499,18499,0.0,18499,0.0,18491,0.0004324558084220769,18491,0.0004324558084220769
38,39,15114,15114,0.0,15114,0.0,15114,0.0,15104,0.000661638216223369
39,40,18247,18247,0.0,18247,0.0,18239,0.0004384282347783197,18247,0.0
40,41,18615,18615,0.0,18615,0.0,18615,0.0,18615,0.0
41,42,19768,19768,0.0,19768,0.0,19766,0.00010117361392148928,19744,0.0012140833670578712
42,43,15525,15525,0.0,15521,0.0002576489533011272,15518,0.00045088566827697265,15510,0.000966183574879227
43,44,19200,19200,0.0,19193,0.00036458333333333335,19193,0.00036458333333333335,19189,0.0005729166666666667
44,45,17643,17643,0.0,17642,5.667970299835629e-05,17642,5.667970299835629e-05,17642,5.667970299835629e-05
45,46,19624,19624,0.0,19624,0.0,19624,0.0,19598,0.0013249082755809212
46,47,17692,17692,0.0,17692,0.0,17692,0.0,17692,0.0
47,48,18581,18581,0.0,18581,0.0,18581,0.0,18581,0.0
48,49,18111,18111,0.0,18111,0.0,18101,0.0005521506266909613,18099,0.0006625807520291535
49,50,20257,20257,0.0,20257,0.0,20247,0.0004936565137976996,20225,0.0015797008441526385
50,51,17120,17120,0.0,17120,0.0,17120,0.0,17110,0.0005841121495327102
51,52,17627,17627,0.0,17627,0.0,17627,0.0,17627,0.0
52,53,19893,19893,0.0,19888,0.00025134469411350726,19879,0.0007037651435178203,19888,0.00025134469411350726
53,54,15322,15322,0.0,15322,0.0,15322,0.0,15322,0.0
54,55,19300,19300,0.0,19298,0.00010362694300518135,19298,0.00010362694300518135,19299,5.1813471502590674e-05
55,56,19280,19280,0.0,19275,0.00025933609958506224,19273,0.00036307053941908715,19275,0.00025933609958506224
56,57,15743,15743,0.0,15743,0.0,15743,0.0,15743,0.0
57,58,20055,20055,0.0,20055,0.0,20055,0.0,20023,0.0015956120668162554
58,59,18219,18219,0.0,18219,0.0,18219,0.0,18219,0.0
59,60,18544,18544,0.0,18544,0.0,18540,0.00021570319240724764,18509,0.0018874029335634167
60,61,16941,16941,0.0,16941,0.0,16941,0.0,16941,0.0
61,62,19086,19085,5.239442523315519e-05,19085,5.239442523315519e-05,19069,0.0008907052289636383,19062,0.0012574662055957245
62,63,17580,17580,0.0,17580,0.0,17580,0.0,17566,0.0007963594994311718
63,64,16315,16315,0.0,16314,6.129328838492186e-05,16314,6.129328838492186e-05,16314,6.129328838492186e-05
64,65,19217,19217,0.0,19209,0.0004162980694177031,19209,0.0004162980694177031,19198,0.0009887079148670449
65,66,17210,17210,0.0,17207,0.00017431725740848345,17199,0.0006391632771644393,17199,0.0006391632771644393
66,67,16847,16847,0.0,16847,0.0,16847,0.0,16847,0.0
67,68,17607,17607,0.0,17607,0.0,17588,0.0010791162605781792,17607,0.0
68,69,14952,14952,0.0,14952,0.0,14952,0.0,14939,0.0008694489031567683
69,70,19274,19274,0.0,19274,0.0,19274,0.0,19274,0.0
70,71,17500,17500,0.0,17496,0.00022857142857142857,17496,0.00022857142857142857,17496,0.00022857142857142857
71,72,16034,16034,0.0,16033,6.236746912810279e-05,16033,6.236746912810279e-05,16033,6.236746912810279e-05
72,73,18663,18662,5.3581953598028186e-05,18659,0.00021432781439211274,18649,0.0007501473503723946,18649,0.0007501473503723946
73,74,20118,20118,0.0,20118,0.0,20118,0.0,20118,0.0
74,75,19147,19147,0.0,19147,0.0,19147,0.0,19124,0.0012012325690708727
75,76,14031,14031,0.0,14031,0.0,14020,0.0007839783336896872,14020,0.0007839783336896872
76,77,19763,19763,0.0,19759,0.00020239842129231392,19759,0.00020239842129231392,19759,0.00020239842129231392
77,78,16363,16363,0.0,16363,0.0,16363,0.0,16363,0.0
78,79,16378,16378,0.0,16378,0.0,16371,0.0004274026132616925,16371,0.0004274026132616925
79,80,18280,18280,0.0,18280,0.0,18280,0.0,18259,0.001148796498905908
80,81,17292,17292,0.0,17292,0.0,17292,0.0,17292,0.0
81,82,18709,18709,0.0,18709,0.0,18709,0.0,18709,0.0
82,83,18914,18914,0.0,18914,0.0,18901,0.0006873215607486518,18910,0.00021148355715343132
83,84,16351,16351,0.0,16351,0.0,16348,0.0001834750168185432,16333,0.0011008501009112592
84,85,20814,20814,0.0,20814,0.0,20814,0.0,20814,0.0
85,86,17089,17089,0.0,17089,0.0,17089,0.0,17076,0.0007607232722804143
86,87,17501,17501,0.0,17501,0.0,17501,0.0,17501,0.0
87,88,17373,17373,0.0,17373,0.0,17373,0.0,17373,0.0
88,89,16146,16146,0.0,16146,0.0,16146,0.0,16130,0.0009909575126966432
89,90,16123,16123,0.0,16123,0.0,16123,0.0,16108,0.0009303479501333499
90,91,18078,18078,0.0,18072,0.00033189512114171923,18065,0.0007191060958070583,18065,0.0007191060958070583
91,92,19459,19459,0.0,19459,0.0,19443,0.0008222416362608562,19455,0.00020556040906521405
92,93,16488,16488,0.0,16488,0.0,16488,0.0,16488,0.0
93,94,17105,17105,0.0,17105,0.0,17098,0.00040923706518561825,17098,0.00040923706518561825
94,95,17243,17243,0.0,17243,0.0,17243,0.0,17220,0.0013338746157861162
95,96,16188,16188,0.0,16188,0.0,16188,0.0,16174,0.0008648381517173215
96,97,15212,15212,0.0,15207,0.00032868787799105966,15199,0.0008545884827767552,15199,0.0008545884827767552
97,98,19277,19277,0.0,19277,0.0,19276,5.187529179851637e-05,19276,5.187529179851637e-05
98,99,18137,18137,0.0,18133,0.0002205436400727794,18134,0.00016540773005458456,18110,0.001488669570491261
99,100,18640,18640,0.0,18640,0.0,18640,0.0,18622,0.0009656652360515021
100,101,18950,18950,0.0,18950,0.0,18950,0.0,18938,0.000633245382585752
101,102,17638,17638,0.0,17638,0.0,17632,0.0003401746229731262,17619,0.0010772196394148996
102,103,18760,18760,0.0,18759,5.3304904051172706e-05,18753,0.00037313432835820896,18753,0.00037313432835820896
103,104,18762,18762,0.0,18762,0.0,18762,0.0,18749,0.0006928898838076964
104,105,18306,18306,0.0,18306,0.0,18306,0.0,18291,0.0008194034742707309
105,106,18372,18372,0.0,18372,0.0,18372,0.0,18363,0.0004898758981058132
106,107,16545,16545,0.0,16545,0.0,16545,0.0,16513,0.001934119069205198
107,108,18053,18053,0.0,18053,0.0,18053,0.0,18051,0.00011078491109510885
108,109,14741,14741,0.0,14741,0.0,14741,0.0,14741,0.0
109,110,16221,16221,0.0,16221,0.0,16221,0.0,16221,0.0
110,111,15863,15863,0.0,15863,0.0,15844,0.0011977557838996407,15832,0.0019542331210994136
111,112,18426,18426,0.0,18426,0.0,18426,0.0,18419,0.000379897970259416
112,113,18329,18329,0.0,18329,0.0,18329,0.0,18323,0.0003273501009329478
113,114,16671,16671,0.0,16671,0.0,16671,0.0,16663,0.0004798752324395657
114,115,19527,19527,0.0,19527,0.0,19527,0.0,19527,0.0
115,116,17766,17766,0.0,17766,0.0,17766,0.0,17766,0.0
116,117,17900,17900,0.0,17900,0.0,17900,0.0,17900,0.0
117,118,17511,17511,0.0,17511,0.0,17511,0.0,17511,0.0
118,119,17642,17642,0.0,17642,0.0,17629,0.0007368779049994332,17629,0.0007368779049994332
119,120,19730,19730,0.0,19730,0.0,19730,0.0,19730,0.0
120,121,15045,15045,0.0,15045,0.0,15045,0.0,15031,0.0009305417082087072
121,122,18111,18111,0.0,18111,0.0,18111,0.0,18092,0.0010490861907128265
122,123,19040,19040,0.0,19040,0.0,19038,0.0001050420168067227,19038,0.0001050420168067227
123,124,16878,16878,0.0,16878,0.0,16867,0.000651735987676265,16867,0.000651735987676265
124,125,17393,17393,0.0,17393,0.0,17393,0.0,17393,0.0
125,126,19067,19067,0.0,19062,0.00026223317774164785,19062,0.00026223317774164785,19067,0.0
126,127,14112,14112,0.0,14111,7.086167800453515e-05,14107,0.00035430839002267573,14100,0.0008503401360544217
127,128,17438,17438,0.0,17438,0.0,17438,0.0,17431,0.000401422181442826
128,129,16212,16212,0.0,16212,0.0,16212,0.0,16212,0.0
129,130,17622,17622,0.0,17622,0.0,17619,0.00017024174327545113,17601,0.001191692202928158
130,131,21580,21580,0.0,21580,0.0,21580,0.0,21580,0.0
131,132,17126,17126,0.0,17126,0.0,17126,0.0,17126,0.0
132,133,19196,19196,0.0,19196,0.0,19193,0.0001562825588664305,19190,0.000312565117732861
133,134,16734,16734,0.0,16731,0.00017927572606669058,16731,0.00017927572606669058,16731,0.00017927572606669058
134,135,17896,17896,0.0,17896,0.0,17896,0.0,17896,0.0
135,136,18404,18404,0.0,18404,0.0,18404,0.0,18397,0.00038035209737013694
136,137,17428,17428,0.0,17428,0.0,17428,0.0,17428,0.0
137,138,16080,16080,0.0,16080,0.0,16080,0.0,16080,0.0
138,139,18581,18581,0.0,18581,0.0,18581,0.0,18568,0.0006996394166083634
139,140,18917,18917,0.0,18917,0.0,18917,0.0,18917,0.0
140,141,18796,18796,0.0,18796,0.0,18796,0.0,18796,0.0
141,142,19065,19065,0.0,19062,0.00015735641227380016,19062,0.00015735641227380016,19062,0.00015735641227380016
142,143,17367,17367,0.0,17367,0.0,17350,0.0009788679679852595,17327,0.0023032187482006105
143,144,16426,16426,0.0,16422,0.00024351637647631802,16422,0.00024351637647631802,16422,0.00024351637647631802
144,145,17805,17805,0.0,17800,0.0002808199943836001,17800,0.0002808199943836001,17792,0.0007301319853973602
145,146,18139,18139,0.0,18138,5.5129830751419594e-05,18136,0.00016538949225425878,18111,0.0015436352610397486
146,147,16843,16843,0.0,16843,0.0,16843,0.0,16843,0.0
147,148,19708,19708,0.0,19708,0.0,19708,0.0,19708,0.0
148,149,21110,21110,0.0,21102,0.00037896731406916154,21102,0.00037896731406916154,21085,0.0011842728564661299
149,150,18316,18316,0.0,18315,5.4597073596855206e-05,18315,5.4597073596855206e-05,18316,0.0
150,151,18466,18466,0.0,18466,0.0,18466,0.0,18466,0.0
151,152,17295,17295,0.0,17284,0.0006360219716681121,17284,0.0006360219716681121,17267,0.0016189650187915584
152,153,16173,16173,0.0,16173,0.0,16173,0.0,16173,0.0
153,154,15601,15601,0.0,15601,0.0,15593,0.0005127876418178322,15593,0.0005127876418178322
154,155,18024,18024,0.0,18024,0.0,18014,0.0005548158011540169,18007,0.0009431868619618287
155,156,17278,17278,0.0,17274,0.00023150827642088204,17274,0.00023150827642088204,17275,0.00017363120731566154
156,157,17085,17085,0.0,17080,0.000292654375182909,17084,5.85308750365818e-05,17084,5.85308750365818e-05
157,158,17007,17007,0.0,17002,0.0002939965896395602,16988,0.0011171870406303287,16988,0.0011171870406303287
158,159,18284,18284,0.0,18284,0.0,18284,0.0,18261,0.0012579304309779042
159,160,21400,21400,0.0,21398,9.345794392523364e-05,21398,9.345794392523364e-05,21400,0.0
160,161,14823,14823,0.0,14823,0.0,14823,0.0,14823,0.0
161,162,15507,15507,0.0,15507,0.0,15507,0.0,15507,0.0
162,163,16637,16637,0.0,16637,0.0,16637,0.0,16637,0.0
163,164,19424,19424,0.0,19424,0.0,19417,0.00036037891268533774,19417,0.00036037891268533774
164,165,15437,15437,0.0,15437,0.0,15437,0.0,15437,0.0
165,166,20274,20274,0.0,20268,0.0002959455460195324,20271,0.0001479727730097662,20252,0.0010851336687382855
166,167,16532,16532,0.0,16532,0.0,16532,0.0,16529,0.00018146624727800629
167,168,22195,22195,0.0,22195,0.0,22195,0.0,22195,0.0
168,169,20135,20135,0.0,20135,0.0,20131,0.00019865905140302955,20135,0.0
169,170,19925,19925,0.0,19920,0.0002509410288582183,19920,0.0002509410288582183,19906,0.0009535759096612296
170,171,19811,19811,0.0,19805,0.0003028620463378931,19808,0.00015143102316894655,19805,0.0003028620463378931
171,172,17848,17848,0.0,17843,0.0002801434334379202,17839,0.0005042581801882564,17839,0.0005042581801882564
172,173,15920,15920,0.0,15913,0.0004396984924623116,15908,0.0007537688442211055,15899,0.0013190954773869346
173,174,15812,15812,0.0,15812,0.0,15812,0.0,15785,0.0017075638755375663
174,175,16373,16373,0.0,16373,0.0,16373,0.0,16344,0.0017712086972454652
175,176,15533,15532,6.437906392841049e-05,15532,6.437906392841049e-05,15532,6.437906392841049e-05,15532,6.437906392841049e-05
176,177,20886,20886,0.0,20882,0.00019151584793641673,20882,0.00019151584793641673,20867,0.0009097002776979795
177,178,19684,19684,0.0,19684,0.0,19684,0.0,19667,0.0008636456004877058
178,179,19591,19591,0.0,19591,0.0,19591,0.0,19591,0.0
179,180,20081,20081,0.0,20078,0.00014939495045067477,20078,0.00014939495045067477,20065,0.0007967730690702654
180,181,19375,19375,0.0,19375,0.0,19365,0.0005161290322580645,19365,0.0005161290322580645
181,182,18840,18840,0.0,18840,0.0,18840,0.0,18840,0.0
182,183,18233,18233,0.0,18231,0.00010969121921790161,18231,0.00010969121921790161,18232,5.4845609608950804e-05
183,184,18526,18526,0.0,18525,5.397819281010472e-05,18524,0.00010795638562020944,18511,0.0008096728921515707
184,185,16423,16423,0.0,16423,0.0,16423,0.0,16423,0.0
185,186,18284,18284,0.0,18278,0.00032815576460293154,18278,0.00032815576460293154,18278,0.00032815576460293154
186,187,18480,18480,0.0,18480,0.0,18480,0.0,18468,0.0006493506493506494
187,188,20115,20115,0.0,20115,0.0,20115,0.0,20104,0.0005468555804126274
188,189,18340,18339,5.452562704471101e-05,18339,5.452562704471101e-05,18332,0.0004362050163576881,18328,0.0006543075245365322
189,190,16969,16969,0.0,16969,0.0,16969,0.0,16969,0.0
190,191,17216,17216,0.0,17212,0.00023234200743494423,17212,0.00023234200743494423,17198,0.001045539033457249
191,192,21368,21368,0.0,21368,0.0,21359,0.0004211905653313366,21359,0.0004211905653313366
192,193,18008,18008,0.0,18008,0.0,18008,0.0,18004,0.0002221235006663705
193,194,17106,17106,0.0,17099,0.00040921314158774697,17106,0.0,17086,0.00116918040453642
194,195,17592,17592,0.0,17592,0.0,17592,0.0,17583,0.0005115961800818554
195,196,19010,19010,0.0,19010,0.0,19010,0.0,19010,0.0
196,197,16314,16314,0.0,16313,6.129704548240775e-05,16313,6.129704548240775e-05,16311,0.00018389113644722325
197,198,18679,18679,0.0,18679,0.0,18679,0.0,18679,0.0
198,199,16124,16124,0.0,16124,0.0,16124,0.0,16124,0.0
199,200,16010,16010,0.0,16010,0.0,16006,0.00024984384759525296,16004,0.00037476577139287947
200,201,16996,16996,0.0,16996,0.0,16996,0.0,16996,0.0
201,202,15626,15626,0.0,15623,0.00019198771278638167,15623,0.00019198771278638167,15623,0.00019198771278638167
202,203,17201,17201,0.0,17201,0.0,17201,0.0,17201,0.0
203,204,18588,18588,0.0,18588,0.0,18588,0.0,18579,0.0004841833440929632
204,205,18342,18342,0.0,18340,0.00010903936321011885,18329,0.0007087558608657726,18329,0.0007087558608657726
205,206,17992,17992,0.0,17992,0.0,17992,0.0,17992,0.0
206,207,16914,16914,0.0,16914,0.0,16914,0.0,16914,0.0
207,208,15791,15791,0.0,15791,0.0,15791,0.0,15791,0.0
208,209,14603,14603,0.0,14603,0.0,14603,0.0,14603,0.0
209,210,18680,18680,0.0,18680,0.0,18680,0.0,18680,0.0
210,211,17414,17414,0.0,17414,0.0,17414,0.0,17414,0.0
211,212,15867,15867,0.0,15867,0.0,15867,0.0,15864,0.00018907165815844205
212,213,16851,16851,0.0,16851,0.0,16841,0.0005934365913002195,16841,0.0005934365913002195
213,214,19258,19257,5.1926472115484474e-05,19257,5.1926472115484474e-05,19258,0.0,19255,0.00015577941634645342
214,215,19209,19209,0.0,19209,0.0,19204,0.0002602946535478161,19204,0.0002602946535478161
215,216,19535,19535,0.0,19535,0.0,19535,0.0,19535,0.0
216,217,15748,15748,0.0,15748,0.0,15748,0.0,15748,0.0
217,218,17848,17848,0.0,17848,0.0,17848,0.0,17848,0.0
218,219,17758,17758,0.0,17753,0.00028156323910350265,17753,0.00028156323910350265,17742,0.0009010023651312085
219,220,15444,15444,0.0,15444,0.0,15444,0.0,15444,0.0
220,221,15488,15488,0.0,15488,0.0,15488,0.0,15484,0.00025826446280991736
221,222,19793,19793,0.0,19793,0.0,19791,0.00010104582428131157,19792,5.052291214065579e-05
222,223,16778,16778,0.0,16778,0.0,16778,0.0,16778,0.0
223,224,18390,18390,0.0,18390,0.0,18390,0.0,18390,0.0
224,225,19193,19193,0.0,19193,0.0,19187,0.00031261397384463086,19173,0.0010420465794821027
225,226,21471,21471,0.0,21471,0.0,21471,0.0,21458,0.0006054678403427879
226,227,16301,16301,0.0,16301,0.0,16301,0.0,16295,0.0003680755781853874
227,228,14068,14068,0.0,14068,0.0,14068,0.0,14038,0.0021324992891669035
228,229,20092,20092,0.0,20092,0.0,20083,0.00044793947839936294,20083,0.00044793947839936294
229,230,17144,17144,0.0,17139,0.0002916472235184321,17139,0.0002916472235184321,17129,0.0008749416705552964
230,231,16791,16791,0.0,16791,0.0,16791,0.0,16791,0.0
231,232,18305,18305,0.0,18305,0.0,18305,0.0,18305,0.0
232,233,16398,16398,0.0,16398,0.0,16398,0.0,16398,0.0
233,234,18938,18938,0.0,18938,0.0,18938,0.0,18938,0.0
234,235,17848,17848,0.0,17848,0.0,17848,0.0,17848,0.0
235,236,17581,17581,0.0,17581,0.0,17581,0.0,17581,0.0
236,237,17997,17997,0.0,17994,0.0001666944490748458,17994,0.0001666944490748458,17997,0.0
237,238,19256,19256,0.0,19256,0.0,19256,0.0,19256,0.0
238,239,20062,20062,0.0,20062,0.0,20048,0.0006978367062107466,20047,0.0007476821852258
239,240,19443,19443,0.0,19442,5.1432392120557526e-05,19442,5.1432392120557526e-05,19436,0.0003600267448439027
240,241,16113,16113,0.0,16113,0.0,16113,0.0,16109,0.00024824675727673306
241,242,21998,21998,0.0,21998,0.0,21998,0.0,21998,0.0
242,243,18533,18533,0.0,18533,0.0,18527,0.00032374682997895647,18517,0.0008633248799438839
243,244,13595,13595,0.0,13595,0.0,13595,0.0,13595,0.0
244,245,16436,16436,0.0,16436,0.0,16436,0.0,16436,0.0
245,246,19804,19804,0.0,19804,0.0,19804,0.0,19777,0.0013633609371844072
246,247,19665,19665,0.0,19665,0.0,19665,0.0,19654,0.0005593694380879735
247,248,15263,15263,0.0,15263,0.0,15263,0.0,15263,0.0
248,249,19640,19640,0.0,19640,0.0,19633,0.0003564154786150713,19620,0.0010183299389002036
249,250,19263,19263,0.0,19261,0.00010382598764470748,19261,0.00010382598764470748,19256,0.00036339095675647613
250,251,15304,15304,0.0,15304,0.0,15304,0.0,15297,0.0004573967590172504
251,252,17895,17895,0.0,17895,0.0,17895,0.0,17895,0.0
252,253,16109,16109,0.0,16109,0.0,16109,0.0,16109,0.0
253,254,16287,16287,0.0,16287,0.0,16287,0.0,16287,0.0
254,255,20382,20382,0.0,20382,0.0,20380,9.812579727210283e-05,20382,0.0
255,256,16875,16875,0.0,16875,0.0,16875,0.0,16875,0.0
256,257,17528,17528,0.0,17528,0.0,17515,0.0007416704701049749,17528,0.0
257,258,17704,17704,0.0,17704,0.0,17691,0.0007342973339358337,17691,0.0007342973339358337
258,259,18602,18602,0.0,18602,0.0,18602,0.0,18590,0.0006450919255993979
259,260,16969,16969,0.0,16964,0.0002946549590429607,16964,0.0002946549590429607,16964,0.0002946549590429607
260,261,18876,18876,0.0,18876,0.0,18859,0.0009006145369781733,18861,0.0007946598855689765
261,262,14071,14071,0.0,14071,0.0,14071,0.0,14062,0.0006396133892402814
262,263,16993,16993,0.0,16993,0.0,16993,0.0,16993,0.0
263,264,18647,18647,0.0,18647,0.0,18647,0.0,18645,0.00010725585885128976
264,265,18694,18694,0.0,18694,0.0,18694,0.0,18681,0.0006954102920723226
265,266,17911,17911,0.0,17911,0.0,17911,0.0,17911,0.0
266,267,20259,20259,0.0,20259,0.0,20259,0.0,20259,0.0
267,268,16692,16692,0.0,16692,0.0,16682,0.0005990893841361131,16692,0.0
268,269,15868,15868,0.0,15864,0.00025207965717166626,15860,0.0005041593143433325,15864,0.00025207965717166626
269,270,18511,18511,0.0,18511,0.0,18511,0.0,18501,0.0005402193290475933
270,271,15521,15521,0.0,15521,0.0,15521,0.0,15521,0.0
271,272,19447,19447,0.0,19447,0.0,19447,0.0,19437,0.0005142181313313107
272,273,14621,14621,0.0,14621,0.0,14621,0.0,14621,0.0
273,274,15094,15094,0.0,15094,0.0,15094,0.0,15094,0.0
274,275,18907,18907,0.0,18907,0.0,18905,0.00010578092769873591,18896,0.0005817951023430475
275,276,16606,16606,0.0,16606,0.0,16606,0.0,16606,0.0
276,277,20500,20500,0.0,20500,0.0,20485,0.0007317073170731707,20491,0.00043902439024390245
277,278,19071,19071,0.0,19068,0.00015730690577316344,19071,0.0,19051,0.001048712705154423
278,279,18064,18064,0.0,18064,0.0,18064,0.0,18064,0.0
279,280,16454,16454,0.0,16451,0.00018232648596086057,16451,0.00018232648596086057,16451,0.00018232648596086057
280,281,17889,17889,0.0,17889,0.0,17889,0.0,17889,0.0
281,282,18715,18715,0.0,18715,0.0,18715,0.0,18715,0.0
282,283,18152,18152,0.0,18152,0.0,18152,0.0,18131,0.0011568973115910093
283,284,15433,15433,0.0,15433,0.0,15433,0.0,15433,0.0
284,285,18627,18627,0.0,18627,0.0,18624,0.00016105653084232566,18624,0.00016105653084232566
285,286,15977,15977,0.0,15970,0.000438129811604181,15970,0.000438129811604181,15970,0.000438129811604181
286,287,15728,15728,0.0,15728,0.0,15728,0.0,15728,0.0
287,288,15486,15486,0.0,15486,0.0,15486,0.0,15486,0.0
288,289,15808,15808,0.0,15808,0.0,15808,0.0,15808,0.0
289,290,18258,18258,0.0,18258,0.0,18258,0.0,18258,0.0
290,291,17687,17687,0.0,17687,0.0,17687,0.0,17677,0.0005653870074065698
291,292,15845,15845,0.0,15845,0.0,15845,0.0,15845,0.0
292,293,19085,19085,0.0,19085,0.0,19085,0.0,19064,0.001100340581608593
293,294,17122,17122,0.0,17122,0.0,17122,0.0,17122,0.0
294,295,19055,19055,0.0,19053,0.00010495932826029913,19048,0.000367357648911047,19036,0.0009971136184728417
295,296,20099,20099,0.0,20099,0.0,20093,0.0002985223145430121,20075,0.0011940892581720484
296,297,15926,15926,0.0,15926,0.0,15926,0.0,15926,0.0
297,298,15674,15674,0.0,15673,6.379992344009187e-05,15673,6.379992344009187e-05,15653,0.0013397983922419294
298,299,15274,15274,0.0,15274,0.0,15274,0.0,15274,0.0
299,300,20374,20373,4.908216354176892e-05,20373,4.908216354176892e-05,20373,4.908216354176892e-05,20368,0.0002944929812506135
300,301,16760,16760,0.0,16758,0.00011933174224343676,16756,0.00023866348448687351,16744,0.0009546539379474941
301,302,15854,15853,6.307556452630251e-05,15852,0.00012615112905260502,15854,0.0,15852,0.00012615112905260502
302,303,16162,16162,0.0,16162,0.0,16162,0.0,16162,0.0
303,304,18590,18590,0.0,18588,0.00010758472296933836,18583,0.00037654653039268426,18583,0.00037654653039268426
304,305,15326,15326,0.0,15326,0.0,15326,0.0,15318,0.0005219887772412893
305,306,18514,18514,0.0,18514,0.0,18514,0.0,18514,0.0
306,307,16553,16553,0.0,16553,0.0,16553,0.0,16553,0.0
307,308,13566,13566,0.0,13566,0.0,13552,0.0010319917440660474,13552,0.0010319917440660474
308,309,17367,17367,0.0,17367,0.0,17367,0.0,17345,0.0012667703115103357
309,310,18258,18258,0.0,18258,0.0,18258,0.0,18258,0.0
310,311,20618,20618,0.0,20612,0.0002910078572121447,20605,0.0006305170239596469,20607,0.000533514404888932
311,312,18404,18404,0.0,18401,0.0001630080417300587,18401,0.0001630080417300587,18392,0.0006520321669202348
312,313,17171,17171,0.0,17171,0.0,17171,0.0,17159,0.0006988527167899366
313,314,18721,18721,0.0,18721,0.0,18718,0.00016024785000801238,18705,0.0008546552000427328
314,315,19293,19293,0.0,19293,0.0,19293,0.0,19293,0.0
315,316,20898,20898,0.0,20898,0.0,20898,0.0,20898,0.0
316,317,19011,19011,0.0,19011,0.0,19011,0.0,18990,0.0011046236389458735
317,318,17646,17646,0.0,17646,0.0,17646,0.0,17631,0.0008500510030601836
318,319,16947,16947,0.0,16945,0.00011801498790346374,16945,0.00011801498790346374,16936,0.0006490824334690505
319,320,17251,17250,5.796765404904064e-05,17250,5.796765404904064e-05,17250,5.796765404904064e-05,17237,0.0008115471566865689
320,321,15843,15843,0.0,15843,0.0,15843,0.0,15839,0.00025247743482926214
321,322,14958,14958,0.0,14958,0.0,14958,0.0,14958,0.0
322,323,18124,18124,0.0,18124,0.0,18124,0.0,18110,0.0007724564113882145
323,324,19360,19360,0.0,19360,0.0,19360,0.0,19360,0.0
324,325,15086,15086,0.0,15086,0.0,15082,0.00026514649343762427,15065,0.0013920190905475276
325,326,20633,20633,0.0,20630,0.00014539814859690787,20630,0.00014539814859690787,20631,9.693209906460525e-05
326,327,19271,19271,0.0,19267,0.00020756577240413056,19267,0.00020756577240413056,19271,0.0
327,328,18587,18587,0.0,18587,0.0,18587,0.0,18587,0.0
328,329,16077,16077,0.0,16077,0.0,16077,0.0,16063,0.0008708092305778441
329,330,18685,18685,0.0,18685,0.0,18685,0.0,18685,0.0
330,331,20387,20387,0.0,20387,0.0,20387,0.0,20369,0.000882915583460048
331,332,17603,17603,0.0,17603,0.0,17603,0.0,17603,0.0
332,333,19194,19194,0.0,19194,0.0,19187,0.00036469730123997083,19179,0.0007814942169427947
333,334,16423,16423,0.0,16420,0.00018267064482737624,16415,0.00048712171953966995,16415,0.00048712171953966995
334,335,16196,16196,0.0,16196,0.0,16196,0.0,16196,0.0
335,336,16833,16833,0.0,16833,0.0,16833,0.0,16811,0.001306956573397493
336,337,17797,17797,0.0,17791,0.0003371354722706074,17791,0.0003371354722706074,17791,0.0003371354722706074
337,338,19145,19145,0.0,19145,0.0,19145,0.0,19145,0.0
338,339,19213,19213,0.0,19213,0.0,19213,0.0,19213,0.0
339,340,16073,16073,0.0,16073,0.0,16073,0.0,16073,0.0
340,341,14470,14470,0.0,14470,0.0,14460,0.000691085003455425,14460,0.000691085003455425
341,342,16580,16580,0.0,16580,0.0,16571,0.0005428226779252111,16571,0.0005428226779252111
342,343,19905,19905,0.0,19902,0.00015071590052750564,19898,0.00035167043456417983,19898,0.00035167043456417983
343,344,17006,17006,0.0,17004,0.00011760555098200635,17000,0.0003528166529460191,17000,0.0003528166529460191
344,345,19084,19084,0.0,19084,0.0,19078,0.00031439949696080485,19078,0.00031439949696080485
345,346,17737,17737,0.0,17737,0.0,17728,0.0005074138805886002,17704,0.0018605175621582003
346,347,17189,17189,0.0,17189,0.0,17189,0.0,17189,0.0
347,348,15501,15501,0.0,15501,0.0,15501,0.0,15501,0.0
348,349,16407,16407,0.0,16407,0.0,16407,0.0,16407,0.0
349,350,16280,16280,0.0,16280,0.0,16280,0.0,16280,0.0
350,351,15403,15403,0.0,15403,0.0,15403,0.0,15403,0.0
351,352,17178,17178,0.0,17178,0.0,17178,0.0,17178,0.0
352,353,19833,19833,0.0,19833,0.0,19833,0.0,19833,0.0
353,354,16588,16588,0.0,16588,0.0,16588,0.0,16588,0.0
354,355,16867,16867,0.0,16863,0.00023714946344933894,16867,0.0,16858,0.0005335862927610127
355,356,16316,16316,0.0,16316,0.0,16316,0.0,16316,0.0
356,357,16482,16482,0.0,16482,0.0,16482,0.0,16453,0.0017594952068923674
357,358,16097,16097,0.0,16097,0.0,16097,0.0,16085,0.0007454805243213021
358,359,18517,18517,0.0,18517,0.0,18517,0.0,18508,0.000486039855268132
359,360,15455,15455,0.0,15455,0.0,15455,0.0,15455,0.0
360,361,18742,18741,5.3356098602070216e-05,18741,5.3356098602070216e-05,18735,0.0003734926902144915,18742,0.0
361,362,15342,15342,0.0,15342,0.0,15342,0.0,15328,0.0009125277017338027
362,363,19579,19579,0.0,19574,0.0002553756575923183,19574,0.0002553756575923183,19579,0.0
363,364,17980,17980,0.0,17980,0.0,17980,0.0,17980,0.0
364,365,16576,16576,0.0,16576,0.0,16566,0.0006032818532818533,16566,0.0006032818532818533
365,366,18389,18389,0.0,18389,0.0,18389,0.0,18389,0.0
366,367,17828,17827,5.609154139555755e-05,17825,0.00016827462418667264,17825,0.00016827462418667264,17825,0.00016827462418667264
367,368,17271,17271,0.0,17270,5.790052689479474e-05,17270,5.790052689479474e-05,17257,0.0008106073765271264
368,369,16524,16524,0.0,16524,0.0,16524,0.0,16518,0.00036310820624546115
369,370,15806,15806,0.0,15806,0.0,15806,0.0,15806,0.0
370,371,18797,18797,0.0,18797,0.0,18785,0.0006383997446401022,18791,0.0003191998723200511
371,372,18066,18066,0.0,18066,0.0,18064,0.00011070519207350825,18058,0.000442820768294033
372,373,15574,15574,0.0,15574,0.0,15574,0.0,15574,0.0
373,374,16215,16215,0.0,16215,0.0,16215,0.0,16215,0.0
374,375,18820,18820,0.0,18820,0.0,18811,0.00047821466524973434,18820,0.0
375,376,19768,19768,0.0,19768,0.0,19761,0.0003541076487252125,19761,0.0003541076487252125
376,377,19066,19066,0.0,19066,0.0,19060,0.00031469631805307877,19060,0.00031469631805307877
377,378,17241,17240,5.800127602807262e-05,17240,5.800127602807262e-05,17239,0.00011600255205614524,17222,0.0011020242445333797
378,379,14353,14353,0.0,14353,0.0,14353,0.0,14353,0.0
379,380,15495,15495,0.0,15495,0.0,15495,0.0,15495,0.0
380,381,20004,20004,0.0,20002,9.998000399920016e-05,19994,0.0004999000199960008,19988,0.0007998400319936012
381,382,16633,16633,0.0,16633,0.0,16633,0.0,16611,0.0013226717970300007
382,383,16279,16279,0.0,16279,0.0,16279,0.0,16279,0.0
383,384,19007,19007,0.0,19007,0.0,19007,0.0,19007,0.0
384,385,18852,18852,0.0,18852,0.0,18848,0.0002121790791427965,18848,0.0002121790791427965
385,386,17309,17309,0.0,17309,0.0,17309,0.0,17309,0.0
386,387,18775,18775,0.0,18775,0.0,18775,0.0,18775,0.0
387,388,18579,18579,0.0,18579,0.0,18579,0.0,18579,0.0
388,389,18394,18394,0.0,18394,0.0,18387,0.00038055887789496573,18387,0.00038055887789496573
389,390,16618,16618,0.0,16618,0.0,16607,0.0006619328439042003,16607,0.0006619328439042003
390,391,17102,17102,0.0,17102,0.0,17102,0.0,17096,0.0003508361595135072
391,392,17964,17964,0.0,17964,0.0,17957,0.00038966822533956805,17957,0.00038966822533956805
392,393,16996,16996,0.0,16996,0.0,16996,0.0,16996,0.0
393,394,22877,22877,0.0,22877,0.0,22871,0.00026227215106875904,22866,0.0004808322769593915
394,395,17911,17911,0.0,17911,0.0,17911,0.0,17898,0.0007258109541622466
395,396,17380,17380,0.0,17376,0.00023014959723820482,17376,0.00023014959723820482,17376,0.00023014959723820482
396,397,17474,17474,0.0,17474,0.0,17467,0.00040059516996680784,17467,0.00040059516996680784
397,398,18122,18122,0.0,18122,0.0,18107,0.0008277232093587904,18104,0.0009932678512305484
398,399,18625,18625,0.0,18625,0.0,18625,0.0,18625,0.0
399,400,18009,18009,0.0,18006,0.0001665833749791771,18006,0.0001665833749791771,18006,0.0001665833749791771
400,401,18273,18273,0.0,18272,5.472555135992995e-05,18272,5.472555135992995e-05,18265,0.0004378044108794396
401,402,19037,19037,0.0,19037,0.0,19037,0.0,19037,0.0
402,403,19802,19802,0.0,19802,0.0,19793,0.0004544995455004545,19790,0.000605999394000606
403,404,18249,18249,0.0,18249,0.0,18249,0.0,18249,0.0
404,405,17036,17036,0.0,17036,0.0,17036,0.0,17036,0.0
405,406,15847,15847,0.0,15847,0.0,15847,0.0,15847,0.0
406,407,18671,18671,0.0,18671,0.0,18662,0.0004820309570992448,18655,0.0008569439237319908
407,408,17386,17386,0.0,17384,0.00011503508570113885,17384,0.00011503508570113885,17384,0.00011503508570113885
408,409,16289,16289,0.0,16289,0.0,16289,0.0,16289,0.0
409,410,17288,17288,0.0,17288,0.0,17267,0.0012147154095326239,17267,0.0012147154095326239
410,411,18779,18779,0.0,18774,0.0002662548591511795,18770,0.00047925874647212314,18770,0.00047925874647212314
411,412,17766,17766,0.0,17761,0.0002814364516492176,17756,0.0005628729032984353,17748,0.0010131712259371835
412,413,20241,20241,0.0,20241,0.0,20241,0.0,20230,0.0005434514105034336
413,414,15480,15480,0.0,15480,0.0,15480,0.0,15471,0.0005813953488372093
414,415,16964,16964,0.0,16964,0.0,16958,0.0003536901674133459,16946,0.0010610705022400376
415,416,20278,20278,0.0,20278,0.0,20278,0.0,20278,0.0
416,417,17929,17929,0.0,17927,0.00011155111829996096,17923,0.0003346533548998829,17893,0.002007920129399297
417,418,17088,17088,0.0,17085,0.00017556179775280898,17085,0.00017556179775280898,17070,0.001053370786516854
418,419,12828,12828,0.0,12828,0.0,12828,0.0,12828,0.0
419,420,18842,18842,0.0,18842,0.0,18842,0.0,18829,0.0006899479885362488
420,421,14799,14799,0.0,14797,0.00013514426650449354,14797,0.00013514426650449354,14799,0.0
421,422,18386,18386,0.0,18386,0.0,18386,0.0,18376,0.0005438920918089851
422,423,17972,17972,0.0,17972,0.0,17972,0.0,17972,0.0
423,424,15423,15423,0.0,15423,0.0,15423,0.0,15423,0.0
424,425,19706,19706,0.0,19696,0.0005074596569572719,19691,0.0007611894854359078,19704,0.00010149193139145438
425,426,16518,16518,0.0,16518,0.0,16518,0.0,16518,0.0
426,427,16197,16196,6.173982836327716e-05,16197,0.0,16196,6.173982836327716e-05,16196,6.173982836327716e-05
427,428,16805,16805,0.0,16805,0.0,16802,0.00017851829812555786,16802,0.00017851829812555786
428,429,20402,20402,0.0,20402,0.0,20396,0.00029408881482207626,20380,0.001078325654347613
429,430,18478,18478,0.0,18478,0.0,18478,0.0,18471,0.0003788288775841541
430,431,15824,15824,0.0,15819,0.0003159757330637007,15819,0.0003159757330637007,15819,0.0003159757330637007
431,432,20205,20205,0.0,20205,0.0,20205,0.0,20180,0.0012373174956693887
432,433,16023,16023,0.0,16023,0.0,16023,0.0,16023,0.0
433,434,20864,20864,0.0,20864,0.0,20864,0.0,20845,0.0009106595092024539
434,435,20115,20115,0.0,20114,4.971414367387522e-05,20114,4.971414367387522e-05,20111,0.00019885657469550087
435,436,20847,20847,0.0,20847,0.0,20847,0.0,20847,0.0
436,437,18071,18071,0.0,18064,0.00038736096508217585,18067,0.0002213491229041005,18067,0.0002213491229041005
437,438,17446,17446,0.0,17446,0.0,17446,0.0,17446,0.0
438,439,16055,16055,0.0,16055,0.0,16055,0.0,16053,0.00012457178449081283
439,440,17645,17645,0.0,17645,0.0,17636,0.0005100595069424766,17636,0.0005100595069424766
440,441,16225,16225,0.0,16225,0.0,16225,0.0,16225,0.0
441,442,17792,17792,0.0,17790,0.00011241007194244605,17790,0.00011241007194244605,17792,0.0
442,443,16717,16717,0.0,16717,0.0,16709,0.00047855476461087517,16694,0.001375844948256266
443,444,15035,15035,0.0,15035,0.0,15022,0.0008646491519787163,15016,0.0012637179913535085
444,445,16361,16361,0.0,16361,0.0,16361,0.0,16361,0.0
445,446,17940,17940,0.0,17940,0.0,17940,0.0,17922,0.001003344481605351
446,447,19186,19186,0.0,19183,0.0001563640154279162,19183,0.0001563640154279162,19178,0.0004169707078077765
447,448,17759,17759,0.0,17759,0.0,17759,0.0,17759,0.0
448,449,19256,19256,0.0,19256,0.0,19256,0.0,19256,0.0
449,450,17634,17634,0.0,17634,0.0,17634,0.0,17634,0.0
450,451,18030,18030,0.0,18030,0.0,18030,0.0,18030,0.0
451,452,18982,18982,0.0,18982,0.0,18982,0.0,18962,0.0010536297545042672
452,453,17879,17879,0.0,17879,0.0,17872,0.00039152077856703394,17871,0.0004474523183623245
453,454,15156,15156,0.0,15156,0.0,15156,0.0,15156,0.0
454,455,19362,19362,0.0,19357,0.0002582377853527528,19357,0.0002582377853527528,19362,0.0
455,456,18519,18519,0.0,18519,0.0,18511,0.0004319887682920244,18495,0.0012959663048760731
456,457,17409,17408,5.744155321959906e-05,17408,5.744155321959906e-05,17408,5.744155321959906e-05,17381,0.0016083634901487736
457,458,17224,17224,0.0,17221,0.00017417556897352532,17224,0.0,17204,0.0011611704598235022
458,459,19340,19340,0.0,19340,0.0,19340,0.0,19340,0.0
459,460,18126,18126,0.0,18126,0.0,18126,0.0,18103,0.0012688955092132847
460,461,18342,18342,0.0,18342,0.0,18342,0.0,18329,0.0007087558608657726
461,462,15474,15474,0.0,15474,0.0,15474,0.0,15474,0.0
462,463,19064,19064,0.0,19064,0.0,19056,0.000419639110365086,19056,0.000419639110365086
463,464,17623,17623,0.0,17623,0.0,17622,5.674402769108551e-05,17620,0.00017023208307325653
464,465,18091,18091,0.0,18091,0.0,18091,0.0,18091,0.0
465,466,16775,16775,0.0,16775,0.0,16775,0.0,16775,0.0
466,467,18765,18765,0.0,18765,0.0,18765,0.0,18765,0.0
467,468,16516,16515,6.054734802615645e-05,16515,6.054734802615645e-05,16506,0.0006054734802615645,16493,0.0013925890046015985
468,469,18728,18728,0.0,18728,0.0,18717,0.0005873558308415207,18717,0.0005873558308415207
469,470,18041,18041,0.0,18041,0.0,18031,0.0005542929992794192,18031,0.0005542929992794192
470,471,17053,17053,0.0,17053,0.0,17053,0.0,17053,0.0
471,472,16647,16647,0.0,16641,0.0003604253018561903,16645,0.00012014176728539677,16645,0.00012014176728539677
472,473,16688,16688,0.0,16678,0.0005992329817833174,16678,0.0005992329817833174,16678,0.0005992329817833174
473,474,15729,15729,0.0,15729,0.0,15729,0.0,15729,0.0
474,475,17349,17349,0.0,17349,0.0,17349,0.0,17349,0.0
475,476,15527,15527,0.0,15527,0.0,15527,0.0,15527,0.0
476,477,18664,18664,0.0,18664,0.0,18652,0.0006429489927132448,18646,0.0009644234890698671
477,478,17716,17716,0.0,17716,0.0,17706,0.000564461503725446,17708,0.0004515692029803567
478,479,19441,19441,0.0,19441,0.0,19435,0.0003086260994804794,19411,0.001543130497402397
479,480,16421,16421,0.0,16421,0.0,16421,0.0,16421,0.0
480,481,19372,19372,0.0,19372,0.0,19372,0.0,19372,0.0
481,482,20018,20018,0.0,20017,4.995504046358277e-05,20017,4.995504046358277e-05,20017,4.995504046358277e-05
482,483,20199,20199,0.0,20194,0.000247537006782514,20185,0.0006931036189910391,20182,0.0008416258230605476
483,484,17242,17242,0.0,17242,0.0,17242,0.0,17224,0.0010439624173529754
484,485,19986,19986,0.0,19986,0.0,19986,0.0,19986,0.0
485,486,15070,15070,0.0,15070,0.0,15070,0.0,15070,0.0
486,487,18386,18386,0.0,18379,0.00038072446426628957,18379,0.00038072446426628957,18371,0.0008158381377134776
487,488,17649,17649,0.0,17649,0.0,17649,0.0,17649,0.0
488,489,17324,17324,0.0,17322,0.00011544677903486493,17318,0.0003463403371045948,17318,0.0003463403371045948
489,490,18034,18034,0.0,18034,0.0,18034,0.0,18034,0.0
490,491,18885,18885,0.0,18885,0.0,18885,0.0,18885,0.0
491,492,17692,17692,0.0,17692,0.0,17692,0.0,17672,0.0011304544426859599
492,493,17716,17716,0.0,17716,0.0,17716,0.0,17716,0.0
493,494,19320,19319,5.175983436853002e-05,19319,5.175983436853002e-05,19319,5.175983436853002e-05,19306,0.0007246376811594203
494,495,19155,19155,0.0,19154,5.220569042025581e-05,19152,0.00015661707126076742,19147,0.0004176455233620465
495,496,18454,18454,0.0,18454,0.0,18454,0.0,18453,5.418879375745096e-05
496,497,17742,17742,0.0,17741,5.636343140570398e-05,17741,5.636343140570398e-05,17741,5.636343140570398e-05
497,498,19442,19442,0.0,19442,0.0,19442,0.0,19442,0.0
498,499,18101,18101,0.0,18096,0.0002762278327164245,18101,0.0,18090,0.0006077012319761339
499,500,18067,18067,0.0,18067,0.0,18067,0.0,18059,0.00044279625837161677
