,BnB,brute
0,0.0620130092855626,0.3374794530000145
1,0.04032694557138582,0.27845392799996
2,0.02649777428580689,0.30722428685710057
3,0.05285665342814484,0.2608997118568368
4,0.03307229628587395,0.20519638171429375
5,0.07308111285718562,0.24648151285730688
6,0.026691849571631922,0.1568276890001081
7,0.06384478628582915,0.24517479185708776
8,0.03650261885702223,0.23157716785707244
9,0.02843667699991264,0.040263021142891375
10,0.007141521856933001,0.00523239214271598
11,0.04233323571445778,0.2773172277145152
12,0.01486740828568145,0.016859051571632984
13,0.034087633000126516,0.06079449585688833
14,0.04803363400021356,0.04537001214274434
15,0.023520650999801416,0.026642110857080428
16,0.024820854857223042,0.3221197322858903
17,0.03261834899967653,0.05822828942863063
18,0.03898933842875912,0.04247399857143007
19,0.02930412700009453,0.3295691598571336
20,0.04363715657135409,0.06095790671419569
21,0.07304532614281405,0.3071243811429148
22,0.10715062285726162,0.23855313028564393
23,0.01776191599999168,0.2995061647143302
24,0.012879646999993253,0.012381330142748734
