,BnB,brute
0,0.03743839857140431,8.846970976428695
1,0.03969787828542134,0.0647190750000196
2,0.13345554099994064,9.022789699143166
3,0.3007870685712208,2.2797548055714287
4,0.1575059308571716,8.52646075757158
5,0.5374590487142216,4.704339415856988
6,0.00406424400015177,0.0029873052857770483
7,0.07116778442858569,9.012485983428373
8,0.05442436071410027,0.09104124942872918
9,0.0686726907141357,0.08731961142854873
10,0.09801716271470338,8.963502471714492
11,0.033346022571354945,0.025605642285881913
12,0.11631670900000504,6.56489576628558
13,0.024444484285725463,0.019510447142628045
14,0.16976463228560792,8.876389706428458
15,0.1237969657143237,8.95143381042882
16,0.3808425951430244,1.529887637857168
17,0.4646113961428325,6.907284717428281
18,0.29584528000019156,1.126360802857172
19,0.025228273285652643,0.020587767713940202
20,0.4521749758569058,4.009956754285928
21,0.1864033054282897,0.39701181485751086
22,0.25042388357126455,3.695679863285737
23,0.13644562942837574,8.749164297857403
24,0.1771035292858869,0.13829387285711295
