,ID,status,opt price,C,max price,Passed,visited,time
0,1,OK,1519,1475,1519,True,10,0
1,2,OK,2621,2516,2621,True,11,0
2,3,OK,2169,2111,2169,True,10,0
3,4,OK,2709,2698,2709,True,10,0
4,5,OK,4026,4125,4026,False,10,0
5,6,OK,1078,1037,1078,True,8,0
6,7,OK,3214,3238,3214,False,11,0
7,8,OK,2493,2559,2493,False,11,0
8,9,OK,3301,3196,3301,True,9,0
9,10,OK,3041,2982,3041,True,12,0
10,11,OK,1961,1916,1961,True,11,0
11,12,OK,3018,2968,3018,True,9,0
12,13,OK,3968,3995,3968,False,10,0
13,14,OK,3363,3260,3363,True,12,0
14,15,OK,2361,2380,2361,False,10,0
15,16,OK,2838,2779,2838,True,10,0
16,17,OK,3705,3573,3705,True,11,0
17,18,OK,4795,4821,4795,False,11,0
18,19,OK,4313,4436,4313,False,11,0
19,20,OK,3527,3514,3527,True,10,0
20,21,OK,2294,2251,2294,True,10,0
21,22,OK,3095,3194,3095,False,12,0
22,23,OK,3536,3663,3536,False,11,0
23,24,OK,3781,3816,3781,False,11,0
24,25,OK,2276,2363,2276,False,10,0
25,26,OK,3813,3832,3813,False,11,0
26,27,OK,3154,3034,3154,True,11,0
27,28,OK,2928,2830,2928,True,10,0
28,29,OK,2041,1963,2041,True,11,0
29,30,OK,3875,3961,3875,False,10,0
30,31,OK,3360,3372,3360,False,11,0
31,32,OK,2514,2516,2514,False,10,0
32,33,OK,3348,3390,3348,False,10,0
33,34,OK,3748,3738,3748,True,10,0
34,35,OK,4108,4183,4108,False,10,0
35,36,OK,4043,3945,4043,True,11,0
36,37,OK,2900,2897,2900,True,11,0
37,38,OK,3034,3060,3034,False,12,0
38,39,OK,4187,4048,4187,True,9,0
39,40,OK,2669,2647,2669,True,11,0
40,41,OK,2888,2897,2888,False,11,0
41,42,OK,4286,4144,4286,True,11,0
42,43,OK,1541,1578,1541,False,9,0
43,44,OK,3820,3881,3820,False,11,0
44,45,OK,3674,3675,3674,False,11,0
45,46,OK,3094,3043,3094,True,11,0
46,47,OK,2648,2688,2648,False,11,0
47,48,OK,3268,3145,3268,True,10,0
48,49,OK,4569,4626,4569,False,11,0
49,50,OK,3381,3499,3381,False,9,0
50,51,OK,3281,3286,3281,False,11,0
51,52,OK,2323,2291,2323,True,10,0
52,53,OK,4646,4508,4646,True,11,0
53,54,OK,3989,3838,3989,True,11,0
54,55,OK,2527,2598,2527,False,11,0
55,56,OK,3901,3954,3901,False,10,0
56,57,OK,4095,3986,4095,True,11,0
57,58,OK,3836,3857,3836,False,10,0
58,59,OK,3794,3808,3794,False,10,0
59,60,OK,1695,1674,1695,True,11,0
60,61,OK,3113,3035,3113,True,10,0
61,62,OK,2787,2809,2787,False,10,0
62,63,OK,4055,4210,4055,False,10,0
63,64,OK,2476,2503,2476,False,10,0
64,65,OK,2942,3010,2942,False,11,0
65,66,OK,3812,3709,3812,True,11,0
66,67,OK,1720,1780,1720,False,8,0
67,68,OK,2540,2449,2540,True,10,0
68,69,OK,2613,2682,2613,False,11,0
69,70,OK,3163,3246,3163,False,10,0
70,71,OK,2991,2887,2991,True,12,0
71,72,OK,3453,3412,3453,True,10,0
72,73,OK,3617,3556,3617,True,12,0
73,74,OK,3965,4013,3965,False,12,0
74,75,OK,3928,4003,3928,False,11,0
75,76,OK,1989,1934,1989,True,11,0
76,77,OK,4716,4858,4716,False,11,0
77,78,OK,1981,1985,1981,False,10,0
78,79,OK,2219,2171,2219,True,11,0
79,80,OK,3552,3465,3552,True,11,0
80,81,OK,3292,3337,3292,False,10,0
81,82,OK,1832,1808,1832,True,11,0
82,83,OK,2262,2225,2262,True,10,0
83,84,OK,3028,3114,3028,False,10,0
84,85,OK,4056,4071,4056,False,11,0
85,86,OK,2950,3055,2950,False,12,0
86,87,OK,2877,2906,2877,False,12,0
87,88,OK,2759,2859,2759,False,9,0
88,89,OK,2635,2731,2635,False,10,0
89,90,OK,2348,2294,2348,True,9,0
90,91,OK,3721,3746,3721,False,9,0
91,92,OK,1165,1199,1165,False,8,0
92,93,OK,3683,3693,3683,False,11,0
93,94,OK,3602,3698,3602,False,12,0
94,95,OK,3263,3183,3263,True,10,0
95,96,OK,2657,2596,2657,True,9,0
96,97,OK,3256,3374,3256,False,10,0
97,98,OK,3171,3152,3171,True,11,0
98,99,OK,3424,3449,3424,False,12,0
99,100,OK,2453,2367,2453,True,12,0
100,101,OK,4144,4092,4144,True,11,0
101,102,OK,2936,2834,2936,True,11,0
102,103,OK,3764,3694,3764,True,10,0
103,104,OK,3304,3343,3304,False,11,0
104,105,OK,3096,3129,3096,False,11,0
105,106,OK,2953,3002,2953,False,11,0
106,107,OK,3804,3865,3804,False,10,0
107,108,OK,4003,3921,4003,True,10,0
108,109,OK,4424,4277,4424,True,11,0
109,110,OK,3063,3176,3063,False,10,0
110,111,OK,3552,3545,3552,True,9,0
111,112,OK,2208,2226,2208,False,10,0
112,113,OK,3104,3164,3104,False,10,0
113,114,OK,2626,2616,2626,True,9,0
114,115,OK,3053,3122,3053,False,10,0
115,116,OK,3665,3738,3665,False,12,0
116,117,OK,4587,4657,4587,False,11,0
117,118,OK,3262,3211,3262,True,12,0
118,119,OK,2349,2387,2349,False,11,0
119,120,OK,3507,3594,3507,False,10,0
120,121,OK,4332,4173,4332,True,11,0
121,122,OK,2916,2903,2916,True,8,0
122,123,OK,4240,4322,4240,False,11,0
123,124,OK,2308,2243,2308,True,9,0
124,125,OK,3916,3802,3916,True,12,0
125,126,OK,2038,2044,2038,False,10,0
126,127,OK,3435,3488,3435,False,12,0
127,128,OK,1950,1994,1950,False,10,0
128,129,OK,3591,3581,3591,True,12,0
129,130,OK,2583,2659,2583,False,11,0
130,131,OK,2537,2582,2537,False,9,0
131,132,OK,1757,1762,1757,False,11,0
132,133,OK,3081,3039,3081,True,10,0
133,134,OK,3618,3530,3618,True,12,0
134,135,OK,1984,2003,1984,False,11,0
135,136,OK,4501,4446,4501,True,11,0
136,137,OK,2994,3091,2994,False,10,0
137,138,OK,2986,2941,2986,True,10,0
138,139,OK,3738,3640,3738,True,10,0
139,140,OK,3223,3292,3223,False,10,0
140,141,OK,4468,4327,4468,True,11,0
141,142,OK,1658,1635,1658,True,10,0
142,143,OK,3434,3333,3434,True,11,0
143,144,OK,2599,2592,2599,True,9,0
144,145,OK,3935,3957,3935,False,10,0
145,146,OK,2364,2326,2364,True,11,0
146,147,OK,3874,3930,3874,False,10,0
147,148,OK,4260,4368,4260,False,11,0
148,149,OK,2471,2518,2471,False,10,0
149,150,OK,2024,1959,2024,True,10,0
150,151,OK,2674,2770,2674,False,10,0
151,152,OK,2541,2574,2541,False,10,0
152,153,OK,4425,4264,4425,True,11,0
153,154,OK,4316,4254,4316,True,10,0
154,155,OK,2574,2673,2574,False,11,0
155,156,OK,3693,3657,3693,True,10,0
156,157,OK,3271,3348,3271,False,10,0
157,158,OK,4456,4355,4456,True,11,0
158,159,OK,2162,2092,2162,True,11,0
159,160,OK,3351,3389,3351,False,10,0
160,161,OK,1915,1898,1915,True,12,0
161,162,OK,2684,2632,2684,True,11,0
162,163,OK,3259,3372,3259,False,10,0
163,164,OK,3128,3128,3128,True,12,0
164,165,OK,1718,1692,1718,True,8,0
165,166,OK,4114,4255,4114,False,11,0
166,167,OK,3687,3813,3687,False,10,0
167,168,OK,2804,2807,2804,False,11,0
168,169,OK,2143,2132,2143,True,10,0
169,170,OK,4110,4166,4110,False,10,0
170,171,OK,4690,4741,4690,False,11,0
171,172,OK,3039,3147,3039,False,9,0
172,173,OK,3175,3294,3175,False,10,0
173,174,OK,4167,4069,4167,True,10,0
174,175,OK,3512,3427,3512,True,10,0
175,176,OK,4009,4033,4009,False,10,0
176,177,OK,2820,2887,2820,False,10,0
177,178,OK,2402,2454,2402,False,12,0
178,179,OK,2348,2399,2348,False,10,0
179,180,OK,3301,3362,3301,False,11,0
180,181,OK,3934,3797,3934,True,11,0
181,182,OK,2696,2769,2696,False,8,0
182,183,OK,1829,1788,1829,True,9,0
183,184,OK,3052,3080,3052,False,10,0
184,185,OK,3728,3723,3728,True,10,0
185,186,OK,2783,2693,2783,True,10,0
186,187,OK,2332,2383,2332,False,9,0
187,188,OK,4124,4213,4124,False,11,0
188,189,OK,3510,3407,3510,True,10,0
189,190,OK,3040,3134,3040,False,10,0
190,191,OK,3700,3781,3700,False,10,0
191,192,OK,3850,3975,3850,False,9,0
192,193,OK,3339,3230,3339,True,11,0
193,194,OK,3625,3731,3625,False,11,0
194,195,OK,3318,3354,3318,False,10,0
195,196,OK,4067,4037,4067,True,9,0
196,197,OK,2523,2533,2523,False,9,0
197,198,OK,3354,3268,3354,True,11,0
198,199,OK,3355,3290,3355,True,10,0
199,200,OK,4440,4408,4440,True,11,0
200,201,OK,2974,2893,2974,True,10,0
201,202,OK,2924,2953,2924,False,9,0
202,203,OK,3356,3264,3356,True,11,0
203,204,OK,3941,4021,3941,False,11,0
204,205,OK,1759,1726,1759,True,10,0
205,206,OK,3375,3343,3375,True,11,0
206,207,OK,4201,4331,4201,False,12,0
207,208,OK,2735,2798,2735,False,10,0
208,209,OK,3696,3783,3696,False,10,0
209,210,OK,4723,4762,4723,False,10,0
210,211,OK,3713,3583,3713,True,10,0
211,212,OK,3170,3068,3170,True,12,0
212,213,OK,2329,2324,2329,True,10,0
213,214,OK,4182,4077,4182,True,9,0
214,215,OK,2650,2736,2650,False,10,0
215,216,OK,3427,3442,3427,False,10,0
216,217,OK,2988,3055,2988,False,10,0
217,218,OK,2907,2938,2907,False,10,0
218,219,OK,4423,4490,4423,False,11,0
219,220,OK,3522,3514,3522,True,10,0
220,221,OK,4157,4280,4157,False,9,0
221,222,OK,2549,2528,2549,True,8,0
222,223,OK,3699,3778,3699,False,11,0
223,224,OK,2678,2598,2678,True,12,0
224,225,OK,2850,2903,2850,False,10,0
225,226,OK,1925,1967,1925,False,8,0
226,227,OK,2401,2417,2401,False,10,0
227,228,OK,3941,3802,3941,True,9,0
228,229,OK,3577,3543,3577,True,10,0
229,230,OK,4145,4293,4145,False,11,0
230,231,OK,3930,3855,3930,True,9,0
231,232,OK,2810,2725,2810,True,8,0
232,233,OK,4298,4345,4298,False,11,0
233,234,OK,4086,4070,4086,True,11,0
234,235,OK,2218,2175,2218,True,11,0
235,236,OK,2989,3059,2989,False,12,0
236,237,OK,3768,3702,3768,True,12,0
237,238,OK,3660,3640,3660,True,10,0
238,239,OK,2082,2111,2082,False,10,0
239,240,OK,3066,2953,3066,True,10,0
240,241,OK,3467,3575,3467,False,11,0
241,242,OK,3150,3187,3150,False,11,0
242,243,OK,3651,3659,3651,False,11,0
243,244,OK,4091,4228,4091,False,12,0
244,245,OK,3168,3099,3168,True,10,0
245,246,OK,3414,3450,3414,False,11,0
246,247,OK,3982,4028,3982,False,10,0
247,248,OK,3960,4079,3960,False,11,0
248,249,OK,2992,2949,2992,True,11,0
249,250,OK,3717,3584,3717,True,11,0
250,251,OK,2120,2147,2120,False,10,0
251,252,OK,3265,3178,3265,True,10,0
252,253,OK,2191,2204,2191,False,9,0
253,254,OK,3070,3088,3070,False,12,0
254,255,OK,4427,4536,4427,False,11,0
255,256,OK,3560,3604,3560,False,11,0
256,257,OK,1184,1159,1184,True,8,0
257,258,OK,4135,4082,4135,True,11,0
258,259,OK,4120,3992,4120,True,11,0
259,260,OK,3309,3335,3309,False,10,0
260,261,OK,2372,2372,2372,True,10,0
261,262,OK,3516,3618,3516,False,9,0
262,263,OK,4275,4440,4275,False,11,0
263,264,OK,4041,4122,4041,False,10,0
264,265,OK,2683,2713,2683,False,12,0
265,266,OK,2474,2543,2474,False,10,0
266,267,OK,3376,3399,3376,False,9,0
267,268,OK,3019,2972,3019,True,10,0
268,269,OK,3449,3503,3449,False,12,0
269,270,OK,3495,3586,3495,False,12,0
270,271,OK,3719,3710,3719,True,10,0
271,272,OK,3249,3216,3249,True,10,0
272,273,OK,4748,4721,4748,True,12,0
273,274,OK,2746,2710,2746,True,11,0
274,275,OK,3270,3212,3270,True,12,0
275,276,OK,3289,3381,3289,False,10,0
276,277,OK,3662,3564,3662,True,11,0
277,278,OK,1842,1853,1842,False,8,0
278,279,OK,4338,4488,4338,False,11,0
279,280,OK,3557,3469,3557,True,12,0
280,281,OK,3287,3416,3287,False,10,0
281,282,OK,2879,2926,2879,False,11,0
282,283,OK,2768,2715,2768,True,10,0
283,284,OK,4000,4005,4000,False,10,0
284,285,OK,3198,3171,3198,True,12,0
285,286,OK,3119,3119,3119,True,11,0
286,287,OK,2465,2558,2465,False,10,0
287,288,OK,2948,3061,2948,False,10,0
288,289,OK,2349,2340,2349,True,10,0
289,290,OK,2446,2542,2446,False,10,0
290,291,OK,3626,3533,3626,True,11,0
291,292,OK,4881,5041,4881,False,11,0
292,293,OK,2356,2427,2356,False,11,0
293,294,OK,3081,3094,3081,False,10,0
294,295,OK,3932,3907,3932,True,10,0
295,296,OK,1943,1893,1943,True,10,0
296,297,OK,4051,3963,4051,True,10,0
297,298,OK,2904,2839,2904,True,11,0
298,299,OK,2995,2946,2995,True,10,0
299,300,OK,2593,2585,2593,True,10,0
300,301,OK,2524,2467,2524,True,10,0
301,302,OK,3947,3925,3947,True,10,0
302,303,OK,3235,3350,3235,False,11,0
303,304,OK,4722,4615,4722,True,11,0
304,305,OK,2836,2898,2836,False,10,0
305,306,OK,4325,4293,4325,True,9,0
306,307,OK,1800,1763,1800,True,8,0
307,308,OK,4675,4841,4675,False,12,0
308,309,OK,3427,3309,3427,True,10,0
309,310,OK,3885,4012,3885,False,10,0
310,311,OK,3433,3382,3433,True,10,0
311,312,OK,4374,4430,4374,False,11,0
312,313,OK,3674,3796,3674,False,11,0
313,314,OK,3323,3418,3323,False,11,0
314,315,OK,3760,3658,3760,True,11,0
315,316,OK,1787,1726,1787,True,8,0
316,317,OK,3502,3445,3502,True,11,0
317,318,OK,1995,1976,1995,True,9,0
318,319,OK,2203,2238,2203,False,9,0
319,320,OK,2985,2888,2985,True,11,0
320,321,OK,3525,3435,3525,True,10,0
321,322,OK,3556,3615,3556,False,10,0
322,323,OK,3607,3610,3607,False,10,0
323,324,OK,3148,3092,3148,True,11,0
324,325,OK,2139,2194,2139,False,11,0
325,326,OK,3381,3347,3381,True,10,0
326,327,OK,2690,2718,2690,False,11,0
327,328,OK,3366,3376,3366,False,9,0
328,329,OK,2657,2729,2657,False,10,0
329,330,OK,1879,1872,1879,True,11,0
330,331,OK,3164,3271,3164,False,11,0
331,332,OK,4140,4091,4140,True,12,0
332,333,OK,3765,3617,3765,True,11,0
333,334,OK,2892,2791,2892,True,10,0
334,335,OK,2929,3001,2929,False,11,0
335,336,OK,3186,3084,3186,True,12,0
336,337,OK,4523,4544,4523,False,11,0
337,338,OK,3929,3875,3929,True,11,0
338,339,OK,1848,1827,1848,True,10,0
339,340,OK,2079,2084,2079,False,10,0
340,341,OK,4467,4367,4467,True,10,0
341,342,OK,3200,3187,3200,True,11,0
342,343,OK,2903,2933,2903,False,10,0
343,344,OK,3078,2992,3078,True,12,0
344,345,OK,2695,2650,2695,True,11,0
345,346,OK,4907,4918,4907,False,11,0
346,347,OK,2539,2478,2539,True,10,0
347,348,OK,3507,3642,3507,False,11,0
348,349,OK,1884,1851,1884,True,9,0
349,350,OK,2207,2198,2207,True,12,0
350,351,OK,3629,3713,3629,False,10,0
351,352,OK,3156,3050,3156,True,10,0
352,353,OK,2995,2904,2995,True,11,0
353,354,OK,3883,3971,3883,False,10,0
354,355,OK,3654,3555,3654,True,9,0
355,356,OK,4228,4224,4228,True,11,0
356,357,OK,2810,2877,2810,False,9,0
357,358,OK,1899,1947,1899,False,11,0
358,359,OK,3593,3469,3593,True,9,0
359,360,OK,2964,2959,2964,True,12,0
360,361,OK,4067,3920,4067,True,11,0
361,362,OK,3395,3479,3395,False,12,0
362,363,OK,3320,3405,3320,False,11,0
363,364,OK,3794,3763,3794,True,11,0
364,365,OK,2538,2531,2538,True,10,0
365,366,OK,3172,3160,3172,True,12,0
366,367,OK,4393,4518,4393,False,11,0
367,368,OK,3537,3634,3537,False,10,0
368,369,OK,3440,3334,3440,True,11,0
369,370,OK,1477,1535,1477,False,8,0
370,371,OK,3584,3644,3584,False,10,0
371,372,OK,2424,2404,2424,True,11,0
372,373,OK,3200,3280,3200,False,10,0
373,374,OK,3580,3612,3580,False,11,0
374,375,OK,2803,2790,2803,True,11,0
375,376,OK,1972,1933,1972,True,8,0
376,377,OK,3719,3640,3719,True,11,0
377,378,OK,3041,3008,3041,True,10,0
378,379,OK,4024,3958,4024,True,11,0
379,380,OK,2568,2548,2568,True,10,0
380,381,OK,2908,2847,2908,True,10,0
381,382,OK,2973,3074,2973,False,11,0
382,383,OK,4233,4365,4233,False,10,0
383,384,OK,3315,3433,3315,False,10,0
384,385,OK,3070,3111,3070,False,12,0
385,386,OK,3801,3800,3801,True,11,0
386,387,OK,3238,3189,3238,True,10,0
387,388,OK,3634,3538,3634,True,10,0
388,389,OK,2768,2670,2768,True,10,0
389,390,OK,3976,3887,3976,True,10,0
390,391,OK,3650,3616,3650,True,10,0
391,392,OK,3184,3094,3184,True,12,0
392,393,OK,3082,2987,3082,True,11,0
393,394,OK,2952,2953,2952,False,10,0
394,395,OK,2149,2201,2149,False,9,0
395,396,OK,3458,3560,3458,False,11,0
396,397,OK,2977,2935,2977,True,10,0
397,398,OK,2665,2664,2665,True,10,0
398,399,OK,1845,1833,1845,True,11,0
399,400,OK,1524,1559,1524,False,10,0
400,401,OK,3530,3512,3530,True,9,0
401,402,OK,3804,3865,3804,False,11,0
402,403,OK,3179,3256,3179,False,10,0
403,404,OK,2327,2305,2327,True,11,0
404,405,OK,3767,3832,3767,False,11,0
405,406,OK,2359,2280,2359,True,12,0
406,407,OK,2908,2855,2908,True,9,0
407,408,OK,2771,2686,2771,True,10,0
408,409,OK,1719,1711,1719,True,8,0
409,410,OK,2235,2323,2235,False,10,0
410,411,OK,4714,4638,4714,True,11,0
411,412,OK,3842,3864,3842,False,10,0
412,413,OK,3216,3115,3216,True,12,0
413,414,OK,3221,3159,3221,True,11,0
414,415,OK,3132,3158,3132,False,10,0
415,416,OK,3874,3843,3874,True,11,0
416,417,OK,4268,4177,4268,True,9,0
417,418,OK,2928,3017,2928,False,12,0
418,419,OK,3453,3418,3453,True,10,0
419,420,OK,3352,3470,3352,False,10,0
420,421,OK,3909,3873,3909,True,10,0
421,422,OK,3474,3602,3474,False,10,0
422,423,OK,3329,3361,3329,False,11,0
423,424,OK,3029,3019,3029,True,11,0
424,425,OK,1944,1943,1944,True,8,0
425,426,OK,3588,3456,3588,True,11,0
426,427,OK,2536,2568,2536,False,11,0
427,428,OK,3900,3746,3900,True,10,0
428,429,OK,3504,3624,3504,False,11,0
429,430,OK,3546,3472,3546,True,12,0
430,431,OK,3665,3596,3665,True,10,0
431,432,OK,2905,2864,2905,True,10,0
432,433,OK,3033,2995,3033,True,10,0
433,434,OK,3492,3541,3492,False,11,0
434,435,OK,3695,3816,3695,False,10,0
435,436,OK,4492,4418,4492,True,11,0
436,437,OK,2242,2198,2242,True,11,0
437,438,OK,2773,2882,2773,False,11,0
438,439,OK,4137,4083,4137,True,10,0
439,440,OK,1892,1864,1892,True,9,0
440,441,OK,4103,3970,4103,True,10,0
441,442,OK,3701,3553,3701,True,11,0
442,443,OK,3561,3688,3561,False,11,0
443,444,OK,3967,3988,3967,False,11,0
444,445,OK,3142,3177,3142,False,10,0
445,446,OK,3583,3530,3583,True,10,0
446,447,OK,3462,3582,3462,False,10,0
447,448,OK,1245,1211,1245,True,8,0
448,449,OK,3089,3000,3089,True,11,0
449,450,OK,2718,2670,2718,True,12,0
450,451,OK,4256,4283,4256,False,12,0
451,452,OK,2633,2721,2633,False,10,0
452,453,OK,2292,2356,2292,False,11,0
453,454,OK,3992,3849,3992,True,11,0
454,455,OK,2039,2004,2039,True,9,0
455,456,OK,2630,2697,2630,False,10,0
456,457,OK,1877,1814,1877,True,8,0
457,458,OK,1491,1437,1491,True,10,0
458,459,OK,3980,3830,3980,True,11,0
459,460,OK,1355,1327,1355,True,8,0
460,461,OK,3527,3661,3527,False,11,0
461,462,OK,3067,3020,3067,True,10,0
462,463,OK,2820,2795,2820,True,10,0
463,464,OK,2145,2161,2145,False,10,0
464,465,OK,3962,3807,3962,True,11,0
465,466,OK,2714,2665,2714,True,11,0
466,467,OK,2422,2362,2422,True,10,0
467,468,OK,3923,4000,3923,False,11,0
468,469,OK,4030,4127,4030,False,11,0
469,470,OK,3623,3737,3623,False,10,0
470,471,OK,4115,4279,4115,False,11,0
471,472,OK,3670,3618,3670,True,11,0
472,473,OK,1773,1702,1773,True,11,0
473,474,OK,4017,4109,4017,False,11,0
474,475,OK,2977,2959,2977,True,10,0
475,476,OK,3971,4097,3971,False,11,0
476,477,OK,4712,4666,4712,True,11,0
477,478,OK,1743,1709,1743,True,10,0
478,479,OK,2072,2023,2072,True,12,0
479,480,OK,3508,3545,3508,False,11,0
480,481,OK,4006,3876,4006,True,11,0
481,482,OK,3715,3852,3715,False,10,0
482,483,OK,3623,3581,3623,True,10,0
483,484,OK,3986,4037,3986,False,12,0
484,485,OK,2781,2670,2781,True,10,0
485,486,OK,2082,2053,2082,True,11,0
486,487,OK,3563,3542,3563,True,10,0
487,488,OK,4110,4200,4110,False,11,0
488,489,OK,3645,3591,3645,True,10,0
489,490,OK,3610,3558,3610,True,12,0
490,491,OK,2515,2612,2515,False,12,0
491,492,OK,3141,3230,3141,False,10,0
492,493,OK,2109,2024,2109,True,10,0
493,494,OK,3577,3492,3577,True,10,0
494,495,OK,2939,3039,2939,False,10,0
495,496,OK,3404,3413,3404,False,10,0
496,497,OK,3438,3434,3438,True,11,0
497,498,OK,3559,3436,3559,True,10,0
498,499,OK,2888,2806,2888,True,10,0
499,500,OK,3727,3736,3727,False,12,0
