Unnamed: 0,4,10,15,20,25
0,0.12921951649997254,0.49898112899995795,2.341098825500012,2.037211883999817,1.9848412634996748
1,0.21784632050002986,0.8986037485000224,1.6842414249999818,2.0145870454998662,1.9219055940002363
2,0.2995912839999733,0.8930175309999981,1.8892023100000301,2.0103983110000168,1.996580344999984
3,0.19462685300004529,1.2114428204999967,2.2684824834999517,2.003318247000152,1.6815215194997108
4,0.12547824000000676,0.7342785529999674,2.2230768754999986,2.5723139585002173,1.717933139500019
5,0.11754613049998852,0.7643222555000193,1.9679320569999843,2.1188579904999187,2.2972761754999738
6,0.17201367499995968,1.0052802019999945,2.0136168294999948,2.2325014020000253,2.2179923829999098
7,0.1931186814999819,0.8215592994999952,1.959947035000028,2.366405425000039,1.6440728714997022
8,0.15464641450000727,1.0837831355000276,2.1620271385000365,1.6998767044999568,2.062339211499875
9,0.10711072149996426,0.9870072964999964,2.3105492354999337,2.4876646069999424,2.161542179500429
10,0.12170146099998648,0.7065081624999721,1.917738257499991,2.745381005499894,2.2552721735005434
11,0.14793518350001025,1.1029447710000109,1.878794790499967,1.7871419319999404,1.9052503964999232
12,0.11573683249997654,0.7808605570000395,2.4307911804999662,3.1252762910000915,1.7203901689999843
13,0.1329422389999877,0.8914573885000436,2.2452191424999906,2.3718005890000318,2.001869157499641
14,0.162172336000026,0.8472626925000668,2.3538900720000133,2.8356224975000264,1.8923129930003602
15,0.10950692700004083,0.9777266254999972,1.8936418085000355,2.3869834479996825,1.8675462265005085
16,0.17985645449999765,0.9052856614999882,1.7491207324999891,2.1312813985000503,1.6783004884996444
17,0.09316178300002777,0.7580478599999765,1.9112060909999968,2.8266297479999603,1.885173225499784
18,0.18462399850005795,1.189978619000044,1.822617227999956,2.3710700244998857,1.9304725205001887
19,0.13277959799995642,0.7957763880000357,1.95619840750004,2.56006831700006,2.0067844364998564
20,0.13475018849999287,0.7738124100000618,1.6878464904999646,2.238776116999816,1.8705835979999392
21,0.19967258099995888,0.8774039725000193,2.1767252040000358,1.9860174914997517,1.9679065720001745
22,0.2078470150000271,0.8447011069999917,1.7879996330000267,1.9660747815000832,2.112611666000248
23,0.1772793574999696,0.7115633660000071,1.9482212830000665,2.391258590499774,1.8717173489999368
24,0.17716236900002968,0.7862544234999405,2.0181449940000675,2.4446034320001218,2.0456899434998377
25,0.14901601349998828,0.7281711085000211,2.464702139499934,2.7603243364999344,2.0761816330000333
26,0.1839536839999596,0.9291223909999644,2.383619493499964,2.613819563500101,1.5694643189999624
27,0.1546056865000196,0.7232086215000209,1.9654981279999788,2.6097555495000506,2.152883068000392
28,0.14645654199995306,0.8735444165000104,1.9512962215000016,2.5306076655001557,1.749424841000291
29,0.12144639899997856,0.7829715235000094,2.002098248999971,2.145112039999958,1.5393609575003209
30,0.1846434654999598,0.7091090745000201,1.997106624999958,2.49357961350006,1.5357273814997825
31,0.16116357850000895,1.01897128600001,1.9747371490000205,2.2667797879998943,1.623334059499939
32,0.12729135850003104,0.93514553600005,1.6196141194999996,2.5602513835001446,1.8446730085001943
33,0.19618713099993101,0.7082936684999481,1.962898528999972,2.5415545500000007,1.942318211000384
34,0.09295756450001136,1.0030934965000142,2.2255231524999894,2.5490349550000246,1.8335542325003191
35,0.13848645049995412,0.8438963895000029,1.7600415890000247,2.7093341849999892,2.236486295999839
36,0.14348577700002352,0.8537028715000474,2.0426544595,2.274897457000179,1.6755663194999215
37,0.17359294950000506,0.858015077999994,2.2919391354999448,2.3461326509998344,2.112543917500261
38,0.14385933099998738,0.7754123440000171,1.9315525444999933,2.327591551499836,1.901555394999832
39,0.13686987900001668,0.8957570735000786,1.9292595544999929,2.029867700499836,2.080180012500477
40,0.10531489549998696,1.3459859745000244,1.6627376860000145,2.650715831500293,1.9950294515001588
41,0.15052809399998068,0.6939028659999735,1.894461645999968,2.496829401500236,1.9653788230002647
42,0.12565960249997946,0.8113442924999958,2.0289720425000155,2.4739201309998857,2.4845397865001355
43,0.11656521749995365,0.8687335849999727,1.914988718499956,2.3815291385003547,1.8380675170001268
44,0.16784055499999795,0.8607355510000048,2.818617228999983,2.7729392070000363,1.753134464499908
45,0.15176919499998576,0.8660209899999813,2.6030377989999915,2.0160982755000987,1.8892767319998711
46,0.0552519889999985,0.9077608499999316,2.099327694500005,2.8121424770001795,2.669786626000132
47,0.1254732694999916,0.7924171665000017,2.3399633165000178,2.354976178500237,2.2687079450001875
48,0.15709294050003564,0.9499945379999986,2.566039572500017,2.817709342999933,2.088489279999976
49,0.1475516434999804,1.020541293000008,1.5342010150000078,2.12567817199988,2.385918401500021
50,0.1396416199999635,0.7206546625000101,2.4789747185000124,2.4270094140001675,1.9798311145000296
51,0.15765863299992589,1.0822844144999522,2.4831047940000417,2.7997971974996285,2.0194416739996086
52,0.06892924250007583,0.8711482844999523,2.515618616999973,2.108447533500112,1.671270912000182
53,0.09642728950001356,1.2070161905000418,2.3546611700000426,1.9288855529998727,1.7303665130002628
54,0.0966024085000754,0.8492253169999913,2.156331642499936,2.922865533500044,1.8809841315001
55,0.1460181389999775,1.213950691999969,1.9819073274999823,1.8953996155005368,1.87369436400013
56,0.1733318080000572,0.9148967364999976,1.7806351930000233,2.612821658500252,1.8332225089998249
57,0.1453245289999927,0.8698641539999699,2.2106909720000094,2.8614662664995194,1.7555204390005201
58,0.24383837800002084,1.0661019545000272,2.3470970175000048,2.4518128270005946,1.7191245709996108
59,0.13578662550003173,1.1056098689999772,2.044622640000057,2.7253273295000326,1.9877560309996625
60,0.1064816035000149,0.6791133585000466,1.7555598104999603,2.667759952999859,1.8289212770000631
61,0.2035524635000457,1.1110453869999901,1.8420952000000737,2.533219635000023,1.9418179260001125
62,0.15750807299997405,0.7096802010000258,1.8926868329999704,2.604722568500165,2.2951683705000505
63,0.13158402950000436,0.9409427950000122,1.8040262774999856,2.589652982000189,1.6383220155003069
64,0.2174993365000546,0.7733291475000215,1.9437737685000231,2.3196154259999275,2.3326475869998835
65,0.1719017400000098,0.8286949230000573,2.070825868000042,2.8368513324999185,2.037665985500098
66,0.18212235199996485,0.9174075590000256,2.413604279000083,2.3553339085001426,1.74510431050021
67,0.12245330550001655,1.0434500049999542,1.6875114434999432,2.2175982584999474,1.7212686285001837
68,0.1736363965000578,0.7089871449999805,2.334590697000067,2.5962487560000227,1.6010814084997946
69,0.1461817135000274,1.037268461999986,2.5970687315000305,2.6679733425003183,1.8852728619999648
70,0.13994121899997936,0.9010681514999987,1.8692537575000188,2.4798558319998847,1.9064960574996803
71,0.12185862799998405,0.9291402055000048,2.4744223069999407,2.357266962000267,1.7523171604998424
72,0.1951153040000122,0.8394129274999499,1.7946986210000655,2.3226957750002843,2.0126146934999265
73,0.17586966800001844,0.8497922210000297,1.993962415000169,2.8148547374999,1.5822974309999154
74,0.16242476700000452,0.5057019120000064,2.3142335789999606,2.421478941500027,1.4276372225003795
75,0.08476903499996524,1.057447805000038,2.0813066194999688,2.6968913360001348,1.9285151794997544
76,0.10649540650001654,1.242017886000042,2.2777040994999425,2.2277791824994893,1.9729631810000683
77,0.16032662999998593,0.8260321590000217,2.0026773870000625,2.628602359500292,1.6071715435000442
78,0.09725643999996693,1.0395295980000585,2.0782948400000123,1.6698609744998976,1.7756344174995322
79,0.04917848450003248,0.8188087390000192,1.6876111904999789,2.436806099500245,1.8558988915001464
80,0.19694023149997966,0.9817053874999716,1.5355871799999932,2.3180537214998367,2.315054106500156
81,0.2046940904999701,1.1130794215000606,1.928537307000056,2.5872676425001373,1.9139985724996225
82,0.21574513000001616,0.7391191259999346,1.8903745175000493,2.822597729500103,1.563471889000084
83,0.1433865804999641,0.9273487890000072,2.2151442930000944,2.4971964424998987,1.6957061675002478
84,0.13380018249995373,0.9641725435000694,1.7961946059999718,2.249021720499968,1.8562468999998605
85,0.12234607849995882,0.9732527939999612,1.9088457124998968,2.3921670814997924,2.2142862730001984
86,0.12903331450002042,0.7157695559999979,2.421066805000009,2.47528451900007,1.9578574399997704
87,0.2034180159999437,1.1863309795000418,1.831697651500008,2.2279620634999446,1.776935526499983
88,0.09662183400001824,1.0610542459999692,1.9383948299998792,2.1298390430001746,1.9096866129998489
89,0.15547512749998305,0.564222056999995,1.838021398500132,2.413822389499728,1.7374129370000446
90,0.10947460149998277,1.0650149935000286,1.9766000264999093,2.316112366499965,2.1855210250005257
91,0.1086031739999953,0.6133772700000009,1.7387244160000819,2.6900684509996613,1.8427073709999604
92,0.15725236050008107,1.138646468499985,1.6412236369999391,2.8434106320000865,1.5109396279999598
93,0.09989855499992473,1.0920864444999552,1.7842637339999785,2.45909929949994,1.6912529270002779
94,0.0758880409999847,0.7078380070000208,1.6959406649999664,2.8112869024998868,2.061248773999523
95,0.12554535250006893,1.1088203095000042,1.638805359999992,3.0252405860001086,2.120493081499717
96,0.11928935350005075,1.0978503565000324,1.68604298799994,2.3901750909999464,1.7844186429997535
97,0.19947805800001106,0.8707639490000361,2.0425475875000534,1.6717841105000844,2.0797963535001145
98,0.13271704449999788,0.8115235015000053,1.9981300299999705,2.120125274499969,2.0356382859999944
99,0.14889169550002634,0.8464404545000548,1.9089742660000864,2.2316381290002028,2.0840973710000985
