,ID,status,opt price,max price,visited
0,1,0,10050,9713,14
1,2,0,13567,11760,13
2,3,1,12533,12533,13
3,4,0,13451,12002,13
4,5,0,13049,11867,13
5,6,0,15668,15601,13
6,7,0,12945,11450,13
7,8,0,14258,13821,13
8,9,0,12322,10779,13
9,10,0,13667,12046,13
10,11,0,15228,14150,13
11,12,0,15451,15031,13
12,13,1,12342,12342,14
13,14,0,13968,13940,13
14,15,0,12761,12131,13
15,16,0,14890,14105,13
16,17,0,14942,14571,13
17,18,1,14762,14762,14
18,19,0,12897,11026,13
19,20,0,13270,12014,13
20,21,0,12964,12026,13
21,22,0,11948,11337,13
22,23,0,13558,12420,13
23,24,0,14210,14038,14
24,25,0,11634,11272,14
25,26,0,12226,10842,13
26,27,0,13152,11300,13
27,28,0,13100,11445,13
28,29,0,11559,10440,14
29,30,0,13196,12949,14
30,31,0,13147,12800,14
31,32,0,13052,12194,13
32,33,0,13719,12526,13
33,34,0,16230,15145,13
34,35,0,12515,11538,13
35,36,0,12223,12022,14
36,37,0,15567,15408,13
37,38,0,14342,12706,13
38,39,0,14722,13038,13
39,40,0,11905,11798,14
40,41,0,12549,11333,13
41,42,0,12378,10707,13
42,43,0,15336,14773,13
43,44,0,14422,12947,13
44,45,0,11804,11679,13
45,46,0,12938,12914,14
46,47,1,12726,12726,14
47,48,0,14642,14389,13
48,49,0,13334,12237,13
49,50,0,13127,12287,13
50,51,0,11176,10590,13
51,52,0,15326,14046,13
52,53,0,11463,11301,14
53,54,0,14541,13273,13
54,55,0,15847,15354,13
55,56,0,10539,10460,14
56,57,0,13159,11818,13
57,58,0,13929,13394,14
58,59,0,14096,13793,13
59,60,0,13850,13603,13
60,61,0,14904,14035,13
61,62,0,12448,10867,13
62,63,0,14445,13733,13
63,64,0,12756,12661,14
64,65,0,13726,12633,13
65,66,0,16321,14785,12
66,67,0,12870,12302,14
67,68,0,11726,11309,13
68,69,0,16061,14843,13
69,70,0,12452,12396,14
70,71,1,12309,12309,14
71,72,0,13655,12469,13
72,73,0,15558,14660,13
73,74,0,12611,11711,14
74,75,1,11678,11678,14
75,76,0,14926,14493,13
76,77,0,13532,12582,13
77,78,0,14282,14195,13
78,79,0,13401,12023,13
79,80,0,13904,13721,13
80,81,0,13412,12954,13
81,82,0,13482,12087,13
82,83,1,13154,13154,14
83,84,0,12220,11171,14
84,85,0,13227,12276,13
85,86,0,13015,11369,13
86,87,0,14236,13690,13
87,88,0,12907,11232,13
88,89,0,13063,12206,13
89,90,0,11883,11798,14
90,91,0,13209,12001,13
91,92,0,13364,13233,14
92,93,0,12461,11129,13
93,94,0,11855,11379,13
94,95,0,15565,15008,13
95,96,0,12915,11989,14
96,97,0,14375,13044,13
97,98,1,14032,14032,14
98,99,0,13357,12443,13
99,100,0,10793,9698,14
100,101,0,14400,13864,13
101,102,1,13094,13094,14
102,103,0,10174,9969,14
103,104,0,14660,13865,13
104,105,0,13308,12115,13
105,106,0,13346,12332,13
106,107,0,13887,12474,13
107,108,0,14062,12808,13
108,109,0,13032,12130,13
109,110,0,13067,11974,13
110,111,0,14967,13809,13
111,112,0,12691,11830,13
112,113,0,14191,13046,13
113,114,1,13014,13014,14
114,115,0,13710,12972,13
115,116,0,11640,10511,13
116,117,0,12508,12121,13
117,118,0,12319,11256,13
118,119,0,12517,10917,13
119,120,0,14847,14484,13
120,121,0,12964,12146,14
121,122,1,13202,13202,14
122,123,0,12945,12546,14
123,124,1,12878,12878,14
124,125,0,10846,10615,14
125,126,0,13386,12935,13
126,127,0,12475,12146,13
127,128,0,10920,10276,14
128,129,0,16005,15140,13
129,130,0,13629,11974,13
130,131,0,13627,12987,13
131,132,0,14720,12914,12
132,133,0,12653,10933,13
133,134,0,13709,13561,13
134,135,0,14676,14259,13
135,136,0,14436,13329,13
136,137,0,12563,11844,13
137,138,0,14906,14313,13
138,139,0,12662,11373,13
139,140,0,12410,12274,14
140,141,0,14045,12910,13
141,142,0,11813,10484,13
142,143,0,11022,10044,14
143,144,0,11635,10126,14
144,145,0,11486,11386,14
145,146,0,12034,11576,13
146,147,0,14182,12596,13
147,148,0,12978,12117,13
148,149,0,15870,14643,13
149,150,0,11164,9837,13
150,151,0,13938,13659,13
151,152,0,12851,12642,14
152,153,1,15000,15000,13
153,154,0,12843,11650,13
154,155,0,12831,12266,13
155,156,0,12635,11090,13
156,157,0,14928,14285,13
157,158,0,14320,13635,13
158,159,0,11178,9447,14
159,160,0,13390,12981,14
160,161,0,14895,14280,13
161,162,0,10457,9675,13
162,163,0,13246,11933,13
163,164,0,13398,12901,13
164,165,0,13972,13149,13
165,166,0,13844,12574,13
166,167,0,9768,9600,14
167,168,0,13187,11507,13
168,169,0,12020,11779,14
169,170,0,13642,12854,13
170,171,1,13655,13655,14
171,172,0,16124,15940,13
172,173,0,12358,10687,13
173,174,0,14319,14061,13
174,175,0,13664,12495,13
175,176,0,12961,11298,13
176,177,0,13379,13286,14
177,178,0,12884,11991,14
178,179,1,13921,13921,14
179,180,0,13189,11783,13
180,181,0,11799,10514,13
181,182,0,12928,11682,13
182,183,0,15414,15013,13
183,184,0,12744,12227,14
184,185,0,14793,13487,13
185,186,0,14505,13461,13
186,187,0,14044,13006,13
187,188,0,9938,8763,14
188,189,0,14145,12706,13
189,190,0,12813,12706,14
190,191,0,14558,13076,13
191,192,0,13415,12306,13
192,193,0,11699,11376,14
193,194,0,15147,14448,13
194,195,0,14740,14223,13
195,196,0,15495,15039,13
196,197,0,14024,12681,13
197,198,0,13996,13017,13
198,199,0,12930,11397,13
199,200,0,11565,11031,14
200,201,0,12524,11590,13
201,202,0,10996,10292,13
202,203,0,13229,12922,14
203,204,0,11900,10733,13
204,205,0,13556,13254,14
205,206,0,13000,12279,13
206,207,0,13276,12326,13
207,208,0,12992,11825,13
208,209,0,14413,13715,13
209,210,0,16024,15421,13
210,211,0,10880,10194,14
211,212,0,13748,12472,13
212,213,1,8436,8436,15
213,214,0,13986,12570,13
214,215,0,15256,14355,13
215,216,0,10892,10114,13
216,217,0,14634,12733,13
217,218,0,13617,11706,13
218,219,0,12808,12178,13
219,220,0,16675,16110,13
220,221,0,14419,13958,13
221,222,0,16322,15872,13
222,223,0,13662,13295,14
223,224,0,14191,12738,12
224,225,0,14756,13996,13
225,226,0,12984,12698,13
226,227,0,12329,11590,14
227,228,0,12130,11898,14
228,229,0,11283,10330,13
229,230,0,11096,10209,14
230,231,1,12148,12148,14
231,232,0,15074,13896,13
232,233,0,15831,15066,13
233,234,0,14390,13749,13
234,235,0,14305,13911,13
235,236,0,14600,13707,13
236,237,0,15542,14529,13
237,238,0,14839,14207,13
238,239,0,13536,12354,13
239,240,0,14225,13650,13
240,241,0,13664,12787,13
241,242,0,11525,10791,14
242,243,0,14750,14541,13
243,244,0,13159,12925,14
244,245,0,12382,12356,14
245,246,0,15697,15354,13
246,247,0,14922,13673,13
247,248,0,12943,11615,13
248,249,1,13513,13513,14
249,250,1,12967,12967,14
250,251,0,12347,11933,14
251,252,0,16993,16754,13
252,253,0,13496,13088,13
253,254,0,12542,11346,13
254,255,0,14992,14936,13
255,256,0,12651,11968,14
256,257,0,14712,14364,13
257,258,0,12022,11410,14
258,259,0,13429,13256,14
259,260,0,13259,13074,14
260,261,0,11090,10003,14
261,262,0,12842,12004,13
262,263,0,11585,11453,14
263,264,0,13429,11736,13
264,265,0,10633,10040,13
265,266,0,13026,12503,14
266,267,0,14471,13447,13
267,268,0,11650,9938,14
268,269,0,13943,12306,12
269,270,0,13627,12681,13
270,271,0,13425,12145,13
271,272,0,12425,11906,14
272,273,0,10673,9816,14
273,274,0,10207,9983,14
274,275,0,14637,13642,13
275,276,0,12918,12706,14
276,277,0,12569,11783,13
277,278,1,11693,11693,14
278,279,0,12867,11489,13
279,280,0,14626,13649,13
280,281,0,13348,12181,13
281,282,0,14328,14175,14
282,283,0,13930,13809,13
283,284,0,14268,14143,13
284,285,1,12678,12678,14
285,286,0,13675,12122,13
286,287,0,12803,11232,13
287,288,0,11841,11524,14
288,289,0,10545,9138,14
289,290,0,12529,11733,13
290,291,0,13484,11955,13
291,292,0,13709,13107,13
292,293,0,14189,12547,13
293,294,0,12845,12076,14
294,295,0,15215,13691,13
295,296,0,14433,13365,13
296,297,0,12642,12550,14
297,298,0,13844,13496,13
298,299,0,12367,11825,13
299,300,0,12861,11126,13
300,301,0,12902,11736,13
301,302,0,14194,12760,13
302,303,0,12054,11529,14
303,304,0,14733,14581,13
304,305,0,10977,10569,14
305,306,0,13318,11629,13
306,307,0,13956,12174,13
307,308,0,13410,12655,13
308,309,0,12654,11953,13
309,310,0,13786,12549,13
310,311,0,13127,12110,13
311,312,0,13271,11989,13
312,313,0,16151,15227,13
313,314,0,14153,12866,13
314,315,0,15119,13486,13
315,316,0,11313,10157,13
316,317,0,14601,14107,13
317,318,0,18019,17064,12
318,319,0,11896,11403,14
319,320,0,10468,9410,14
320,321,0,12088,10893,14
321,322,0,11014,9718,14
322,323,0,15611,13908,12
323,324,0,15206,13951,13
324,325,1,12576,12576,14
325,326,0,12012,11850,14
326,327,0,14210,12488,13
327,328,0,14673,14051,13
328,329,0,13306,11657,13
329,330,0,11779,11375,14
330,331,0,12350,11506,14
331,332,0,11335,11223,14
332,333,0,11934,11762,14
333,334,0,14723,12933,13
334,335,0,12468,12005,14
335,336,0,13565,13472,14
336,337,0,12266,12053,14
337,338,0,13197,11774,13
338,339,0,14293,14273,13
339,340,0,13895,12849,13
340,341,0,13451,13335,14
341,342,0,12778,11755,13
342,343,1,13461,13461,14
343,344,0,9870,9325,14
344,345,0,11833,10917,13
345,346,0,14756,13159,13
346,347,0,12505,11201,13
347,348,0,14371,12812,13
348,349,1,12476,12476,14
349,350,0,15044,14199,13
350,351,0,13723,12231,13
351,352,0,13557,12842,13
352,353,0,11641,10675,13
353,354,0,13592,12151,13
354,355,0,12343,11455,13
355,356,0,13202,12768,14
356,357,0,13824,13207,13
357,358,1,10472,10472,14
358,359,1,12348,12348,14
359,360,0,11568,11339,14
360,361,0,14876,14155,13
361,362,0,12033,10435,13
362,363,0,14595,13075,13
363,364,0,13361,12087,13
364,365,0,15969,15539,13
365,366,0,12651,11665,13
366,367,0,14898,14860,13
367,368,0,11561,10607,14
368,369,1,12506,12506,14
369,370,1,14061,14061,14
370,371,0,14165,12807,13
371,372,0,11854,10829,13
372,373,0,13256,13082,14
373,374,0,13276,11848,13
374,375,0,12099,11248,13
375,376,0,12327,11736,14
376,377,0,11450,10896,14
377,378,0,11425,10851,14
378,379,0,10522,9874,14
379,380,0,16002,14867,12
380,381,0,12814,12361,13
381,382,0,12483,10955,13
382,383,0,11047,10538,14
383,384,0,15147,15069,13
384,385,0,13075,11329,13
385,386,1,12536,12536,14
386,387,0,14831,13599,13
387,388,1,13598,13598,14
388,389,0,14203,13022,12
389,390,0,12426,11930,14
390,391,1,11418,11418,14
391,392,0,11876,11818,14
392,393,0,13151,11688,13
393,394,0,13992,12748,13
394,395,1,12907,12907,14
395,396,0,10542,9999,14
396,397,0,13131,13090,14
397,398,0,12719,12617,14
398,399,0,13977,12377,12
399,400,0,11447,11128,14
400,401,0,10647,9560,13
401,402,0,14550,13036,13
402,403,1,13245,13245,14
403,404,0,9900,9183,14
404,405,0,13549,12247,13
405,406,0,12058,10558,13
406,407,0,14220,13575,13
407,408,0,15349,14284,13
408,409,0,13993,13506,13
409,410,0,13736,12608,13
410,411,0,13821,12397,13
411,412,0,13106,12346,13
412,413,0,14535,13919,13
413,414,0,15651,14705,13
414,415,0,13681,12055,13
415,416,0,15680,15485,13
416,417,0,12967,12083,13
417,418,1,13053,13053,14
418,419,0,12004,10703,13
419,420,0,13485,12724,13
420,421,0,12951,12595,14
421,422,0,11927,11428,14
422,423,0,9471,8023,14
423,424,0,13274,12280,13
424,425,0,14853,13395,13
425,426,0,12339,12017,13
426,427,0,12758,11244,13
427,428,0,15543,14243,13
428,429,0,14229,14081,14
429,430,0,13839,13308,13
430,431,0,13672,12491,13
431,432,0,12326,10810,13
432,433,0,13401,12856,14
433,434,0,14541,14159,13
434,435,0,13622,12441,13
435,436,0,14168,13919,13
436,437,0,15243,14485,13
437,438,0,11595,11281,14
438,439,0,12037,11761,14
439,440,0,12904,11408,13
440,441,0,11799,11159,14
441,442,0,13346,12604,13
442,443,0,12029,10931,13
443,444,0,17069,15120,12
444,445,0,14031,12697,13
445,446,0,11067,10402,14
446,447,0,9711,8537,13
447,448,0,13650,12788,13
448,449,0,13158,12734,14
449,450,0,12745,12492,13
450,451,0,13589,11692,13
451,452,0,15261,14440,13
452,453,0,13452,13436,14
453,454,0,12321,11400,14
454,455,0,14637,14631,13
455,456,0,10496,9480,14
456,457,0,13390,11984,13
457,458,0,10765,9906,14
458,459,0,13142,11363,13
459,460,0,10166,9284,14
460,461,0,13435,13175,14
461,462,0,11478,10847,14
462,463,0,15112,13510,12
463,464,1,11063,11063,14
464,465,0,13471,11982,13
465,466,0,13812,12344,13
466,467,0,12608,11337,13
467,468,0,12641,11299,13
468,469,0,9641,9454,13
469,470,0,13616,12420,13
470,471,0,14724,13351,13
471,472,0,11822,11650,14
472,473,0,12082,11142,13
473,474,0,12293,12113,14
474,475,0,12115,11361,14
475,476,0,14581,13752,13
476,477,0,13339,11941,13
477,478,0,14380,12991,13
478,479,1,12550,12550,14
479,480,0,13975,13009,13
480,481,0,12961,11855,13
481,482,0,12801,11342,13
482,483,0,13041,11619,13
483,484,0,11698,11179,14
484,485,0,13568,12244,13
485,486,0,11453,10395,13
486,487,0,14857,13414,13
487,488,0,13775,13076,13
488,489,0,11991,10957,13
489,490,0,10099,9003,14
490,491,0,12793,11979,13
491,492,0,14740,14357,13
492,493,0,13385,12476,13
493,494,0,16561,16241,13
494,495,0,13217,12656,13
495,496,0,12661,12331,14
496,497,0,12043,10864,13
497,498,0,11173,9963,14
498,499,1,10832,10832,14
499,500,0,15375,13516,12
