,ID,status,opt price,max price,visited
0,1,0,6515,5977,10
1,2,1,7842,7842,10
2,3,1,9119,9119,10
3,4,0,8050,6872,9
4,5,0,7726,7632,10
5,6,0,9269,8655,9
6,7,0,9119,9111,10
7,8,0,9394,7999,9
8,9,0,9776,8521,9
9,10,0,7501,7334,10
10,11,0,10069,8797,8
11,12,0,9567,8860,9
12,13,1,7461,7461,10
13,14,0,9128,8146,9
14,15,0,8953,7364,9
15,16,0,10810,9848,9
16,17,0,9464,8507,9
17,18,0,9952,9352,9
18,19,0,8495,6861,9
19,20,0,8770,7653,9
20,21,0,9542,8647,9
21,22,0,8302,6791,9
22,23,0,8879,7579,9
23,24,0,9894,8573,9
24,25,0,9352,8842,9
25,26,0,9607,8104,9
26,27,0,10466,9822,9
27,28,0,7881,7657,10
28,29,0,8537,8406,10
29,30,0,8735,7644,9
30,31,0,7292,7218,10
31,32,0,8207,7079,9
32,33,0,8373,6623,9
33,34,0,10350,9324,9
34,35,1,9058,9058,10
35,36,0,6607,6326,10
36,37,0,8876,8181,9
37,38,0,7591,7493,10
38,39,0,8900,8874,10
39,40,1,8204,8204,10
40,41,0,7689,7007,10
41,42,0,7866,7508,10
42,43,0,8754,7469,9
43,44,1,9088,9088,10
44,45,0,7900,7371,10
45,46,0,8476,7787,9
46,47,0,10141,9188,9
47,48,0,8048,6533,9
48,49,0,10749,9568,9
49,50,0,9609,8371,9
50,51,0,8264,7868,10
51,52,0,6396,5794,9
52,53,0,10433,9792,9
53,54,0,9217,7888,9
54,55,0,10307,10010,9
55,56,0,10624,10175,9
56,57,0,9654,8878,9
57,58,0,7907,6088,9
58,59,1,8195,8195,10
59,60,0,7136,6645,10
60,61,0,9051,7665,9
61,62,0,9673,8934,9
62,63,0,9274,7757,9
63,64,0,9739,8188,9
64,65,0,7994,7355,9
65,66,0,7795,6667,9
66,67,0,8917,7383,9
67,68,0,8205,8023,10
68,69,0,6682,6179,10
69,70,0,11897,11717,9
70,71,0,7981,7921,10
71,72,0,9418,8364,9
72,73,0,7108,6866,10
73,74,0,8225,7074,9
74,75,0,7856,7337,10
75,76,0,9638,8327,9
76,77,0,7082,5960,9
77,78,0,10215,8847,9
78,79,0,8877,7668,9
79,80,0,10785,10100,9
80,81,1,6890,6890,10
81,82,0,7765,7626,10
82,83,1,9221,9221,10
83,84,0,9852,8258,9
84,85,0,7419,6972,10
85,86,0,9904,8803,9
86,87,0,9282,8162,9
87,88,0,9417,8926,9
88,89,0,9673,8132,9
89,90,0,7400,6289,9
90,91,0,10212,9543,9
91,92,0,8563,8202,10
92,93,0,8253,7977,9
93,94,0,9964,9230,9
94,95,0,9121,7394,9
95,96,0,10711,10163,9
96,97,0,8505,8275,10
97,98,0,8293,8223,10
98,99,0,7318,6348,9
99,100,0,10019,8224,9
100,101,0,9839,8331,9
101,102,0,7929,6883,9
102,103,0,7616,6265,9
103,104,0,8936,8795,10
104,105,0,9514,8345,9
105,106,0,10356,10057,9
106,107,0,8921,7055,9
107,108,0,8910,8700,10
108,109,0,6379,5800,9
109,110,0,8146,7800,9
110,111,0,10929,10060,9
111,112,0,8747,7797,9
112,113,0,9316,8957,9
113,114,0,8706,7693,9
114,115,0,9014,7596,9
115,116,0,9756,8682,9
116,117,1,7710,7710,10
117,118,0,9504,8246,9
118,119,1,8222,8222,10
119,120,0,9736,8704,9
120,121,0,7385,7138,10
121,122,0,8499,7804,10
122,123,0,9322,8891,9
123,124,0,8823,6979,9
124,125,0,7797,7705,10
125,126,0,9666,8876,9
126,127,1,8676,8676,10
127,128,1,8013,8013,10
128,129,0,9170,7943,9
129,130,0,7540,7269,10
130,131,0,7456,6766,9
131,132,0,8541,7491,9
132,133,0,10433,9350,9
133,134,1,8919,8919,10
134,135,0,7976,6684,9
135,136,0,7762,6925,9
136,137,0,7462,6172,9
137,138,0,10620,9459,9
138,139,0,9633,8488,9
139,140,0,8630,8264,10
140,141,0,9049,8109,9
141,142,0,9838,8934,9
142,143,1,8922,8922,10
143,144,0,7962,6745,9
144,145,0,6482,6003,10
145,146,0,9531,7922,9
146,147,0,9040,7561,9
147,148,0,7793,7705,10
148,149,0,8099,7902,10
149,150,1,5883,5883,10
150,151,0,10053,8585,9
151,152,0,8705,7103,9
152,153,0,9935,9324,9
153,154,0,8286,7411,9
154,155,0,8789,7070,9
155,156,0,8803,7647,9
156,157,0,9678,8076,9
157,158,0,8871,7489,9
158,159,0,6920,6599,10
159,160,0,9879,9220,9
160,161,0,9976,9192,9
161,162,0,9936,9142,9
162,163,0,7752,6687,9
163,164,1,8759,8759,10
164,165,1,9633,9633,10
165,166,0,7771,7665,10
166,167,0,8807,7508,9
167,168,1,8202,8202,10
168,169,0,7623,6722,9
169,170,0,8363,7220,9
170,171,0,6947,6750,10
171,172,0,8876,7743,9
172,173,0,7873,7514,10
173,174,0,9645,9367,9
174,175,0,9246,7948,9
175,176,0,8832,8465,10
176,177,0,7514,7463,10
177,178,0,8994,7583,9
178,179,0,9299,7947,9
179,180,0,8627,6942,9
180,181,0,8682,7735,9
181,182,0,6210,6059,10
182,183,0,9376,8733,9
183,184,0,8688,7778,9
184,185,0,7146,6448,9
185,186,0,8031,6331,9
186,187,0,9988,8521,9
187,188,0,9102,7849,9
188,189,0,8940,7693,9
189,190,0,9342,7584,9
190,191,0,8756,8128,9
191,192,0,10231,9854,9
192,193,0,9227,8346,9
193,194,0,7035,5921,9
194,195,0,10334,10162,9
195,196,0,10342,9807,9
196,197,0,8255,7191,9
197,198,0,11161,10369,9
198,199,1,7669,7669,10
199,200,1,8417,8417,10
200,201,0,9689,9118,9
201,202,0,8290,6633,9
202,203,0,8738,7604,9
203,204,0,7599,7481,10
204,205,0,9365,8177,9
205,206,1,7997,7997,10
206,207,0,7712,6499,9
207,208,0,7439,7209,10
208,209,0,7713,7405,10
209,210,0,8315,7483,9
210,211,0,7522,6024,9
211,212,0,8040,7541,9
212,213,0,9190,7409,9
213,214,0,9171,7974,9
214,215,0,7960,6714,9
215,216,0,9443,8151,9
216,217,0,10385,9665,9
217,218,1,7927,7927,10
218,219,0,9962,9683,9
219,220,0,9471,7594,9
220,221,0,7108,6973,10
221,222,0,10342,10050,9
222,223,0,8417,7195,9
223,224,0,9210,8424,9
224,225,0,8052,6947,9
225,226,0,9937,8275,9
226,227,1,6403,6403,10
227,228,0,10138,8712,9
228,229,0,10026,9371,9
229,230,0,8264,7038,9
230,231,0,6805,6319,10
231,232,0,10876,9521,9
232,233,0,6974,6263,10
233,234,0,11164,10134,9
234,235,1,6937,6937,10
235,236,0,7607,6990,9
236,237,0,8648,6955,9
237,238,0,10069,9683,9
238,239,0,9101,7945,9
239,240,0,8341,7447,9
240,241,0,10411,10156,9
241,242,0,6405,5757,9
242,243,0,7075,6965,10
243,244,1,8026,8026,10
244,245,0,8019,7868,10
245,246,0,8282,6838,9
246,247,0,10265,9760,9
247,248,0,6972,6299,10
248,249,0,10647,10102,9
249,250,0,10450,9747,9
250,251,0,8777,7233,9
251,252,0,7829,7763,10
252,253,0,10072,8842,9
253,254,0,8666,7387,9
254,255,0,9212,7484,9
255,256,1,8417,8417,10
256,257,0,8217,7130,9
257,258,0,8672,6996,9
258,259,0,9157,7992,9
259,260,0,10524,9600,9
260,261,0,8006,7854,10
261,262,0,8771,7915,9
262,263,0,7764,7669,10
263,264,0,6917,6788,10
264,265,0,10094,9191,9
265,266,0,10658,10169,9
266,267,0,6755,6091,10
267,268,0,11079,10631,9
268,269,1,8612,8612,10
269,270,0,9000,7123,9
270,271,0,9576,8420,9
271,272,0,10200,9096,9
272,273,0,7904,7790,10
273,274,0,7099,6544,10
274,275,1,8989,8989,10
275,276,0,7718,6305,9
276,277,0,9402,7519,9
277,278,0,9355,7853,9
278,279,0,7656,7547,10
279,280,0,8046,7032,9
280,281,0,8026,6918,9
281,282,0,10874,10091,9
282,283,0,10347,9382,9
283,284,0,9365,8569,9
284,285,0,10028,9370,9
285,286,0,10181,9280,9
286,287,1,8769,8769,10
287,288,0,9233,8131,9
288,289,1,9347,9347,10
289,290,0,7655,6398,9
290,291,0,6834,6655,10
291,292,0,8293,7182,9
292,293,0,8004,7278,9
293,294,0,7681,7046,9
294,295,0,9629,8428,9
295,296,0,8201,8113,10
296,297,0,6561,6123,10
297,298,0,9826,9422,9
298,299,0,8509,7034,9
299,300,0,9348,8074,8
300,301,1,8182,8182,10
301,302,0,8849,7718,9
302,303,1,7922,7922,10
303,304,0,9813,8982,9
304,305,0,11972,10314,8
305,306,0,8202,6782,9
306,307,0,6043,4658,10
307,308,0,9028,7976,9
308,309,1,7395,7395,10
309,310,0,7121,6285,10
310,311,0,8801,7445,9
311,312,1,8911,8911,10
312,313,1,10716,10716,9
313,314,0,7098,6063,9
314,315,0,7423,6957,10
315,316,0,11074,9741,9
316,317,0,8509,7204,9
317,318,0,8486,7404,9
318,319,0,8650,7729,9
319,320,0,12268,11760,9
320,321,0,9331,7723,9
321,322,0,8930,7207,9
322,323,0,11777,11167,9
323,324,1,7939,7939,10
324,325,0,10316,8915,9
325,326,0,9024,7814,9
326,327,0,10231,9946,9
327,328,0,9802,9102,9
328,329,0,7671,7324,10
329,330,0,7468,6645,10
330,331,0,8217,6587,9
331,332,1,7364,7364,10
332,333,0,7616,6961,9
333,334,0,8120,6507,9
334,335,0,7325,7033,10
335,336,0,8105,6520,9
336,337,0,10038,9146,9
337,338,0,10631,10603,9
338,339,0,10709,9989,9
339,340,0,9209,8411,9
340,341,0,9993,8622,9
341,342,0,8790,7992,9
342,343,0,9357,7955,9
343,344,0,10124,9274,9
344,345,0,10416,9131,9
345,346,0,9795,8401,9
346,347,0,8312,6881,9
347,348,0,10194,9483,9
348,349,0,9660,8250,9
349,350,0,9798,8470,9
350,351,0,7844,7266,10
351,352,0,6819,6417,10
352,353,0,9983,9646,9
353,354,0,9047,8662,9
354,355,0,9155,7497,9
355,356,0,7711,7143,10
356,357,0,10297,9488,9
357,358,0,10355,9375,9
358,359,0,9318,8354,9
359,360,0,9165,7751,9
360,361,0,8809,7171,9
361,362,0,7951,7697,10
362,363,0,8352,6917,9
363,364,0,9532,9062,9
364,365,0,7147,6768,10
365,366,0,11742,11478,9
366,367,0,10624,10230,9
367,368,0,8264,7324,9
368,369,0,8948,7284,9
369,370,0,7652,6801,9
370,371,0,10561,9211,9
371,372,1,7116,7116,10
372,373,0,9498,8443,9
373,374,0,10341,9761,9
374,375,0,7152,6260,9
375,376,0,7870,6036,9
376,377,0,10715,10182,9
377,378,0,7916,7562,10
378,379,0,7855,7826,10
379,380,1,7586,7586,10
380,381,0,9161,8451,9
381,382,0,7449,7337,10
382,383,0,8828,8050,9
383,384,0,8323,7881,10
384,385,0,6645,6248,9
385,386,0,7481,6492,9
386,387,0,8884,7788,9
387,388,0,9631,8704,9
388,389,0,9307,7977,9
389,390,1,7778,7778,10
390,391,0,9764,8775,9
391,392,0,9156,7859,9
392,393,0,8969,8348,9
393,394,1,8428,8428,10
394,395,1,6056,6056,10
395,396,0,8582,7157,9
396,397,0,7896,7577,10
397,398,1,6013,6013,10
398,399,0,8055,8007,10
399,400,0,9780,8604,9
400,401,0,8316,7027,9
401,402,0,9590,8715,9
402,403,0,7238,5938,9
403,404,0,8019,6448,9
404,405,0,9202,8552,9
405,406,0,6963,6389,10
406,407,0,9915,9620,9
407,408,0,10249,9032,9
408,409,0,7719,6712,9
409,410,0,9573,9450,10
410,411,0,10475,10028,9
411,412,0,10136,9089,9
412,413,0,8274,7105,9
413,414,0,6321,5513,9
414,415,0,10926,9715,9
415,416,1,8129,8129,10
416,417,0,7994,6303,9
417,418,0,9304,9254,10
418,419,0,7458,6583,10
419,420,0,6870,6860,10
420,421,0,7368,6184,9
421,422,0,8166,7968,10
422,423,0,9304,8456,9
423,424,0,9802,9042,9
424,425,1,7959,7959,10
425,426,0,8961,8952,10
426,427,0,8927,7286,9
427,428,0,7332,7119,10
428,429,0,10887,10434,9
429,430,0,8681,8624,10
430,431,0,10572,9352,9
431,432,0,7646,7300,10
432,433,0,9955,8838,9
433,434,0,7768,6700,9
434,435,0,7458,6283,9
435,436,0,9866,9339,9
436,437,0,7996,6905,9
437,438,0,9034,7502,9
438,439,0,8429,8302,10
439,440,1,8712,8712,10
440,441,1,7898,7898,10
441,442,0,10386,9825,9
442,443,0,7687,7569,10
443,444,0,7849,6685,9
444,445,0,8344,7930,10
445,446,0,8604,8353,10
446,447,0,8671,7308,9
447,448,0,9726,9041,9
448,449,0,7506,5980,9
449,450,0,9898,9312,9
450,451,0,8690,7839,9
451,452,0,8612,7233,9
452,453,0,10593,9944,9
453,454,0,7822,7446,10
454,455,0,9575,8549,9
455,456,0,11512,10951,9
456,457,0,9527,8292,9
457,458,0,9548,7881,9
458,459,0,9078,8384,9
459,460,0,6707,5714,9
460,461,0,10013,9823,9
461,462,0,11672,10996,9
462,463,1,9440,9440,10
463,464,0,8710,6895,9
464,465,0,6010,4510,10
465,466,0,7105,6322,10
466,467,0,8458,6595,9
467,468,0,6366,6088,10
468,469,0,10123,9157,9
469,470,0,11888,11479,9
470,471,0,9391,8084,9
471,472,1,7505,7505,10
472,473,0,9402,8232,9
473,474,0,7459,7069,10
474,475,0,9277,7890,9
475,476,0,10046,9433,9
476,477,0,9994,8630,9
477,478,0,7210,6454,10
478,479,0,8591,7458,9
479,480,0,9207,8061,9
480,481,0,7934,6589,9
481,482,0,9035,7149,9
482,483,0,6324,5440,9
483,484,1,8577,8577,10
484,485,0,7727,7540,10
485,486,0,11173,10406,9
486,487,0,8308,6771,9
487,488,0,7022,6803,10
488,489,0,9551,8469,9
489,490,0,7849,7799,10
490,491,1,10435,10435,9
491,492,0,8077,6701,9
492,493,0,9719,9291,9
493,494,0,10026,9112,9
494,495,0,6388,5344,9
495,496,0,10096,8697,9
496,497,0,7598,7187,10
497,498,0,10420,10106,9
498,499,0,7964,6638,9
499,500,0,6436,6090,10
