,ID,status,opt price,max price,visited
0,6,1,4823,4823,0
1,15,1,1898,1898,0
2,17,1,7010,7010,0
3,48,1,5814,5814,0
4,58,1,2128,2128,0
5,59,1,2666,2666,0
6,107,1,3598,3598,0
7,123,1,3567,3567,0
8,151,1,1852,1852,0
9,164,1,9085,9085,0
10,168,1,3372,3372,0
11,183,1,6445,6445,0
12,224,1,6520,6520,0
13,230,1,3158,3158,0
14,237,1,2881,2881,0
15,242,1,2462,2462,0
16,262,1,4575,4575,0
17,301,1,6480,6480,0
18,357,1,2504,2504,0
19,358,1,6229,6229,0
20,364,1,5147,5147,0
21,371,1,5741,5741,0
22,397,1,7198,7198,0
23,404,1,8490,8490,0
24,446,1,5675,5675,0
25,454,1,11557,11557,0
26,463,1,2703,2703,0
27,467,1,5460,5460,0
28,468,1,3923,3923,0
29,486,1,2982,2982,0
30,489,1,2200,2200,0
31,535,1,4139,4139,0
32,538,1,2521,2521,0
33,540,1,4579,4579,0
34,546,1,6668,6668,0
35,557,1,2736,2736,0
36,576,1,5700,5700,0
37,581,1,7450,7450,0
38,586,1,4150,4150,0
39,599,1,4434,4434,0
40,635,1,8021,8021,0
41,636,1,9612,9612,0
42,653,1,2320,2320,0
43,662,1,21144,21144,0
44,685,1,4980,4980,0
45,706,1,5396,5396,0
46,721,1,2984,2984,0
47,727,1,2886,2886,0
48,731,1,2787,2787,0
49,747,1,7802,7802,0
50,762,1,1300,1300,0
51,779,1,3574,3574,0
52,802,1,3347,3347,0
53,808,1,4062,4062,0
54,824,1,3393,3393,0
55,834,1,3934,3934,0
56,858,1,4891,4891,0
57,868,1,4737,4737,0
58,871,1,4402,4402,0
59,879,1,5588,5588,0
60,880,1,8350,8350,0
61,890,1,11384,11384,0
62,899,1,4851,4851,0
63,901,1,5920,5920,0
64,910,1,4791,4791,0
65,927,1,4136,4136,0
66,929,1,7150,7150,0
67,946,1,9424,9424,0
68,976,1,5587,5587,0
69,989,1,7181,7181,0
70,1002,1,6686,6686,0
71,1014,1,3477,3477,0
72,1018,1,5329,5329,0
73,1025,1,4151,4151,0
74,1035,1,5023,5023,0
75,1038,1,4578,4578,0
76,1117,1,6819,6819,0
77,1126,1,1759,1759,0
78,1130,1,4899,4899,0
79,1136,1,3418,3418,0
80,1179,1,2880,2880,0
81,1185,1,3697,3697,0
82,1200,1,3528,3528,0
83,1203,1,10420,10420,0
84,1215,1,5656,5656,0
85,1216,1,5500,5500,0
86,1245,1,4859,4859,0
87,1253,1,4716,4716,0
88,1264,1,6929,6929,0
89,1271,1,6796,6796,0
90,1275,1,10807,10807,0
91,1283,1,2899,2899,0
92,1308,1,8092,8092,0
93,1357,1,2190,2190,0
94,1363,1,5134,5134,0
95,1366,1,4424,4424,0
96,1369,1,13999,13999,0
97,1370,1,4174,4174,0
98,1379,1,7933,7933,0
99,1389,1,5898,5898,0
100,1394,1,1243,1243,0
101,1400,1,1764,1764,0
102,1450,1,3170,3170,0
103,1465,1,6051,6051,0
104,1466,1,5670,5670,0
105,1469,1,2002,2002,0
106,1474,1,5445,5445,0
107,1486,1,318,318,0
108,1491,1,5109,5109,0
109,1497,1,9443,9443,0
110,1515,1,5065,5065,0
111,1516,1,3302,3302,0
112,1554,1,7526,7526,0
113,1556,1,9114,9114,0
114,1563,1,10757,10757,0
115,1570,1,3980,3980,0
116,1572,1,6740,6740,0
117,1582,1,2587,2587,0
118,1589,1,2498,2498,0
119,1591,1,4151,4151,0
120,1608,1,2994,2994,0
121,1620,1,2368,2368,0
122,1637,1,2778,2778,0
123,1646,1,2211,2211,0
124,1662,1,6117,6117,0
125,1665,1,6007,6007,0
126,1671,1,4083,4083,0
127,1679,1,2354,2354,0
128,1696,1,2769,2769,0
129,1703,1,39088,39088,0
130,1713,1,6196,6196,0
131,1734,1,6107,6107,0
132,1743,1,11406,11406,0
133,1758,1,10665,10665,0
134,1777,1,4287,4287,0
135,1786,1,4250,4250,0
136,1796,1,2526,2526,0
137,1806,1,6593,6593,0
138,1808,1,6825,6825,0
139,1839,1,4106,4106,0
140,1848,1,4790,4790,0
141,1862,1,2453,2453,0
142,1865,1,7534,7534,0
143,1866,1,6648,6648,0
144,1872,1,5008,5008,0
145,1892,1,6764,6764,0
146,1898,1,5990,5990,0
147,1911,1,4862,4862,0
148,1918,1,5055,5055,0
149,1926,1,4267,4267,0
150,1969,1,4351,4351,0
151,1989,1,7448,7448,0
152,1998,1,8602,8602,0
153,1999,1,4456,4456,0
