,ID,status,opt price,max price,visited
0,6,1,4823,4823,38
1,15,1,1898,1898,5
2,17,1,7010,7010,124
3,48,1,5814,5814,99
4,58,1,2128,2128,11
5,59,1,2666,2666,3
6,107,1,3598,3598,11
7,123,1,3567,3567,18
8,151,1,1852,1852,3
9,164,1,9085,9085,1219
10,168,1,3372,3372,8
11,183,1,6445,6445,122
12,224,1,6520,6520,13
13,230,1,3158,3158,7
14,237,1,2881,2881,4
15,242,1,2462,2462,5
16,262,1,4575,4575,6
17,301,1,6480,6480,2739
18,357,1,2504,2504,5
19,358,1,6229,6229,195
20,364,1,5147,5147,31
21,371,1,5741,5741,78
22,397,1,7198,7198,114
23,404,1,8490,8490,20
24,446,1,5675,5675,241
25,454,1,11557,11557,182
26,463,1,2703,2703,7
27,467,1,5460,5460,3
28,468,1,3923,3923,9
29,486,1,2982,2982,3
30,489,1,2200,2200,3
31,535,1,4139,4139,9
32,538,1,2521,2521,7
33,540,1,4579,4579,17
34,546,1,6668,6668,3
35,557,1,2736,2736,3
36,576,1,5700,5700,9
37,581,1,7450,7450,671
38,586,1,4150,4150,4
39,599,1,4434,4434,6
40,635,1,8021,8021,187
41,636,1,9612,9612,169
42,653,1,2320,2320,12
43,662,1,21144,21144,5
44,685,1,4980,4980,37
45,706,1,5396,5396,375
46,721,1,2984,2984,4
47,727,1,2886,2886,7
48,731,1,2787,2787,4
49,747,1,7802,7802,228
50,762,1,1300,1300,4
51,779,1,3574,3574,3
52,802,1,3347,3347,7
53,808,1,4062,4062,10
54,824,1,3393,3393,5
55,834,1,3934,3934,68
56,858,1,4891,4891,9
57,868,1,4737,4737,32
58,871,1,4402,4402,12
59,879,1,5588,5588,105
60,880,1,8350,8350,1449
61,890,1,11384,11384,2928
62,899,1,4851,4851,132
63,901,1,5920,5920,3
64,910,1,4791,4791,121
65,927,1,4136,4136,36
66,929,1,7150,7150,91
67,946,1,9424,9424,74
68,976,1,5587,5587,216
69,989,1,7181,7181,129
70,1002,1,6686,6686,123
71,1014,1,3477,3477,29
72,1018,1,5329,5329,4
73,1025,1,4151,4151,6
74,1035,1,5023,5023,99
75,1038,1,4578,4578,5
76,1117,1,6819,6819,5
77,1126,1,1759,1759,4
78,1130,1,4899,4899,25
79,1136,1,3418,3418,93
80,1179,1,2880,2880,15
81,1185,1,3697,3697,32
82,1200,1,3528,3528,5
83,1203,1,10420,10420,5
84,1215,1,5656,5656,7
85,1216,1,5500,5500,24
86,1245,1,4859,4859,23
87,1253,1,4716,4716,104
88,1264,1,6929,6929,56
89,1271,1,6796,6796,248
90,1275,1,10807,10807,4058
91,1283,1,2899,2899,6
92,1308,1,8092,8092,722
93,1357,1,2190,2190,4
94,1363,1,5134,5134,51
95,1366,1,4424,4424,23
96,1369,1,13999,13999,12157
97,1370,1,4174,4174,11
98,1379,1,7933,7933,343
99,1389,1,5898,5898,62
100,1394,1,1243,1243,5
101,1400,1,1764,1764,3
102,1450,1,3170,3170,7
103,1465,1,6051,6051,8
104,1466,1,5670,5670,89
105,1469,1,2002,2002,3
106,1474,1,5445,5445,46
107,1486,1,318,318,3
108,1491,1,5109,5109,4
109,1497,1,9443,9443,110
110,1515,1,5065,5065,128
111,1516,1,3302,3302,42
112,1554,1,7526,7526,200
113,1556,1,9114,9114,1084
114,1563,1,10757,10757,459
115,1570,1,3980,3980,19
116,1572,1,6740,6740,332
117,1582,1,2587,2587,25
118,1589,1,2498,2498,9
119,1591,1,4151,4151,39
120,1608,1,2994,2994,3
121,1620,1,2368,2368,7
122,1637,1,2778,2778,6
123,1646,1,2211,2211,3
124,1662,1,6117,6117,292
125,1665,1,6007,6007,20
126,1671,1,4083,4083,9
127,1679,1,2354,2354,3
128,1696,1,2769,2769,5
129,1703,1,39088,39088,3
130,1713,1,6196,6196,25
131,1734,1,6107,6107,15
132,1743,1,11406,11406,6135
133,1758,1,10665,10665,18
134,1777,1,4287,4287,41
135,1786,1,4250,4250,82
136,1796,1,2526,2526,4
137,1806,1,6593,6593,27
138,1808,1,6825,6825,89
139,1839,1,4106,4106,50
140,1848,1,4790,4790,8
141,1862,1,2453,2453,13
142,1865,1,7534,7534,61
143,1866,1,6648,6648,552
144,1872,1,5008,5008,58
145,1892,1,6764,6764,81
146,1898,1,5990,5990,40
147,1911,1,4862,4862,5
148,1918,1,5055,5055,31
149,1926,1,4267,4267,11
150,1969,1,4351,4351,57
151,1989,1,7448,7448,735
152,1998,1,8602,8602,5892
153,1999,1,4456,4456,6
