,ID,status,opt price,max price,visited
0,2,1,2743,2743,6
1,16,1,3266,3266,9
2,21,1,4851,4851,7
3,27,1,5890,5890,20
4,28,1,3759,3759,3
5,36,1,3844,3844,15
6,40,1,4997,4997,146
7,49,1,6504,6504,17
8,69,1,6561,6561,11
9,76,1,3773,3773,30
10,90,1,2250,2250,8
11,101,1,4877,4877,42
12,103,1,30316,30316,3
13,107,1,8596,8596,23
14,110,1,4349,4349,27
15,114,1,7161,7161,148
16,115,1,2877,2877,7
17,122,1,5065,5065,38
18,133,1,9086,9086,5
19,136,1,4691,4691,13
20,138,1,2802,2802,3
21,141,1,6203,6203,85
22,151,1,4957,4957,17
23,173,1,8052,8052,3
24,179,1,8807,8807,253
25,181,1,8183,8183,201
26,191,1,5256,5256,11
27,196,1,5333,5333,17
28,202,1,3316,3316,3
29,204,1,2997,2997,10
30,206,1,7348,7348,406
31,208,1,4500,4500,26
32,218,1,3408,3408,39
33,219,1,4694,4694,4
34,223,1,11415,11415,3
35,234,1,34848,34848,3
36,245,1,3436,3436,10
37,250,1,4326,4326,10
38,251,1,4528,4528,9
39,264,1,7528,7528,58
40,268,1,3702,3702,5
41,271,1,7389,7389,76
42,280,1,5812,5812,3
43,287,1,2560,2560,7
44,293,1,6378,6378,125
45,304,1,21241,21241,3
46,305,1,8145,8145,42
47,317,1,6133,6133,17
48,333,1,8878,8878,29
49,344,1,6738,6738,101
50,346,1,9098,9098,187
51,351,1,7983,7983,16
52,357,1,7399,7399,239
53,359,1,3932,3932,5
54,360,1,3105,3105,14
55,365,1,3600,3600,7
56,377,1,3343,3343,6
57,387,1,3652,3652,16
58,388,1,5536,5536,51
59,402,1,4920,4920,9
60,419,1,6391,6391,35
61,421,1,3193,3193,12
62,427,1,4098,4098,29
63,438,1,6533,6533,244
64,439,1,6157,6157,47
65,451,1,6401,6401,26
66,452,1,5566,5566,37
67,453,1,75019,75019,5
68,467,1,5386,5386,101
69,468,1,6079,6079,84
70,469,1,2979,2979,7
71,474,1,7913,7913,59
72,499,1,1684,1684,3
73,503,1,6540,6540,432
74,506,1,6105,6105,151
75,507,1,6696,6696,64
76,508,1,4229,4229,20
77,525,1,5556,5556,48
78,528,1,9314,9314,404
79,538,1,4865,4865,12
80,541,1,6501,6501,154
81,549,1,7100,7100,291
82,552,1,3786,3786,15
83,557,1,3245,3245,4
84,559,1,2402,2402,6
85,564,1,1913,1913,3
86,568,1,5951,5951,9
87,594,1,7434,7434,36
88,603,1,4770,4770,52
89,608,1,5232,5232,11
90,610,1,7824,7824,290
91,619,1,7849,7849,230
92,623,1,7227,7227,70
93,625,1,6482,6482,71
94,640,1,1484,1484,6
95,647,1,10195,10195,3
96,653,1,4002,4002,9
97,656,1,3017,3017,20
98,660,1,6747,6747,17
99,668,1,1213,1213,3
100,677,1,6229,6229,155
101,720,1,2014,2014,3
102,721,1,2330,2330,5
103,723,1,4378,4378,16
104,736,1,5998,5998,87
105,739,1,4085,4085,18
106,749,1,4153,4153,86
107,762,1,4568,4568,4
108,768,1,6969,6969,94
109,770,1,11600,11600,7
110,771,1,11455,11455,496
111,772,1,11897,11897,9
112,781,1,8476,8476,64
113,783,1,4670,4670,6
114,790,1,9832,9832,425
115,794,1,4721,4721,54
116,798,1,3628,3628,32
117,803,1,4583,4583,9
118,807,1,6268,6268,223
119,810,1,2067,2067,5
120,815,1,25862,25862,3
121,827,1,4734,4734,32
122,828,1,3791,3791,5
123,834,1,8013,8013,220
124,842,1,8305,8305,3
125,844,1,5949,5949,84
126,847,1,3424,3424,10
127,877,1,5063,5063,31
128,879,1,4895,4895,6
129,884,1,6729,6729,19
130,889,1,5481,5481,4
131,893,1,6637,6637,95
132,895,1,5248,5248,17
133,900,1,4814,4814,12
134,904,1,1770,1770,3
135,906,1,8117,8117,170
136,911,1,5485,5485,17
137,915,1,6169,6169,85
138,922,1,5655,5655,66
139,931,1,7331,7331,232
140,936,1,8608,8608,194
141,951,1,1843,1843,5
142,962,1,7846,7846,153
143,981,1,10288,10288,21
144,984,1,6365,6365,80
145,993,1,2560,2560,7
146,1005,1,2738,2738,6
147,1012,1,4412,4412,7
148,1013,1,6214,6214,15
149,1015,1,2528,2528,4
150,1027,1,7287,7287,33
151,1028,1,1522,1522,4
152,1042,1,1780,1780,7
153,1043,1,13473,13473,3
154,1046,1,2903,2903,6
155,1054,1,1136,1136,3
156,1055,1,2976,2976,11
157,1063,1,4512,4512,4
158,1064,1,4686,4686,8
159,1068,1,6743,6743,38
160,1082,1,9129,9129,171
161,1083,1,6404,6404,93
162,1086,1,4682,4682,3
163,1097,1,3855,3855,23
164,1104,1,4878,4878,12
165,1105,1,5984,5984,20
166,1115,1,5255,5255,33
167,1116,1,6041,6041,29
168,1117,1,12647,12647,509
169,1123,1,2702,2702,10
170,1139,1,1367,1367,3
171,1168,1,6610,6610,3
172,1171,1,5352,5352,23
173,1183,1,4801,4801,70
174,1197,1,5726,5726,85
175,1202,1,7576,7576,23
176,1206,1,1078,1078,4
177,1222,1,13623,13623,390
178,1230,1,7339,7339,17
179,1231,1,6706,6706,31
180,1236,1,5004,5004,11
181,1241,1,6914,6914,24
182,1254,1,4166,4166,32
183,1270,1,2311,2311,4
184,1272,1,3945,3945,16
185,1273,1,4147,4147,7
186,1275,1,1411,1411,4
187,1280,1,7976,7976,72
188,1286,1,1702,1702,3
189,1320,1,4964,4964,38
190,1326,1,7489,7489,27
191,1330,1,3247,3247,46
192,1347,1,3836,3836,19
193,1348,1,4992,4992,80
194,1361,1,6350,6350,159
195,1363,1,6962,6962,38
196,1368,1,4780,4780,19
197,1378,1,7029,7029,317
198,1381,1,4687,4687,53
199,1396,1,4382,4382,8
200,1401,1,2097,2097,7
201,1406,1,10270,10270,212
202,1410,1,3302,3302,4
203,1423,1,2829,2829,3
204,1424,1,3311,3311,9
205,1426,1,7761,7761,7
206,1444,1,2165,2165,4
207,1448,1,5063,5063,34
208,1467,1,5663,5663,8
209,1473,1,3449,3449,3
210,1475,1,4923,4923,40
211,1484,1,4820,4820,5
212,1487,1,3405,3405,17
213,1492,1,5653,5653,66
214,1499,1,243425,243425,7
215,1501,1,4035,4035,24
216,1529,1,2822,2822,6
217,1536,1,6171,6171,76
218,1541,1,8043,8043,484
219,1543,1,5707,5707,5
220,1544,1,3070,3070,3
221,1550,1,4490,4490,27
222,1556,1,7990,7990,99
223,1558,1,3352,3352,23
224,1577,1,2256,2256,5
225,1578,1,2240,2240,6
226,1580,1,5624,5624,89
227,1597,1,2605,2605,9
228,1613,1,5623,5623,128
229,1630,1,1412,1412,4
230,1636,1,6385,6385,31
231,1637,1,4089,4089,3
232,1639,1,6847,6847,17
233,1642,1,7452,7452,142
234,1643,1,5840,5840,73
235,1657,1,5559,5559,89
236,1665,1,10439,10439,238
237,1666,1,2226,2226,3
238,1672,1,3511,3511,16
239,1673,1,3659,3659,7
240,1674,1,4219,4219,119
241,1679,1,7416,7416,141
242,1681,1,5791,5791,7
243,1682,1,7546,7546,164
244,1687,1,6076,6076,149
245,1690,1,5003,5003,3
246,1693,1,10029,10029,209
247,1696,1,3710,3710,5
248,1698,1,4776,4776,4
249,1699,1,4180,4180,13
250,1710,1,3407,3407,5
251,1716,1,4796,4796,93
252,1724,1,3986,3986,6
253,1731,1,3276,3276,3
254,1732,1,5105,5105,76
255,1737,1,3267,3267,11
256,1738,1,9254,9254,233
257,1749,1,7657,7657,323
258,1754,1,5155,5155,52
259,1756,1,3926,3926,8
260,1758,1,5896,5896,18
261,1785,1,4336,4336,18
262,1787,1,1319,1319,3
263,1788,1,4690,4690,31
264,1791,1,6355,6355,47
265,1794,1,8213,8213,77
266,1805,1,3886,3886,14
267,1826,1,6310,6310,104
268,1830,1,2345,2345,3
269,1834,1,6538,6538,40
270,1837,1,813,813,3
271,1843,1,3796,3796,29
272,1848,1,8693,8693,407
273,1861,1,5901,5901,24
274,1864,1,3260,3260,3
275,1870,1,4671,4671,7
276,1872,1,1525,1525,3
277,1874,1,5768,5768,144
278,1875,1,4661,4661,6
279,1887,1,4711,4711,31
280,1894,1,8173,8173,233
281,1900,1,6335,6335,125
282,1915,1,2545,2545,6
283,1919,1,5672,5672,12
284,1922,1,5746,5746,7
285,1935,1,15275,15275,3
286,1940,1,2418,2418,3
287,1944,1,2220,2220,6
288,1945,1,4774,4774,3
289,1949,1,10220,10220,8
290,1951,1,7718,7718,262
291,1953,1,4164,4164,18
292,1967,1,2554,2554,13
293,1975,1,3435,3435,3
294,1986,1,4761,4761,29
295,1991,1,155890,155890,9
