,BnB,ID,brute
0,0.9767200749998405,173,
1,0.5549718667139781,119,
2,1.607237134999845,116,
3,0.6711590431431043,153,
4,17.4954944995708,112,
5,2.0899975647142646,53,
6,20.869524849857303,221,
7,0.8277244322848024,236,
8,10.044402615143294,490,
9,1.5360492200005476,53,
10,1.4839095435709169,12,
11,1.2112791368563194,434,
12,2.180373897001118,168,
13,4.272921266856429,115,
14,1.9507905092858502,80,
15,1.7682555207149042,69,
16,0.9595023558576941,321,
17,0.6664275315717012,185,
18,2.7247897904282063,74,
19,1.2189856452854915,430,
20,11.40315424900057,92,
21,1.9822437671427906,69,
22,9.129131190999553,265,
23,6.143112010714374,447,
24,11.913802978285926,323,
