,BnB,ID,brute
0,0.003514128285715401,498,0.0027632760000001
1,0.00650757285714373,282,0.005103757142855159
2,0.0031601738571426707,82,0.00333834085714305
3,0.003595371142857573,186,0.003401136857143732
4,0.011008377714287374,492,0.005915339571427377
5,0.0035120402857141846,132,0.003109691428572806
6,0.004514014571430128,410,0.003806755714283635
7,0.005927332999999432,462,0.005251925571429743
8,0.006411076142854759,308,0.01630725457142899
9,0.0038441997142848144,437,0.009296766857141441
10,0.004462106571427934,352,0.0035144904285715484
11,0.003177071714285416,97,0.002934712714285581
12,0.0031820979999994036,194,0.002808626571428314
13,0.004730402571428475,475,0.004328446285712622
14,0.004703963285714556,113,0.004606722857142286
15,0.02454157542857262,338,0.008870716714286329
16,0.004476068000000412,89,0.004172696857143673
17,0.004799112428570547,124,0.003707300714284299
18,0.003231891142856317,194,0.0031218088571429397
19,0.006359688000000371,438,0.015401296428574287
20,0.006004269428570653,496,0.00395825785714367
21,0.00492029985714331,116,0.004461129000002221
22,0.003209613571430379,374,0.0031220434285716336
23,0.003561783571427668,195,0.0032858892857084193
24,0.003217409428570152,317,0.01507037900000187
