Unnamed: 0,4,10,15,20
0,0.0010792440000386703,0.006153993499879107,0.00412971650007421,0.07989024600010453
1,0.0007187939999084848,0.0032139385000391485,0.004731650000053378,0.006053766000150063
2,0.0009442675001309908,0.020454649999919642,0.005750256000055742,0.0031252469998435117
3,0.0007401734999348264,0.0036697084999559593,0.12249389649991825,0.002913790000093286
4,0.001052423499913857,0.003919693000057123,0.003447078000021975,0.006071792499824369
5,0.0006665904999181294,0.0049514869999711655,0.003347612000084155,0.039362480000363576
6,0.0010572755001021503,0.002877791000059915,0.0038210735000348,0.007345668000198202
7,0.0006808369998907438,0.011551807499927236,0.08528734399988025,0.031027976499899523
8,0.0010487219999504305,0.006279952499880892,0.0057494084999234465,0.003923168500477914
9,0.0006735295000908081,0.0034467215000404394,0.004421912500106373,0.003954783000153839
10,0.000801742000021477,0.009400566000067556,0.03513950800015664,0.07113338000044678
11,0.0008828789999597574,0.007416775500018956,0.051456328999961436,0.08706100850031362
12,0.0008061680000537308,0.00842183700001442,0.003328286499936439,0.0029326700000638084
13,0.0010748500000090644,0.007861641499971483,0.021123012999964885,0.004125831500005006
14,0.0008717105000641823,0.003636439000047176,0.0064306484998724045,0.002535181999519409
15,0.0010050590000219015,0.0017832810000300017,0.0435641519999308,0.01400427699991269
16,0.0010077440000486604,0.00804001899996365,0.002844229000061205,0.006820270000389428
17,0.0010075044999666716,0.0017424840000330732,0.062081134499976535,0.0018786179998642183
18,0.0007965004999732628,0.01783869100006541,0.01387917700003527,0.007447558500643936
19,0.0010412489999680474,0.016136941000013394,0.004929414999992332,0.004298606999782351
20,0.0008025974999554818,0.012470757999949456,0.016695534500058784,0.08671179349994418
21,0.0010128379999514436,0.0039763870001934265,0.010342978500034405,0.0027324704997226945
22,0.0010107424999432624,0.008894000000054803,0.05078210800002125,0.004111921499770688
23,0.0010072685000750423,0.007400443499932408,0.003392021999957251,0.01711728900045273
24,0.0006790044999434032,0.003226296999969236,0.11806974799992533,0.006104683499870589
25,0.0007929854999702003,0.013706915499938077,0.029043275000049107,0.03671939049991124
26,0.0010096715000145196,0.006089025000051152,0.0031983695000690204,0.0027829819996441074
27,0.0008766470000409754,0.004921982000041679,0.003405210999972041,0.12274487200011208
28,0.0008901789999526953,0.007062861500003238,0.011038398500090809,0.022544111499883
29,0.0010057944999743995,0.007843658999945545,0.0026329704999170644,0.006619653999678121
30,0.0010957599999983358,0.006858205499952419,0.0033942529998967075,0.01821713200024533
31,0.0009992554998916603,0.002939333999961491,0.004982858500056864,0.016623171500214085
32,0.0008823204999544033,0.00356820150011572,0.026550148000069385,0.0019051525000577385
33,0.0008809875000679313,0.0028522630000225035,0.002730688500037104,0.0796934949999013
34,0.0009172384999374117,0.002308315500044955,0.003373616999965634,0.0025736200000210374
35,0.0008854360000896123,0.008095121500105051,0.00538733600001251,0.0018647830002009869
36,0.0008922109999502935,0.008045298499951059,0.00812955999992937,0.08356432100026723
37,0.0010103370000251743,0.0044414459999870814,0.02453591150003831,0.004323749000377575
38,0.0006784409999909258,0.0035593350000908686,0.041080129999954806,0.023534881499926996
39,0.0010382744999333227,0.01770768999995198,0.030864292000046586,0.008329000499998074
40,0.0006842165000762178,0.00592026449999139,0.005530376500132661,0.0019587440001487266
41,0.0008816669999305304,0.007851164999920002,0.014618233000078362,0.0031954290002431662
42,0.001008836999972118,0.0024807675000602107,0.0979750830000512,0.004725550999864936
43,0.001030508000098962,0.007429430999991381,0.004896012000017436,0.004166189499756001
44,0.0010115814999380746,0.007816935000164449,0.009839833999990331,0.008233754000229965
45,0.0006751839998742071,0.004982621000067411,0.008518141499962441,0.007677509499899315
46,0.000882527500039032,0.0018714580000960266,0.013136395000060476,0.007905188000222552
47,0.0006839304999175512,0.012412510000103794,0.0226614255000186,0.03952652200041484
48,0.0006863605000262396,0.003609592499969949,0.018941659999995863,0.07960910899964802
49,0.0010033920000296348,0.003209242500020082,0.013622859499946571,0.002545975500197528
50,0.0006748365000248668,0.00806445300008818,0.013796974000001684,0.0021780055003546295
51,0.0007483944999648884,0.002150614500010306,0.005323953500010248,0.00521418150037789
52,0.0008786404999909793,0.012327423499982615,0.0239026514999523,0.00858517100004974
53,0.0006836685000735088,0.0025097264999658364,0.013235928999961288,0.002491923999514256
54,0.0006752570001253844,0.008722261999992044,0.014083810500096659,0.0047356720001516805
55,0.0011331350000318707,0.005633657000089443,0.00255240900003173,0.057371272999716894
56,0.0006751600000143299,0.007947589500076901,0.002746611500015206,0.009814955499678035
57,0.0010477104999608855,0.0021822035000695905,0.018580227500024197,0.005428559999927529
58,0.0008840294999572508,0.008045363000064755,0.01631038750008429,0.02347118550005689
59,0.0010022055000717958,0.004085142999997514,0.01722108000001299,0.0028346055000838533
60,0.0007191380000222125,0.003254576500012263,0.012348772499990446,0.007792209499712044
61,0.0006778965000648897,0.005671806000009383,0.003174000999933924,0.008187168000404199
62,0.0010055474998580394,0.007566669499965428,0.013036433500019484,0.017082331500205328
63,0.0010125469999593406,0.013270210499968016,0.0265855115001159,0.0039025564997245965
64,0.0010133960000757725,0.00470978299995295,0.003679278500044347,0.1223134429997117
65,0.0008040504999371477,0.010389120500008177,0.026024305500072842,0.0032599564997326524
66,0.0010047639999584137,0.0026111490000175768,0.004247700999940207,0.0025089430000662105
67,0.0010489930000403547,0.004488127000058739,0.03395919799993408,0.03859411400026147
68,0.001129504999994424,0.003347861999941415,0.0050688415000195155,0.004230024999742454
69,0.0006757025000752037,0.00559081149992835,0.0034486559999322712,0.006443413000397413
70,0.0005968355000049996,0.0055685734999997285,0.006950791500003106,0.019841004000227258
71,0.0006932135000852213,0.007886718500003553,0.00412940750004509,0.007545676000063395
72,0.0006848609999678956,0.002927476999957434,0.005427464000035798,0.002806395500101644
73,0.0009252620001234393,0.0062680114999693615,0.04229308299989043,0.0027996209996672405
74,0.0010063574999321645,0.0037155145000724588,0.002984230000038224,0.003892763999829185
75,0.0007421725000540391,0.002054661999977725,0.0025730344999601584,0.002557890999923984
76,0.0006845934999546444,0.00314459250012078,0.004435113499880572,0.0029312735000530665
77,0.0008772214999908101,0.010146316500026842,0.008443076500043391,0.08779135950044292
78,0.0006795145000069169,0.006699252000089473,0.005249236000054225,0.07202079999979105
79,0.0007943529998328812,0.008054614999991827,0.003277141000012307,0.0044825135000792216
80,0.0008777000000463887,0.0010952440001119614,0.061860001500008366,0.0033462540000073204
81,0.0010173140000233618,0.002965102499956629,0.1674413524999636,0.0038773544997638965
82,0.0011956565000446062,0.006110026000101243,0.02546946100005698,0.00864123550036311
83,0.0010893875000874687,0.0017798899999661446,0.03617379699994672,0.004316320500038273
84,0.0009550994999472096,0.002451264499995886,0.006978338499948222,0.057652318500004185
85,0.0009075584999891363,0.0021882825000147928,0.009391201999960684,0.008649583000078565
86,0.0010208060000422847,0.001924132000112877,0.024317571500091617,0.00593948400046429
87,0.0006987930000832421,0.006113473500022336,0.003406261500003893,0.004117708499506989
88,0.0009112740000318806,0.0017796800001406157,0.010123057499981769,0.005459018999772525
89,0.0006989324999722157,0.0016310949999933655,0.008111705499914024,0.002549414999975852
90,0.0010428424999417985,0.002411130999917077,0.01932550549997813,0.002914260499892407
91,0.0008999860000358241,0.0025217855001073985,0.017676426999969408,0.0025501505001557234
92,0.0006997589999855336,0.0031947454998544345,0.0045353100000511395,0.004323512499922799
93,0.0008991619999960676,0.008411262500089833,0.007070078999845464,0.0032541565005885786
94,0.0010295820000010278,0.004206429999953798,0.0032581109999227924,0.004077401499671396
95,0.0009051580001369076,0.0057050414999366686,0.010255146999952558,0.07927859849996821
96,0.0006903109999711887,0.005720173499980774,0.06136831300000267,0.002536955999858037
97,0.0010411824999891903,0.004384908500014717,0.013396695999972508,0.006094239500271215
98,0.0010527480000064315,0.009949340000048323,0.0131801769998674,0.003939353000077972
99,0.0008963189999349197,0.0017639575000885086,0.02338387999998304,0.018150534499909554
