,ID,status,opt price,C,max price,Passed,visited,time
0,1,OK,5370,1542,5370,True,132,0
1,2,OK,1357,3,1357,True,5,0
2,3,OK,11231,3850,11231,True,1023,0
3,4,OK,14190,12811,14190,True,996,0
4,5,OK,11668,18854,11668,False,792,0
5,6,OK,9749,725,9749,True,604,0
6,7,OK,10641,12650,10641,False,858,0
7,8,OK,12243,20408,12243,False,548,0
8,9,OK,5321,1155,5321,True,20,0
9,10,OK,9767,5044,9767,True,743,0
10,11,OK,5011,2164,5011,True,91,0
11,12,OK,7154,4215,7154,True,40,0
12,13,OK,8706,10187,8706,False,354,0
13,14,OK,11262,2694,11262,True,633,0
14,15,OK,6284,7556,6284,False,41,0
15,16,OK,3226,1560,3226,True,9,0
16,17,OK,11760,1419,11760,True,971,0
17,18,OK,7397,8400,7397,False,226,0
18,19,OK,7761,13281,7761,False,357,0
19,20,OK,10479,9570,10479,True,1019,0
20,21,OK,2483,1334,2483,True,7,0
21,22,OK,9386,16914,9386,False,197,0
22,23,OK,10754,20439,10754,False,272,0
23,24,OK,11300,13924,11300,False,640,0
24,25,OK,10016,19569,10016,False,924,0
25,26,OK,10721,12116,10721,False,794,0
26,27,OK,5123,296,5123,True,25,0
27,28,OK,2245,396,2245,True,2,0
28,29,OK,14648,816,14648,True,970,0
29,30,OK,13409,20799,13409,False,978,0
30,31,OK,11287,12340,11287,False,1018,0
31,32,OK,5418,5564,5418,False,39,0
32,33,OK,13027,17177,13027,False,1007,0
33,34,OK,8835,8294,8835,True,859,0
34,35,OK,8493,12404,8493,False,654,0
35,36,OK,3186,1273,3186,True,15,0
36,37,OK,10424,10116,10424,True,547,0
37,38,OK,6494,7918,6494,False,80,0
38,39,OK,7330,1304,7330,True,1012,0
39,40,OK,5518,4424,5518,True,182,0
40,41,OK,5151,5589,5151,False,34,0
41,42,OK,6460,1139,6460,True,178,0
42,43,OK,9728,15560,9728,False,648,0
43,44,OK,10479,14708,10479,False,507,0
44,45,OK,9939,10050,9939,False,333,0
45,46,OK,13003,7701,13003,True,852,0
46,47,OK,11774,16241,11774,False,916,0
47,48,OK,7515,475,7515,True,53,0
48,49,OK,4577,6007,4577,False,19,0
49,50,OK,16793,31414,16793,False,951,0
50,51,OK,4380,4549,4380,False,33,0
51,52,OK,12044,8029,12044,True,1020,0
52,53,OK,8185,2119,8185,True,63,0
53,54,OK,3487,207,3487,True,8,0
54,55,OK,10222,17416,10222,False,149,0
55,56,OK,11464,15370,11464,False,846,0
56,57,OK,8685,2939,8685,True,371,0
57,58,OK,14732,16826,14732,False,1020,0
58,59,OK,10774,11801,10774,False,634,0
59,60,OK,10648,7449,10648,True,1002,0
60,61,OK,0,0,0,True,1,0
61,62,OK,6576,7905,6576,False,81,0
62,63,OK,11649,22770,11649,False,792,0
63,64,OK,8898,11382,8898,False,948,0
64,65,OK,11763,18582,11763,False,1008,0
65,66,OK,8797,2919,8797,True,474,0
66,67,OK,7170,13424,7170,False,263,0
67,68,OK,2630,308,2630,True,5,0
68,69,OK,3468,5772,3468,False,10,0
69,70,OK,8535,14146,8535,False,257,0
70,71,OK,9722,1346,9722,True,791,0
71,72,OK,10315,7282,10315,True,930,0
72,73,OK,10006,5864,10006,True,251,0
73,74,OK,8326,10888,8326,False,321,0
74,75,OK,12257,18150,12257,False,600,0
75,76,OK,2463,798,2463,True,33,0
76,77,OK,11961,20976,11961,False,825,0
77,78,OK,10412,11026,10412,False,607,0
78,79,OK,4241,1986,4241,True,33,0
79,80,OK,13345,5246,13345,True,911,0
80,81,OK,12922,17425,12922,False,1011,0
81,82,OK,7289,4975,7289,True,122,0
82,83,OK,10500,6244,10500,True,894,0
83,84,OK,7059,12056,7059,False,262,0
84,85,OK,15312,16808,15312,False,822,0
85,86,OK,7906,14911,7906,False,1018,0
86,87,OK,10836,13610,10836,False,705,0
87,88,OK,9606,18319,9606,False,812,0
88,89,OK,5474,10456,5474,False,100,0
89,90,OK,1976,841,1976,True,7,0
90,91,OK,9323,10948,9323,False,896,0
91,92,OK,14950,25771,14950,False,914,0
92,93,OK,4739,5068,4739,False,55,0
93,94,OK,8644,14387,8644,False,998,0
94,95,OK,10485,4154,10485,True,752,0
95,96,OK,4593,1976,4593,True,57,0
96,97,OK,5707,10851,5707,False,136,0
97,98,OK,12683,10824,12683,True,812,0
98,99,OK,10922,12920,10922,False,1019,0
99,100,OK,7660,1022,7660,True,188,0
100,101,OK,5035,3472,5035,True,58,0
101,102,OK,9901,1408,9901,True,848,0
102,103,OK,2332,1257,2332,True,2,0
103,104,OK,6818,8852,6818,False,169,0
104,105,OK,6875,8711,6875,False,108,0
105,106,OK,8847,12523,8847,False,491,0
106,107,OK,3558,4984,3558,False,24,0
107,108,OK,10068,4990,10068,True,880,0
108,109,OK,8848,1520,8848,True,113,0
109,110,OK,4015,7725,4015,False,35,0
110,111,OK,7388,7047,7388,True,497,0
111,112,OK,13610,16505,13610,False,948,0
112,113,OK,11426,16968,11426,False,1018,0
113,114,OK,5131,4657,5131,True,168,0
114,115,OK,2686,4199,2686,False,7,0
115,116,OK,9601,14410,9601,False,807,0
116,117,OK,4452,6150,4452,False,50,0
117,118,OK,7322,4487,7322,True,201,0
118,119,OK,10783,15252,10783,False,1022,0
119,120,OK,10382,16861,10382,False,814,0
120,121,OK,5100,468,5100,True,216,0
121,122,OK,4771,4269,4771,True,46,0
122,123,OK,7129,10594,7129,False,241,0
123,124,OK,11348,3447,11348,True,942,0
124,125,OK,10056,2770,10056,True,839,0
125,126,OK,11660,12642,11660,False,1016,0
126,127,OK,6274,8685,6274,False,238,0
127,128,OK,9145,14265,9145,False,988,0
128,129,OK,9399,8751,9399,True,979,0
129,130,OK,7498,12997,7498,False,273,0
130,131,OK,12822,18514,12822,False,1000,0
131,132,OK,9701,10443,9701,False,442,0
132,133,OK,2827,1877,2827,True,5,0
133,134,OK,9197,3637,9197,True,335,0
134,135,OK,15098,18713,15098,False,983,0
135,136,OK,3308,2315,3308,True,12,0
136,137,OK,7720,13962,7720,False,124,0
137,138,OK,1615,1019,1615,True,2,0
138,139,OK,8915,3112,8915,True,512,0
139,140,OK,11362,17449,11362,False,946,0
140,141,OK,6203,1330,6203,True,107,0
141,142,OK,13150,8659,13150,True,949,0
142,143,OK,4007,1096,4007,True,28,0
143,144,OK,8981,8459,8981,True,856,0
144,145,OK,10499,11987,10499,False,269,0
145,146,OK,4274,2600,4274,True,14,0
146,147,OK,8841,12055,8841,False,1017,0
147,148,OK,7575,12393,7575,False,224,0
148,149,OK,11998,17751,11998,False,995,0
149,150,OK,10354,2095,10354,True,226,0
150,151,OK,2974,5645,2974,False,17,0
151,152,OK,7360,9799,7360,False,37,0
152,153,OK,8733,822,8733,True,650,0
153,154,OK,5589,3593,5589,True,104,0
154,155,OK,12273,24083,12273,False,657,0
155,156,OK,7476,5665,7476,True,192,0
156,157,OK,11740,18663,11740,False,853,0
157,158,OK,9216,4033,9216,True,297,0
158,159,OK,10007,2000,10007,True,745,0
159,160,OK,15810,20301,15810,False,915,0
160,161,OK,8109,6348,8109,True,786,0
161,162,OK,7967,4149,7967,True,908,0
162,163,OK,5777,10772,5777,False,99,0
163,164,OK,4943,4965,4943,False,60,0
164,165,OK,9228,5768,9228,True,1021,0
165,166,OK,8178,15169,8178,False,52,0
166,167,OK,5217,9664,5217,False,36,0
167,168,OK,13942,14378,13942,False,1005,0
168,169,OK,11756,10267,11756,True,699,0
169,170,OK,12830,17239,12830,False,880,0
170,171,OK,10141,12933,10141,False,724,0
171,172,OK,9867,18615,9867,False,880,0
172,173,OK,2078,4013,2078,False,2,0
173,174,OK,5584,2314,5584,True,48,0
174,175,OK,8226,3312,8226,True,523,0
175,176,OK,3713,4268,3713,False,263,0
176,177,OK,8132,13012,8132,False,183,0
177,178,OK,11821,18185,11821,False,833,0
178,179,OK,8807,13631,8807,False,352,0
179,180,OK,15388,22468,15388,False,1018,0
180,181,OK,8183,1111,8183,True,277,0
181,182,OK,10612,17804,10612,False,926,0
182,183,OK,7239,3293,7239,True,417,0
183,184,OK,11773,14528,11773,False,846,0
184,185,OK,8236,7969,8236,True,754,0
185,186,OK,9245,1876,9245,True,372,0
186,187,OK,7919,12286,7919,False,255,0
187,188,OK,12254,18925,12254,False,588,0
188,189,OK,15926,4372,15926,True,1003,0
189,190,OK,5072,8985,5072,False,12,0
190,191,OK,2824,4362,2824,False,11,0
191,192,OK,15090,27318,15090,False,1011,0
192,193,OK,11650,2233,11650,True,970,0
193,194,OK,13622,23588,13622,False,1021,0
194,195,OK,11574,14780,11574,False,942,0
195,196,OK,4529,3702,4529,True,21,0
196,197,OK,14131,15622,14131,False,1006,0
197,198,OK,11274,4145,11274,True,895,0
198,199,OK,8484,4406,8484,True,1012,0
199,200,OK,5986,4928,5986,True,183,0
200,201,OK,12123,3879,12123,True,932,0
201,202,OK,2258,2835,2258,False,3,0
202,203,OK,10599,3426,10599,True,648,0
203,204,OK,2604,3927,2604,False,9,0
204,205,OK,7983,4275,7983,True,257,0
205,206,OK,7379,5625,7379,True,622,0
206,207,OK,10139,17979,10139,False,1023,0
207,208,OK,4356,6887,4356,False,30,0
208,209,OK,7204,11465,7204,False,962,0
209,210,OK,11227,13579,11227,False,350,0
210,211,OK,0,0,0,True,1,0
211,212,OK,5460,1078,5460,True,16,0
212,213,OK,10576,10064,10576,True,911,0
213,214,OK,11026,4137,11026,True,674,0
214,215,OK,10389,18779,10389,False,739,0
215,216,OK,11349,12650,11349,False,895,0
216,217,OK,9627,15079,9627,False,792,0
217,218,OK,3161,4007,3161,False,40,0
218,219,OK,2301,3183,2301,False,3,0
219,220,OK,1200,1140,1200,True,2,0
220,221,OK,5469,9528,5469,False,133,0
221,222,OK,11996,9565,11996,True,1006,0
222,223,OK,2283,3509,2283,False,2,0
223,224,OK,11521,3025,11521,True,927,0
224,225,OK,11274,16527,11274,False,320,0
225,226,OK,15336,23608,15336,False,1023,0
226,227,OK,510,598,510,False,4,0
227,228,OK,4779,597,4779,True,8,0
228,229,OK,14013,10730,14013,True,791,0
229,230,OK,9928,18823,9928,False,485,0
230,231,OK,10738,5691,10738,True,770,0
231,232,OK,7899,1964,7899,True,205,0
232,233,OK,9164,11673,9164,False,566,0
233,234,OK,2178,1975,2178,True,2,0
234,235,OK,8221,4334,8221,True,46,0
235,236,OK,11419,18175,11419,False,1015,0
236,237,OK,11504,6504,11504,True,734,0
237,238,OK,7227,6275,7227,True,62,0
238,239,OK,5669,7655,5669,False,20,0
239,240,OK,14326,1235,14326,True,986,0
240,241,OK,9108,16202,9108,False,393,0
241,242,OK,13477,17375,13477,False,960,0
242,243,OK,10182,10745,10182,False,829,0
243,244,OK,6419,11790,6419,False,164,0
244,245,OK,2059,953,2059,True,9,0
245,246,OK,13196,16740,13196,False,914,0
246,247,OK,10898,14075,10898,False,525,0
247,248,OK,2775,4867,2775,False,4,0
248,249,OK,10614,6870,10614,True,603,0
249,250,OK,3025,337,3025,True,9,0
250,251,OK,2878,3795,2878,False,8,0
251,252,OK,6854,2331,6854,True,51,0
252,253,OK,4367,5020,4367,False,19,0
253,254,OK,9113,10499,9113,False,100,0
254,255,OK,15225,24608,15225,False,986,0
255,256,OK,10873,14287,10873,False,1020,0
256,257,OK,10400,5031,10400,True,986,0
257,258,OK,7428,5089,7428,True,292,0
258,259,OK,8198,1866,8198,True,571,0
259,260,OK,4683,5602,4683,False,136,0
260,261,OK,2872,2880,2872,False,5,0
261,262,OK,6488,11192,6488,False,302,0
262,263,OK,8270,16206,8270,False,828,0
263,264,OK,7584,11384,7584,False,74,0
264,265,OK,13839,17745,13839,False,922,0
265,266,OK,13267,22623,13267,False,1022,0
266,267,OK,6985,8183,6985,False,96,0
267,268,OK,1960,1208,1960,True,5,0
268,269,OK,6553,9143,6553,False,133,0
269,270,OK,7263,11988,7263,False,61,0
270,271,OK,5660,5332,5660,True,89,0
271,272,OK,7189,5387,7189,True,90,0
272,273,OK,5371,4614,5371,True,140,0
273,274,OK,8721,5944,8721,True,825,0
274,275,OK,11762,6587,11762,True,976,0
275,276,OK,7506,12745,7506,False,995,0
276,277,OK,12725,4245,12725,True,987,0
277,278,OK,6570,7599,6570,False,117,0
278,279,OK,12154,22674,12154,False,1019,0
279,280,OK,775,300,775,True,2,0
280,281,OK,13913,27535,13913,False,1005,0
281,282,OK,14852,20915,14852,False,1022,0
282,283,OK,8637,4570,8637,True,377,0
283,284,OK,10883,11255,10883,False,831,0
284,285,OK,12174,9673,12174,True,716,0
285,286,OK,2873,2889,2873,False,8,0
286,287,OK,2319,4499,2319,False,7,0
287,288,OK,8004,15681,8004,False,682,0
288,289,OK,9903,9048,9903,True,1016,0
289,290,OK,10142,20122,10142,False,773,0
290,291,OK,10493,3874,10493,True,759,0
291,292,OK,6818,12419,6818,False,48,0
292,293,OK,6378,11156,6378,False,160,0
293,294,OK,12113,13392,12113,False,1020,0
294,295,OK,11140,9410,11140,True,946,0
295,296,OK,11641,4289,11641,True,994,0
296,297,OK,3071,1423,3071,True,40,0
297,298,OK,9105,4108,9105,True,678,0
298,299,OK,8798,5261,8798,True,774,0
299,300,OK,13150,12172,13150,True,994,0
300,301,OK,7984,3549,7984,True,199,0
301,302,OK,0,0,0,True,1,0
302,303,OK,6515,12294,6515,False,381,0
303,304,OK,867,377,867,True,2,0
304,305,OK,5502,8542,5502,False,47,0
305,306,OK,14158,11536,14158,True,979,0
306,307,OK,9536,4659,9536,True,419,0
307,308,OK,6377,12017,6377,False,763,0
308,309,OK,6697,994,6697,True,66,0
309,310,OK,4515,8201,4515,False,6,0
310,311,OK,12838,8168,12838,True,1018,0
311,312,OK,15045,19941,15045,False,1014,0
312,313,OK,8961,16427,8961,False,235,0
313,314,OK,12926,22194,12926,False,1016,0
314,315,OK,8678,2871,8678,True,649,0
315,316,OK,13835,2209,13835,True,951,0
316,317,OK,4692,2816,4692,True,21,0
317,318,OK,9202,7109,9202,True,890,0
318,319,OK,10244,14349,10244,False,897,0
319,320,OK,5610,1085,5610,True,57,0
320,321,OK,6395,2338,6395,True,171,0
321,322,OK,6998,9929,6998,False,809,0
322,323,OK,8172,8343,8172,False,151,0
323,324,OK,13192,7393,13192,True,738,0
324,325,OK,5058,8343,5058,False,266,0
325,326,OK,14609,11046,14609,True,921,0
326,327,OK,13633,17199,13633,False,872,0
327,328,OK,12671,13652,12671,False,921,0
328,329,OK,7140,12006,7140,False,138,0
329,330,OK,10192,9356,10192,True,1009,0
330,331,OK,8573,15856,8573,False,382,0
331,332,OK,7824,5529,7824,True,170,0
332,333,OK,6351,126,6351,True,34,0
333,334,OK,0,0,0,True,1,0
334,335,OK,7466,12043,7466,False,323,0
335,336,OK,7985,1650,7985,True,1003,0
336,337,OK,8745,9771,8745,False,655,0
337,338,OK,16166,10720,16166,True,1020,0
338,339,OK,14536,10474,14536,True,1018,0
339,340,OK,9681,10324,9681,False,623,0
340,341,OK,9940,4422,9940,True,380,0
341,342,OK,8327,7458,8327,True,201,0
342,343,OK,12078,15233,12078,False,1021,0
343,344,OK,6432,2018,6432,True,124,0
344,345,OK,10490,6169,10490,True,214,0
345,346,OK,8063,8517,8063,False,222,0
346,347,OK,6463,2619,6463,True,175,0
347,348,OK,7345,14409,7345,False,265,0
348,349,OK,7940,4564,7940,True,367,0
349,350,OK,6347,5710,6347,True,473,0
350,351,OK,3031,4782,3031,False,15,0
351,352,OK,11504,1921,11504,True,752,0
352,353,OK,13810,3403,13810,True,997,0
353,354,OK,11434,17930,11434,False,1016,0
354,355,OK,929,309,929,True,2,0
355,356,OK,7102,6956,7102,True,444,0
356,357,OK,7725,12363,7725,False,370,0
357,358,OK,7965,13100,7965,False,527,0
358,359,OK,3908,547,3908,True,6,0
359,360,OK,2305,2210,2305,True,14,0
360,361,OK,11627,1192,11627,True,1010,0
361,362,OK,13296,21526,13296,False,853,0
362,363,OK,8842,14521,8842,False,1022,0
363,364,OK,12173,9769,12173,True,981,0
364,365,OK,2827,2641,2827,True,8,0
365,366,OK,8574,7772,8574,True,268,0
366,367,OK,12038,20633,12038,False,1010,0
367,368,OK,13928,23520,13928,False,1016,0
368,369,OK,9517,2244,9517,True,1001,0
369,370,OK,8181,16199,8181,False,299,0
370,371,OK,11175,15876,11175,False,849,0
371,372,OK,8010,6440,8010,True,497,0
372,373,OK,8478,13783,8478,False,821,0
373,374,OK,13108,16098,13108,False,905,0
374,375,OK,11787,10463,11787,True,995,0
375,376,OK,9426,4821,9426,True,493,0
376,377,OK,2294,1085,2294,True,6,0
377,378,OK,9161,6692,9161,True,140,0
378,379,OK,10947,6490,10947,True,1014,0
379,380,OK,6665,5405,6665,True,338,0
380,381,OK,10005,4859,10005,True,778,0
381,382,OK,7226,13394,7226,False,396,0
382,383,OK,9099,16179,9099,False,658,0
383,384,OK,13030,24664,13030,False,985,0
384,385,OK,11824,15826,11824,False,856,0
385,386,OK,12399,12340,12399,True,985,0
386,387,OK,3510,2189,3510,True,18,0
387,388,OK,5468,1887,5468,True,68,0
388,389,OK,11958,1478,11958,True,850,0
389,390,OK,0,0,0,True,1,0
390,391,OK,5657,4339,5657,True,176,0
391,392,OK,13120,3934,13120,True,1016,0
392,393,OK,9366,2224,9366,True,469,0
393,394,OK,9150,9300,9150,False,253,0
394,395,OK,13761,22175,13761,False,1018,0
395,396,OK,5719,9941,5719,False,88,0
396,397,OK,10272,6680,10272,True,758,0
397,398,OK,9377,9326,9377,True,189,0
398,399,OK,14065,11884,14065,True,965,0
399,400,OK,14234,22436,14234,False,833,0
400,401,OK,9089,7994,9089,True,570,0
401,402,OK,2504,3506,2504,False,10,0
402,403,OK,12805,20511,12805,False,989,0
403,404,OK,13295,10215,13295,True,1012,0
404,405,OK,8448,12132,8448,False,1022,0
405,406,OK,10131,1776,10131,True,393,0
406,407,OK,11301,6187,11301,True,967,0
407,408,OK,7280,1730,7280,True,139,0
408,409,OK,6793,6014,6793,True,91,0
409,410,OK,11249,22262,11249,False,960,0
410,411,OK,10747,6443,10747,True,960,0
411,412,OK,6317,7228,6317,False,160,0
412,413,OK,10103,2207,10103,True,753,0
413,414,OK,7835,4114,7835,True,999,0
414,415,OK,9325,11258,9325,False,780,0
415,416,OK,10645,8528,10645,True,464,0
416,417,OK,0,0,0,True,1,0
417,418,OK,8150,14322,8150,False,836,0
418,419,OK,4323,3260,4323,True,34,0
419,420,OK,10089,18967,10089,False,772,0
420,421,OK,2395,1849,2395,True,12,0
421,422,OK,12145,23346,12145,False,392,0
422,423,OK,0,0,0,True,1,0
423,424,OK,4862,4484,4862,True,24,0
424,425,OK,12078,12067,12078,True,563,0
425,426,OK,6089,510,6089,True,361,0
426,427,OK,3089,4067,3089,False,32,0
427,428,OK,11780,167,11780,True,741,0
428,429,OK,7753,14390,7753,False,283,0
429,430,OK,11689,5662,11689,True,800,0
430,431,OK,7371,3952,7371,True,73,0
431,432,OK,11409,7507,11409,True,894,0
432,433,OK,9726,6760,9726,True,732,0
433,434,OK,10809,14624,10809,False,914,0
434,435,OK,16476,29983,16476,False,1020,0
435,436,OK,10288,6072,10288,True,860,0
436,437,OK,3400,1751,3400,True,5,0
437,438,OK,6533,12976,6533,False,312,0
438,439,OK,6157,4186,6157,True,62,0
439,440,OK,8385,5308,8385,True,480,0
440,441,OK,11261,2197,11261,True,1023,0
441,442,OK,11646,83,11646,True,953,0
442,443,OK,8081,15269,8081,False,460,0
443,444,OK,12664,14362,12664,False,904,0
444,445,OK,5641,7239,5641,False,106,0
445,446,OK,10530,6725,10530,True,728,0
446,447,OK,11311,21085,11311,False,1011,0
447,448,OK,12020,4079,12020,True,967,0
448,449,OK,11080,3144,11080,True,593,0
449,450,OK,8047,4553,8047,True,286,0
450,451,OK,5619,6514,5619,False,36,0
451,452,OK,6156,11302,6156,False,55,0
452,453,OK,1640,2792,1640,False,4,0
453,454,OK,10546,1136,10546,True,913,0
454,455,OK,8346,4812,8346,True,234,0
455,456,OK,10736,17525,10736,False,505,0
456,457,OK,8458,1557,8458,True,366,0
457,458,OK,10006,1160,10006,True,841,0
458,459,OK,10611,712,10611,True,560,0
459,460,OK,11432,5781,11432,True,879,0
460,461,OK,11957,23321,11957,False,949,0
461,462,OK,10310,6452,10310,True,723,0
462,463,OK,13244,10368,13244,True,704,0
463,464,OK,7703,9216,7703,False,477,0
464,465,OK,8963,262,8963,True,311,0
465,466,OK,7972,4400,7972,True,248,0
466,467,OK,5339,2040,5339,True,119,0
467,468,OK,6028,8989,6028,False,130,0
468,469,OK,2577,4125,2577,False,7,0
469,470,OK,10023,17941,10023,False,163,0
470,471,OK,9022,18042,9022,False,861,0
471,472,OK,7426,4811,7426,True,295,0
472,473,OK,8282,85,8282,True,667,0
473,474,OK,4909,7729,4909,False,74,0
474,475,OK,10110,8674,10110,True,1014,0
475,476,OK,6816,12231,6816,False,167,0
476,477,OK,12608,9540,12608,True,858,0
477,478,OK,8196,4262,8196,True,237,0
478,479,OK,6010,2510,6010,True,123,0
479,480,OK,8784,11098,8784,False,974,0
480,481,OK,6879,1341,6879,True,157,0
481,482,OK,15066,29013,15066,False,983,0
482,483,OK,0,0,0,True,1,0
483,484,OK,7848,10353,7848,False,350,0
484,485,OK,10139,131,10139,True,130,0
485,486,OK,9171,6089,9171,True,991,0
486,487,OK,8673,7428,8673,True,678,0
487,488,OK,8331,12886,8331,False,156,0
488,489,OK,7981,5032,7981,True,91,0
489,490,OK,5439,3517,5439,True,70,0
490,491,OK,15230,29883,15230,False,1022,0
491,492,OK,7273,12430,7273,False,76,0
492,493,OK,8367,0,8367,True,195,0
493,494,OK,12558,5188,12558,True,905,0
494,495,OK,13642,25309,13642,False,1016,0
495,496,OK,10739,11513,10739,False,452,0
496,497,OK,13162,12865,13162,True,1020,0
497,498,OK,10609,1500,10609,True,705,0
498,499,OK,1601,477,1601,True,3,0
499,500,OK,3869,4119,3869,False,7,0
