,ID,status,opt price,C,max price,Passed,visited,time
0,1,OK,13383,3843,13383,True,19855,0
1,2,OK,16649,39,16649,True,24353,0
2,3,OK,16292,5585,16292,True,19482,0
3,4,OK,7638,6896,7638,True,237,0
4,5,OK,18175,29369,18175,False,32765,0
5,6,OK,4823,358,4823,True,41,0
6,7,OK,19142,22757,19142,False,31711,0
7,8,OK,20554,34261,20554,False,32631,0
8,9,OK,19936,4329,19936,True,32753,0
9,10,OK,18198,9398,18198,True,32724,0
10,11,OK,7079,3057,7079,True,927,0
11,12,OK,11960,7047,11960,True,8168,0
12,13,OK,17760,20781,17760,False,32130,0
13,14,OK,14958,3578,14958,True,28098,0
14,15,OK,633,761,633,False,4,0
15,16,OK,13365,6464,13365,True,19625,0
16,17,OK,6084,734,6084,True,138,0
17,18,OK,13735,15598,13735,False,18601,0
18,19,OK,18478,31620,18478,False,32460,0
19,20,OK,18705,17082,18705,True,30210,0
20,21,OK,18689,10043,18689,True,32720,0
21,22,OK,12365,22282,12365,False,3550,0
22,23,OK,16774,31880,16774,False,15872,0
23,24,OK,14864,18316,14864,False,17413,0
24,25,OK,13565,26502,13565,False,12807,0
25,26,OK,14756,16675,14756,False,7791,0
26,27,OK,10468,605,10468,True,1509,0
27,28,OK,15738,2780,15738,True,30824,0
28,29,OK,19972,1113,19972,True,31228,0
29,30,OK,16148,25048,16148,False,30932,0
30,31,OK,16020,17515,16020,False,26731,0
31,32,OK,10617,10904,10617,False,1160,0
32,33,OK,0,0,0,True,1,0
33,34,OK,17001,15960,17001,True,6159,0
34,35,OK,14872,21720,14872,False,13096,0
35,36,OK,10645,4253,10645,True,281,0
36,37,OK,15789,15322,15789,True,14950,0
37,38,OK,8049,9815,8049,False,77,0
38,39,OK,10259,1825,10259,True,2955,0
39,40,OK,18306,14676,18306,True,23512,0
40,41,OK,17431,18915,17431,False,32360,0
41,42,OK,9945,1754,9945,True,1187,0
42,43,OK,17653,28237,17653,False,32759,0
43,44,OK,9670,13573,9670,False,3242,0
44,45,OK,9343,9448,9343,False,3376,0
45,46,OK,14049,8321,14049,True,32764,0
46,47,OK,20707,28563,20707,False,32757,0
47,48,OK,5814,367,5814,True,122,0
48,49,OK,16613,21804,16613,False,21938,0
49,50,OK,14306,26762,14306,False,20711,0
50,51,OK,19732,20493,19732,False,31606,0
51,52,OK,12958,8638,12958,True,16341,0
52,53,OK,12993,3364,12993,True,12478,0
53,54,OK,11330,673,11330,True,4205,0
54,55,OK,17675,30113,17675,False,26904,0
55,56,OK,16362,21937,16362,False,15561,0
56,57,OK,13005,4401,13005,True,21808,0
57,58,OK,1926,2200,1926,False,11,0
58,59,OK,2000,2191,2000,False,2,0
59,60,OK,9365,6552,9365,True,3645,0
60,61,OK,15023,5669,15023,True,31936,0
61,62,OK,21688,26071,21688,False,32755,0
62,63,OK,7478,14617,7478,False,698,0
63,64,OK,11989,15336,11989,False,16962,0
64,65,OK,12577,19868,12577,False,13397,0
65,66,OK,4845,1608,4845,True,61,0
66,67,OK,11439,21416,11439,False,7817,0
67,68,OK,15565,1823,15565,True,15374,0
68,69,OK,9301,15480,9301,False,2268,0
69,70,OK,15262,25294,15262,False,23447,0
70,71,OK,10735,1486,10735,True,3255,0
71,72,OK,14892,10514,14892,True,24532,0
72,73,OK,12029,7049,12029,True,10082,0
73,74,OK,8464,11068,8464,False,763,0
74,75,OK,8363,12384,8363,False,293,0
75,76,OK,19868,6436,19868,True,29741,0
76,77,OK,4268,7485,4268,False,35,0
77,78,OK,17700,18743,17700,False,32720,0
78,79,OK,17520,8204,17520,True,32715,0
79,80,OK,9776,3843,9776,True,1464,0
80,81,OK,16423,22146,16423,False,30235,0
81,82,OK,19080,13024,19080,True,32748,0
82,83,OK,19264,11457,19264,True,32573,0
83,84,OK,17301,29548,17301,False,31547,0
84,85,OK,6301,6916,6301,False,128,0
85,86,OK,4736,8932,4736,False,55,0
86,87,OK,10517,13210,10517,False,2190,0
87,88,OK,18643,35552,18643,False,32720,0
88,89,OK,17542,33507,17542,False,31750,0
89,90,OK,12066,5138,12066,True,1148,0
90,91,OK,8185,9612,8185,False,251,0
91,92,OK,15257,26300,15257,False,32750,0
92,93,OK,8584,9181,8584,False,299,0
93,94,OK,14760,24566,14760,False,10188,0
94,95,OK,18470,7319,18470,True,28178,0
95,96,OK,15726,6766,15726,True,15053,0
96,97,OK,6817,12961,6817,False,987,0
97,98,OK,9800,8364,9800,True,2695,0
98,99,OK,20414,24148,20414,False,25086,0
99,100,OK,16143,2155,16143,True,26276,0
100,101,OK,17339,11958,17339,True,30050,0
101,102,OK,24347,3462,24347,True,32752,0
102,103,OK,7328,3952,7328,True,6983,0
103,104,OK,14938,19393,14938,False,27625,0
104,105,OK,14899,18878,14899,False,22157,0
105,106,OK,8780,12428,8780,False,979,0
106,107,OK,2390,3348,2390,False,11,0
107,108,OK,23281,11540,23281,True,32764,0
108,109,OK,10604,1822,10604,True,2384,0
109,110,OK,13211,25418,13211,False,22104,0
110,111,OK,19936,19015,19936,True,31783,0
111,112,OK,17118,20759,17118,False,31319,0
112,113,OK,16532,24550,16532,False,25837,0
113,114,OK,21987,19954,21987,True,32744,0
114,115,OK,19123,29893,19123,False,32765,0
115,116,OK,16775,25178,16775,False,19504,0
116,117,OK,14266,19707,14266,False,13232,0
117,118,OK,15074,9238,15074,True,31499,0
118,119,OK,11394,16116,11394,False,938,0
119,120,OK,18162,29496,18162,False,26594,0
120,121,OK,20020,1840,20020,True,31063,0
121,122,OK,0,0,0,True,1,0
122,123,OK,3475,5164,3475,False,19,0
123,124,OK,21345,6483,21345,True,32251,0
124,125,OK,16267,4481,16267,True,31116,0
125,126,OK,15145,16421,15145,False,10882,0
126,127,OK,17632,24407,17632,False,32746,0
127,128,OK,13490,21043,13490,False,25689,0
128,129,OK,11035,10275,11035,True,14032,0
129,130,OK,18327,31768,18327,False,20039,0
130,131,OK,7866,11358,7866,False,295,0
131,132,OK,13306,14324,13306,False,5338,0
132,133,OK,16547,10987,16547,True,19714,0
133,134,OK,4437,1755,4437,True,8,0
134,135,OK,13198,16358,13198,False,22901,0
135,136,OK,16437,11505,16437,True,32584,0
136,137,OK,3220,5824,3220,False,22,0
137,138,OK,17999,11353,17999,True,31193,0
138,139,OK,12560,4384,12560,True,5760,0
139,140,OK,3286,5046,3286,False,62,0
140,141,OK,7915,1697,7915,True,352,0
141,142,OK,15829,10423,15829,True,7480,0
142,143,OK,4392,1201,4392,True,43,0
143,144,OK,13310,12537,13310,True,5587,0
144,145,OK,16262,18567,16262,False,14185,0
145,146,OK,18832,11457,18832,True,27142,0
146,147,OK,16020,21844,16020,False,27350,0
147,148,OK,17985,29423,17985,False,32720,0
148,149,OK,9785,14477,9785,False,4584,0
149,150,OK,13653,2762,13653,True,32411,0
150,151,OK,1427,2709,1427,False,3,0
151,152,OK,13036,17356,13036,False,4009,0
152,153,OK,14377,1354,14377,True,2952,0
153,154,OK,13185,8477,13185,True,8066,0
154,155,OK,4662,9148,4662,False,52,0
155,156,OK,16569,12556,16569,True,30044,0
156,157,OK,17977,28578,17977,False,32362,0
157,158,OK,10533,4609,10533,True,2178,0
158,159,OK,11394,2277,11394,True,712,0
159,160,OK,15581,20007,15581,False,31436,0
160,161,OK,14069,11013,14069,True,9880,0
161,162,OK,11804,6148,11804,True,2357,0
162,163,OK,8296,15469,8296,False,568,0
163,164,OK,9085,9125,9085,False,1733,0
164,165,OK,13687,8555,13687,True,31159,0
165,166,OK,12304,22821,12304,False,3136,0
166,167,OK,20819,38564,20819,False,31832,0
167,168,OK,2775,2862,2775,False,7,0
168,169,OK,19110,16690,19110,True,29277,0
169,170,OK,13083,17579,13083,False,8224,0
170,171,OK,6994,8920,6994,False,112,0
171,172,OK,16108,30388,16108,False,32739,0
172,173,OK,19348,37364,19348,False,31289,0
173,174,OK,18571,7695,18571,True,26959,0
174,175,OK,16561,6668,16561,True,27360,0
175,176,OK,15478,17792,15478,False,26201,0
176,177,OK,8217,13148,8217,False,359,0
177,178,OK,15713,24173,15713,False,31139,0
178,179,OK,7053,10917,7053,False,474,0
179,180,OK,12637,18451,12637,False,23703,0
180,181,OK,9056,1229,9056,True,634,0
181,182,OK,14687,24641,14687,False,16357,0
182,183,OK,6166,2805,6166,True,139,0
183,184,OK,13397,16532,13397,False,23077,0
184,185,OK,9293,8991,9293,True,4853,0
185,186,OK,15526,3150,15526,True,30869,0
186,187,OK,13033,20220,13033,False,2520,0
187,188,OK,21645,33428,21645,False,32160,0
188,189,OK,20523,5634,20523,True,32749,0
189,190,OK,15391,27265,15391,False,32761,0
190,191,OK,12889,19907,12889,False,20377,0
191,192,OK,10947,19818,10947,False,1978,0
192,193,OK,17315,3319,17315,True,22679,0
193,194,OK,17065,29550,17065,False,32741,0
194,195,OK,15401,19667,15401,False,28006,0
195,196,OK,14957,12227,14957,True,15384,0
196,197,OK,9796,10830,9796,False,523,0
197,198,OK,7728,2841,7728,True,88,0
198,199,OK,16316,8473,16316,True,28152,0
199,200,OK,22810,18779,22810,True,32604,0
200,201,OK,7626,2440,7626,True,760,0
201,202,OK,11020,13836,11020,False,1340,0
202,203,OK,17315,5598,17315,True,32730,0
203,204,OK,16962,25576,16962,False,32356,0
204,205,OK,12286,6579,12286,True,21531,0
205,206,OK,15246,11623,15246,True,23315,0
206,207,OK,9971,17681,9971,False,5798,0
207,208,OK,17115,27060,17115,False,15596,0
208,209,OK,9031,14373,9031,False,1592,0
209,210,OK,5985,7239,5985,False,26,0
210,211,OK,12279,1577,12279,True,5758,0
211,212,OK,13221,2612,13221,True,6940,0
212,213,OK,11725,11158,11725,True,8714,0
213,214,OK,21292,7988,21292,True,32157,0
214,215,OK,17970,32481,17970,False,13469,0
215,216,OK,15436,17205,15436,False,30386,0
216,217,OK,11138,17446,11138,False,2401,0
217,218,OK,8222,10421,8222,False,782,0
218,219,OK,18674,25830,18674,False,26955,0
219,220,OK,21144,20079,21144,True,30413,0
220,221,OK,18649,32490,18649,False,32758,0
221,222,OK,17496,13950,17496,True,30174,0
222,223,OK,13553,20831,13553,False,4283,0
223,224,OK,4496,1180,4496,True,15,0
224,225,OK,19544,28651,19544,False,32676,0
225,226,OK,14087,21685,14087,False,32704,0
226,227,OK,14215,16653,14215,False,32274,0
227,228,OK,11239,1405,11239,True,7043,0
228,229,OK,16060,12297,16060,True,32637,0
229,230,OK,2326,4410,2326,False,6,0
230,231,OK,12498,6624,12498,True,10751,0
231,232,OK,18621,4630,18621,True,25211,0
232,233,OK,11250,14331,11250,False,30982,0
233,234,OK,16863,15293,16863,True,28738,0
234,235,OK,12695,6692,12695,True,9321,0
235,236,OK,18585,29581,18585,False,32321,0
236,237,OK,2106,1191,2106,True,3,0
237,238,OK,16830,14612,16830,True,32456,0
238,239,OK,507,685,507,False,3,0
239,240,OK,13378,1153,13378,True,7028,0
240,241,OK,4909,8733,4909,False,29,0
241,242,OK,1630,2102,1630,False,5,0
242,243,OK,14213,14999,14213,False,12543,0
243,244,OK,8541,15688,8541,False,3462,0
244,245,OK,11642,5392,11642,True,32765,0
245,246,OK,23596,29933,23596,False,28487,0
246,247,OK,13556,17508,13556,False,6437,0
247,248,OK,16789,29441,16789,False,32726,0
248,249,OK,13345,8638,13345,True,32125,0
249,250,OK,19272,2149,19272,True,32368,0
250,251,OK,16040,21152,16040,False,32731,0
251,252,OK,12367,4206,12367,True,15973,0
252,253,OK,12367,14217,12367,False,31269,0
253,254,OK,10550,12155,10550,False,957,0
254,255,OK,16652,26915,16652,False,20537,0
255,256,OK,18125,23815,18125,False,25405,0
256,257,OK,12065,5836,12065,True,11475,0
257,258,OK,19787,13556,19787,True,32761,0
258,259,OK,9993,2274,9993,True,2645,0
259,260,OK,8533,10208,8533,False,280,0
260,261,OK,20102,20155,20102,False,32468,0
261,262,OK,3735,6443,3735,False,8,0
262,263,OK,15911,31179,15911,False,17426,0
263,264,OK,5347,8026,5347,False,637,0
264,265,OK,9338,11974,9338,False,10426,0
265,266,OK,18933,32285,18933,False,32766,0
266,267,OK,11595,13583,11595,False,854,0
267,268,OK,6500,4005,6500,True,663,0
268,269,OK,16025,22359,16025,False,25011,0
269,270,OK,19454,32110,19454,False,32764,0
270,271,OK,15354,14463,15354,True,32678,0
271,272,OK,18458,13831,18458,True,32694,0
272,273,OK,18824,16171,18824,True,32405,0
273,274,OK,6352,4329,6352,True,21,0
274,275,OK,11143,6240,11143,True,12147,0
275,276,OK,22233,37749,22233,False,32725,0
276,277,OK,15858,5291,15858,True,32601,0
277,278,OK,18149,20990,18149,False,29137,0
278,279,OK,9986,18630,9986,False,1795,0
279,280,OK,22469,8711,22469,True,32353,0
280,281,OK,15534,30743,15534,False,32726,0
281,282,OK,17136,24131,17136,False,18880,0
282,283,OK,14404,7621,14404,True,12814,0
283,284,OK,9120,9431,9120,False,24891,0
284,285,OK,8336,6623,8336,True,409,0
285,286,OK,19612,19721,19612,False,32584,0
286,287,OK,17244,33454,17244,False,20320,0
287,288,OK,17499,34283,17499,False,32339,0
288,289,OK,16460,15039,16460,True,30018,0
289,290,OK,17688,35093,17688,False,31840,0
290,291,OK,3542,1307,3542,True,8,0
291,292,OK,14234,25926,14234,False,31549,0
292,293,OK,19570,34228,19570,False,28168,0
293,294,OK,17331,19160,17331,False,30485,0
294,295,OK,25129,21227,25129,True,32595,0
295,296,OK,7077,2607,7077,True,425,0
296,297,OK,11848,5492,11848,True,605,0
297,298,OK,15974,7207,15974,True,32767,0
298,299,OK,17606,10528,17606,True,32761,0
299,300,OK,9819,9089,9819,True,560,0
300,301,OK,6634,2949,6634,True,3753,0
301,302,OK,4742,4110,4742,True,24,0
302,303,OK,0,0,0,True,1,0
303,304,OK,16437,7159,16437,True,15549,0
304,305,OK,18449,28643,18449,False,32724,0
305,306,OK,21261,17323,21261,True,32742,0
306,307,OK,7185,3510,7185,True,245,0
307,308,OK,19712,37145,19712,False,32744,0
308,309,OK,14719,2184,14719,True,20613,0
309,310,OK,8550,15529,8550,False,2236,0
310,311,OK,19873,12644,19873,True,30312,0
311,312,OK,13122,17392,13122,False,11572,0
312,313,OK,6751,12376,6751,False,916,0
313,314,OK,15347,26351,15347,False,30985,0
314,315,OK,11644,3852,11644,True,8020,0
315,316,OK,4397,702,4397,True,16,0
316,317,OK,13687,8214,13687,True,9123,0
317,318,OK,18496,14288,18496,True,29984,0
318,319,OK,6807,9535,6807,False,1119,0
319,320,OK,9150,1769,9150,True,1811,0
320,321,OK,13264,4850,13264,True,24896,0
321,322,OK,19213,27259,19213,False,32755,0
322,323,OK,12870,13139,12870,False,5614,0
323,324,OK,16317,9144,16317,True,17147,0
324,325,OK,13695,22589,13695,False,10998,0
325,326,OK,17830,13481,17830,True,15993,0
326,327,OK,15907,20068,15907,False,26965,0
327,328,OK,17675,19043,17675,False,32764,0
328,329,OK,14915,25080,14915,False,9647,0
329,330,OK,9330,8564,9330,True,152,0
330,331,OK,16661,30814,16661,False,23011,0
331,332,OK,11044,7805,11044,True,7962,0
332,333,OK,20273,403,20273,True,32357,0
333,334,OK,11676,1563,11676,True,4498,0
334,335,OK,20009,32275,20009,False,32572,0
335,336,OK,16027,3311,16027,True,14215,0
336,337,OK,17635,19704,17635,False,27958,0
337,338,OK,17045,11302,17045,True,32739,0
338,339,OK,13366,9631,13366,True,6958,0
339,340,OK,9838,10491,9838,False,1268,0
340,341,OK,4929,2193,4929,True,85,0
341,342,OK,12976,11622,12976,True,28766,0
342,343,OK,18281,23056,18281,False,32723,0
343,344,OK,18162,5699,18162,True,30003,0
344,345,OK,8043,4730,8043,True,1138,0
345,346,OK,13636,14404,13636,False,32112,0
346,347,OK,16157,6548,16157,True,29447,0
347,348,OK,14326,28103,14326,False,28028,0
348,349,OK,12068,6936,12068,True,15987,0
349,350,OK,20075,18060,20075,True,32738,0
350,351,OK,16068,25350,16068,False,26727,0
351,352,OK,15236,2545,15236,True,20444,0
352,353,OK,15568,3836,15568,True,10914,0
353,354,OK,15249,23912,15249,False,22761,0
354,355,OK,13282,4425,13282,True,12393,0
355,356,OK,19532,19129,19532,True,32661,0
356,357,OK,2015,3225,2015,False,5,0
357,358,OK,6229,10245,6229,False,226,0
358,359,OK,18106,2535,18106,True,30948,0
359,360,OK,19713,18905,19713,True,32754,0
360,361,OK,17268,1771,17268,True,31787,0
361,362,OK,16531,26763,16531,False,27171,0
362,363,OK,21932,36017,21932,False,31241,0
363,364,OK,5147,4130,5147,True,32,0
364,365,OK,20665,19308,20665,True,32740,0
365,366,OK,11593,10509,11593,True,1915,0
366,367,OK,5070,8690,5070,False,106,0
367,368,OK,12196,20595,12196,False,13430,0
368,369,OK,21623,5099,21623,True,32546,0
369,370,OK,12988,25716,12988,False,1849,0
370,371,OK,6057,8605,6057,False,87,0
371,372,OK,10122,8138,10122,True,7613,0
372,373,OK,7545,12266,7545,False,43,0
373,374,OK,14693,18045,14693,False,6726,0
374,375,OK,16908,15009,16908,True,32269,0
375,376,OK,20454,10461,20454,True,31935,0
376,377,OK,7407,3504,7407,True,53,0
377,378,OK,17584,12845,17584,True,22053,0
378,379,OK,23457,13907,23457,True,32762,0
379,380,OK,12671,10276,12671,True,27539,0
380,381,OK,14633,7106,14633,True,17818,0
381,382,OK,15550,28824,15550,False,30040,0
382,383,OK,16747,29777,16747,False,32413,0
383,384,OK,15594,29518,15594,False,32697,0
384,385,OK,6808,9113,6808,False,402,0
385,386,OK,12707,12647,12707,True,9923,0
386,387,OK,18302,11414,18302,True,32721,0
387,388,OK,4437,1531,4437,True,12,0
388,389,OK,14874,1838,14874,True,9027,0
389,390,OK,11759,5282,11759,True,6755,0
390,391,OK,10116,7759,10116,True,1407,0
391,392,OK,18298,5487,18298,True,32737,0
392,393,OK,18416,4373,18416,True,32766,0
393,394,OK,14135,14367,14135,False,7656,0
394,395,OK,12562,20243,12562,False,10345,0
395,396,OK,12360,21485,12360,False,6424,0
396,397,OK,6970,4533,6970,True,137,0
397,398,OK,5443,5413,5443,True,528,0
398,399,OK,15352,12971,15352,True,32547,0
399,400,OK,13318,20992,13318,False,17896,0
400,401,OK,17475,15371,17475,True,29603,0
401,402,OK,18128,25381,18128,False,32762,0
402,403,OK,3941,6313,3941,False,6,0
403,404,OK,4466,3431,4466,True,22,0
404,405,OK,14818,21280,14818,False,13954,0
405,406,OK,16573,2906,16573,True,32403,0
406,407,OK,15337,8397,15337,True,32405,0
407,408,OK,13835,3288,13835,True,5576,0
408,409,OK,9887,8753,9887,True,1562,0
409,410,OK,22314,44159,22314,False,32753,0
410,411,OK,7111,4263,7111,True,1259,0
411,412,OK,21921,25083,21921,False,32687,0
412,413,OK,22963,5017,22963,True,32740,0
413,414,OK,12188,6400,12188,True,4365,0
414,415,OK,16696,20156,16696,False,17645,0
415,416,OK,20819,16679,20819,True,30022,0
416,417,OK,11500,5381,11500,True,4837,0
417,418,OK,14531,25534,14531,False,13316,0
418,419,OK,9366,7063,9366,True,1643,0
419,420,OK,12810,24082,12810,False,21327,0
420,421,OK,17584,13572,17584,True,32739,0
421,422,OK,12136,23329,12136,False,4782,0
422,423,OK,6968,8664,6968,False,481,0
423,424,OK,17520,16159,17520,True,32765,0
424,425,OK,10751,10742,10751,True,2456,0
425,426,OK,10538,882,10538,True,2776,0
426,427,OK,18486,24340,18486,False,25420,0
427,428,OK,7841,111,7841,True,2033,0
428,429,OK,10393,19290,10393,False,5517,0
429,430,OK,17476,8465,17476,True,9802,0
430,431,OK,18015,9660,18015,True,32388,0
431,432,OK,14046,9243,14046,True,24590,0
432,433,OK,7212,5013,7212,True,27,0
433,434,OK,17656,23888,17656,False,30952,0
434,435,OK,9233,16802,9233,False,3321,0
435,436,OK,12937,7635,12937,True,9590,0
436,437,OK,17946,9244,17946,True,32760,0
437,438,OK,15066,29923,15066,False,32618,0
438,439,OK,13111,8913,13111,True,14888,0
439,440,OK,11868,7512,11868,True,14986,0
440,441,OK,18215,3554,18215,True,32187,0
441,442,OK,12610,90,12610,True,21092,0
442,443,OK,17975,33964,17975,False,32754,0
443,444,OK,10068,11418,10068,False,695,0
444,445,OK,17344,22256,17344,False,31699,0
445,446,OK,6014,3841,6014,True,280,0
446,447,OK,6909,12880,6909,False,240,0
447,448,OK,13769,4673,13769,True,19180,0
448,449,OK,4337,1231,4337,True,8,0
449,450,OK,21803,12336,21803,True,32766,0
450,451,OK,18274,21184,18274,False,24678,0
451,452,OK,10868,19952,10868,False,3274,0
452,453,OK,18760,31934,18760,False,22542,0
453,454,OK,10362,1116,10362,True,235,0
454,455,OK,10854,6258,10854,True,2358,0
455,456,OK,15161,24748,15161,False,17250,0
456,457,OK,24334,4482,24334,True,32672,0
457,458,OK,11297,1309,11297,True,6872,0
458,459,OK,11642,781,11642,True,11957,0
459,460,OK,15672,7926,15672,True,20653,0
460,461,OK,9622,18767,9622,False,549,0
461,462,OK,20498,12828,20498,True,32743,0
462,463,OK,1802,1411,1802,True,6,0
463,464,OK,19630,23487,19630,False,32766,0
464,465,OK,14034,410,14034,True,17528,0
465,466,OK,8020,4426,8020,True,1918,0
466,467,OK,1274,486,1274,True,2,0
467,468,OK,2171,3237,2171,False,9,0
468,469,OK,10706,17137,10706,False,1791,0
469,470,OK,11482,20552,11482,False,18497,0
470,471,OK,13239,26475,13239,False,28836,0
471,472,OK,18428,11940,18428,True,32766,0
472,473,OK,9264,95,9264,True,5005,0
473,474,OK,17402,27396,17402,False,32754,0
474,475,OK,18150,15573,18150,True,27264,0
475,476,OK,15190,27258,15190,False,27705,0
476,477,OK,8388,6347,8388,True,3140,0
477,478,OK,8812,4582,8812,True,1476,0
478,479,OK,14571,6087,14571,True,11200,0
479,480,OK,16250,20531,16250,False,20869,0
480,481,OK,4869,949,4869,True,17,0
481,482,OK,10348,19928,10348,False,7862,0
482,483,OK,12087,8604,12087,True,2149,0
483,484,OK,15328,20220,15328,False,17889,0
484,485,OK,15829,204,15829,True,12717,0
485,486,OK,1396,927,1396,True,3,0
486,487,OK,17882,15315,17882,True,20596,0
487,488,OK,12194,18861,12194,False,8019,0
488,489,OK,1148,724,1148,True,3,0
489,490,OK,12249,7920,12249,True,27347,0
490,491,OK,14308,28074,14308,False,23773,0
491,492,OK,8895,15202,8895,False,370,0
492,493,OK,17644,1,17644,True,17877,0
493,494,OK,9045,3737,9045,True,1999,0
494,495,OK,19692,36533,19692,False,32764,0
495,496,OK,14010,15020,14010,False,17816,0
496,497,OK,18358,17944,18358,True,32636,0
497,498,OK,9268,1310,9268,True,1361,0
498,499,OK,16543,4930,16543,True,4256,0
499,500,OK,23252,24757,23252,False,32764,0
