,ID,status,opt price,C,max price,Passed,visited,time
0,1,OK,1129,324,1129,True,3,0
1,2,OK,2966,7,2966,True,9,0
2,3,OK,0,0,0,True,1,0
3,4,OK,70,63,70,True,2,0
4,5,OK,2758,4457,2758,False,8,0
5,6,OK,1641,122,1641,True,2,0
6,7,OK,4607,5477,4607,False,15,0
7,8,OK,4422,7371,4422,False,4,0
8,9,OK,3451,749,3451,True,12,0
9,10,OK,744,384,744,True,2,0
10,11,OK,4774,2061,4774,True,10,0
11,12,OK,1538,906,1538,True,4,0
12,13,OK,5798,6784,5798,False,12,0
13,14,OK,3972,950,3972,True,9,0
14,15,OK,4117,4950,4117,False,10,0
15,16,OK,2698,1305,2698,True,8,0
16,17,OK,0,0,0,True,1,0
17,18,OK,2453,2786,2453,False,4,0
18,19,OK,3999,6844,3999,False,10,0
19,20,OK,4919,4492,4919,True,13,0
20,21,OK,2098,1127,2098,True,2,0
21,22,OK,1382,2491,1382,False,2,0
22,23,OK,4485,8524,4485,False,15,0
23,24,OK,3611,4450,3611,False,10,0
24,25,OK,3102,6061,3102,False,12,0
25,26,OK,2551,2883,2551,False,6,0
26,27,OK,3076,178,3076,True,8,0
27,28,OK,1649,291,1649,True,2,0
28,29,OK,2937,163,2937,True,8,0
29,30,OK,5798,8994,5798,False,14,0
30,31,OK,4506,4927,4506,False,15,0
31,32,OK,5893,6052,5893,False,15,0
32,33,OK,2277,3003,2277,False,3,0
33,34,OK,2689,2524,2689,True,6,0
34,35,OK,2356,3441,2356,False,3,0
35,36,OK,1209,483,1209,True,4,0
36,37,OK,0,0,0,True,1,0
37,38,OK,3414,4163,3414,False,7,0
38,39,OK,4899,871,4899,True,12,0
39,40,OK,2310,1852,2310,True,8,0
40,41,OK,2024,2196,2024,False,2,0
41,42,OK,2625,463,2625,True,5,0
42,43,OK,3331,5328,3331,False,4,0
43,44,OK,3271,4591,3271,False,15,0
44,45,OK,4966,5022,4966,False,12,0
45,46,OK,1792,1061,1792,True,4,0
46,47,OK,4753,6556,4753,False,11,0
47,48,OK,3966,250,3966,True,5,0
48,49,OK,0,0,0,True,1,0
49,50,OK,2717,5083,2717,False,4,0
50,51,OK,0,0,0,True,1,0
51,52,OK,3895,2596,3895,True,12,0
52,53,OK,4212,1090,4212,True,6,0
53,54,OK,523,31,523,True,4,0
54,55,OK,4588,7817,4588,False,14,0
55,56,OK,2986,4004,2986,False,9,0
56,57,OK,3438,1163,3438,True,10,0
57,58,OK,2090,2387,2090,False,2,0
58,59,OK,4343,4757,4343,False,11,0
59,60,OK,4469,3126,4469,True,8,0
60,61,OK,0,0,0,True,1,0
61,62,OK,2537,3050,2537,False,9,0
62,63,OK,1235,2414,1235,False,4,0
63,64,OK,4289,5487,4289,False,14,0
64,65,OK,6226,9836,6226,False,13,0
65,66,OK,4371,1450,4371,True,6,0
66,67,OK,3162,5920,3162,False,9,0
67,68,OK,4275,500,4275,True,14,0
68,69,OK,0,0,0,True,1,0
69,70,OK,5282,8754,5282,False,14,0
70,71,OK,2301,318,2301,True,4,0
71,72,OK,2861,2020,2861,True,12,0
72,73,OK,2542,1490,2542,True,7,0
73,74,OK,0,0,0,True,1,0
74,75,OK,2904,4300,2904,False,10,0
75,76,OK,3721,1205,3721,True,6,0
76,77,OK,5098,8941,5098,False,14,0
77,78,OK,3681,3898,3681,False,12,0
78,79,OK,5150,2411,5150,True,10,0
79,80,OK,1548,608,1548,True,3,0
80,81,OK,3244,4375,3244,False,9,0
81,82,OK,5633,3845,5633,True,15,0
82,83,OK,0,0,0,True,1,0
83,84,OK,1872,3197,1872,False,2,0
84,85,OK,6606,7251,6606,False,12,0
85,86,OK,2533,4778,2533,False,4,0
86,87,OK,2283,2868,2283,False,4,0
87,88,OK,161,307,161,False,2,0
88,89,OK,927,1771,927,False,5,0
89,90,OK,4527,1927,4527,True,12,0
90,91,OK,3363,3949,3363,False,14,0
91,92,OK,3770,6499,3770,False,13,0
92,93,OK,1160,1241,1160,False,2,0
93,94,OK,1910,3179,1910,False,9,0
94,95,OK,5212,2065,5212,True,15,0
95,96,OK,2751,1183,2751,True,13,0
96,97,OK,3901,7417,3901,False,4,0
97,98,OK,1487,1269,1487,True,5,0
98,99,OK,4088,4836,4088,False,8,0
99,100,OK,1936,258,1936,True,2,0
100,101,OK,5818,4012,5818,True,14,0
101,102,OK,3402,483,3402,True,7,0
102,103,OK,1289,695,1289,True,2,0
103,104,OK,2691,3494,2691,False,8,0
104,105,OK,2173,2753,2173,False,5,0
105,106,OK,3248,4598,3248,False,8,0
106,107,OK,3340,4679,3340,False,6,0
107,108,OK,3497,1733,3497,True,8,0
108,109,OK,5201,893,5201,True,8,0
109,110,OK,1867,3593,1867,False,2,0
110,111,OK,5518,5263,5518,True,12,0
111,112,OK,2413,2926,2413,False,3,0
112,113,OK,3499,5196,3499,False,8,0
113,114,OK,3567,3237,3567,True,14,0
114,115,OK,5403,8446,5403,False,13,0
115,116,OK,3213,4823,3213,False,5,0
116,117,OK,2445,3378,2445,False,5,0
117,118,OK,0,0,0,True,1,0
118,119,OK,2993,4234,2993,False,4,0
119,120,OK,3018,4902,3018,False,6,0
120,121,OK,4255,391,4255,True,15,0
121,122,OK,4162,3724,4162,True,8,0
122,123,OK,5875,8731,5875,False,12,0
123,124,OK,2120,644,2120,True,2,0
124,125,OK,3619,997,3619,True,11,0
125,126,OK,0,0,0,True,1,0
126,127,OK,4413,6109,4413,False,7,0
127,128,OK,2364,3688,2364,False,2,0
128,129,OK,3248,3024,3248,True,6,0
129,130,OK,5691,9865,5691,False,15,0
130,131,OK,2980,4303,2980,False,6,0
131,132,OK,4369,4703,4369,False,13,0
132,133,OK,1063,706,1063,True,6,0
133,134,OK,3557,1407,3557,True,8,0
134,135,OK,4346,5387,4346,False,15,0
135,136,OK,1822,1275,1822,True,8,0
136,137,OK,2302,4164,2302,False,12,0
137,138,OK,2006,1265,2006,True,5,0
138,139,OK,1055,368,1055,True,2,0
139,140,OK,5086,7811,5086,False,14,0
140,141,OK,1535,329,1535,True,12,0
141,142,OK,6234,4105,6234,True,13,0
142,143,OK,2455,671,2455,True,14,0
143,144,OK,0,0,0,True,1,0
144,145,OK,0,0,0,True,1,0
145,146,OK,4255,2588,4255,True,8,0
146,147,OK,4518,6161,4518,False,12,0
147,148,OK,3482,5697,3482,False,8,0
148,149,OK,2446,3619,2446,False,3,0
149,150,OK,3000,607,3000,True,13,0
150,151,OK,3714,7050,3714,False,15,0
151,152,OK,2483,3306,2483,False,3,0
152,153,OK,475,44,475,True,5,0
153,154,OK,3621,2328,3621,True,8,0
154,155,OK,1777,3487,1777,False,4,0
155,156,OK,4059,3076,4059,True,14,0
156,157,OK,3232,5138,3232,False,8,0
157,158,OK,4047,1771,4047,True,12,0
158,159,OK,2444,488,2444,True,5,0
159,160,OK,2201,2826,2201,False,9,0
160,161,OK,1118,875,1118,True,2,0
161,162,OK,0,0,0,True,1,0
162,163,OK,3883,7241,3883,False,12,0
163,164,OK,4042,4060,4042,False,8,0
164,165,OK,1609,1005,1609,True,4,0
165,166,OK,1314,2438,1314,False,2,0
166,167,OK,3352,6209,3352,False,6,0
167,168,OK,4900,5053,4900,False,13,0
168,169,OK,6731,5879,6731,True,14,0
169,170,OK,2489,3345,2489,False,6,0
170,171,OK,2439,3111,2439,False,3,0
171,172,OK,3785,7141,3785,False,10,0
172,173,OK,4835,9337,4835,False,12,0
173,174,OK,103,42,103,True,2,0
174,175,OK,4005,1612,4005,True,10,0
175,176,OK,2094,2407,2094,False,6,0
176,177,OK,0,0,0,True,1,0
177,178,OK,3683,5666,3683,False,8,0
178,179,OK,3624,5609,3624,False,9,0
179,180,OK,4842,7070,4842,False,12,0
180,181,OK,3693,501,3693,True,14,0
181,182,OK,3798,6372,3798,False,8,0
182,183,OK,0,0,0,True,1,0
183,184,OK,4391,5418,4391,False,15,0
184,185,OK,3600,3483,3600,True,15,0
185,186,OK,3084,625,3084,True,5,0
186,187,OK,4249,6592,4249,False,8,0
187,188,OK,636,982,636,False,3,0
188,189,OK,2577,707,2577,True,15,0
189,190,OK,5838,10342,5838,False,15,0
190,191,OK,3129,4833,3129,False,11,0
191,192,OK,4846,8773,4846,False,7,0
192,193,OK,4084,782,4084,True,12,0
193,194,OK,1181,2045,1181,False,2,0
194,195,OK,3584,4577,3584,False,12,0
195,196,OK,1991,1628,1991,True,5,0
196,197,OK,6201,6856,6201,False,13,0
197,198,OK,2525,928,2525,True,10,0
198,199,OK,3098,1609,3098,True,5,0
199,200,OK,2965,2441,2965,True,9,0
200,201,OK,0,0,0,True,1,0
201,202,OK,2493,3130,2493,False,2,0
202,203,OK,4392,1420,4392,True,11,0
203,204,OK,0,0,0,True,1,0
204,205,OK,2209,1183,2209,True,4,0
205,206,OK,2230,1700,2230,True,10,0
206,207,OK,0,0,0,True,1,0
207,208,OK,1992,3150,1992,False,5,0
208,209,OK,2582,4109,2582,False,10,0
209,210,OK,924,1118,924,False,2,0
210,211,OK,3726,478,3726,True,10,0
211,212,OK,0,0,0,True,1,0
212,213,OK,2063,1963,2063,True,5,0
213,214,OK,3013,1130,3013,True,8,0
214,215,OK,0,0,0,True,1,0
215,216,OK,0,0,0,True,1,0
216,217,OK,1742,2729,1742,False,3,0
217,218,OK,1664,2109,1664,False,2,0
218,219,OK,2403,3324,2403,False,3,0
219,220,OK,2193,2082,2193,True,8,0
220,221,OK,1648,2871,1648,False,4,0
221,222,OK,2260,1802,2260,True,4,0
222,223,OK,4656,7156,4656,False,14,0
223,224,OK,1185,311,1185,True,2,0
224,225,OK,3714,5445,3714,False,8,0
225,226,OK,1360,2094,1360,False,2,0
226,227,OK,365,428,365,False,2,0
227,228,OK,4730,591,4730,True,14,0
228,229,OK,184,141,184,True,2,0
229,230,OK,6260,11869,6260,False,8,0
230,231,OK,4385,2324,4385,True,14,0
231,232,OK,5391,1340,5391,True,14,0
232,233,OK,5007,6378,5007,False,12,0
233,234,OK,5574,5055,5574,True,15,0
234,235,OK,3265,1721,3265,True,14,0
235,236,OK,2013,3204,2013,False,2,0
236,237,OK,1598,903,1598,True,2,0
237,238,OK,5384,4674,5384,True,12,0
238,239,OK,3796,5126,3796,False,6,0
239,240,OK,1410,121,1410,True,2,0
240,241,OK,4660,8290,4660,False,14,0
241,242,OK,5359,6909,5359,False,15,0
242,243,OK,1462,1543,1462,False,6,0
243,244,OK,2500,4592,2500,False,2,0
244,245,OK,3195,1480,3195,True,5,0
245,246,OK,3293,4178,3293,False,6,0
246,247,OK,5771,7453,5771,False,8,0
247,248,OK,3079,5400,3079,False,9,0
248,249,OK,3429,2219,3429,True,6,0
249,250,OK,4183,466,4183,True,8,0
250,251,OK,0,0,0,True,1,0
251,252,OK,3458,1176,3458,True,12,0
252,253,OK,2362,2715,2362,False,4,0
253,254,OK,1545,1780,1545,False,2,0
254,255,OK,0,0,0,True,1,0
255,256,OK,1617,2125,1617,False,14,0
256,257,OK,2857,1382,2857,True,14,0
257,258,OK,3779,2589,3779,True,8,0
258,259,OK,3231,735,3231,True,8,0
259,260,OK,3824,4575,3824,False,6,0
260,261,OK,4733,4745,4733,False,13,0
261,262,OK,5503,9493,5503,False,12,0
262,263,OK,1874,3673,1874,False,10,0
263,264,OK,4072,6113,4072,False,10,0
264,265,OK,3958,5075,3958,False,8,0
265,266,OK,1140,1944,1140,False,5,0
266,267,OK,2722,3189,2722,False,8,0
267,268,OK,2627,1619,2627,True,11,0
268,269,OK,5977,8340,5977,False,15,0
269,270,OK,1924,3176,1924,False,8,0
270,271,OK,5039,4747,5039,True,15,0
271,272,OK,3962,2969,3962,True,4,0
272,273,OK,2307,1982,2307,True,4,0
273,274,OK,2521,1718,2521,True,10,0
274,275,OK,3216,1801,3216,True,9,0
275,276,OK,4054,6884,4054,False,5,0
276,277,OK,4788,1597,4788,True,13,0
277,278,OK,631,730,631,False,3,0
278,279,OK,4297,8017,4297,False,12,0
279,280,OK,3661,1419,3661,True,11,0
280,281,OK,875,1732,875,False,3,0
281,282,OK,2326,3276,2326,False,3,0
282,283,OK,4845,2563,4845,True,7,0
283,284,OK,0,0,0,True,1,0
284,285,OK,3425,2721,3425,True,13,0
285,286,OK,6263,6298,6263,False,13,0
286,287,OK,1167,2264,1167,False,5,0
287,288,OK,3583,7020,3583,False,8,0
288,289,OK,5250,4797,5250,True,14,0
289,290,OK,2664,5286,2664,False,7,0
290,291,OK,1379,509,1379,True,2,0
291,292,OK,5836,10630,5836,False,15,0
292,293,OK,4091,7156,4091,False,10,0
293,294,OK,4659,5151,4659,False,15,0
294,295,OK,3682,3110,3682,True,8,0
295,296,OK,1745,643,1745,True,10,0
296,297,OK,3973,1841,3973,True,8,0
297,298,OK,3620,1633,3620,True,13,0
298,299,OK,2370,1417,2370,True,6,0
299,300,OK,0,0,0,True,1,0
300,301,OK,3488,1550,3488,True,14,0
301,302,OK,2038,1766,2038,True,3,0
302,303,OK,1691,3191,1691,False,3,0
303,304,OK,5361,2335,5361,True,12,0
304,305,OK,4215,6544,4215,False,11,0
305,306,OK,2494,2032,2494,True,2,0
306,307,OK,2488,1215,2488,True,5,0
307,308,OK,3091,5825,3091,False,7,0
308,309,OK,4642,689,4642,True,13,0
309,310,OK,4132,7505,4132,False,4,0
310,311,OK,3391,2157,3391,True,8,0
311,312,OK,3346,4435,3346,False,8,0
312,313,OK,2268,4158,2268,False,4,0
313,314,OK,3137,5386,3137,False,14,0
314,315,OK,6542,2164,6542,True,12,0
315,316,OK,1101,175,1101,True,2,0
316,317,OK,4756,2854,4756,True,13,0
317,318,OK,2247,1736,2247,True,2,0
318,319,OK,1712,2398,1712,False,4,0
319,320,OK,2863,553,2863,True,11,0
320,321,OK,3700,1353,3700,True,6,0
321,322,OK,0,0,0,True,1,0
322,323,OK,4628,4725,4628,False,15,0
323,324,OK,6067,3400,6067,True,15,0
324,325,OK,4279,7058,4279,False,8,0
325,326,OK,2679,2025,2679,True,13,0
326,327,OK,3176,4007,3176,False,4,0
327,328,OK,3162,3407,3162,False,8,0
328,329,OK,2265,3809,2265,False,4,0
329,330,OK,5239,4809,5239,True,12,0
330,331,OK,2411,4460,2411,False,5,0
331,332,OK,6225,4399,6225,True,12,0
332,333,OK,4050,80,4050,True,8,0
333,334,OK,701,93,701,True,4,0
334,335,OK,3649,5886,3649,False,11,0
335,336,OK,2896,598,2896,True,10,0
336,337,OK,2488,2780,2488,False,4,0
337,338,OK,2961,1963,2961,True,15,0
338,339,OK,6125,4413,6125,True,11,0
339,340,OK,1570,1674,1570,False,5,0
340,341,OK,2331,1037,2331,True,10,0
341,342,OK,2637,2362,2637,True,7,0
342,343,OK,2560,3229,2560,False,14,0
343,344,OK,3083,967,3083,True,11,0
344,345,OK,4388,2581,4388,True,7,0
345,346,OK,4346,4591,4346,False,10,0
346,347,OK,4628,1875,4628,True,15,0
347,348,OK,0,0,0,True,1,0
348,349,OK,3575,2055,3575,True,15,0
349,350,OK,2564,2307,2564,True,4,0
350,351,OK,4668,7365,4668,False,13,0
351,352,OK,5103,852,5103,True,9,0
352,353,OK,2215,545,2215,True,13,0
353,354,OK,3130,4908,3130,False,4,0
354,355,OK,1442,480,1442,True,8,0
355,356,OK,4826,4727,4826,True,12,0
356,357,OK,3366,5387,3366,False,9,0
357,358,OK,2311,3801,2311,False,7,0
358,359,OK,2207,309,2207,True,10,0
359,360,OK,3260,3126,3260,True,5,0
360,361,OK,2384,244,2384,True,4,0
361,362,OK,0,0,0,True,1,0
362,363,OK,348,572,348,False,2,0
363,364,OK,2164,1737,2164,True,5,0
364,365,OK,5608,5240,5608,True,12,0
365,366,OK,3533,3203,3533,True,11,0
366,367,OK,3362,5763,3362,False,11,0
367,368,OK,3610,6096,3610,False,5,0
368,369,OK,3383,798,3383,True,12,0
369,370,OK,1499,2968,1499,False,2,0
370,371,OK,3491,4960,3491,False,10,0
371,372,OK,6871,5524,6871,True,15,0
372,373,OK,2637,4287,2637,False,8,0
373,374,OK,3842,4719,3842,False,14,0
374,375,OK,0,0,0,True,1,0
375,376,OK,4059,2076,4059,True,14,0
376,377,OK,2463,1165,2463,True,3,0
377,378,OK,1622,1185,1622,True,12,0
378,379,OK,804,476,804,True,4,0
379,380,OK,3824,3101,3824,True,8,0
380,381,OK,0,0,0,True,1,0
381,382,OK,6366,11800,6366,False,14,0
382,383,OK,2024,3599,2024,False,3,0
383,384,OK,2882,5456,2882,False,4,0
384,385,OK,3214,4302,3214,False,14,0
385,386,OK,4021,4002,4021,True,8,0
386,387,OK,2385,1487,2385,True,3,0
387,388,OK,2628,907,2628,True,9,0
388,389,OK,5235,647,5235,True,13,0
389,390,OK,4102,1842,4102,True,15,0
390,391,OK,3640,2792,3640,True,11,0
391,392,OK,3100,929,3100,True,15,0
392,393,OK,4230,1004,4230,True,11,0
393,394,OK,4939,5020,4939,False,12,0
394,395,OK,0,0,0,True,1,0
395,396,OK,396,689,396,False,2,0
396,397,OK,4642,3019,4642,True,10,0
397,398,OK,3071,3054,3071,True,8,0
398,399,OK,3785,3198,3785,True,8,0
399,400,OK,2984,4704,2984,False,9,0
400,401,OK,1839,1617,1839,True,3,0
401,402,OK,3686,5161,3686,False,12,0
402,403,OK,2376,3806,2376,False,7,0
403,404,OK,3811,2928,3811,True,11,0
404,405,OK,1980,2844,1980,False,5,0
405,406,OK,1800,315,1800,True,3,0
406,407,OK,1360,744,1360,True,3,0
407,408,OK,2298,546,2298,True,4,0
408,409,OK,2400,2125,2400,True,3,0
409,410,OK,1800,3563,1800,False,15,0
410,411,OK,5135,3078,5135,True,15,0
411,412,OK,4896,5602,4896,False,15,0
412,413,OK,3688,805,3688,True,4,0
413,414,OK,3829,2011,3829,True,14,0
414,415,OK,0,0,0,True,1,0
415,416,OK,4611,3694,4611,True,6,0
416,417,OK,2549,1192,2549,True,8,0
417,418,OK,1425,2504,1425,False,2,0
418,419,OK,5241,3952,5241,True,12,0
419,420,OK,6565,12342,6565,False,15,0
420,421,OK,3951,3050,3951,True,12,0
421,422,OK,5362,10308,5362,False,15,0
422,423,OK,5562,6916,5562,False,15,0
423,424,OK,2606,2404,2606,True,10,0
424,425,OK,5897,5892,5897,True,12,0
425,426,OK,2381,199,2381,True,2,0
426,427,OK,1797,2366,1797,False,7,0
427,428,OK,0,0,0,True,1,0
428,429,OK,2724,5056,2724,False,10,0
429,430,OK,2693,1304,2693,True,14,0
430,431,OK,3457,1853,3457,True,14,0
431,432,OK,3641,2396,3641,True,8,0
432,433,OK,3591,2496,3591,True,10,0
433,434,OK,1470,1989,1470,False,6,0
434,435,OK,2614,4757,2614,False,12,0
435,436,OK,4497,2654,4497,True,14,0
436,437,OK,3951,2035,3951,True,15,0
437,438,OK,4155,8253,4155,False,9,0
438,439,OK,0,0,0,True,1,0
439,440,OK,4421,2798,4421,True,14,0
440,441,OK,5646,1101,5646,True,14,0
441,442,OK,3814,27,3814,True,10,0
442,443,OK,4419,8350,4419,False,12,0
443,444,OK,5022,5696,5022,False,14,0
444,445,OK,2779,3566,2779,False,11,0
445,446,OK,2772,1770,2772,True,7,0
446,447,OK,2383,4443,2383,False,5,0
447,448,OK,4574,1552,4574,True,15,0
448,449,OK,3854,1093,3854,True,8,0
449,450,OK,2845,1609,2845,True,4,0
450,451,OK,4109,4763,4109,False,8,0
451,452,OK,2798,5137,2798,False,8,0
452,453,OK,3459,5888,3459,False,11,0
453,454,OK,5566,599,5566,True,15,0
454,455,OK,3520,2029,3520,True,11,0
455,456,OK,4276,6980,4276,False,15,0
456,457,OK,4532,834,4532,True,15,0
457,458,OK,1921,222,1921,True,9,0
458,459,OK,2300,154,2300,True,3,0
459,460,OK,5758,2912,5758,True,12,0
460,461,OK,4672,9112,4672,False,10,0
461,462,OK,2718,1701,2718,True,12,0
462,463,OK,2476,1938,2476,True,4,0
463,464,OK,4205,5031,4205,False,11,0
464,465,OK,2140,62,2140,True,10,0
465,466,OK,418,230,418,True,2,0
466,467,OK,3991,1525,3991,True,11,0
467,468,OK,3923,5850,3923,False,15,0
468,469,OK,4071,6516,4071,False,13,0
469,470,OK,2258,4042,2258,False,4,0
470,471,OK,802,1604,802,False,4,0
471,472,OK,2792,1809,2792,True,12,0
472,473,OK,420,4,420,True,2,0
473,474,OK,4228,6656,4228,False,10,0
474,475,OK,6555,5624,6555,True,15,0
475,476,OK,237,426,237,False,2,0
476,477,OK,0,0,0,True,1,0
477,478,OK,3694,1921,3694,True,8,0
478,479,OK,3988,1666,3988,True,6,0
479,480,OK,3262,4122,3262,False,12,0
480,481,OK,5488,1070,5488,True,14,0
481,482,OK,215,414,215,False,2,0
482,483,OK,3410,2427,3410,True,15,0
483,484,OK,168,222,168,False,2,0
484,485,OK,2122,27,2122,True,2,0
485,486,OK,2035,1351,2035,True,2,0
486,487,OK,1652,1415,1652,True,6,0
487,488,OK,4939,7639,4939,False,15,0
488,489,OK,0,0,0,True,1,0
489,490,OK,2933,1896,2933,True,6,0
490,491,OK,4254,8347,4254,False,11,0
491,492,OK,5318,9089,5318,False,9,0
492,493,OK,2422,0,2422,True,14,0
493,494,OK,2178,900,2178,True,8,0
494,495,OK,2843,5275,2843,False,9,0
495,496,OK,3106,3330,3106,False,8,0
496,497,OK,4426,4326,4426,True,12,0
497,498,OK,2145,303,2145,True,2,0
498,499,OK,2036,606,2036,True,2,0
499,500,OK,3687,3926,3687,False,14,0
