Unnamed: 0,4,10,15,20
0,7.375550012511667e-05,0.004736003999937566,0.14728199650005536,3.3634558370004015
1,6.11825000760291e-05,0.004843905500024448,0.16761724149989732,3.535357268000098
2,7.775849996960459e-05,0.004737768000040886,0.1639725569999655,3.4040364590000536
3,5.532650004624884e-05,0.0047497269998757466,0.16836506949994146,3.364637175000098
4,7.174699999268341e-05,0.004465980000077252,0.15803292900000088,3.238812704999873
5,7.199799983936828e-05,0.004605911499993454,0.16366198849982538,3.575270943000305
6,7.525149999310088e-05,0.004707898999981808,0.15657022449988744,3.299733153000034
7,6.853349998436897e-05,0.004365985500044189,0.1545101884998985,3.325056034499994
8,7.699799994043134e-05,0.004440801500095404,0.15699379450006745,3.411125312999957
9,7.594450005399267e-05,0.0042885400000614035,0.15717853199998902,3.589084984500005
10,5.861349995939236e-05,0.0047273530000211395,0.1587681880000673,3.36023012250007
11,6.562199996551499e-05,0.0047213349999992715,0.14754326000013407,3.3261587644997235
12,7.381550005902682e-05,0.004644065999968916,0.1622116595000307,3.4556480055002794
13,5.4685500003870395e-05,0.004799328499984767,0.14589338999996926,3.4864568535003855
14,7.031300003745855e-05,0.004610056000046825,0.15712108050001916,3.6030443415002082
15,7.236199996896175e-05,0.004610149500081207,0.1565945214998692,4.151360465999915
16,6.857649987068726e-05,0.004204685499985318,0.15736329049991582,3.9171938735003096
17,6.227849996776058e-05,0.004493014499985293,0.14680906599994614,3.478381125999931
18,6.287149994932406e-05,0.004677718500033734,0.1559490624999853,3.5869830604997333
19,7.806600001458719e-05,0.004786073499985832,0.1574781135000194,3.437842834500316
20,7.475450001948047e-05,0.0062875210001038795,0.14971909350003898,3.5932546414996978
21,7.381299997177848e-05,0.004454893999991327,0.15673526600005516,3.564867994499764
22,7.004649989994505e-05,0.0045435155000177465,0.15337761099999625,3.570825637500093
23,7.208049987639242e-05,0.004675039499943523,0.16920506400003887,3.871935335499984
24,6.504249995487044e-05,0.006063747999974112,0.14993547799997484,3.2806641040001523
25,7.157449999795062e-05,0.005260362000058194,0.15923684849997244,3.4881767010001568
26,8.324349994381919e-05,0.004736023499958718,0.16575098850000813,3.5776666440001463
27,9.862850004083155e-05,0.004785878999882698,0.16054312050005135,3.4093783134999285
28,7.210349997421872e-05,0.004435416999967856,0.16253000999995493,3.337998919000256
29,0.00011512950004544109,0.004834535999975742,0.17066259050000102,3.6649471179998727
30,6.68889999815292e-05,0.0044023404999506965,0.15514018350017975,3.4779238224996334
31,6.37550000419651e-05,0.004988788500099872,0.16378278400009094,3.3012728545004393
32,9.239199994226509e-05,0.0045247805001054076,0.15111925399992288,3.4171904789996006
33,7.188649999534391e-05,0.004603610500112154,0.15880772849993718,3.283770026000184
34,0.00011120500005290525,0.004757810000000973,0.164706381500082,3.572084257500137
35,5.149399999027082e-05,0.004374757000050522,0.1587662619999719,3.508768740499818
36,6.835649992353865e-05,0.004728964999912932,0.15905644300005406,3.6231973429999016
37,6.296800006566627e-05,0.004700873999922806,0.2728897729999744,3.317138358500415
38,6.867199999760487e-05,0.00499788049990002,0.1846647890000668,3.583994877999885
39,7.077249995290913e-05,0.004771624499881,0.1660625340000479,3.4164831715002038
40,7.185100002971012e-05,0.004592146499931005,0.16014623349997234,3.407276606999403
41,6.913099991834315e-05,0.004936446500096281,0.1729494444998636,3.5808695330001683
42,6.595800005015917e-05,0.00509240700000646,0.16845553550001569,3.637271412500013
43,6.469300001299416e-05,0.004607859000088864,0.15725247999989733,3.6411279935000493
44,5.6544500012023484e-05,0.004740155000035885,0.15449165749998886,3.7158210874999895
45,6.620550004754477e-05,0.0048026954999613744,0.15257189399994786,3.711352511500081
46,6.280250011059252e-05,0.004954763000000639,0.15218533600000228,3.5194717634999506
47,6.575100007921719e-05,0.0047690569999758745,0.1519140460000017,3.6687457910002195
48,7.201599999007158e-05,0.004738160000101743,0.15140002249995632,3.246551826999621
49,6.298499988588446e-05,0.004364942500046709,0.15602783800011366,3.5411191504999806
50,6.301849998635589e-05,0.004732319500021731,0.1531614635000551,3.3652975610002613
51,7.661649999590736e-05,0.004745001000060256,0.15822687599995788,3.4071291870000096
52,7.000700009029971e-05,0.004885896500013587,0.14991778500007058,3.445005472000048
53,6.765649993667466e-05,0.004484450499944614,0.15091584800006785,3.3317145764995075
54,5.940500000178872e-05,0.004866721999974288,0.15973156400002608,3.474445207500139
55,6.728849996306963e-05,0.004485240999997586,0.1624088919999167,3.586641968999629
56,6.515300003684388e-05,0.0046381480000263755,0.14922614249985597,3.2551790020002045
57,6.725549997099732e-05,0.004739137999990818,0.1576357525000276,3.446537107500262
58,6.502149994958017e-05,0.004922567499988872,0.16090573400003905,3.5879611595000824
59,7.055500009300886e-05,0.00433621399997719,0.14574440249998588,3.4260924099994554
60,6.886999995003862e-05,0.0047750869999845244,0.15053398450004352,3.557029436999983
61,7.16739999688798e-05,0.004605164500048886,0.16236910449993047,3.2178657955000745
62,6.727999993927371e-05,0.004559259999950882,0.1538668849999567,3.577553674000228
63,7.295499995052523e-05,0.0042498090000435695,0.15735300749986436,3.5502588489994196
64,6.49619998966955e-05,0.004522607500007325,0.16171903999997994,3.4305066575002456
65,6.60844999629262e-05,0.0049463399999467575,0.1528488420000258,3.658091622500251
66,6.472649999977875e-05,0.004741049999893221,0.1634094810000306,3.5423764920001304
67,6.726599997364247e-05,0.004718911500162903,0.17202700999985154,3.3915304719998858
68,6.627850007134839e-05,0.004888743500032433,0.16232954150007115,3.3946150830001898
69,6.889799999498791e-05,0.004942117999917173,0.1669791694999958,3.307668761000059
70,6.076699992263457e-05,0.004843934500058822,0.15947326549996887,3.540562560000126
71,6.885200002670898e-05,0.0049951080000028006,0.16121305750004922,3.3396749754992925
72,6.333149985948694e-05,0.004705912999952489,0.16361991200005832,3.3280486804997054
73,6.041299991466075e-05,0.0049193275000334324,0.16522855349990095,3.471071671000118
74,7.266249997428531e-05,0.004982325500122897,0.15108743700000105,3.4115801155003282
75,6.726199990225723e-05,0.005038167999941835,0.15837760950000754,3.3647264925002673
76,6.914900006904645e-05,0.004639773999883801,0.1608563755000887,3.5601803585004745
77,7.4545000074977e-05,0.004749666500060812,0.16273022149994176,3.580318801999965
78,6.787599988911097e-05,0.004698297499999171,0.16229977750003854,3.6646417389997623
79,6.497249989934062e-05,0.005024324000032721,0.1573924115000409,3.5461365790001764
80,6.461749990194221e-05,0.005044772999895032,0.16182121849999476,3.7502472899996064
81,7.129450000320503e-05,0.0046341035000523325,0.15502874300000258,3.5110721814999124
82,7.022400006917451e-05,0.004361190499935219,0.1550010010000733,3.634780918999695
83,6.174199995712115e-05,0.004792420999933711,0.14994236749987522,3.502202256000146
84,6.134749992270372e-05,0.004688195000085216,0.1579019995000408,3.466061542999796
85,6.771150003714864e-05,0.004932704499992724,0.15433419900000445,3.28979723249995
86,6.238300011318643e-05,0.004799337999997988,0.16217272799997318,3.276771422499678
87,7.18105000032665e-05,0.004633828000009999,0.16258357399999568,3.5613859830000365
88,7.190100006937428e-05,0.004832219500030988,0.1690780010000026,3.4482634914998016
89,6.101249994117097e-05,0.004800153999894974,0.16718948049992832,3.6168486410006153
90,6.806349995258643e-05,0.0048535699999092685,0.16080466249991332,3.416356173499935
91,6.320499994671991e-05,0.004617890499957865,0.14941971899997952,3.6314096554997377
92,6.563700003425765e-05,0.004492166500085659,0.14930506250004782,3.335985058499773
93,7.279549993199907e-05,0.0048022534999745395,0.15690132799988987,3.4903782579999643
94,6.663399994977226e-05,0.004760704999966947,0.15899165200005427,3.17580023849996
95,7.248199995046889e-05,0.0045507985000767795,0.16437292100010836,3.5524712550000004
96,7.256500009589217e-05,0.004820938000079877,0.1637754665000557,3.3440629374999844
97,6.795699994199822e-05,0.004518974000006892,0.15690958499999394,3.577419742499842
98,6.757300002391274e-05,0.004767441000012696,0.1624301510000805,3.5787383629999567
99,7.784849992731324e-05,0.004899286000068059,0.1562456025000074,3.4787905550001597
