best,eps,optimal,status
27527,0.0954587276550999,30432,0
29195,0.07817877553597928,31671,0
32812,0.06331715672280902,35030,0
31909,0.06575903967208314,34155,0
33732,0.06889698575687314,36228,0
31185,0.06707152900350016,33427,0
33018,0.06763053116087313,35413,0
30950,0.09343878148799063,34140,0
28482,0.10162755488266464,31704,0
29517,0.09153303991874673,32491,0
29025,0.10280980495193348,32351,0
29745,0.0972137914289183,32948,0
27121,0.10556691511114043,30322,0
33939,0.06108390737820566,36147,0
29408,0.08953560371517028,32300,0
34577,0.06672244864908634,37049,0
30156,0.07664043602069874,32659,0
29520,0.09102106170710679,32476,0
32087,0.05845241937850289,34079,0
27872,0.09588685610483975,30828,0
32181,0.07761758720513628,34889,0
28537,0.09383335450273085,31492,0
33161,0.06908651956655999,35622,0
28629,0.08016321809536049,31124,0
32062,0.07144718931912306,34529,0
31117,0.08643316402924166,34061,0
32162,0.07924420269109649,34930,0
31992,0.07825285236833007,34708,0
32376,0.07248037586661318,34906,0
27734,0.10321412403802625,30926,0
32192,0.07088432232740706,34648,0
30623,0.08794972599475816,33576,0
31051,0.06767752589701247,33305,0
31175,0.07275214895452248,33621,0
29976,0.0827698050855237,32681,0
30732,0.0880441556129262,33699,0
29268,0.08511768935012973,31991,0
27597,0.0891177344291514,30297,0
30292,0.08868832731648617,33240,0
31415,0.07303039244614931,33890,0
32860,0.07017543859649122,35340,0
26483,0.1079560765292374,29688,0
30640,0.07490715860028381,33121,0
29029,0.09292878792613192,32003,0
32175,0.07110687684046423,34638,0
29005,0.08593848481028615,31732,0
33239,0.0629246426658397,35471,0
29665,0.09036550962835765,32612,0
29556,0.07030291591959989,31791,0
27923,0.0892991096180816,30661,0
