,ID,status,opt price,max price,visited
0,1,1,6515,6515,0
1,2,1,7842,7842,0
2,3,1,9119,9119,0
3,4,1,8050,8050,0
4,5,1,7726,7726,0
5,6,1,9269,9269,0
6,7,1,9119,9119,0
7,8,1,9394,9394,0
8,9,1,9776,9776,0
9,10,1,7501,7501,0
10,11,1,10069,10069,0
11,12,1,9567,9567,0
12,13,1,7461,7461,0
13,14,1,9128,9128,0
14,15,1,8953,8953,0
15,16,1,10810,10810,0
16,17,1,9464,9464,0
17,18,1,9952,9952,0
18,19,1,8495,8495,0
19,20,1,8770,8770,0
20,21,1,9542,9542,0
21,22,1,8302,8302,0
22,23,1,8879,8879,0
23,24,1,9894,9894,0
24,25,1,9352,9352,0
25,26,1,9607,9607,0
26,27,1,10466,10466,0
27,28,1,7881,7881,0
28,29,1,8537,8537,0
29,30,1,8735,8735,0
30,31,1,7292,7292,0
31,32,1,8207,8207,0
32,33,1,8373,8373,0
33,34,1,10350,10350,0
34,35,1,9058,9058,0
35,36,1,6607,6607,0
36,37,1,8876,8876,0
37,38,1,7591,7591,0
38,39,1,8900,8900,0
39,40,1,8204,8204,0
40,41,1,7689,7689,0
41,42,1,7866,7866,0
42,43,1,8754,8754,0
43,44,1,9088,9088,0
44,45,1,7900,7900,0
45,46,1,8476,8476,0
46,47,1,10141,10141,0
47,48,1,8048,8048,0
48,49,1,10749,10749,0
49,50,1,9609,9609,0
50,51,1,8264,8264,0
51,52,1,6396,6396,0
52,53,1,10433,10433,0
53,54,1,9217,9217,0
54,55,1,10307,10307,0
55,56,1,10624,10624,0
56,57,1,9654,9654,0
57,58,1,7907,7907,0
58,59,1,8195,8195,0
59,60,1,7136,7136,0
60,61,1,9051,9051,0
61,62,1,9673,9673,0
62,63,1,9274,9274,0
63,64,1,9739,9739,0
64,65,1,7994,7994,0
65,66,1,7795,7795,0
66,67,1,8917,8917,0
67,68,1,8205,8205,0
68,69,1,6682,6682,0
69,70,1,11897,11897,0
70,71,1,7981,7981,0
71,72,1,9418,9418,0
72,73,1,7108,7108,0
73,74,1,8225,8225,0
74,75,1,7856,7856,0
75,76,1,9638,9638,0
76,77,1,7082,7082,0
77,78,1,10215,10215,0
78,79,1,8877,8877,0
79,80,1,10785,10785,0
80,81,1,6890,6890,0
81,82,1,7765,7765,0
82,83,1,9221,9221,0
83,84,1,9852,9852,0
84,85,1,7419,7419,0
85,86,1,9904,9904,0
86,87,1,9282,9282,0
87,88,1,9417,9417,0
88,89,1,9673,9673,0
89,90,1,7400,7400,0
90,91,1,10212,10212,0
91,92,1,8563,8563,0
92,93,1,8253,8253,0
93,94,1,9964,9964,0
94,95,1,9121,9121,0
95,96,1,10711,10711,0
96,97,1,8505,8505,0
97,98,1,8293,8293,0
98,99,1,7318,7318,0
99,100,1,10019,10019,0
100,101,1,9839,9839,0
101,102,1,7929,7929,0
102,103,1,7616,7616,0
103,104,1,8936,8936,0
104,105,1,9514,9514,0
105,106,1,10356,10356,0
106,107,1,8921,8921,0
107,108,1,8910,8910,0
108,109,1,6379,6379,0
109,110,1,8146,8146,0
110,111,1,10929,10929,0
111,112,1,8747,8747,0
112,113,1,9316,9316,0
113,114,1,8706,8706,0
114,115,1,9014,9014,0
115,116,1,9756,9756,0
116,117,1,7710,7710,0
117,118,1,9504,9504,0
118,119,1,8222,8222,0
119,120,1,9736,9736,0
120,121,1,7385,7385,0
121,122,1,8499,8499,0
122,123,1,9322,9322,0
123,124,1,8823,8823,0
124,125,1,7797,7797,0
125,126,1,9666,9666,0
126,127,1,8676,8676,0
127,128,1,8013,8013,0
128,129,1,9170,9170,0
129,130,1,7540,7540,0
130,131,1,7456,7456,0
131,132,1,8541,8541,0
132,133,1,10433,10433,0
133,134,1,8919,8919,0
134,135,1,7976,7976,0
135,136,1,7762,7762,0
136,137,1,7462,7462,0
137,138,1,10620,10620,0
138,139,1,9633,9633,0
139,140,1,8630,8630,0
140,141,1,9049,9049,0
141,142,1,9838,9838,0
142,143,1,8922,8922,0
143,144,1,7962,7962,0
144,145,1,6482,6482,0
145,146,1,9531,9531,0
146,147,1,9040,9040,0
147,148,1,7793,7793,0
148,149,1,8099,8099,0
149,150,1,5883,5883,0
150,151,1,10053,10053,0
151,152,1,8705,8705,0
152,153,1,9935,9935,0
153,154,1,8286,8286,0
154,155,1,8789,8789,0
155,156,1,8803,8803,0
156,157,1,9678,9678,0
157,158,1,8871,8871,0
158,159,1,6920,6920,0
159,160,1,9879,9879,0
160,161,1,9976,9976,0
161,162,1,9936,9936,0
162,163,1,7752,7752,0
163,164,1,8759,8759,0
164,165,1,9633,9633,0
165,166,1,7771,7771,0
166,167,1,8807,8807,0
167,168,1,8202,8202,0
168,169,1,7623,7623,0
169,170,1,8363,8363,0
170,171,1,6947,6947,0
171,172,1,8876,8876,0
172,173,1,7873,7873,0
173,174,1,9645,9645,0
174,175,1,9246,9246,0
175,176,1,8832,8832,0
176,177,1,7514,7514,0
177,178,1,8994,8994,0
178,179,1,9299,9299,0
179,180,1,8627,8627,0
180,181,1,8682,8682,0
181,182,1,6210,6210,0
182,183,1,9376,9376,0
183,184,1,8688,8688,0
184,185,1,7146,7146,0
185,186,1,8031,8031,0
186,187,1,9988,9988,0
187,188,1,9102,9102,0
188,189,1,8940,8940,0
189,190,1,9342,9342,0
190,191,1,8756,8756,0
191,192,1,10231,10231,0
192,193,1,9227,9227,0
193,194,1,7035,7035,0
194,195,1,10334,10334,0
195,196,1,10342,10342,0
196,197,1,8255,8255,0
197,198,1,11161,11161,0
198,199,1,7669,7669,0
199,200,1,8417,8417,0
200,201,1,9689,9689,0
201,202,1,8290,8290,0
202,203,1,8738,8738,0
203,204,1,7599,7599,0
204,205,1,9365,9365,0
205,206,1,7997,7997,0
206,207,1,7712,7712,0
207,208,1,7439,7439,0
208,209,1,7713,7713,0
209,210,1,8315,8315,0
210,211,1,7522,7522,0
211,212,1,8040,8040,0
212,213,1,9190,9190,0
213,214,1,9171,9171,0
214,215,1,7960,7960,0
215,216,1,9443,9443,0
216,217,1,10385,10385,0
217,218,1,7927,7927,0
218,219,1,9962,9962,0
219,220,1,9471,9471,0
220,221,1,7108,7108,0
221,222,1,10342,10342,0
222,223,1,8417,8417,0
223,224,1,9210,9210,0
224,225,1,8052,8052,0
225,226,1,9937,9937,0
226,227,1,6403,6403,0
227,228,1,10138,10138,0
228,229,1,10026,10026,0
229,230,1,8264,8264,0
230,231,1,6805,6805,0
231,232,1,10876,10876,0
232,233,1,6974,6974,0
233,234,1,11164,11164,0
234,235,1,6937,6937,0
235,236,1,7607,7607,0
236,237,1,8648,8648,0
237,238,1,10069,10069,0
238,239,1,9101,9101,0
239,240,1,8341,8341,0
240,241,1,10411,10411,0
241,242,1,6405,6405,0
242,243,1,7075,7075,0
243,244,1,8026,8026,0
244,245,1,8019,8019,0
245,246,1,8282,8282,0
246,247,1,10265,10265,0
247,248,1,6972,6972,0
248,249,1,10647,10647,0
249,250,1,10450,10450,0
250,251,1,8777,8777,0
251,252,1,7829,7829,0
252,253,1,10072,10072,0
253,254,1,8666,8666,0
254,255,1,9212,9212,0
255,256,1,8417,8417,0
256,257,1,8217,8217,0
257,258,1,8672,8672,0
258,259,1,9157,9157,0
259,260,1,10524,10524,0
260,261,1,8006,8006,0
261,262,1,8771,8771,0
262,263,1,7764,7764,0
263,264,1,6917,6917,0
264,265,1,10094,10094,0
265,266,1,10658,10658,0
266,267,1,6755,6755,0
267,268,1,11079,11079,0
268,269,1,8612,8612,0
269,270,1,9000,9000,0
270,271,1,9576,9576,0
271,272,1,10200,10200,0
272,273,1,7904,7904,0
273,274,1,7099,7099,0
274,275,1,8989,8989,0
275,276,1,7718,7718,0
276,277,1,9402,9402,0
277,278,1,9355,9355,0
278,279,1,7656,7656,0
279,280,1,8046,8046,0
280,281,1,8026,8026,0
281,282,1,10874,10874,0
282,283,1,10347,10347,0
283,284,1,9365,9365,0
284,285,1,10028,10028,0
285,286,1,10181,10181,0
286,287,1,8769,8769,0
287,288,1,9233,9233,0
288,289,1,9347,9347,0
289,290,1,7655,7655,0
290,291,1,6834,6834,0
291,292,1,8293,8293,0
292,293,1,8004,8004,0
293,294,1,7681,7681,0
294,295,1,9629,9629,0
295,296,1,8201,8201,0
296,297,1,6561,6561,0
297,298,1,9826,9826,0
298,299,1,8509,8509,0
299,300,1,9348,9348,0
300,301,1,8182,8182,0
301,302,1,8849,8849,0
302,303,1,7922,7922,0
303,304,1,9813,9813,0
304,305,1,11972,11972,0
305,306,1,8202,8202,0
306,307,1,6043,6043,0
307,308,1,9028,9028,0
308,309,1,7395,7395,0
309,310,1,7121,7121,0
310,311,1,8801,8801,0
311,312,1,8911,8911,0
312,313,1,10716,10716,0
313,314,1,7098,7098,0
314,315,1,7423,7423,0
315,316,1,11074,11074,0
316,317,1,8509,8509,0
317,318,1,8486,8486,0
318,319,1,8650,8650,0
319,320,1,12268,12268,0
320,321,1,9331,9331,0
321,322,1,8930,8930,0
322,323,1,11777,11777,0
323,324,1,7939,7939,0
324,325,1,10316,10316,0
325,326,1,9024,9024,0
326,327,1,10231,10231,0
327,328,1,9802,9802,0
328,329,1,7671,7671,0
329,330,1,7468,7468,0
330,331,1,8217,8217,0
331,332,1,7364,7364,0
332,333,1,7616,7616,0
333,334,1,8120,8120,0
334,335,1,7325,7325,0
335,336,1,8105,8105,0
336,337,1,10038,10038,0
337,338,1,10631,10631,0
338,339,1,10709,10709,0
339,340,1,9209,9209,0
340,341,1,9993,9993,0
341,342,1,8790,8790,0
342,343,1,9357,9357,0
343,344,1,10124,10124,0
344,345,1,10416,10416,0
345,346,1,9795,9795,0
346,347,1,8312,8312,0
347,348,1,10194,10194,0
348,349,1,9660,9660,0
349,350,1,9798,9798,0
350,351,1,7844,7844,0
351,352,1,6819,6819,0
352,353,1,9983,9983,0
353,354,1,9047,9047,0
354,355,1,9155,9155,0
355,356,1,7711,7711,0
356,357,1,10297,10297,0
357,358,1,10355,10355,0
358,359,1,9318,9318,0
359,360,1,9165,9165,0
360,361,1,8809,8809,0
361,362,1,7951,7951,0
362,363,1,8352,8352,0
363,364,1,9532,9532,0
364,365,1,7147,7147,0
365,366,1,11742,11742,0
366,367,1,10624,10624,0
367,368,1,8264,8264,0
368,369,1,8948,8948,0
369,370,1,7652,7652,0
370,371,1,10561,10561,0
371,372,1,7116,7116,0
372,373,1,9498,9498,0
373,374,1,10341,10341,0
374,375,1,7152,7152,0
375,376,1,7870,7870,0
376,377,1,10715,10715,0
377,378,1,7916,7916,0
378,379,1,7855,7855,0
379,380,1,7586,7586,0
380,381,1,9161,9161,0
381,382,1,7449,7449,0
382,383,1,8828,8828,0
383,384,1,8323,8323,0
384,385,1,6645,6645,0
385,386,1,7481,7481,0
386,387,1,8884,8884,0
387,388,1,9631,9631,0
388,389,1,9307,9307,0
389,390,1,7778,7778,0
390,391,1,9764,9764,0
391,392,1,9156,9156,0
392,393,1,8969,8969,0
393,394,1,8428,8428,0
394,395,1,6056,6056,0
395,396,1,8582,8582,0
396,397,1,7896,7896,0
397,398,1,6013,6013,0
398,399,1,8055,8055,0
399,400,1,9780,9780,0
400,401,1,8316,8316,0
401,402,1,9590,9590,0
402,403,1,7238,7238,0
403,404,1,8019,8019,0
404,405,1,9202,9202,0
405,406,1,6963,6963,0
406,407,1,9915,9915,0
407,408,1,10249,10249,0
408,409,1,7719,7719,0
409,410,1,9573,9573,0
410,411,1,10475,10475,0
411,412,1,10136,10136,0
412,413,1,8274,8274,0
413,414,1,6321,6321,0
414,415,1,10926,10926,0
415,416,1,8129,8129,0
416,417,1,7994,7994,0
417,418,1,9304,9304,0
418,419,1,7458,7458,0
419,420,1,6870,6870,0
420,421,1,7368,7368,0
421,422,1,8166,8166,0
422,423,1,9304,9304,0
423,424,1,9802,9802,0
424,425,1,7959,7959,0
425,426,1,8961,8961,0
426,427,1,8927,8927,0
427,428,1,7332,7332,0
428,429,1,10887,10887,0
429,430,1,8681,8681,0
430,431,1,10572,10572,0
431,432,1,7646,7646,0
432,433,1,9955,9955,0
433,434,1,7768,7768,0
434,435,1,7458,7458,0
435,436,1,9866,9866,0
436,437,1,7996,7996,0
437,438,1,9034,9034,0
438,439,1,8429,8429,0
439,440,1,8712,8712,0
440,441,1,7898,7898,0
441,442,1,10386,10386,0
442,443,1,7687,7687,0
443,444,1,7849,7849,0
444,445,1,8344,8344,0
445,446,1,8604,8604,0
446,447,1,8671,8671,0
447,448,1,9726,9726,0
448,449,1,7506,7506,0
449,450,1,9898,9898,0
450,451,1,8690,8690,0
451,452,1,8612,8612,0
452,453,1,10593,10593,0
453,454,1,7822,7822,0
454,455,1,9575,9575,0
455,456,1,11512,11512,0
456,457,1,9527,9527,0
457,458,1,9548,9548,0
458,459,1,9078,9078,0
459,460,1,6707,6707,0
460,461,1,10013,10013,0
461,462,1,11672,11672,0
462,463,1,9440,9440,0
463,464,1,8710,8710,0
464,465,1,6010,6010,0
465,466,1,7105,7105,0
466,467,1,8458,8458,0
467,468,1,6366,6366,0
468,469,1,10123,10123,0
469,470,1,11888,11888,0
470,471,1,9391,9391,0
471,472,1,7505,7505,0
472,473,1,9402,9402,0
473,474,1,7459,7459,0
474,475,1,9277,9277,0
475,476,1,10046,10046,0
476,477,1,9994,9994,0
477,478,1,7210,7210,0
478,479,1,8591,8591,0
479,480,1,9207,9207,0
480,481,1,7934,7934,0
481,482,1,9035,9035,0
482,483,1,6324,6324,0
483,484,1,8577,8577,0
484,485,1,7727,7727,0
485,486,1,11173,11173,0
486,487,1,8308,8308,0
487,488,1,7022,7022,0
488,489,1,9551,9551,0
489,490,1,7849,7849,0
490,491,1,10435,10435,0
491,492,1,8077,8077,0
492,493,1,9719,9719,0
493,494,1,10026,10026,0
494,495,1,6388,6388,0
495,496,1,10096,10096,0
496,497,1,7598,7598,0
497,498,1,10420,10420,0
498,499,1,7964,7964,0
499,500,1,6436,6436,0
