,ID,status,opt price,max price,visited
0,1,1,10050,10050,0
1,2,1,13567,13567,0
2,3,1,12533,12533,0
3,4,1,13451,13451,0
4,5,1,13049,13049,0
5,6,1,15668,15668,0
6,7,1,12945,12945,0
7,8,1,14258,14258,0
8,9,1,12322,12322,0
9,10,1,13667,13667,0
10,11,1,15228,15228,0
11,12,1,15451,15451,0
12,13,1,12342,12342,0
13,14,1,13968,13968,0
14,15,1,12761,12761,0
15,16,1,14890,14890,0
16,17,1,14942,14942,0
17,18,1,14762,14762,0
18,19,1,12897,12897,0
19,20,1,13270,13270,0
20,21,1,12964,12964,0
21,22,1,11948,11948,0
22,23,1,13558,13558,0
23,24,1,14210,14210,0
24,25,1,11634,11634,0
25,26,1,12226,12226,0
26,27,1,13152,13152,0
27,28,1,13100,13100,0
28,29,1,11559,11559,0
29,30,1,13196,13196,0
30,31,1,13147,13147,0
31,32,1,13052,13052,0
32,33,1,13719,13719,0
33,34,1,16230,16230,0
34,35,1,12515,12515,0
35,36,1,12223,12223,0
36,37,1,15567,15567,0
37,38,1,14342,14342,0
38,39,1,14722,14722,0
39,40,1,11905,11905,0
40,41,1,12549,12549,0
41,42,1,12378,12378,0
42,43,1,15336,15336,0
43,44,1,14422,14422,0
44,45,1,11804,11804,0
45,46,1,12938,12938,0
46,47,1,12726,12726,0
47,48,1,14642,14642,0
48,49,1,13334,13334,0
49,50,1,13127,13127,0
50,51,1,11176,11176,0
51,52,1,15326,15326,0
52,53,1,11463,11463,0
53,54,1,14541,14541,0
54,55,1,15847,15847,0
55,56,1,10539,10539,0
56,57,1,13159,13159,0
57,58,1,13929,13929,0
58,59,1,14096,14096,0
59,60,1,13850,13850,0
60,61,1,14904,14904,0
61,62,1,12448,12448,0
62,63,1,14445,14445,0
63,64,1,12756,12756,0
64,65,1,13726,13726,0
65,66,1,16321,16321,0
66,67,1,12870,12870,0
67,68,1,11726,11726,0
68,69,1,16061,16061,0
69,70,1,12452,12452,0
70,71,1,12309,12309,0
71,72,1,13655,13655,0
72,73,1,15558,15558,0
73,74,1,12611,12611,0
74,75,1,11678,11678,0
75,76,1,14926,14926,0
76,77,1,13532,13532,0
77,78,1,14282,14282,0
78,79,1,13401,13401,0
79,80,1,13904,13904,0
80,81,1,13412,13412,0
81,82,1,13482,13482,0
82,83,1,13154,13154,0
83,84,1,12220,12220,0
84,85,1,13227,13227,0
85,86,1,13015,13015,0
86,87,1,14236,14236,0
87,88,1,12907,12907,0
88,89,1,13063,13063,0
89,90,1,11883,11883,0
90,91,1,13209,13209,0
91,92,1,13364,13364,0
92,93,1,12461,12461,0
93,94,1,11855,11855,0
94,95,1,15565,15565,0
95,96,1,12915,12915,0
96,97,1,14375,14375,0
97,98,1,14032,14032,0
98,99,1,13357,13357,0
99,100,1,10793,10793,0
100,101,1,14400,14400,0
101,102,1,13094,13094,0
102,103,1,10174,10174,0
103,104,1,14660,14660,0
104,105,1,13308,13308,0
105,106,1,13346,13346,0
106,107,1,13887,13887,0
107,108,1,14062,14062,0
108,109,1,13032,13032,0
109,110,1,13067,13067,0
110,111,1,14967,14967,0
111,112,1,12691,12691,0
112,113,1,14191,14191,0
113,114,1,13014,13014,0
114,115,1,13710,13710,0
115,116,1,11640,11640,0
116,117,1,12508,12508,0
117,118,1,12319,12319,0
118,119,1,12517,12517,0
119,120,1,14847,14847,0
120,121,1,12964,12964,0
121,122,1,13202,13202,0
122,123,1,12945,12945,0
123,124,1,12878,12878,0
124,125,1,10846,10846,0
125,126,1,13386,13386,0
126,127,1,12475,12475,0
127,128,1,10920,10920,0
128,129,1,16005,16005,0
129,130,1,13629,13629,0
130,131,1,13627,13627,0
131,132,1,14720,14720,0
132,133,1,12653,12653,0
133,134,1,13709,13709,0
134,135,1,14676,14676,0
135,136,1,14436,14436,0
136,137,1,12563,12563,0
137,138,1,14906,14906,0
138,139,1,12662,12662,0
139,140,1,12410,12410,0
140,141,1,14045,14045,0
141,142,1,11813,11813,0
142,143,1,11022,11022,0
143,144,1,11635,11635,0
144,145,1,11486,11486,0
145,146,1,12034,12034,0
146,147,1,14182,14182,0
147,148,1,12978,12978,0
148,149,1,15870,15870,0
149,150,1,11164,11164,0
150,151,1,13938,13938,0
151,152,1,12851,12851,0
152,153,1,15000,15000,0
153,154,1,12843,12843,0
154,155,1,12831,12831,0
155,156,1,12635,12635,0
156,157,1,14928,14928,0
157,158,1,14320,14320,0
158,159,1,11178,11178,0
159,160,1,13390,13390,0
160,161,1,14895,14895,0
161,162,1,10457,10457,0
162,163,1,13246,13246,0
163,164,1,13398,13398,0
164,165,1,13972,13972,0
165,166,1,13844,13844,0
166,167,1,9768,9768,0
167,168,1,13187,13187,0
168,169,1,12020,12020,0
169,170,1,13642,13642,0
170,171,1,13655,13655,0
171,172,1,16124,16124,0
172,173,1,12358,12358,0
173,174,1,14319,14319,0
174,175,1,13664,13664,0
175,176,1,12961,12961,0
176,177,1,13379,13379,0
177,178,1,12884,12884,0
178,179,1,13921,13921,0
179,180,1,13189,13189,0
180,181,1,11799,11799,0
181,182,1,12928,12928,0
182,183,1,15414,15414,0
183,184,1,12744,12744,0
184,185,1,14793,14793,0
185,186,1,14505,14505,0
186,187,1,14044,14044,0
187,188,1,9938,9938,0
188,189,1,14145,14145,0
189,190,1,12813,12813,0
190,191,1,14558,14558,0
191,192,1,13415,13415,0
192,193,1,11699,11699,0
193,194,1,15147,15147,0
194,195,1,14740,14740,0
195,196,1,15495,15495,0
196,197,1,14024,14024,0
197,198,1,13996,13996,0
198,199,1,12930,12930,0
199,200,1,11565,11565,0
200,201,1,12524,12524,0
201,202,1,10996,10996,0
202,203,1,13229,13229,0
203,204,1,11900,11900,0
204,205,1,13556,13556,0
205,206,1,13000,13000,0
206,207,1,13276,13276,0
207,208,1,12992,12992,0
208,209,1,14413,14413,0
209,210,1,16024,16024,0
210,211,1,10880,10880,0
211,212,1,13748,13748,0
212,213,1,8436,8436,0
213,214,1,13986,13986,0
214,215,1,15256,15256,0
215,216,1,10892,10892,0
216,217,1,14634,14634,0
217,218,1,13617,13617,0
218,219,1,12808,12808,0
219,220,1,16675,16675,0
220,221,1,14419,14419,0
221,222,1,16322,16322,0
222,223,1,13662,13662,0
223,224,1,14191,14191,0
224,225,1,14756,14756,0
225,226,1,12984,12984,0
226,227,1,12329,12329,0
227,228,1,12130,12130,0
228,229,1,11283,11283,0
229,230,1,11096,11096,0
230,231,1,12148,12148,0
231,232,1,15074,15074,0
232,233,1,15831,15831,0
233,234,1,14390,14390,0
234,235,1,14305,14305,0
235,236,1,14600,14600,0
236,237,1,15542,15542,0
237,238,1,14839,14839,0
238,239,1,13536,13536,0
239,240,1,14225,14225,0
240,241,1,13664,13664,0
241,242,1,11525,11525,0
242,243,1,14750,14750,0
243,244,1,13159,13159,0
244,245,1,12382,12382,0
245,246,1,15697,15697,0
246,247,1,14922,14922,0
247,248,1,12943,12943,0
248,249,1,13513,13513,0
249,250,1,12967,12967,0
250,251,1,12347,12347,0
251,252,1,16993,16993,0
252,253,1,13496,13496,0
253,254,1,12542,12542,0
254,255,1,14992,14992,0
255,256,1,12651,12651,0
256,257,1,14712,14712,0
257,258,1,12022,12022,0
258,259,1,13429,13429,0
259,260,1,13259,13259,0
260,261,1,11090,11090,0
261,262,1,12842,12842,0
262,263,1,11585,11585,0
263,264,1,13429,13429,0
264,265,1,10633,10633,0
265,266,1,13026,13026,0
266,267,1,14471,14471,0
267,268,1,11650,11650,0
268,269,1,13943,13943,0
269,270,1,13627,13627,0
270,271,1,13425,13425,0
271,272,1,12425,12425,0
272,273,1,10673,10673,0
273,274,1,10207,10207,0
274,275,1,14637,14637,0
275,276,1,12918,12918,0
276,277,1,12569,12569,0
277,278,1,11693,11693,0
278,279,1,12867,12867,0
279,280,1,14626,14626,0
280,281,1,13348,13348,0
281,282,1,14328,14328,0
282,283,1,13930,13930,0
283,284,1,14268,14268,0
284,285,1,12678,12678,0
285,286,1,13675,13675,0
286,287,1,12803,12803,0
287,288,1,11841,11841,0
288,289,1,10545,10545,0
289,290,1,12529,12529,0
290,291,1,13484,13484,0
291,292,1,13709,13709,0
292,293,1,14189,14189,0
293,294,1,12845,12845,0
294,295,1,15215,15215,0
295,296,1,14433,14433,0
296,297,1,12642,12642,0
297,298,1,13844,13844,0
298,299,1,12367,12367,0
299,300,1,12861,12861,0
300,301,1,12902,12902,0
301,302,1,14194,14194,0
302,303,1,12054,12054,0
303,304,1,14733,14733,0
304,305,1,10977,10977,0
305,306,1,13318,13318,0
306,307,1,13956,13956,0
307,308,1,13410,13410,0
308,309,1,12654,12654,0
309,310,1,13786,13786,0
310,311,1,13127,13127,0
311,312,1,13271,13271,0
312,313,1,16151,16151,0
313,314,1,14153,14153,0
314,315,1,15119,15119,0
315,316,1,11313,11313,0
316,317,1,14601,14601,0
317,318,1,18019,18019,0
318,319,1,11896,11896,0
319,320,1,10468,10468,0
320,321,1,12088,12088,0
321,322,1,11014,11014,0
322,323,1,15611,15611,0
323,324,1,15206,15206,0
324,325,1,12576,12576,0
325,326,1,12012,12012,0
326,327,1,14210,14210,0
327,328,1,14673,14673,0
328,329,1,13306,13306,0
329,330,1,11779,11779,0
330,331,1,12350,12350,0
331,332,1,11335,11335,0
332,333,1,11934,11934,0
333,334,1,14723,14723,0
334,335,1,12468,12468,0
335,336,1,13565,13565,0
336,337,1,12266,12266,0
337,338,1,13197,13197,0
338,339,1,14293,14293,0
339,340,1,13895,13895,0
340,341,1,13451,13451,0
341,342,1,12778,12778,0
342,343,1,13461,13461,0
343,344,1,9870,9870,0
344,345,1,11833,11833,0
345,346,1,14756,14756,0
346,347,1,12505,12505,0
347,348,1,14371,14371,0
348,349,1,12476,12476,0
349,350,1,15044,15044,0
350,351,1,13723,13723,0
351,352,1,13557,13557,0
352,353,1,11641,11641,0
353,354,1,13592,13592,0
354,355,1,12343,12343,0
355,356,1,13202,13202,0
356,357,1,13824,13824,0
357,358,1,10472,10472,0
358,359,1,12348,12348,0
359,360,1,11568,11568,0
360,361,1,14876,14876,0
361,362,1,12033,12033,0
362,363,1,14595,14595,0
363,364,1,13361,13361,0
364,365,1,15969,15969,0
365,366,1,12651,12651,0
366,367,1,14898,14898,0
367,368,1,11561,11561,0
368,369,1,12506,12506,0
369,370,1,14061,14061,0
370,371,1,14165,14165,0
371,372,1,11854,11854,0
372,373,1,13256,13256,0
373,374,1,13276,13276,0
374,375,1,12099,12099,0
375,376,1,12327,12327,0
376,377,1,11450,11450,0
377,378,1,11425,11425,0
378,379,1,10522,10522,0
379,380,1,16002,16002,0
380,381,1,12814,12814,0
381,382,1,12483,12483,0
382,383,1,11047,11047,0
383,384,1,15147,15147,0
384,385,1,13075,13075,0
385,386,1,12536,12536,0
386,387,1,14831,14831,0
387,388,1,13598,13598,0
388,389,1,14203,14203,0
389,390,1,12426,12426,0
390,391,1,11418,11418,0
391,392,1,11876,11876,0
392,393,1,13151,13151,0
393,394,1,13992,13992,0
394,395,1,12907,12907,0
395,396,1,10542,10542,0
396,397,1,13131,13131,0
397,398,1,12719,12719,0
398,399,1,13977,13977,0
399,400,1,11447,11447,0
400,401,1,10647,10647,0
401,402,1,14550,14550,0
402,403,1,13245,13245,0
403,404,1,9900,9900,0
404,405,1,13549,13549,0
405,406,1,12058,12058,0
406,407,1,14220,14220,0
407,408,1,15349,15349,0
408,409,1,13993,13993,0
409,410,1,13736,13736,0
410,411,1,13821,13821,0
411,412,1,13106,13106,0
412,413,1,14535,14535,0
413,414,1,15651,15651,0
414,415,1,13681,13681,0
415,416,1,15680,15680,0
416,417,1,12967,12967,0
417,418,1,13053,13053,0
418,419,1,12004,12004,0
419,420,1,13485,13485,0
420,421,1,12951,12951,0
421,422,1,11927,11927,0
422,423,1,9471,9471,0
423,424,1,13274,13274,0
424,425,1,14853,14853,0
425,426,1,12339,12339,0
426,427,1,12758,12758,0
427,428,1,15543,15543,0
428,429,1,14229,14229,0
429,430,1,13839,13839,0
430,431,1,13672,13672,0
431,432,1,12326,12326,0
432,433,1,13401,13401,0
433,434,1,14541,14541,0
434,435,1,13622,13622,0
435,436,1,14168,14168,0
436,437,1,15243,15243,0
437,438,1,11595,11595,0
438,439,1,12037,12037,0
439,440,1,12904,12904,0
440,441,1,11799,11799,0
441,442,1,13346,13346,0
442,443,1,12029,12029,0
443,444,1,17069,17069,0
444,445,1,14031,14031,0
445,446,1,11067,11067,0
446,447,1,9711,9711,0
447,448,1,13650,13650,0
448,449,1,13158,13158,0
449,450,1,12745,12745,0
450,451,1,13589,13589,0
451,452,1,15261,15261,0
452,453,1,13452,13452,0
453,454,1,12321,12321,0
454,455,1,14637,14637,0
455,456,1,10496,10496,0
456,457,1,13390,13390,0
457,458,1,10765,10765,0
458,459,1,13142,13142,0
459,460,1,10166,10166,0
460,461,1,13435,13435,0
461,462,1,11478,11478,0
462,463,1,15112,15112,0
463,464,1,11063,11063,0
464,465,1,13471,13471,0
465,466,1,13812,13812,0
466,467,1,12608,12608,0
467,468,1,12641,12641,0
468,469,1,9641,9641,0
469,470,1,13616,13616,0
470,471,1,14724,14724,0
471,472,1,11822,11822,0
472,473,1,12082,12082,0
473,474,1,12293,12293,0
474,475,1,12115,12115,0
475,476,1,14581,14581,0
476,477,1,13339,13339,0
477,478,1,14380,14380,0
478,479,1,12550,12550,0
479,480,1,13975,13975,0
480,481,1,12961,12961,0
481,482,1,12801,12801,0
482,483,1,13041,13041,0
483,484,1,11698,11698,0
484,485,1,13568,13568,0
485,486,1,11453,11453,0
486,487,1,14857,14857,0
487,488,1,13775,13775,0
488,489,1,11991,11991,0
489,490,1,10099,10099,0
490,491,1,12793,12793,0
491,492,1,14740,14740,0
492,493,1,13385,13385,0
493,494,1,16561,16561,0
494,495,1,13217,13217,0
495,496,1,12661,12661,0
496,497,1,12043,12043,0
497,498,1,11173,11173,0
498,499,1,10832,10832,0
499,500,1,15375,15375,0
