,4,10,15
0,0.0015898194999977022,0.05435231800001361,0.0814410305000024
1,0.0030911590000073375,0.04884833500000241,0.010471988500000862
2,0.00013736800002561722,0.05421284950000427,0.060880942500006086
3,0.0007343850000154362,0.037772997000018904,0.08589879500001985
4,0.0018905339999832904,0.020402133000004596,0.09454739899999254
5,0.005471022999984143,0.023407306500018876,0.1256992069999967
6,0.002111721999966676,0.03648140450002302,0.032987428500007354
7,0.0032071225000436243,0.045407737999994424,0.043284704000001284
8,0.0005195534999984375,0.025537648500005616,0.07021410950000018
9,0.0014839055000095414,0.0016154129999961242,0.002873353499978748
10,0.00012239400001590184,0.08151048050001464,0.16485796200001346
11,0.0030681165000032706,0.11837510200001589,0.07753241849999881
12,0.003148980999981177,0.027376394000015125,0.08569302300003301
13,0.00026099799998746676,0.06897984349998865,0.10099819849997971
14,0.005790653499985865,0.019788673500016785,0.049055276000018466
15,0.000520942999997942,0.031157026499982976,0.07783428650003543
16,0.005452534499994499,0.04503391450001004,0.026297311500030673
17,0.004761416500002724,0.03559542249999481,0.034539875500001926
18,0.0024363704999927904,0.013386547999971299,0.08218830399997046
19,0.003288376000000426,0.0030182060000072397,0.00018899400001259892
20,0.00032826700001464815,0.0386332924999806,0.09881809549997911
21,0.004625675500022908,0.021506280499977493,0.048525684500020816
22,0.0002521765000267351,0.0314807759999951,0.08704936049997514
23,0.0009854599999812308,0.0030292654999755086,0.06967324550001308
24,0.008129471500012642,0.013782260500022403,0.08307104450000224
25,0.002179038999997829,0.013174194500010117,0.003435450000011997
26,0.0022471000000052754,0.002021979000005558,0.07184332850002306
27,0.005297034499989195,0.02361753400001021,0.08163272650000408
28,0.0039768084999991515,0.032708861499997965,0.026321786500005828
29,0.00206625650002934,0.026085121499988873,0.07254341050000335
30,0.0015892364999956499,0.023539323500017417,0.03940295350000156
31,0.002834777999993321,0.017925410999964697,0.03392345649999129
32,0.0034776315000044633,0.022601480499986337,0.04016701999998418
33,0.0005245674999798666,0.00824504449997221,0.05324258849998387
34,0.003565648000034116,0.008774461499996278,0.039623488000017915
35,0.007019796500003395,0.028739899999976615,0.048875201500010235
36,2.4787499967260374e-05,0.044730283999996345,0.01074101099999325
37,0.0006858385000043654,0.03369881849999956,0.028726215500000762
38,0.003885504500033221,0.020726454499992997,0.07146686400002977
39,0.0011386230000312025,0.015921980000001668,0.03645367600000782
40,0.0009202829999992446,0.03971317450000811,0.007203467499977023
41,0.006819975500008013,0.007417678499990643,0.058983815000004824
42,0.002448776999983693,0.017448127500017563,0.01785783450000622
43,0.006476431999999477,0.028618717000000515,0.05702894899999933
44,0.005767534000000296,0.007237113000002182,0.0087583104999851
45,0.010097716999979411,0.029569004499990115,0.06831084500004181
46,9.681299999897419e-05,0.02068989400001442,0.010648506500018584
47,0.005266199499999402,0.03252781049999953,0.016571942000012996
48,0.01228082249997442,0.02635295900000756,0.06251701450000269
49,0.002113610500003915,0.014744567000008146,0.024508940500027165
50,0.003913265499988938,0.012912290499997425,0.01990266849998079
51,0.004359677499991221,0.018835653499991167,0.030828796999998076
52,0.0025077015000078973,0.01243017299998428,0.0053306599999700666
53,0.0013525460000209932,0.02154307550000567,0.035684048999968354
54,0.004737208499989265,0.010958323500005918,0.00437097700000777
55,0.00012872349998360733,0.0035202054999956545,0.05565697399998726
56,0.0008517210000036357,0.012740171999979566,0.07583349949999274
57,0.004757700499993689,0.010131385500017132,0.07915480999997726
58,0.003011343999986593,0.03387246150001033,0.016301093499976105
59,0.00040490499998213636,0.005104111999969518,0.059678855500010286
60,0.004515346000005138,0.0019253625000033026,0.04873761650000574
61,0.002705447000039385,0.02808818650001399,0.05191818750000721
62,0.0005705465000005461,0.048134460999989415,0.0643849429999932
63,0.0033614550000038435,0.0018008730000076412,0.04348964900000851
64,0.0006034675000137213,0.0008835369999928844,0.012559106499992367
65,0.00273927950001962,0.016811977499997965,0.07484606999997823
66,0.002209431500006076,0.03571562150000318,0.04855222949998961
67,0.007065357000044514,0.03022459700000013,0.006604422500004148
68,0.0011139969999760524,0.03739956850000681,0.03371480750001865
69,0.004472055999968916,0.0008608379999657245,0.04232829700001162
70,0.004636987999987241,0.022911931500004812,0.02213735749998591
71,0.001374258499993175,0.02616590549999387,0.03306429350001849
72,0.0021783539999660206,0.04106174950001673,0.07275163950001229
73,0.0016967065000130788,0.0349618935000251,0.05440312050001239
74,0.00015806100000759216,0.011721416000000318,0.038548898500010864
75,0.004288583499999277,0.00010331449999512188,0.04026116849999539
76,0.006433429999987084,0.02434819749998951,0.017734400499989533
77,0.0033717865000255642,0.03482097699998121,0.04036094499997489
78,0.005216843499994184,0.01783056649998116,0.004859817500005192
79,0.00013265900000192232,0.040579794999956675,0.07403237399998375
80,0.004598656500007792,0.028850363000003654,0.007922637500001883
81,0.009669189500016273,0.016678367499991964,0.07352043849999745
82,0.010443895500003464,0.004494472999994059,0.026419276500007527
83,0.002042853500000774,0.01706000900000504,0.013008934500021496
84,0.006065380999984882,0.0014544899999862082,0.05799586399999157
85,0.001332208000007995,0.008676727499988601,0.001797575999972878
86,0.004719762500002389,0.02135946399999966,0.0018238789999998062
87,0.02332816149998962,0.0034997610000004897,0.08380747300000735
88,0.009538415000008627,0.004588923999989447,0.039842749499996444
89,0.018487170999975433,0.0309550325000032,0.07905717249997224
90,0.011666793500012318,0.021071325999969304,0.029210970000008274
91,0.00024973250000925873,0.03163434549998101,0.10520994650002535
92,0.01091517900002259,0.012966338000012456,0.0995204380000132
93,0.012468489499980251,0.006231364000001349,0.020056019000008973
94,0.012664777499963975,0.0008669890000021496,0.11187638099997343
95,0.0008850975000029848,0.0063683809999872665,0.05108023750000257
96,0.0030669724999938808,0.018258368499999733,0.06401886899999454
97,0.00816674649999527,0.041979627999978675,0.03130170099996121
98,9.60750000160715e-05,0.0019693124999946576,0.012210823499970047
99,0.013421708000009858,0.008626547999995182,0.04384403499997802
