,ID,status,opt price,max price,visited
0,1,1,17561,17561,24260
1,2,1,20949,20949,14060
2,3,1,26514,26514,40180
3,4,1,20845,20845,22740
4,5,1,19271,19271,12620
5,6,1,26525,26525,30100
6,7,1,27210,27210,52140
7,8,1,19650,19650,28840
8,9,1,10363,10363,5500
9,10,1,23370,23370,49240
10,11,1,19251,19251,27920
11,12,1,19549,19549,46620
12,13,1,10419,10419,9580
13,14,1,16018,16018,23860
14,15,1,30708,30708,51480
15,16,1,8752,8752,4120
16,17,1,20560,20560,28820
17,18,1,24589,24589,50780
18,19,1,24440,24440,43200
19,20,1,24417,24417,32160
20,21,1,12128,12128,7580
21,22,1,19371,19371,39820
22,23,1,28320,28320,35540
23,24,1,22767,22767,30080
24,25,1,22575,22575,45260
25,26,1,29168,29168,44480
26,27,1,28964,28964,37740
27,28,1,11722,11722,5160
28,29,1,22563,22563,24600
29,30,1,4627,4627,3700
30,31,1,24095,24095,42960
31,32,1,22409,22409,29320
32,33,1,24312,24312,27300
33,34,1,25567,25567,32340
34,35,1,21271,21271,18600
35,36,1,18595,18595,24980
36,37,1,25917,25917,38900
37,38,1,21341,21341,55880
38,39,1,13696,13696,10180
39,40,1,10863,10863,7420
40,41,1,21445,21445,38760
41,42,1,13808,13808,15460
42,43,1,15675,15675,25700
43,44,1,18791,18791,50740
44,45,1,17885,17885,15800
45,46,1,16493,16493,22260
46,47,1,20778,20778,54060
47,48,1,25501,25501,41780
48,49,1,18969,18969,17960
49,50,1,21561,21561,31320
50,51,1,9520,9520,5760
51,52,1,14649,14649,13840
52,53,1,28579,28579,42080
53,54,1,18117,18117,19300
54,55,1,20988,20988,33080
55,56,1,17745,17745,50460
56,57,1,13487,13487,13760
57,58,1,27658,27658,33980
58,59,1,25731,25731,41960
59,60,1,24902,24902,38600
60,61,1,21534,21534,40020
61,62,1,26185,26185,38360
62,63,1,18043,18043,20240
63,64,1,18218,18218,20960
64,65,1,15681,15681,14000
65,66,1,15683,15683,17740
66,67,1,25267,25267,56900
67,68,1,28944,28944,37480
68,69,1,21264,21264,23540
69,70,1,4454,4454,1280
70,71,1,24433,24433,36680
71,72,1,20384,20384,31500
72,73,1,24215,24215,43340
73,74,1,19611,19611,38180
74,75,1,7414,7414,1580
75,76,1,27779,27779,44860
76,77,1,20537,20537,52120
77,78,1,12188,12188,4040
78,79,1,21921,21921,38600
79,80,1,22053,22053,43560
80,81,1,21600,21600,37840
81,82,1,8417,8417,2960
82,83,1,4168,4168,1060
83,84,1,12616,12616,12560
84,85,1,23656,23656,43280
85,86,1,21301,21301,34400
86,87,1,8249,8249,4340
87,88,1,26574,26574,44760
88,89,1,13537,13537,8860
89,90,1,18386,18386,40640
90,91,1,22733,22733,33280
91,92,1,16487,16487,16060
92,93,1,5152,5152,3760
93,94,1,12639,12639,8900
94,95,1,20594,20594,49960
95,96,1,18731,18731,20340
96,97,1,26395,26395,39780
97,98,1,26430,26430,26060
98,99,1,25088,25088,32860
99,100,1,11403,11403,8060
100,101,1,12894,12894,8180
101,102,1,14326,14326,13380
102,103,1,23188,23188,40700
103,104,1,22176,22176,40180
104,105,1,19929,19929,19760
105,106,1,18528,18528,31500
106,107,1,7047,7047,3120
107,108,1,25899,25899,28560
108,109,1,12400,12400,9860
109,110,1,25420,25420,37020
110,111,1,8172,8172,7200
111,112,1,7900,7900,5280
112,113,1,17301,17301,23380
113,114,1,14603,14603,18200
114,115,1,19343,19343,18320
115,116,1,24546,24546,50000
116,117,1,7323,7323,7440
117,118,1,5594,5594,1880
118,119,1,3493,3493,1400
119,120,1,25569,25569,45540
120,121,1,10705,10705,5260
121,122,1,24974,24974,30900
122,123,1,22479,22479,29120
123,124,1,12423,12423,15460
124,125,1,13051,13051,12660
125,126,1,23503,23503,37560
126,127,1,22037,22037,31580
127,128,1,16729,16729,19920
128,129,1,21529,21529,34620
129,130,1,14486,14486,7260
130,131,1,26050,26050,31360
131,132,1,13386,13386,10900
132,133,1,24554,24554,53220
133,134,1,18640,18640,25680
134,135,1,17035,17035,46240
135,136,1,13811,13811,18200
136,137,1,24197,24197,33180
137,138,1,22671,22671,42700
138,139,1,23369,23369,40040
139,140,1,10706,10706,7640
140,141,1,4784,4784,4160
141,142,1,11333,11333,9460
142,143,1,25671,25671,48980
143,144,1,9458,9458,8320
144,145,1,23048,23048,44820
145,146,1,18679,18679,23920
146,147,1,7412,7412,2600
147,148,1,18742,18742,32440
148,149,1,24947,24947,45500
149,150,1,20184,20184,18640
150,151,1,22638,22638,37100
151,152,1,3931,3931,840
152,153,1,8374,8374,6020
153,154,1,24742,24742,38980
154,155,1,17636,17636,28400
155,156,1,8346,8346,5380
156,157,1,19955,19955,50700
157,158,1,15751,15751,18120
158,159,1,26737,26737,42400
159,160,1,24950,24950,25140
160,161,1,9697,9697,8060
161,162,1,26722,26722,44740
162,163,1,27575,27575,30720
163,164,1,7332,7332,5460
164,165,1,9893,9893,5140
165,166,1,17769,17769,17720
166,167,1,13261,13261,20840
167,168,1,24594,24594,42760
168,169,1,8908,8908,4180
169,170,1,18571,18571,17260
170,171,1,30509,30509,39460
171,172,1,19832,19832,31700
172,173,1,19608,19608,54420
173,174,1,14176,14176,20340
174,175,1,21034,21034,28520
175,176,1,18385,18385,13780
176,177,1,11157,11157,5260
177,178,1,1914,1914,940
178,179,1,14152,14152,11500
179,180,1,5807,5807,4480
180,181,1,12553,12553,14500
181,182,1,22347,22347,28960
182,183,1,10005,10005,9120
183,184,1,22078,22078,46520
184,185,1,18496,18496,29060
185,186,1,31330,31330,21700
186,187,1,14787,14787,11300
187,188,1,20431,20431,24500
188,189,1,18910,18910,46980
189,190,1,18041,18041,20580
190,191,1,5950,5950,2980
191,192,1,24612,24612,27640
192,193,1,17346,17346,24400
193,194,1,18578,18578,21600
194,195,1,17600,17600,26060
195,196,1,20230,20230,46900
196,197,1,23841,23841,40980
197,198,1,16059,16059,17480
198,199,1,17333,17333,21640
199,200,1,14503,14503,16460
200,201,1,17156,17156,24080
201,202,1,7602,7602,7000
202,203,1,10510,10510,8380
203,204,1,5646,5646,1580
204,205,1,9157,9157,5180
205,206,1,24781,24781,43860
206,207,1,24445,24445,57860
207,208,1,15440,15440,7260
208,209,1,21621,21621,41640
209,210,1,23026,23026,33800
210,211,1,19365,19365,28880
211,212,1,24074,24074,31080
212,213,1,27628,27628,49040
213,214,1,19258,19258,26900
214,215,1,23934,23934,24120
215,216,1,20126,20126,15560
216,217,1,23263,23263,23720
217,218,1,10821,10821,11700
218,219,1,16384,16384,23020
219,220,1,28199,28199,40020
220,221,1,10482,10482,4680
221,222,1,26199,26199,47760
222,223,1,19207,19207,11840
223,224,1,13684,13684,21980
224,225,1,26875,26875,33340
225,226,1,9324,9324,7460
226,227,1,6596,6596,6120
227,228,1,24750,24750,25780
228,229,1,16183,16183,25620
229,230,1,24368,24368,35040
230,231,1,13428,13428,8380
231,232,1,28544,28544,45900
232,233,1,21952,21952,34900
233,234,1,21974,21974,34880
234,235,1,8945,8945,6240
235,236,1,22164,22164,42600
236,237,1,21426,21426,41620
237,238,1,20635,20635,34380
238,239,1,20138,20138,28420
239,240,1,25520,25520,45480
240,241,1,11406,11406,21120
241,242,1,602,602,260
242,243,1,17095,17095,19520
243,244,1,18042,18042,15240
244,245,1,21473,21473,23720
245,246,1,22918,22918,27300
246,247,1,25147,25147,54060
247,248,1,24975,24975,57540
248,249,1,13610,13610,6800
249,250,1,17124,17124,11740
250,251,1,19278,19278,12660
251,252,1,14494,14494,12140
252,253,1,26409,26409,41300
253,254,1,11552,11552,9800
254,255,1,17681,17681,18820
255,256,1,13652,13652,19740
256,257,1,20737,20737,47820
257,258,1,11561,11561,13240
258,259,1,22087,22087,23440
259,260,1,20066,20066,28660
260,261,1,7483,7483,6820
261,262,1,6560,6560,3500
262,263,1,14012,14012,8740
263,264,1,18589,18589,40040
264,265,1,11547,11547,10600
265,266,1,11792,11792,8880
266,267,1,25602,25602,38460
267,268,1,10702,10702,15400
268,269,1,20443,20443,34740
269,270,1,22250,22250,38020
270,271,1,15737,15737,14060
271,272,1,21704,21704,29100
272,273,1,1806,1806,340
273,274,1,25057,25057,53500
274,275,1,26743,26743,34840
275,276,1,19147,19147,20060
276,277,1,26395,26395,50220
277,278,1,23796,23796,36720
278,279,1,28066,28066,39260
279,280,1,25753,25753,40880
280,281,1,20490,20490,32080
281,282,1,12018,12018,11520
282,283,1,19370,19370,34720
283,284,1,17617,17617,17260
284,285,1,28078,28078,33000
285,286,1,21006,21006,12960
286,287,1,25238,25238,23680
287,288,1,9282,9282,8040
288,289,1,17047,17047,18420
289,290,1,26696,26696,38000
290,291,1,20591,20591,43840
291,292,1,13462,13462,11220
292,293,1,26552,26552,48520
293,294,1,19081,19081,17340
294,295,1,25145,25145,40660
295,296,1,13238,13238,12460
296,297,1,24651,24651,35680
297,298,1,24180,24180,21020
298,299,1,23795,23795,52160
299,300,1,21084,21084,28480
300,301,1,25085,25085,22800
301,302,1,21977,21977,22980
302,303,1,24277,24277,39800
303,304,1,13390,13390,10520
304,305,1,23668,23668,28720
305,306,1,22705,22705,39060
306,307,1,23013,23013,48500
307,308,1,16978,16978,23700
308,309,1,16001,16001,21380
309,310,1,25823,25823,37800
310,311,1,16580,16580,34280
311,312,1,16784,16784,18440
312,313,1,17175,17175,25140
313,314,1,9079,9079,8300
314,315,1,24830,24830,45020
315,316,1,5679,5679,2940
316,317,1,1513,1513,1340
317,318,1,21659,21659,38920
318,319,1,20442,20442,44800
319,320,1,13822,13822,19240
320,321,1,24125,24125,37500
321,322,1,8416,8416,7400
322,323,1,25381,25381,30220
323,324,1,19917,19917,20740
324,325,1,19065,19065,44960
325,326,1,25967,25967,49880
326,327,1,25740,25740,32960
327,328,1,22507,22507,51400
328,329,1,17514,17514,33440
329,330,1,19925,19925,29300
330,331,1,21227,21227,39460
331,332,1,20591,20591,45940
332,333,1,3796,3796,1420
333,334,1,25903,25903,53960
334,335,1,16380,16380,15360
335,336,1,10068,10068,8180
336,337,1,20678,20678,28240
337,338,1,13432,13432,17780
338,339,1,21165,21165,26960
339,340,1,25798,25798,42460
340,341,1,24971,24971,37020
341,342,1,11291,11291,10260
342,343,1,27066,27066,42460
343,344,1,11174,11174,10020
344,345,1,18361,18361,41360
345,346,1,11955,11955,20120
346,347,1,18177,18177,43180
347,348,1,20514,20514,33240
348,349,1,22592,22592,30220
349,350,1,16000,16000,16540
350,351,1,2409,2409,640
351,352,1,12855,12855,15360
352,353,1,20833,20833,28520
353,354,1,24338,24338,37780
354,355,1,13867,13867,11280
355,356,1,18985,18985,21900
356,357,1,24072,24072,43220
357,358,1,13520,13520,6880
358,359,1,27711,27711,29080
359,360,1,22181,22181,41900
360,361,1,20933,20933,43260
361,362,1,23255,23255,35920
362,363,1,26778,26778,30960
363,364,1,18030,18030,34180
364,365,1,14156,14156,14120
365,366,1,24983,24983,38120
366,367,1,20766,20766,24440
367,368,1,21301,21301,44320
368,369,1,23858,23858,40640
369,370,1,3230,3230,1800
370,371,1,21477,21477,23680
371,372,1,11289,11289,7980
372,373,1,17079,17079,13840
373,374,1,22014,22014,21120
374,375,1,23237,23237,34820
375,376,1,21375,21375,28280
376,377,1,29029,29029,46800
377,378,1,8495,8495,7660
378,379,1,20914,20914,45880
379,380,1,5535,5535,4840
380,381,1,16863,16863,19740
381,382,1,24566,24566,32980
382,383,1,9746,9746,11360
383,384,1,22664,22664,45220
384,385,1,23081,23081,44520
385,386,1,2206,2206,1580
386,387,1,26815,26815,49840
387,388,1,18791,18791,19280
388,389,1,2451,2451,800
389,390,1,27545,27545,51420
390,391,1,15552,15552,22720
391,392,1,30067,30067,38100
392,393,1,14390,14390,10640
393,394,1,24009,24009,39420
394,395,1,25228,25228,37260
395,396,1,27402,27402,36600
396,397,1,27207,27207,44520
397,398,1,17406,17406,12240
398,399,1,20608,20608,33440
399,400,1,23138,23138,34640
400,401,1,27176,27176,33680
401,402,1,10422,10422,6800
402,403,1,18706,18706,10660
403,404,1,33433,33433,53660
404,405,1,22900,22900,22640
405,406,1,20013,20013,25300
406,407,1,23126,23126,43680
407,408,1,11120,11120,10400
408,409,1,21840,21840,45080
409,410,1,23681,23681,49540
410,411,1,13812,13812,9280
411,412,1,20154,20154,29800
412,413,1,12694,12694,18060
413,414,1,25078,25078,38280
414,415,1,23311,23311,44120
415,416,1,18341,18341,27840
416,417,1,21095,21095,20720
417,418,1,20096,20096,57760
418,419,1,18464,18464,18840
419,420,1,26945,26945,59480
420,421,1,17155,17155,15360
421,422,1,15421,15421,14760
422,423,1,14807,14807,12500
423,424,1,22249,22249,40400
424,425,1,18212,18212,31100
425,426,1,8212,8212,6360
426,427,1,19737,19737,14440
427,428,1,21684,21684,26280
428,429,1,21118,21118,31200
429,430,1,28753,28753,41460
430,431,1,6012,6012,4860
431,432,1,25868,25868,41840
432,433,1,21553,21553,19320
433,434,1,23948,23948,24800
434,435,1,16183,16183,12180
435,436,1,19456,19456,23880
436,437,1,17007,17007,26320
437,438,1,19173,19173,18180
438,439,1,22636,22636,38680
439,440,1,23058,23058,22720
440,441,1,19710,19710,28620
441,442,1,20666,20666,39540
442,443,1,24123,24123,46940
443,444,1,15074,15074,24100
444,445,1,10367,10367,7460
445,446,1,22166,22166,28520
446,447,1,26145,26145,34400
447,448,1,23116,23116,28740
448,449,1,21632,21632,33980
449,450,1,19223,19223,32680
450,451,1,16061,16061,17280
451,452,1,16494,16494,10960
452,453,1,23017,23017,25600
453,454,1,17648,17648,27600
454,455,1,26894,26894,27340
455,456,1,18681,18681,20920
456,457,1,2151,2151,20
457,458,1,17230,17230,14500
458,459,1,24281,24281,43800
459,460,1,19002,19002,20680
460,461,1,21981,21981,43800
461,462,1,22899,22899,48000
462,463,1,28197,28197,35540
463,464,1,24019,24019,30660
464,465,1,12124,12124,7380
465,466,1,19744,19744,18080
466,467,1,26098,26098,47760
467,468,1,22963,22963,31340
468,469,1,25698,25698,42500
469,470,1,10177,10177,6900
470,471,1,16946,16946,21860
471,472,1,19900,19900,32420
472,473,1,19917,19917,22860
473,474,1,14463,14463,12600
474,475,1,15259,15259,10120
475,476,1,18752,18752,32480
476,477,1,11,11,460
477,478,1,24526,24526,43440
478,479,1,23921,23921,41220
479,480,1,29006,29006,42380
480,481,1,18695,18695,31800
481,482,1,22054,22054,28560
482,483,1,10151,10151,5160
483,484,1,25036,25036,45780
484,485,1,27918,27918,32700
485,486,1,21635,21635,49520
486,487,1,12231,12231,11260
487,488,1,18516,18516,28560
488,489,1,13496,13496,12900
489,490,1,15100,15100,11700
490,491,1,20725,20725,31140
491,492,1,23189,23189,53180
492,493,1,23587,23587,22980
493,494,1,0,0,520
494,495,1,12450,12450,10200
495,496,1,4851,4851,1980
496,497,1,6256,6256,2860
497,498,1,23883,23883,55880
498,499,1,26504,26504,47680
499,500,1,16897,16897,21640
