,ID,status,opt price,max price,visited
0,1,1,1129,1129,235
1,2,1,2966,2966,660
2,3,1,0,0,115
3,4,1,70,70,465
4,5,1,2758,2758,1220
5,6,1,1641,1641,60
6,7,1,4607,4607,2160
7,8,1,4422,4422,755
8,9,1,3451,3451,1825
9,10,1,744,744,830
10,11,1,4774,4774,1690
11,12,1,1538,1538,470
12,13,1,5798,5798,1815
13,14,1,3972,3972,1175
14,15,1,4117,4117,1725
15,16,1,2698,2698,1045
16,17,1,0,0,175
17,18,1,2453,2453,515
18,19,1,3999,3999,2095
19,20,1,4919,4919,2290
20,21,1,2098,2098,270
21,22,1,1382,1382,710
22,23,1,4485,4485,955
23,24,1,3611,3611,1180
24,25,1,3102,3102,2865
25,26,1,2551,2551,1090
26,27,1,3076,3076,1400
27,28,1,1649,1649,535
28,29,1,2937,2937,1100
29,30,1,5798,5798,2880
30,31,1,4506,4506,1590
31,32,1,5893,5893,2370
32,33,1,2277,2277,570
33,34,1,2689,2689,690
34,35,1,2356,2356,325
35,36,1,1209,1209,450
36,37,1,0,0,45
37,38,1,3414,3414,585
38,39,1,4899,4899,1405
39,40,1,2310,2310,1315
40,41,1,2024,2024,330
41,42,1,2625,2625,1040
42,43,1,3331,3331,825
43,44,1,3271,3271,1165
44,45,1,4966,4966,1800
45,46,1,1792,1792,585
46,47,1,4753,4753,1255
47,48,1,3966,3966,315
48,49,1,0,0,230
49,50,1,2717,2717,380
50,51,1,0,0,80
51,52,1,3895,3895,1355
52,53,1,4212,4212,1065
53,54,1,523,523,1050
54,55,1,4588,4588,2020
55,56,1,2986,2986,1350
56,57,1,3438,3438,1580
57,58,1,2090,2090,590
58,59,1,4343,4343,1535
59,60,1,4469,4469,1355
60,61,1,0,0,185
61,62,1,2537,2537,1615
62,63,1,1235,1235,220
63,64,1,4289,4289,1560
64,65,1,6226,6226,2050
65,66,1,4371,4371,670
66,67,1,3162,3162,1830
67,68,1,4275,4275,2745
68,69,1,0,0,175
69,70,1,5282,5282,2205
70,71,1,2301,2301,900
71,72,1,2861,2861,1770
72,73,1,2542,2542,1130
73,74,1,0,0,35
74,75,1,2904,2904,1300
75,76,1,3721,3721,1145
76,77,1,5098,5098,1940
77,78,1,3681,3681,2160
78,79,1,5150,5150,850
79,80,1,1548,1548,660
80,81,1,3244,3244,1325
81,82,1,5633,5633,2690
82,83,1,0,0,150
83,84,1,1872,1872,220
84,85,1,6606,6606,1845
85,86,1,2533,2533,780
86,87,1,2283,2283,1095
87,88,1,161,161,875
88,89,1,927,927,1225
89,90,1,4527,4527,710
90,91,1,3363,3363,1800
91,92,1,3770,3770,2400
92,93,1,1160,1160,655
93,94,1,1910,1910,1225
94,95,1,5212,5212,3690
95,96,1,2751,2751,2185
96,97,1,3901,3901,785
97,98,1,1487,1487,1420
98,99,1,4088,4088,430
99,100,1,1936,1936,40
100,101,1,5818,5818,2475
101,102,1,3402,3402,740
102,103,1,1289,1289,205
103,104,1,2691,2691,1575
104,105,1,2173,2173,1615
105,106,1,3248,3248,1575
106,107,1,3340,3340,1310
107,108,1,3497,3497,1525
108,109,1,5201,5201,965
109,110,1,1867,1867,170
110,111,1,5518,5518,2050
111,112,1,2413,2413,520
112,113,1,3499,3499,1575
113,114,1,3567,3567,2185
114,115,1,5403,5403,1890
115,116,1,3213,3213,650
116,117,1,2445,2445,2030
117,118,1,0,0,35
118,119,1,2993,2993,355
119,120,1,3018,3018,1090
120,121,1,4255,4255,1655
121,122,1,4162,4162,1455
122,123,1,5875,5875,1260
123,124,1,2120,2120,295
124,125,1,3619,3619,1615
125,126,1,0,0,100
126,127,1,4413,4413,1080
127,128,1,2364,2364,225
128,129,1,3248,3248,1495
129,130,1,5691,5691,3005
130,131,1,2980,2980,250
131,132,1,4369,4369,2380
132,133,1,1063,1063,630
133,134,1,3557,3557,960
134,135,1,4346,4346,2740
135,136,1,1822,1822,2205
136,137,1,2302,2302,2340
137,138,1,2006,2006,1110
138,139,1,1055,1055,435
139,140,1,5086,5086,2075
140,141,1,1535,1535,1860
141,142,1,6234,6234,1870
142,143,1,2455,2455,1830
143,144,1,0,0,15
144,145,1,0,0,30
145,146,1,4255,4255,1500
146,147,1,4518,4518,1200
147,148,1,3482,3482,770
148,149,1,2446,2446,180
149,150,1,3000,3000,2340
150,151,1,3714,3714,2405
151,152,1,2483,2483,635
152,153,1,475,475,665
153,154,1,3621,3621,1495
154,155,1,1777,1777,900
155,156,1,4059,4059,1835
156,157,1,3232,3232,590
157,158,1,4047,4047,1800
158,159,1,2444,2444,370
159,160,1,2201,2201,1670
160,161,1,1118,1118,125
161,162,1,0,0,610
162,163,1,3883,3883,1610
163,164,1,4042,4042,1320
164,165,1,1609,1609,460
165,166,1,1314,1314,665
166,167,1,3352,3352,820
167,168,1,4900,4900,1535
168,169,1,6731,6731,2375
169,170,1,2489,2489,1365
170,171,1,2439,2439,310
171,172,1,3785,3785,2185
172,173,1,4835,4835,1495
173,174,1,103,103,495
174,175,1,4005,4005,1495
175,176,1,2094,2094,730
176,177,1,0,0,75
177,178,1,3683,3683,1390
178,179,1,3624,3624,1515
179,180,1,4842,4842,1775
180,181,1,3693,3693,1910
181,182,1,3798,3798,875
182,183,1,0,0,115
183,184,1,4391,4391,2615
184,185,1,3600,3600,3120
185,186,1,3084,3084,695
186,187,1,4249,4249,1340
187,188,1,636,636,920
188,189,1,2577,2577,1715
189,190,1,5838,5838,2390
190,191,1,3129,3129,1050
191,192,1,4846,4846,1230
192,193,1,4084,4084,1795
193,194,1,1181,1181,70
194,195,1,3584,3584,1870
195,196,1,1991,1991,585
196,197,1,6201,6201,1850
197,198,1,2525,2525,2165
198,199,1,3098,3098,795
199,200,1,2965,2965,1490
200,201,1,0,0,60
201,202,1,2493,2493,505
202,203,1,4392,4392,685
203,204,1,0,0,190
204,205,1,2209,2209,1015
205,206,1,2230,2230,1410
206,207,1,0,0,25
207,208,1,1992,1992,965
208,209,1,2582,2582,1475
209,210,1,924,924,220
210,211,1,3726,3726,1715
211,212,1,0,0,125
212,213,1,2063,2063,1410
213,214,1,3013,3013,1205
214,215,1,0,0,315
215,216,1,0,0,120
216,217,1,1742,1742,815
217,218,1,1664,1664,480
218,219,1,2403,2403,505
219,220,1,2193,2193,1815
220,221,1,1648,1648,1055
221,222,1,2260,2260,300
222,223,1,4656,4656,1605
223,224,1,1185,1185,590
224,225,1,3714,3714,1085
225,226,1,1360,1360,70
226,227,1,365,365,120
227,228,1,4730,4730,1310
228,229,1,184,184,740
229,230,1,6260,6260,940
230,231,1,4385,4385,1960
231,232,1,5391,5391,2330
232,233,1,5007,5007,1290
233,234,1,5574,5574,2115
234,235,1,3265,3265,2465
235,236,1,2013,2013,325
236,237,1,1598,1598,360
237,238,1,5384,5384,2025
238,239,1,3796,3796,825
239,240,1,1410,1410,355
240,241,1,4660,4660,1235
241,242,1,5359,5359,3095
242,243,1,1462,1462,1180
243,244,1,2500,2500,250
244,245,1,3195,3195,540
245,246,1,3293,3293,940
246,247,1,5771,5771,965
247,248,1,3079,3079,1235
248,249,1,3429,3429,1025
249,250,1,4183,4183,870
250,251,1,0,0,50
251,252,1,3458,3458,1680
252,253,1,2362,2362,750
253,254,1,1545,1545,530
254,255,1,0,0,10
255,256,1,1617,1617,2225
256,257,1,2857,2857,2060
257,258,1,3779,3779,710
258,259,1,3231,3231,985
259,260,1,3824,3824,880
260,261,1,4733,4733,1985
261,262,1,5503,5503,1680
262,263,1,1874,1874,1195
263,264,1,4072,4072,1535
264,265,1,3958,3958,1580
265,266,1,1140,1140,370
266,267,1,2722,2722,1835
267,268,1,2627,2627,2380
268,269,1,5977,5977,2870
269,270,1,1924,1924,600
270,271,1,5039,5039,2035
271,272,1,3962,3962,750
272,273,1,2307,2307,580
273,274,1,2521,2521,1625
274,275,1,3216,3216,1520
275,276,1,4054,4054,850
276,277,1,4788,4788,2080
277,278,1,631,631,390
278,279,1,4297,4297,1905
279,280,1,3661,3661,1885
280,281,1,875,875,600
281,282,1,2326,2326,80
282,283,1,4845,4845,875
283,284,1,0,0,255
284,285,1,3425,3425,1545
285,286,1,6263,6263,2545
286,287,1,1167,1167,950
287,288,1,3583,3583,595
288,289,1,5250,5250,1740
289,290,1,2664,2664,1275
290,291,1,1379,1379,635
291,292,1,5836,5836,1990
292,293,1,4091,4091,890
293,294,1,4659,4659,2030
294,295,1,3682,3682,810
295,296,1,1745,1745,955
296,297,1,3973,3973,720
297,298,1,3620,3620,1220
298,299,1,2370,2370,785
299,300,1,0,0,100
300,301,1,3488,3488,2535
301,302,1,2038,2038,1020
302,303,1,1691,1691,380
303,304,1,5361,5361,1900
304,305,1,4215,4215,2260
305,306,1,2494,2494,405
306,307,1,2488,2488,975
307,308,1,3091,3091,800
308,309,1,4642,4642,2390
309,310,1,4132,4132,515
310,311,1,3391,3391,1080
311,312,1,3346,3346,1040
312,313,1,2268,2268,960
313,314,1,3137,3137,2335
314,315,1,6542,6542,845
315,316,1,1101,1101,160
316,317,1,4756,4756,1725
317,318,1,2247,2247,250
318,319,1,1712,1712,540
319,320,1,2863,2863,2120
320,321,1,3700,3700,250
321,322,1,0,0,65
322,323,1,4628,4628,1795
323,324,1,6067,6067,1495
324,325,1,4279,4279,1495
325,326,1,2679,2679,755
326,327,1,3176,3176,695
327,328,1,3162,3162,1670
328,329,1,2265,2265,825
329,330,1,5239,5239,1430
330,331,1,2411,2411,1205
331,332,1,6225,6225,1550
332,333,1,4050,4050,1210
333,334,1,701,701,335
334,335,1,3649,3649,1520
335,336,1,2896,2896,1720
336,337,1,2488,2488,900
337,338,1,2961,2961,2955
338,339,1,6125,6125,1360
339,340,1,1570,1570,1495
340,341,1,2331,2331,1670
341,342,1,2637,2637,985
342,343,1,2560,2560,2440
343,344,1,3083,3083,1700
344,345,1,4388,4388,1660
345,346,1,4346,4346,1735
346,347,1,4628,4628,2220
347,348,1,0,0,350
348,349,1,3575,3575,3540
349,350,1,2564,2564,600
350,351,1,4668,4668,2285
351,352,1,5103,5103,1280
352,353,1,2215,2215,2365
353,354,1,3130,3130,290
354,355,1,1442,1442,1095
355,356,1,4826,4826,1365
356,357,1,3366,3366,1085
357,358,1,2311,2311,1120
358,359,1,2207,2207,1395
359,360,1,3260,3260,625
360,361,1,2384,2384,685
361,362,1,0,0,475
362,363,1,348,348,225
363,364,1,2164,2164,1155
364,365,1,5608,5608,1070
365,366,1,3533,3533,1405
366,367,1,3362,3362,1835
367,368,1,3610,3610,670
368,369,1,3383,3383,1990
369,370,1,1499,1499,870
370,371,1,3491,3491,1695
371,372,1,6871,6871,2215
372,373,1,2637,2637,1515
373,374,1,3842,3842,2065
374,375,1,0,0,110
375,376,1,4059,4059,2245
376,377,1,2463,2463,650
377,378,1,1622,1622,990
378,379,1,804,804,635
379,380,1,3824,3824,1305
380,381,1,0,0,300
381,382,1,6366,6366,2320
382,383,1,2024,2024,340
383,384,1,2882,2882,465
384,385,1,3214,3214,2120
385,386,1,4021,4021,1365
386,387,1,2385,2385,895
387,388,1,2628,2628,970
388,389,1,5235,5235,1750
389,390,1,4102,4102,1900
390,391,1,3640,3640,3060
391,392,1,3100,3100,3200
392,393,1,4230,4230,1995
393,394,1,4939,4939,2130
394,395,1,0,0,395
395,396,1,396,396,175
396,397,1,4642,4642,1730
397,398,1,3071,3071,1345
398,399,1,3785,3785,2005
399,400,1,2984,2984,1540
400,401,1,1839,1839,655
401,402,1,3686,3686,1475
402,403,1,2376,2376,1250
403,404,1,3811,3811,2025
404,405,1,1980,1980,645
405,406,1,1800,1800,410
406,407,1,1360,1360,775
407,408,1,2298,2298,275
408,409,1,2400,2400,330
409,410,1,1800,1800,3160
410,411,1,5135,5135,2410
411,412,1,4896,4896,1550
412,413,1,3688,3688,1010
413,414,1,3829,3829,2160
414,415,1,0,0,515
415,416,1,4611,4611,965
416,417,1,2549,2549,1290
417,418,1,1425,1425,400
418,419,1,5241,5241,1715
419,420,1,6565,6565,2305
420,421,1,3951,3951,2360
421,422,1,5362,5362,2850
422,423,1,5562,5562,1265
423,424,1,2606,2606,990
424,425,1,5897,5897,1880
425,426,1,2381,2381,455
426,427,1,1797,1797,1425
427,428,1,0,0,250
428,429,1,2724,2724,1415
429,430,1,2693,2693,1385
430,431,1,3457,3457,2370
431,432,1,3641,3641,1245
432,433,1,3591,3591,2140
433,434,1,1470,1470,1190
434,435,1,2614,2614,1745
435,436,1,4497,4497,2365
436,437,1,3951,3951,3070
437,438,1,4155,4155,1315
438,439,1,0,0,300
439,440,1,4421,4421,2260
440,441,1,5646,5646,1255
441,442,1,3814,3814,665
442,443,1,4419,4419,1905
443,444,1,5022,5022,580
444,445,1,2779,2779,2195
445,446,1,2772,2772,435
446,447,1,2383,2383,1895
447,448,1,4574,4574,3490
448,449,1,3854,3854,1230
449,450,1,2845,2845,220
450,451,1,4109,4109,1965
451,452,1,2798,2798,570
452,453,1,3459,3459,2095
453,454,1,5566,5566,2385
454,455,1,3520,3520,845
455,456,1,4276,4276,3205
456,457,1,4532,4532,2575
457,458,1,1921,1921,840
458,459,1,2300,2300,145
459,460,1,5758,5758,1810
460,461,1,4672,4672,1520
461,462,1,2718,2718,1975
462,463,1,2476,2476,725
463,464,1,4205,4205,595
464,465,1,2140,2140,1380
465,466,1,418,418,560
466,467,1,3991,3991,1660
467,468,1,3923,3923,2125
468,469,1,4071,4071,835
469,470,1,2258,2258,705
470,471,1,802,802,900
471,472,1,2792,2792,1560
472,473,1,420,420,440
473,474,1,4228,4228,1600
474,475,1,6555,6555,1930
475,476,1,237,237,230
476,477,1,0,0,205
477,478,1,3694,3694,1605
478,479,1,3988,3988,1050
479,480,1,3262,3262,1865
480,481,1,5488,5488,1810
481,482,1,215,215,200
482,483,1,3410,3410,2210
483,484,1,168,168,590
484,485,1,2122,2122,185
485,486,1,2035,2035,195
486,487,1,1652,1652,810
487,488,1,4939,4939,2670
488,489,1,0,0,325
489,490,1,2933,2933,1115
490,491,1,4254,4254,1615
491,492,1,5318,5318,1055
492,493,1,2422,2422,355
493,494,1,2178,2178,1815
494,495,1,2843,2843,1885
495,496,1,3106,3106,600
496,497,1,4426,4426,1395
497,498,1,2145,2145,705
498,499,1,2036,2036,640
499,500,1,3687,3687,1290
