4,10,15,20
0.0004775270000010323,0.00035706650000122414,0.0008667164999991428,0.00464584950000102
0.0008471370000009415,0.00120067450000505,0.00035273099999955093,0.0005865695000011327
0.0008585769999953642,0.006389851999998086,0.007566330499997775,0.02588853950000214
0.0006030459999948334,0.0012380089999979305,0.0006709495000052358,0.004469124999999964
0.0005108315000015294,0.0005786564999965549,0.000802443000004871,0.0042951249999916286
0.00044907149999318113,0.0017876299999954879,0.001252654999994718,0.03958999300000698
0.0005684374999930242,0.004972869000006597,0.011278425999996957,0.03545520649999645
0.0007619349999998802,0.00616773000000137,0.018179077500001032,0.004286171000003947
0.0002831990000018436,0.005282641499995577,0.00025172600000189504,0.0006141965000097116
0.0008358695000012517,0.0010294770000029985,0.0004769535000050951,0.02311354849999958
0.00035332650000441385,0.008039104499999894,0.0007695554999997968,0.000287258000000179
0.0008828315000002364,0.002132190499992248,0.0007702599999959148,0.0002538209999940477
0.0002889540000055036,0.0007850680000061061,0.008370284500003322,0.009276706500003229
0.0007646019999967281,0.0010667479999924012,0.006949260000006063,0.033217993000000945
0.0005245219999991946,0.0032356924999916714,0.0003157495000039034,0.010327139000004593
0.00046012199999978515,0.0008101499999995099,0.015673907999996572,0.03504004099999492
0.0005332859999995776,0.002523563500005821,0.011246526499995468,0.0012972029999929189
0.0003238214999967681,0.00031873700000062405,0.00027164149999237,0.035809176999997305
0.00034759750000290524,0.0008899625000040602,0.013945774499994457,0.04234480900000648
0.0009342315000040458,0.001515879499997652,0.0005604200000064452,0.02969097150000266
0.0007933010000016338,0.008412497999998436,0.002481459000001962,0.00029594349999939595
0.0007961230000077535,0.0010966640000020786,0.0016336809999941693,0.044347183500001115
0.000791696999996816,0.0013939305000008062,0.015376559500005271,0.00033626400000486
0.0008875499999945191,0.00606028150000526,0.013441972499997236,0.004159432000001573
0.0003040319999954022,0.005541642499999,0.018227344000003143,0.0003660220000014647
0.0003332235000002015,0.002306271999991339,0.01235390699999783,0.00044065250000357986
0.0006137164999984178,0.0020853149999950915,0.002891932499998973,0.00048743400000716974
0.0007273155000007138,0.004907960000004152,0.0008299300000018661,0.006902964500000053
0.0002787095000016393,0.0026234214999973915,0.017411429499993858,0.002208257000006597
0.00028693650000377596,0.006723245499998143,0.0002332440000003544,0.0033578785000045737
0.00032290650000277315,0.0008170454999998357,0.0013961869999974395,0.0007381765000005203
0.00034293300000598487,0.003448230499998317,0.01425553650000211,0.04054079950000045
0.0002990759999903503,0.00042533349999729353,0.01077378600000145,0.004368136999993054
0.0002963430000093581,0.00041390500000204616,0.0005962505000027818,0.0014061665000042467
0.0010017479999930856,0.003416034000004231,0.014093744499994896,0.0006374050000061969
0.00047508449999611463,0.008869941500002199,0.02152660299999809,0.004442181499996423
0.000773197500002709,0.0003062749999998005,0.007733897500003195,0.0002699864999939905
0.0002571044999939432,0.0004381789999996499,0.016692921000000638,0.0012220770000013206
0.00041723399999682437,0.0003220120000051452,0.00032705549999434425,0.04366677800000218
0.00031336200000708914,0.009114774499998646,0.013767324500001621,0.0007093990000015538
0.0009320949999960249,0.005834870000001047,0.0004223070000008988,0.0005139424999924813
0.0004155854999936537,0.0048004680000062186,0.0010809094999970623,0.0003094604999986928
0.0007000340000047345,0.00029279050000496914,0.0020242929999980674,0.004676663000005021
0.0005517145000055733,0.0009752169999970307,0.0010601460000003726,0.00169232049999124
0.00033306750000150487,0.006431427999999072,0.00018469799999820682,0.005121473000002652
0.0008101885000044717,0.0013788014999960294,0.015042060500000787,0.0031555314999991424
0.0005044284999939919,0.004883802499996648,0.015924452999996674,0.031162033999997618
0.0004915370000020404,0.003110353999993265,0.01664074949999872,0.054023353000005166
0.0007845714999916709,0.0054090200000089786,0.02033409500000261,0.03343749000000429
0.00092551000000185,0.005084087499994894,0.02107480649999616,0.000459841499989011
0.0010139689999917325,0.004707060000008312,0.0023870345000034376,0.008582952499999408
0.0008761115000055497,0.005855433499995399,0.0026173719999960103,0.04495343000000673
0.0007522765000018693,0.005283296000001768,0.020473212000005958,0.00028266099999285643
0.0010283874999998943,0.0016120579999991946,0.0007079424999929528,0.0032836665000033354
0.000290274000001034,0.0005479719999925692,0.0025187384999938445,0.0005609270000022093
0.0007267689999963522,0.00621964600000524,0.01201843500000166,0.0005769304999958537
0.000984229999993147,0.002284893000002341,0.0005090309999999931,0.0003664709999995353
0.0005843475000020247,0.004894190000001686,0.0008785275000064985,0.0008924879999909762
0.0008008709999955954,0.0002961150000047041,0.0003778049999993982,0.02460125350000197
0.0008630009999990308,0.004532571500000415,0.007233700000007559,0.002174662500003421
0.0008206084999997643,0.0002656364999964467,0.015681993000001167,0.04071217950000516
0.00038995749999770624,0.00860159150000328,0.004046292499999993,0.0015836135000029115
0.0008150970000002643,0.0045936084999951285,0.00035837299999741384,0.0010852229999969154
0.0008425150000022086,0.001742664000005334,0.0005205344999978934,0.0002752405000023828
0.00028527999999994336,0.0008333419999999593,0.0012814924999986488,0.004517231999997762
0.000848134500003539,0.0008666909999917037,0.0005785880000033218,0.0006075740000071049
0.0005349859999981277,0.00045333799999980334,0.021130957499998715,0.03590157850000253
0.0008167660000069077,0.003366589499997019,0.0020908524999967426,0.033207308500003314
0.0007109570000025657,0.0012231729999996332,0.007050917000000823,0.0032116970000046767
0.0003890744999921481,0.0017757844999977126,0.019479353000001254,0.00043602999999592384
0.0008738215000008154,0.00048652800000326135,0.03309373949999639,0.034043752999998844
0.00025921100000658726,0.006023790000000417,0.024396282000004987,0.002019903499999032
0.0004944094999999038,0.00200162850000396,0.02419279600000124,0.0017808949999960078
0.0005255065000042691,0.0005087999999986437,0.001303433500005724,0.050460938499995216
0.0008912569999921516,0.0005235480000038706,0.025654121000002302,0.033447922500002385
0.0006439444999983834,0.005952408999995384,0.0005775704999990693,0.0021797889999959352
0.0009096409999997943,0.0003667945000032091,0.014080588000005891,0.0012477850000038868
0.0002946224999931246,0.0018493024999983727,0.01724484300000739,0.04395496949999966
0.00029131400000181884,0.0050661244999972155,0.021256153499997762,0.005597095500007754
0.000529389500002253,0.0006824980000033065,0.006044276499999057,0.0009848024999925542
0.0008266799999958607,0.005590567500000532,0.014886017500003844,0.0014712425000027454
0.0009462964999968905,0.0030006790000030037,0.0009021780000040279,0.04091580100000414
0.0005191544999973985,0.004056651999995609,0.019495237500002816,0.021879779999999016
0.0008839715000021898,0.0032816040000085427,0.017878409500006853,0.029355508499996574
0.0004155929999996033,0.004618432000000894,0.00028292399999685364,0.016805007499996805
0.0002588179999989393,0.0035263145000001828,0.01597173450000611,0.000862716499995031
0.0005152840000022252,0.00020353699999731134,0.012693555500000286,0.00047614799999706747
0.0008823949999978709,0.006720025500001725,0.014488102499996103,0.045054598999996635
0.0004966014999894243,0.005655721000003665,0.014163605999996776,0.03341150149999805
0.0005395949999993377,0.00021908600000131173,0.013899688999998716,0.0020919230000018274
0.0008363924999983396,0.0003731274999978496,0.01896270600000349,0.0056460879999988825
0.0008292959999991468,0.003014859000003866,0.018263975499998253,0.0010343564999999444
0.0007841024999990509,0.004783378000006167,0.01792717299998969,0.033622896999993664
0.0006973745000067312,0.0037211544999991024,0.015675112499998534,0.04420688900000869
0.0008503799999957097,0.005048541000000739,0.006600874000007195,0.0021963940000020443
0.0005393844999943552,0.0014717959999970276,0.0002981390000087458,0.0010818419999907294
0.0010782929999990645,0.003308566499995891,0.0196957225000034,0.012612442500000045
0.0006404859999946666,0.001064571500002387,0.01700833600000351,0.002124211999998238
0.00031106799999491836,0.0006228460000059499,0.01633261900000349,0.034549192999996585
0.0007658769999920878,0.00959175699999548,0.000630928999996172,0.045669670999998864
