,ID,opt price,0.01 max price,0.01 err:,0.05 max price,0.05 err:,0.1 max price,0.1 err:,0.2 max price,0.2 err:
0,1,1207,1207,0.0,1207,0.0,1207,0.0,1207,0.0
1,5,3037,3037,0.0,3037,0.0,3037,0.0,3037,0.0
2,6,2256,2256,0.0,2256,0.0,2256,0.0,2256,0.0
3,8,8360,8360,0.0,8360,0.0,8360,0.0,8360,0.0
4,12,3487,3487,0.0,3487,0.0,3487,0.0,3487,0.0
5,18,3088,3088,0.0,3088,0.0,3088,0.0,3088,0.0
6,19,6384,6384,0.0,6384,0.0,6384,0.0,6384,0.0
7,20,4919,4919,0.0,4919,0.0,4919,0.0,4919,0.0
8,21,6540,6540,0.0,6540,0.0,6540,0.0,6540,0.0
9,22,1891,1891,0.0,1891,0.0,1891,0.0,1891,0.0
10,24,11186,11186,0.0,11186,0.0,11186,0.0,11186,0.0
11,25,3927,3927,0.0,3927,0.0,3927,0.0,3927,0.0
12,26,10802,10802,0.0,10802,0.0,10802,0.0,10802,0.0
13,27,4267,4267,0.0,4267,0.0,4267,0.0,4267,0.0
14,28,12485,12485,0.0,12485,0.0,12485,0.0,12485,0.0
15,29,3076,3076,0.0,3076,0.0,3076,0.0,3076,0.0
16,33,5474,5474,0.0,5474,0.0,5474,0.0,5474,0.0
17,34,4834,4834,0.0,4834,0.0,4834,0.0,4834,0.0
18,35,7649,7649,0.0,7649,0.0,7649,0.0,7649,0.0
19,36,1630,1630,0.0,1630,0.0,1630,0.0,1630,0.0
20,38,6232,6232,0.0,6232,0.0,6232,0.0,6232,0.0
21,40,3855,3855,0.0,3855,0.0,3855,0.0,3855,0.0
22,41,10120,10120,0.0,10120,0.0,10120,0.0,10120,0.0
23,45,5446,5446,0.0,5446,0.0,5446,0.0,5446,0.0
24,46,3611,3611,0.0,3611,0.0,3611,0.0,3611,0.0
25,47,6193,6193,0.0,6193,0.0,6193,0.0,6193,0.0
26,48,9277,9277,0.0,9277,0.0,9277,0.0,9277,0.0
27,50,177150,177150,0.0,177150,0.0,177150,0.0,177150,0.0
28,53,4404,4404,0.0,4404,0.0,4404,0.0,4404,0.0
29,54,1681,1681,0.0,1681,0.0,1681,0.0,1681,0.0
30,55,4126,4126,0.0,4126,0.0,4126,0.0,4126,0.0
31,56,3541,3541,0.0,3541,0.0,3541,0.0,3541,0.0
32,58,3493,3493,0.0,3493,0.0,3493,0.0,3493,0.0
33,59,7223,7223,0.0,7223,0.0,7223,0.0,7223,0.0
34,62,3508,3508,0.0,3508,0.0,3508,0.0,3508,0.0
35,66,6943,6943,0.0,6943,0.0,6943,0.0,6943,0.0
36,67,4096,4096,0.0,4096,0.0,4096,0.0,4096,0.0
37,75,6970,6970,0.0,6970,0.0,6970,0.0,6970,0.0
38,77,6737,6737,0.0,6737,0.0,6737,0.0,6737,0.0
39,78,4362,4362,0.0,4362,0.0,4362,0.0,4362,0.0
40,80,8816,8816,0.0,8816,0.0,8816,0.0,8816,0.0
41,84,2439,2439,0.0,2439,0.0,2439,0.0,2439,0.0
42,86,8430,8430,0.0,8430,0.0,8430,0.0,8430,0.0
43,87,3770,3770,0.0,3770,0.0,3770,0.0,3770,0.0
44,89,1354,1354,0.0,1354,0.0,1354,0.0,1354,0.0
45,93,4864,4864,0.0,4864,0.0,4864,0.0,4864,0.0
46,94,2188,2188,0.0,2188,0.0,2188,0.0,2188,0.0
47,96,3538,3538,0.0,3538,0.0,3538,0.0,3538,0.0
48,97,4286,4286,0.0,4286,0.0,4286,0.0,4286,0.0
49,98,1870,1870,0.0,1870,0.0,1870,0.0,1870,0.0
50,99,7178,7178,0.0,7178,0.0,7178,0.0,7178,0.0
51,100,2710,2710,0.0,2710,0.0,2710,0.0,2710,0.0
52,101,6154,6154,0.0,6154,0.0,6154,0.0,6154,0.0
53,103,17186,17186,0.0,17186,0.0,17186,0.0,17186,0.0
54,105,3802,3802,0.0,3802,0.0,3802,0.0,3802,0.0
55,106,4266,4266,0.0,4266,0.0,4266,0.0,4266,0.0
56,108,4475,4475,0.0,4475,0.0,4475,0.0,4475,0.0
57,110,2464,2464,0.0,2464,0.0,2464,0.0,2464,0.0
58,112,5917,5917,0.0,5917,0.0,5917,0.0,5917,0.0
59,113,3668,3668,0.0,3668,0.0,3668,0.0,3668,0.0
60,115,7284,7284,0.0,7284,0.0,7284,0.0,7284,0.0
61,116,7144,7144,0.0,7144,0.0,7144,0.0,7144,0.0
62,117,4480,4480,0.0,4480,0.0,4480,0.0,4480,0.0
63,122,5671,5671,0.0,5671,0.0,5671,0.0,5671,0.0
64,123,10052,10052,0.0,10052,0.0,10052,0.0,10052,0.0
65,124,7685,7685,0.0,7685,0.0,7685,0.0,7685,0.0
66,125,5047,5047,0.0,5047,0.0,5047,0.0,5047,0.0
67,127,11043,11043,0.0,11043,0.0,11043,0.0,11043,0.0
68,128,3467,3467,0.0,3467,0.0,3467,0.0,3467,0.0
69,129,8979,8979,0.0,8979,0.0,8979,0.0,8979,0.0
70,130,6068,6068,0.0,6068,0.0,6068,0.0,6068,0.0
71,133,1731,1731,0.0,1731,0.0,1731,0.0,1731,0.0
72,134,4383,4383,0.0,4383,0.0,4383,0.0,4383,0.0
73,135,4830,4830,0.0,4830,0.0,4830,0.0,4830,0.0
74,136,2352,2352,0.0,2352,0.0,2352,0.0,2352,0.0
75,137,3357,3357,0.0,3357,0.0,3357,0.0,3357,0.0
76,138,2457,2457,0.0,2457,0.0,2457,0.0,2457,0.0
77,146,4289,4289,0.0,4289,0.0,4289,0.0,4289,0.0
78,149,3424,3424,0.0,3424,0.0,3424,0.0,3424,0.0
79,151,4445,4445,0.0,4445,0.0,4445,0.0,4445,0.0
80,152,3504,3504,0.0,3504,0.0,3504,0.0,3504,0.0
81,153,1796,1796,0.0,1796,0.0,1796,0.0,1796,0.0
82,154,3708,3708,0.0,3708,0.0,3708,0.0,3708,0.0
83,155,1935,1935,0.0,1935,0.0,1935,0.0,1935,0.0
84,159,2877,2877,0.0,2877,0.0,2877,0.0,2877,0.0
85,161,26832,26832,0.0,26832,0.0,26832,0.0,26832,0.0
86,164,4295,4295,0.0,4295,0.0,4295,0.0,4295,0.0
87,165,2162,2162,0.0,2162,0.0,2162,0.0,2162,0.0
88,166,5101,5101,0.0,5101,0.0,5101,0.0,5101,0.0
89,167,3857,3857,0.0,3857,0.0,3857,0.0,3857,0.0
90,170,2995,2995,0.0,2995,0.0,2995,0.0,2995,0.0
91,171,3381,3381,0.0,3381,0.0,3381,0.0,3381,0.0
92,175,7038,7038,0.0,7038,0.0,7038,0.0,7038,0.0
93,176,2117,2117,0.0,2094,0.01086443079829948,2094,0.01086443079829948,2094,0.01086443079829948
94,184,4727,4727,0.0,4727,0.0,4727,0.0,4727,0.0
95,186,7881,7881,0.0,7881,0.0,7881,0.0,7881,0.0
96,192,3681,3681,0.0,3681,0.0,3681,0.0,3681,0.0
97,194,1279,1279,0.0,1279,0.0,1279,0.0,1279,0.0
98,196,2881,2881,0.0,2881,0.0,2881,0.0,2881,0.0
99,200,3591,3591,0.0,3591,0.0,3591,0.0,3591,0.0
100,202,6925,6925,0.0,6925,0.0,6925,0.0,6925,0.0
101,205,4170,4170,0.0,4170,0.0,4170,0.0,4170,0.0
102,208,3213,3213,0.0,3213,0.0,3213,0.0,3213,0.0
103,209,2679,2679,0.0,2679,0.0,2679,0.0,2679,0.0
104,210,1018,1018,0.0,1018,0.0,1018,0.0,924,0.09233791748526522
105,211,4617,4617,0.0,4617,0.0,4617,0.0,4617,0.0
106,213,3107,3107,0.0,3107,0.0,3107,0.0,3107,0.0
107,214,7740,7740,0.0,7740,0.0,7740,0.0,7740,0.0
108,217,1946,1946,0.0,1946,0.0,1946,0.0,1946,0.0
109,218,1817,1817,0.0,1817,0.0,1817,0.0,1664,0.08420473307649973
110,219,7281,7281,0.0,7281,0.0,7281,0.0,7281,0.0
111,220,2835,2835,0.0,2835,0.0,2835,0.0,2835,0.0
112,221,82810,82810,0.0,82810,0.0,82810,0.0,82810,0.0
113,223,5865,5865,0.0,5865,0.0,5865,0.0,5865,0.0
114,224,3014,3014,0.0,3014,0.0,3014,0.0,3014,0.0
115,225,3861,3861,0.0,3861,0.0,3861,0.0,3861,0.0
116,226,5893,5893,0.0,5893,0.0,5893,0.0,5893,0.0
117,227,2798,2798,0.0,2798,0.0,2798,0.0,2798,0.0
118,228,10819,10819,0.0,10819,0.0,10819,0.0,10819,0.0
119,231,7190,7190,0.0,7190,0.0,7190,0.0,7190,0.0
120,232,5886,5886,0.0,5886,0.0,5886,0.0,5886,0.0
121,236,6441,6441,0.0,6441,0.0,6441,0.0,6441,0.0
122,237,2269,2269,0.0,2269,0.0,2269,0.0,2269,0.0
123,240,10966,10966,0.0,10966,0.0,10966,0.0,10966,0.0
124,243,1770,1770,0.0,1770,0.0,1770,0.0,1770,0.0
125,244,24500,24500,0.0,24500,0.0,24500,0.0,24500,0.0
126,246,4224,4224,0.0,4224,0.0,4224,0.0,4224,0.0
127,248,4679,4679,0.0,4679,0.0,4679,0.0,4679,0.0
128,250,5359,5359,0.0,5359,0.0,5359,0.0,5359,0.0
129,254,4055,4055,0.0,4055,0.0,4055,0.0,4055,0.0
130,256,2501,2501,0.0,2501,0.0,2501,0.0,2501,0.0
131,259,4166,4166,0.0,4166,0.0,4166,0.0,4166,0.0
132,263,2995,2995,0.0,2995,0.0,2995,0.0,2995,0.0
133,265,6424,6424,0.0,6424,0.0,6424,0.0,6424,0.0
134,266,1486,1486,0.0,1486,0.0,1486,0.0,1486,0.0
135,267,3904,3904,0.0,3904,0.0,3904,0.0,3904,0.0
136,268,3658,3658,0.0,3658,0.0,3658,0.0,3658,0.0
137,269,6366,6366,0.0,6366,0.0,6366,0.0,6366,0.0
138,270,2064,2064,0.0,2064,0.0,2064,0.0,2064,0.0
139,272,5270,5270,0.0,5270,0.0,5270,0.0,5270,0.0
140,273,3481,3481,0.0,3481,0.0,3481,0.0,3481,0.0
141,274,3044,3044,0.0,3044,0.0,3044,0.0,3044,0.0
142,275,4422,4422,0.0,4422,0.0,4422,0.0,4422,0.0
143,278,2112,2112,0.0,2112,0.0,2112,0.0,2112,0.0
144,280,3915,3915,0.0,3915,0.0,3915,0.0,3915,0.0
145,281,2539,2539,0.0,2539,0.0,2539,0.0,2539,0.0
146,282,4361,4361,0.0,4361,0.0,4361,0.0,4361,0.0
147,283,5040,5040,0.0,5040,0.0,5040,0.0,5040,0.0
148,287,1273,1273,0.0,1273,0.0,1273,0.0,1273,0.0
149,291,1809,1809,0.0,1809,0.0,1809,0.0,1809,0.0
150,293,4311,4311,0.0,4311,0.0,4311,0.0,4311,0.0
151,296,1784,1784,0.0,1784,0.0,1784,0.0,1784,0.0
152,298,4314,4314,0.0,4314,0.0,4314,0.0,4314,0.0
153,299,5815,5815,0.0,5815,0.0,5815,0.0,5815,0.0
154,302,2569,2569,0.0,2569,0.0,2569,0.0,2569,0.0
155,303,3578,3578,0.0,3578,0.0,3578,0.0,3578,0.0
156,305,4654,4654,0.0,4654,0.0,4654,0.0,4654,0.0
157,306,11736,11736,0.0,11736,0.0,11736,0.0,11736,0.0
158,307,2661,2661,0.0,2661,0.0,2661,0.0,2661,0.0
159,308,4425,4425,0.0,4425,0.0,4425,0.0,4425,0.0
160,310,4631,4631,0.0,4631,0.0,4631,0.0,4631,0.0
161,313,4867,4867,0.0,4867,0.0,4867,0.0,4867,0.0
162,316,1483,1483,0.0,1483,0.0,1483,0.0,1483,0.0
163,317,5870,5870,0.0,5870,0.0,5870,0.0,5870,0.0
164,318,6116,6116,0.0,6116,0.0,6116,0.0,6116,0.0
165,319,14721,14721,0.0,14721,0.0,14721,0.0,14721,0.0
166,320,2962,2962,0.0,2962,0.0,2962,0.0,2962,0.0
167,321,6226,6226,0.0,6226,0.0,6226,0.0,6226,0.0
168,325,5728,5728,0.0,5728,0.0,5728,0.0,5728,0.0
169,327,167463,167463,0.0,167463,0.0,167463,0.0,167463,0.0
170,328,4468,4468,0.0,4468,0.0,4468,0.0,4468,0.0
171,329,2924,2924,0.0,2924,0.0,2924,0.0,2924,0.0
172,331,2982,2982,0.0,2982,0.0,2982,0.0,2982,0.0
173,335,3930,3930,0.0,3930,0.0,3930,0.0,3930,0.0
174,340,2643,2643,0.0,2643,0.0,2643,0.0,2643,0.0
175,341,2860,2860,0.0,2860,0.0,2860,0.0,2860,0.0
176,346,6083,6083,0.0,6083,0.0,6083,0.0,6083,0.0
177,351,6039,6039,0.0,6039,0.0,6039,0.0,6039,0.0
178,353,2534,2534,0.0,2534,0.0,2534,0.0,2534,0.0
179,354,3812,3812,0.0,3812,0.0,3812,0.0,3812,0.0
180,357,3864,3864,0.0,3864,0.0,3864,0.0,3864,0.0
181,358,2856,2856,0.0,2856,0.0,2856,0.0,2856,0.0
182,359,3002,3002,0.0,3002,0.0,3002,0.0,3002,0.0
183,361,14144,14144,0.0,14144,0.0,14144,0.0,14144,0.0
184,363,638,638,0.0,638,0.0,638,0.0,638,0.0
185,364,3053,3053,0.0,3053,0.0,3053,0.0,3053,0.0
186,367,4735,4735,0.0,4735,0.0,4735,0.0,4735,0.0
187,370,259327,259327,0.0,259327,0.0,259327,0.0,259327,0.0
188,372,6988,6988,0.0,6988,0.0,6988,0.0,6805,0.026187750429307384
189,373,3438,3438,0.0,3438,0.0,3438,0.0,3438,0.0
190,377,5295,5295,0.0,5295,0.0,5295,0.0,5295,0.0
191,379,1978,1978,0.0,1978,0.0,1978,0.0,1978,0.0
192,380,4875,4875,0.0,4875,0.0,4875,0.0,4875,0.0
193,383,3477,3477,0.0,3477,0.0,3477,0.0,3477,0.0
194,387,2572,2572,0.0,2572,0.0,2572,0.0,2572,0.0
195,388,4911,4911,0.0,4911,0.0,4911,0.0,4911,0.0
196,391,4723,4723,0.0,4723,0.0,4723,0.0,4723,0.0
197,393,5188,5188,0.0,5188,0.0,5188,0.0,5188,0.0
198,397,5551,5551,0.0,5551,0.0,5551,0.0,5551,0.0
199,399,4348,4348,0.0,4348,0.0,4348,0.0,4348,0.0
200,400,3961,3961,0.0,3961,0.0,3961,0.0,3961,0.0
201,401,2097,2097,0.0,2097,0.0,2097,0.0,2097,0.0
202,403,2594,2594,0.0,2594,0.0,2594,0.0,2594,0.0
203,404,4854,4854,0.0,4854,0.0,4854,0.0,4854,0.0
204,406,5607,5607,0.0,5607,0.0,5607,0.0,5607,0.0
205,409,11142,11142,0.0,11142,0.0,11142,0.0,11142,0.0
206,410,1928,1928,0.0,1928,0.0,1928,0.0,1928,0.0
207,417,4737,4737,0.0,4737,0.0,4737,0.0,4737,0.0
208,418,2345,2345,0.0,2345,0.0,2345,0.0,2345,0.0
209,420,9280,9280,0.0,9280,0.0,9280,0.0,9280,0.0
210,421,4757,4757,0.0,4757,0.0,4757,0.0,4757,0.0
211,423,6426,6426,0.0,6426,0.0,6426,0.0,6426,0.0
212,424,3334,3334,0.0,3334,0.0,3334,0.0,3334,0.0
213,426,3896,3896,0.0,3896,0.0,3896,0.0,3896,0.0
214,427,3414,3414,0.0,3414,0.0,3414,0.0,3414,0.0
215,429,3019,3019,0.0,3019,0.0,3019,0.0,3019,0.0
216,430,4294,4294,0.0,4294,0.0,4294,0.0,4294,0.0
217,433,3723,3723,0.0,3723,0.0,3723,0.0,3723,0.0
218,434,1484,1484,0.0,1484,0.0,1484,0.0,1484,0.0
219,442,5827,5827,0.0,5827,0.0,5827,0.0,5827,0.0
220,444,5913,5913,0.0,5913,0.0,5913,0.0,5913,0.0
221,446,5117,5117,0.0,5117,0.0,5117,0.0,5117,0.0
222,447,4248,4248,0.0,4248,0.0,4248,0.0,4248,0.0
223,449,6136,6136,0.0,6136,0.0,6136,0.0,6136,0.0
224,450,3186,3186,0.0,3186,0.0,3186,0.0,3186,0.0
225,455,6806,6806,0.0,6806,0.0,6806,0.0,6806,0.0
226,457,4659,4659,0.0,4659,0.0,4659,0.0,4659,0.0
227,458,2008,2008,0.0,2008,0.0,2008,0.0,2008,0.0
228,459,7155,7155,0.0,7155,0.0,7155,0.0,7155,0.0
229,462,3977,3977,0.0,3977,0.0,3977,0.0,3977,0.0
230,463,2622,2622,0.0,2622,0.0,2622,0.0,2622,0.0
231,464,4399,4399,0.0,4399,0.0,4399,0.0,4399,0.0
232,466,2209,2209,0.0,2209,0.0,2209,0.0,2209,0.0
233,469,4187,4187,0.0,4187,0.0,4187,0.0,4187,0.0
234,470,9878,9878,0.0,9878,0.0,9878,0.0,9878,0.0
235,471,1407,1407,0.0,1407,0.0,1407,0.0,1407,0.0
236,472,3268,3268,0.0,3268,0.0,3268,0.0,3268,0.0
237,473,2149,2149,0.0,2149,0.0,2149,0.0,2149,0.0
238,474,5508,5508,0.0,5508,0.0,5508,0.0,5508,0.0
239,475,7925,7925,0.0,7925,0.0,7925,0.0,7925,0.0
240,478,4134,4134,0.0,4134,0.0,4134,0.0,4134,0.0
241,480,3983,3983,0.0,3983,0.0,3983,0.0,3983,0.0
242,482,2795,2795,0.0,2795,0.0,2795,0.0,2795,0.0
243,486,2577,2577,0.0,2577,0.0,2577,0.0,2577,0.0
244,490,4175,4175,0.0,4175,0.0,4175,0.0,4175,0.0
245,493,3290,3290,0.0,3290,0.0,3290,0.0,3290,0.0
246,494,2668,2668,0.0,2668,0.0,2668,0.0,2668,0.0
247,498,2257,2257,0.0,2257,0.0,2257,0.0,2257,0.0
248,499,11753,11753,0.0,11753,0.0,11753,0.0,11753,0.0
249,500,3968,3968,0.0,3968,0.0,3968,0.0,3968,0.0
250,502,3698,3698,0.0,3698,0.0,3698,0.0,3698,0.0
251,504,4767,4767,0.0,4767,0.0,4767,0.0,4767,0.0
252,505,2551,2551,0.0,2551,0.0,2551,0.0,2551,0.0
253,507,4266,4266,0.0,4266,0.0,4266,0.0,4266,0.0
254,508,3230,3230,0.0,3230,0.0,3230,0.0,3230,0.0
255,509,1283,1283,0.0,1283,0.0,1283,0.0,1283,0.0
256,515,5359,5359,0.0,5359,0.0,5359,0.0,5359,0.0
257,517,13334,13334,0.0,13334,0.0,13334,0.0,13334,0.0
258,519,2427,2427,0.0,2427,0.0,2427,0.0,2427,0.0
259,520,6265,6265,0.0,6265,0.0,6265,0.0,6265,0.0
260,525,5253,5253,0.0,5253,0.0,5253,0.0,5253,0.0
261,526,4279,4279,0.0,4279,0.0,4279,0.0,4279,0.0
262,527,1908,1908,0.0,1908,0.0,1908,0.0,1908,0.0
263,528,10314,10314,0.0,10314,0.0,10314,0.0,10314,0.0
264,529,3377,3377,0.0,3377,0.0,3377,0.0,3377,0.0
265,532,5488,5488,0.0,5488,0.0,5488,0.0,5488,0.0
266,534,5008,5008,0.0,5008,0.0,5008,0.0,5008,0.0
267,539,4264,4264,0.0,4264,0.0,4264,0.0,4264,0.0
268,540,5737,5737,0.0,5737,0.0,5737,0.0,5737,0.0
269,543,3963,3963,0.0,3963,0.0,3963,0.0,3963,0.0
270,544,3834,3834,0.0,3834,0.0,3834,0.0,3834,0.0
271,545,9414,9414,0.0,9414,0.0,9414,0.0,9414,0.0
272,546,17424,17424,0.0,17424,0.0,17424,0.0,17424,0.0
273,548,8180,8180,0.0,8180,0.0,8180,0.0,8180,0.0
274,549,4606,4606,0.0,4606,0.0,4606,0.0,4606,0.0
275,550,7626,7626,0.0,7626,0.0,7626,0.0,7626,0.0
276,551,7038,7038,0.0,7038,0.0,7038,0.0,7038,0.0
277,552,2147,2147,0.0,2147,0.0,2147,0.0,2147,0.0
278,554,5409,5409,0.0,5409,0.0,5409,0.0,5409,0.0
279,556,11160,11160,0.0,11160,0.0,11160,0.0,11160,0.0
280,558,12579,12579,0.0,12579,0.0,12579,0.0,12579,0.0
281,561,2729,2729,0.0,2729,0.0,2729,0.0,2729,0.0
282,562,7048,7048,0.0,7048,0.0,7048,0.0,7048,0.0
283,563,5097,5097,0.0,5097,0.0,5097,0.0,5097,0.0
284,564,3476,3476,0.0,3476,0.0,3476,0.0,3476,0.0
285,566,5610,5610,0.0,5610,0.0,5610,0.0,5610,0.0
286,569,21447,21447,0.0,21447,0.0,21447,0.0,21447,0.0
287,571,4225,4225,0.0,4225,0.0,4225,0.0,4225,0.0
288,572,9106,9106,0.0,9106,0.0,9106,0.0,9106,0.0
289,573,4348,4348,0.0,4348,0.0,4348,0.0,4348,0.0
290,579,1346,1346,0.0,1346,0.0,1346,0.0,1346,0.0
291,581,9509,9509,0.0,9509,0.0,9509,0.0,9509,0.0
292,583,5903,5903,0.0,5903,0.0,5903,0.0,5903,0.0
293,585,2626,2626,0.0,2626,0.0,2626,0.0,2626,0.0
294,588,24388,24388,0.0,24388,0.0,24388,0.0,24388,0.0
295,590,1140,1140,0.0,1140,0.0,1140,0.0,1140,0.0
296,591,3902,3902,0.0,3902,0.0,3902,0.0,3902,0.0
297,592,6420,6420,0.0,6420,0.0,6420,0.0,6420,0.0
298,602,2921,2921,0.0,2921,0.0,2921,0.0,2921,0.0
299,605,956,956,0.0,956,0.0,956,0.0,921,0.036610878661087864
300,607,1630,1630,0.0,1630,0.0,1630,0.0,1630,0.0
301,608,2363,2363,0.0,2363,0.0,2363,0.0,2363,0.0
302,610,2422,2422,0.0,2422,0.0,2422,0.0,2422,0.0
303,612,5591,5591,0.0,5591,0.0,5591,0.0,5591,0.0
304,615,2639,2639,0.0,2608,0.011746873815839333,2608,0.011746873815839333,2608,0.011746873815839333
305,616,2682,2682,0.0,2682,0.0,2682,0.0,2682,0.0
306,619,3490,3490,0.0,3490,0.0,3490,0.0,3490,0.0
307,620,4256,4256,0.0,4256,0.0,4256,0.0,4256,0.0
308,621,2564,2564,0.0,2564,0.0,2564,0.0,2564,0.0
309,622,2463,2463,0.0,2463,0.0,2463,0.0,2463,0.0
310,623,8615,8615,0.0,8615,0.0,8615,0.0,8615,0.0
311,625,4919,4919,0.0,4919,0.0,4919,0.0,4919,0.0
312,628,2768,2768,0.0,2768,0.0,2768,0.0,2768,0.0
313,630,3747,3747,0.0,3747,0.0,3747,0.0,3747,0.0
314,631,2577,2577,0.0,2577,0.0,2577,0.0,2577,0.0
315,632,3110,3110,0.0,3110,0.0,3110,0.0,3110,0.0
316,633,4906,4906,0.0,4906,0.0,4906,0.0,4906,0.0
317,635,2909,2909,0.0,2909,0.0,2909,0.0,2909,0.0
318,636,2446,2446,0.0,2446,0.0,2446,0.0,2446,0.0
319,637,1967,1967,0.0,1967,0.0,1967,0.0,1967,0.0
320,638,5944,5944,0.0,5944,0.0,5944,0.0,5944,0.0
321,641,3688,3688,0.0,3688,0.0,3688,0.0,3688,0.0
322,642,3710,3710,0.0,3710,0.0,3710,0.0,3710,0.0
323,643,10619,10619,0.0,10619,0.0,10619,0.0,10619,0.0
324,646,3428,3428,0.0,3428,0.0,3428,0.0,3428,0.0
325,647,550,550,0.0,550,0.0,550,0.0,550,0.0
326,649,4511,4511,0.0,4511,0.0,4511,0.0,4511,0.0
327,650,4773,4773,0.0,4773,0.0,4773,0.0,4773,0.0
328,652,4668,4668,0.0,4668,0.0,4668,0.0,4668,0.0
329,656,3436,3436,0.0,3436,0.0,3436,0.0,3436,0.0
330,658,10035,10035,0.0,10035,0.0,10035,0.0,10035,0.0
331,659,4439,4439,0.0,4439,0.0,4439,0.0,4439,0.0
332,661,3245,3245,0.0,3245,0.0,3245,0.0,3245,0.0
333,662,5961,5961,0.0,5961,0.0,5961,0.0,5961,0.0
334,666,2708,2708,0.0,2708,0.0,2708,0.0,2708,0.0
335,669,3671,3671,0.0,3671,0.0,3671,0.0,3671,0.0
336,670,1588,1588,0.0,1588,0.0,1588,0.0,1588,0.0
337,671,2903,2903,0.0,2903,0.0,2903,0.0,2903,0.0
338,673,11860,11860,0.0,11860,0.0,11860,0.0,11860,0.0
339,674,3670,3670,0.0,3670,0.0,3670,0.0,3670,0.0
340,675,4289,4289,0.0,4289,0.0,4289,0.0,4289,0.0
341,677,1632,1632,0.0,1632,0.0,1632,0.0,1632,0.0
342,678,2242,2242,0.0,2242,0.0,2242,0.0,2242,0.0
343,679,10173,10173,0.0,10173,0.0,10173,0.0,10173,0.0
344,681,4120,4120,0.0,4120,0.0,4120,0.0,4120,0.0
345,682,2700,2700,0.0,2700,0.0,2700,0.0,2700,0.0
346,685,3126,3126,0.0,3126,0.0,3126,0.0,3126,0.0
347,689,4957,4957,0.0,4957,0.0,4957,0.0,4957,0.0
348,694,2468,2468,0.0,2468,0.0,2468,0.0,2468,0.0
349,696,4179,4179,0.0,4179,0.0,4179,0.0,4179,0.0
350,697,84084,84084,0.0,84084,0.0,84084,0.0,84084,0.0
351,702,3359,3359,0.0,3359,0.0,3359,0.0,3359,0.0
352,703,9971,9971,0.0,9971,0.0,9971,0.0,9971,0.0
353,707,2035,2035,0.0,2035,0.0,2035,0.0,2035,0.0
354,711,75820,75820,0.0,75820,0.0,75820,0.0,75820,0.0
355,712,32824,32824,0.0,32824,0.0,32824,0.0,32824,0.0
356,713,800,800,0.0,800,0.0,800,0.0,800,0.0
357,715,3327,3327,0.0,3327,0.0,3327,0.0,3327,0.0
358,716,49329,49329,0.0,49329,0.0,49329,0.0,49329,0.0
359,717,5015,5015,0.0,5015,0.0,5015,0.0,5015,0.0
360,719,5819,5819,0.0,5819,0.0,5819,0.0,5819,0.0
361,720,2587,2587,0.0,2587,0.0,2587,0.0,2587,0.0
362,721,3990,3990,0.0,3990,0.0,3990,0.0,3990,0.0
363,723,5175,5175,0.0,5175,0.0,5175,0.0,5175,0.0
364,724,4740,4740,0.0,4740,0.0,4740,0.0,4740,0.0
365,726,3131,3131,0.0,3131,0.0,3131,0.0,3131,0.0
366,727,2582,2582,0.0,2582,0.0,2582,0.0,2582,0.0
367,729,2283,2283,0.0,2283,0.0,2283,0.0,2283,0.0
368,730,5614,5614,0.0,5614,0.0,5614,0.0,5614,0.0
369,737,4354,4354,0.0,4354,0.0,4354,0.0,4354,0.0
370,739,7412,7412,0.0,7412,0.0,7412,0.0,7412,0.0
371,741,17690,17690,0.0,17690,0.0,17690,0.0,17690,0.0
372,742,3754,3754,0.0,3754,0.0,3754,0.0,3754,0.0
373,743,2703,2703,0.0,2703,0.0,2703,0.0,2703,0.0
374,744,5826,5826,0.0,5826,0.0,5826,0.0,5826,0.0
375,745,4813,4813,0.0,4813,0.0,4813,0.0,4813,0.0
376,746,5764,5764,0.0,5764,0.0,5764,0.0,5764,0.0
377,747,2407,2407,0.0,2407,0.0,2407,0.0,2407,0.0
378,749,1914,1914,0.0,1914,0.0,1914,0.0,1914,0.0
379,752,4054,4054,0.0,4054,0.0,4054,0.0,4054,0.0
380,754,3733,3733,0.0,3733,0.0,3733,0.0,3733,0.0
381,758,2354,2354,0.0,2354,0.0,2354,0.0,2354,0.0
382,762,2975,2975,0.0,2975,0.0,2975,0.0,2975,0.0
383,766,4086,4086,0.0,4086,0.0,4086,0.0,4086,0.0
384,769,2419,2419,0.0,2419,0.0,2419,0.0,2419,0.0
385,773,3172,3172,0.0,3172,0.0,3172,0.0,3172,0.0
386,776,3923,3923,0.0,3923,0.0,3923,0.0,3923,0.0
387,777,4776,4776,0.0,4776,0.0,4776,0.0,4776,0.0
388,778,3057,3057,0.0,3057,0.0,3057,0.0,3057,0.0
389,779,7089,7089,0.0,7089,0.0,7089,0.0,7089,0.0
390,786,4334,4334,0.0,4334,0.0,4334,0.0,4334,0.0
391,787,1417,1417,0.0,1417,0.0,1417,0.0,1417,0.0
392,788,3859,3859,0.0,3859,0.0,3859,0.0,3859,0.0
393,790,2174,2174,0.0,2174,0.0,2174,0.0,2174,0.0
394,797,2714,2714,0.0,2714,0.0,2714,0.0,2714,0.0
395,798,6802,6802,0.0,6802,0.0,6802,0.0,6802,0.0
396,801,2683,2683,0.0,2683,0.0,2683,0.0,2683,0.0
397,803,4395,4395,0.0,4395,0.0,4395,0.0,4395,0.0
398,804,3199,3199,0.0,3199,0.0,3199,0.0,3199,0.0
399,805,52047,52047,0.0,52047,0.0,52047,0.0,52047,0.0
400,808,3168,3168,0.0,3168,0.0,3168,0.0,3168,0.0
401,810,2942,2942,0.0,2942,0.0,2942,0.0,2942,0.0
402,812,2041,2041,0.0,2041,0.0,2041,0.0,2041,0.0
403,813,2536,2536,0.0,2536,0.0,2536,0.0,2536,0.0
404,818,5005,5005,0.0,5005,0.0,5005,0.0,5005,0.0
405,819,1895,1895,0.0,1895,0.0,1895,0.0,1895,0.0
406,827,4104,4104,0.0,4104,0.0,4104,0.0,4104,0.0
407,831,2472,2472,0.0,2472,0.0,2472,0.0,2472,0.0
408,832,4624,4624,0.0,4624,0.0,4624,0.0,4624,0.0
409,833,1621,1621,0.0,1621,0.0,1621,0.0,1621,0.0
410,834,2340,2340,0.0,2340,0.0,2340,0.0,2340,0.0
411,836,6107,6107,0.0,6107,0.0,6107,0.0,6107,0.0
412,837,3171,3171,0.0,3171,0.0,3171,0.0,3171,0.0
413,838,926,926,0.0,926,0.0,926,0.0,926,0.0
414,839,4726,4726,0.0,4726,0.0,4726,0.0,4726,0.0
415,840,750,750,0.0,750,0.0,750,0.0,750,0.0
416,841,2740,2740,0.0,2740,0.0,2740,0.0,2740,0.0
417,842,6940,6940,0.0,6940,0.0,6940,0.0,6940,0.0
418,843,2082,2082,0.0,2082,0.0,2082,0.0,2082,0.0
419,845,7377,7377,0.0,7377,0.0,7377,0.0,7377,0.0
420,846,5651,5651,0.0,5651,0.0,5651,0.0,5651,0.0
421,849,5884,5884,0.0,5884,0.0,5884,0.0,5884,0.0
422,850,4401,4401,0.0,4401,0.0,4401,0.0,4401,0.0
423,851,4554,4554,0.0,4554,0.0,4554,0.0,4554,0.0
424,852,1451,1451,0.0,1451,0.0,1451,0.0,1451,0.0
425,853,3003,3003,0.0,3003,0.0,3003,0.0,3003,0.0
426,854,4543,4543,0.0,4543,0.0,4543,0.0,4543,0.0
427,855,7537,7537,0.0,7537,0.0,7537,0.0,7537,0.0
428,856,3644,3644,0.0,3644,0.0,3644,0.0,3644,0.0
429,857,2374,2374,0.0,2374,0.0,2374,0.0,2374,0.0
430,858,4460,4460,0.0,4460,0.0,4460,0.0,4460,0.0
431,862,3307,3307,0.0,3307,0.0,3307,0.0,3307,0.0
432,863,2097,2097,0.0,2097,0.0,2097,0.0,2097,0.0
433,865,5120,5120,0.0,5120,0.0,5120,0.0,5120,0.0
434,866,5921,5921,0.0,5921,0.0,5921,0.0,5921,0.0
435,868,2578,2578,0.0,2578,0.0,2578,0.0,2578,0.0
436,870,2495,2495,0.0,2495,0.0,2495,0.0,2495,0.0
437,871,1426,1426,0.0,1426,0.0,1426,0.0,1426,0.0
438,872,8837,8837,0.0,8837,0.0,8837,0.0,8837,0.0
439,878,4177,4177,0.0,4177,0.0,4177,0.0,4177,0.0
440,879,4369,4369,0.0,4369,0.0,4369,0.0,4369,0.0
441,880,4629,4629,0.0,4629,0.0,4629,0.0,4629,0.0
442,881,2704,2704,0.0,2704,0.0,2704,0.0,2704,0.0
443,882,2510,2510,0.0,2510,0.0,2510,0.0,2510,0.0
444,887,2372,2372,0.0,2372,0.0,2372,0.0,2372,0.0
445,889,4653,4653,0.0,4653,0.0,4653,0.0,4653,0.0
446,892,1406,1406,0.0,1406,0.0,1406,0.0,1406,0.0
447,893,3982,3982,0.0,3935,0.011803114013058764,3935,0.011803114013058764,3935,0.011803114013058764
448,895,3348,3348,0.0,3348,0.0,3348,0.0,3348,0.0
449,898,4725,4725,0.0,4725,0.0,4725,0.0,4725,0.0
450,900,6199,6199,0.0,6199,0.0,6199,0.0,6199,0.0
451,902,3106,3106,0.0,3106,0.0,3106,0.0,3106,0.0
452,904,5284,5284,0.0,5284,0.0,5284,0.0,5284,0.0
453,906,6570,6570,0.0,6570,0.0,6570,0.0,6570,0.0
454,907,1476,1476,0.0,1476,0.0,1476,0.0,1476,0.0
455,908,2510,2510,0.0,2510,0.0,2510,0.0,2510,0.0
456,911,2271,2271,0.0,2271,0.0,2271,0.0,2271,0.0
457,912,2436,2436,0.0,2436,0.0,2436,0.0,2351,0.03489326765188834
458,915,2767,2767,0.0,2767,0.0,2767,0.0,2767,0.0
459,916,4821,4821,0.0,4821,0.0,4821,0.0,4821,0.0
460,917,10782,10782,0.0,10782,0.0,10782,0.0,10782,0.0
461,918,6586,6586,0.0,6586,0.0,6586,0.0,6586,0.0
462,919,6515,6515,0.0,6515,0.0,6515,0.0,6515,0.0
463,920,5660,5660,0.0,5660,0.0,5660,0.0,5660,0.0
464,922,4302,4302,0.0,4302,0.0,4302,0.0,4302,0.0
465,923,4730,4730,0.0,4730,0.0,4730,0.0,4730,0.0
466,924,4270,4270,0.0,4270,0.0,4270,0.0,4270,0.0
467,925,5310,5310,0.0,5310,0.0,5310,0.0,5310,0.0
468,926,4799,4799,0.0,4799,0.0,4799,0.0,4799,0.0
469,927,4896,4896,0.0,4896,0.0,4896,0.0,4896,0.0
470,929,4469,4469,0.0,4469,0.0,4469,0.0,4469,0.0
471,935,3142,3142,0.0,3142,0.0,3142,0.0,3142,0.0
472,937,1692,1692,0.0,1692,0.0,1692,0.0,1692,0.0
473,938,2736,2736,0.0,2736,0.0,2736,0.0,2736,0.0
474,940,4509,4509,0.0,4509,0.0,4509,0.0,4509,0.0
475,946,7712,7712,0.0,7712,0.0,7712,0.0,7712,0.0
476,948,3567,3567,0.0,3567,0.0,3567,0.0,3567,0.0
477,950,5029,5029,0.0,5029,0.0,5029,0.0,5029,0.0
478,952,2097,2097,0.0,2097,0.0,2097,0.0,2097,0.0
479,956,2149,2149,0.0,2149,0.0,2149,0.0,2149,0.0
480,957,6280,6280,0.0,6280,0.0,6280,0.0,6280,0.0
481,958,5081,5081,0.0,5081,0.0,5081,0.0,5081,0.0
482,959,3845,3845,0.0,3845,0.0,3845,0.0,3845,0.0
483,960,5549,5549,0.0,5549,0.0,5549,0.0,5549,0.0
484,961,6909,6909,0.0,6909,0.0,6909,0.0,6909,0.0
485,966,2877,2877,0.0,2877,0.0,2877,0.0,2877,0.0
486,969,4925,4925,0.0,4925,0.0,4925,0.0,4925,0.0
487,970,5781,5781,0.0,5781,0.0,5781,0.0,5781,0.0
488,974,2372,2372,0.0,2372,0.0,2372,0.0,2372,0.0
489,975,1080,1080,0.0,1080,0.0,1080,0.0,1080,0.0
490,976,2027,2027,0.0,2027,0.0,2027,0.0,2027,0.0
491,979,2117,2117,0.0,2117,0.0,2117,0.0,2117,0.0
492,984,6220,6220,0.0,6220,0.0,6220,0.0,6220,0.0
493,985,3531,3531,0.0,3531,0.0,3531,0.0,3531,0.0
494,989,2880,2880,0.0,2880,0.0,2880,0.0,2880,0.0
495,994,2053,2053,0.0,2053,0.0,2053,0.0,2053,0.0
496,995,4192,4192,0.0,4192,0.0,4192,0.0,4192,0.0
497,997,9197,9197,0.0,9197,0.0,9197,0.0,9197,0.0
498,998,1721,1721,0.0,1721,0.0,1721,0.0,1721,0.0
499,1000,7610,7610,0.0,7610,0.0,7610,0.0,7610,0.0
500,1001,2225,2225,0.0,2225,0.0,2225,0.0,2225,0.0
501,1003,5916,5916,0.0,5916,0.0,5916,0.0,5916,0.0
502,1008,5119,5119,0.0,5119,0.0,5119,0.0,5119,0.0
503,1009,8792,8792,0.0,8792,0.0,8792,0.0,8792,0.0
504,1011,4304,4304,0.0,4304,0.0,4304,0.0,4304,0.0
505,1012,4680,4680,0.0,4680,0.0,4680,0.0,4680,0.0
506,1013,4669,4669,0.0,4669,0.0,4669,0.0,4669,0.0
507,1018,3719,3719,0.0,3719,0.0,3719,0.0,3719,0.0
508,1019,7767,7767,0.0,7767,0.0,7767,0.0,7767,0.0
509,1021,24514,24514,0.0,24514,0.0,24514,0.0,24514,0.0
510,1022,2081,2081,0.0,2081,0.0,2081,0.0,2081,0.0
511,1023,3751,3751,0.0,3751,0.0,3751,0.0,3751,0.0
512,1025,6073,6073,0.0,6073,0.0,6073,0.0,6073,0.0
513,1026,3184,3184,0.0,3184,0.0,3184,0.0,3184,0.0
514,1028,9576,9576,0.0,9576,0.0,9576,0.0,9576,0.0
515,1029,6703,6703,0.0,6703,0.0,6703,0.0,6703,0.0
516,1030,1995,1995,0.0,1995,0.0,1995,0.0,1995,0.0
517,1034,2029,2029,0.0,2029,0.0,2029,0.0,2029,0.0
518,1036,7812,7812,0.0,7812,0.0,7812,0.0,7812,0.0
519,1038,3329,3329,0.0,3329,0.0,3329,0.0,3329,0.0
520,1040,5348,5348,0.0,5348,0.0,5348,0.0,5348,0.0
521,1042,8882,8882,0.0,8882,0.0,8882,0.0,8882,0.0
522,1044,3377,3377,0.0,3377,0.0,3377,0.0,3377,0.0
523,1048,3605,3605,0.0,3605,0.0,3605,0.0,3605,0.0
524,1050,3178,3178,0.0,3178,0.0,3178,0.0,3178,0.0
525,1051,3717,3717,0.0,3717,0.0,3717,0.0,3717,0.0
526,1052,1813,1813,0.0,1813,0.0,1813,0.0,1813,0.0
527,1054,7021,7021,0.0,7021,0.0,7021,0.0,7021,0.0
528,1055,4201,4201,0.0,4201,0.0,4201,0.0,4201,0.0
529,1056,5151,5151,0.0,5151,0.0,5151,0.0,5151,0.0
530,1058,2986,2986,0.0,2986,0.0,2986,0.0,2986,0.0
531,1061,4039,4039,0.0,4039,0.0,4039,0.0,4039,0.0
532,1068,3704,3704,0.0,3704,0.0,3704,0.0,3704,0.0
533,1070,2915,2915,0.0,2915,0.0,2915,0.0,2915,0.0
534,1071,3964,3964,0.0,3964,0.0,3964,0.0,3964,0.0
535,1072,5223,5223,0.0,5223,0.0,5223,0.0,5223,0.0
536,1073,31037,31037,0.0,31037,0.0,31037,0.0,31037,0.0
537,1076,27295,27295,0.0,27295,0.0,27295,0.0,27295,0.0
538,1080,10622,10622,0.0,10622,0.0,10622,0.0,10622,0.0
539,1081,6249,6249,0.0,6249,0.0,6249,0.0,6249,0.0
540,1082,1899,1899,0.0,1899,0.0,1899,0.0,1899,0.0
541,1086,2920,2920,0.0,2920,0.0,2920,0.0,2920,0.0
542,1087,1555,1555,0.0,1555,0.0,1555,0.0,1555,0.0
543,1089,3582,3582,0.0,3582,0.0,3582,0.0,3582,0.0
544,1092,3175,3175,0.0,3175,0.0,3175,0.0,3175,0.0
545,1093,4713,4713,0.0,4713,0.0,4713,0.0,4713,0.0
546,1096,5475,5475,0.0,5475,0.0,5475,0.0,5475,0.0
547,1100,3935,3935,0.0,3935,0.0,3935,0.0,3935,0.0
548,1101,3429,3429,0.0,3429,0.0,3429,0.0,3429,0.0
549,1104,11576,11576,0.0,11576,0.0,11576,0.0,11576,0.0
550,1105,3486,3486,0.0,3486,0.0,3486,0.0,3486,0.0
551,1106,42570,42570,0.0,42570,0.0,42570,0.0,42570,0.0
552,1107,8385,8385,0.0,8385,0.0,8385,0.0,8385,0.0
553,1109,2438,2438,0.0,2438,0.0,2438,0.0,2438,0.0
554,1110,5023,5023,0.0,5023,0.0,5023,0.0,5023,0.0
555,1112,6477,6477,0.0,6477,0.0,6477,0.0,6477,0.0
556,1119,3717,3717,0.0,3717,0.0,3717,0.0,3717,0.0
557,1124,2437,2437,0.0,2437,0.0,2437,0.0,2437,0.0
558,1125,3820,3820,0.0,3820,0.0,3820,0.0,3820,0.0
559,1126,4569,4569,0.0,4569,0.0,4569,0.0,4569,0.0
560,1128,884,884,0.0,884,0.0,884,0.0,884,0.0
561,1129,4603,4603,0.0,4603,0.0,4603,0.0,4603,0.0
562,1132,3539,3539,0.0,3539,0.0,3539,0.0,3539,0.0
563,1137,3235,3235,0.0,3235,0.0,3235,0.0,3235,0.0
564,1138,4281,4281,0.0,4281,0.0,4281,0.0,4281,0.0
565,1141,3693,3693,0.0,3693,0.0,3693,0.0,3693,0.0
566,1145,5322,5322,0.0,5322,0.0,5322,0.0,5322,0.0
567,1147,4926,4926,0.0,4926,0.0,4926,0.0,4926,0.0
568,1148,5615,5615,0.0,5615,0.0,5615,0.0,5615,0.0
569,1156,2657,2657,0.0,2657,0.0,2657,0.0,2657,0.0
570,1157,5135,5135,0.0,5135,0.0,5135,0.0,5135,0.0
571,1158,2971,2971,0.0,2971,0.0,2971,0.0,2971,0.0
572,1159,14560,14560,0.0,14560,0.0,14560,0.0,14560,0.0
573,1160,4326,4326,0.0,4326,0.0,4326,0.0,4326,0.0
574,1162,4303,4303,0.0,4303,0.0,4303,0.0,4303,0.0
575,1163,2232,2232,0.0,2232,0.0,2232,0.0,2232,0.0
576,1164,2429,2429,0.0,2429,0.0,2429,0.0,2429,0.0
577,1165,3438,3438,0.0,3438,0.0,3438,0.0,3438,0.0
578,1168,4051,4051,0.0,4051,0.0,4051,0.0,4051,0.0
579,1171,2142,2142,0.0,2142,0.0,2101,0.019140989729225025,2101,0.019140989729225025
580,1173,3024,3024,0.0,3024,0.0,3024,0.0,3024,0.0
581,1174,3318,3318,0.0,3318,0.0,3318,0.0,3318,0.0
582,1176,1440,1440,0.0,1440,0.0,1440,0.0,1440,0.0
583,1181,2088,2088,0.0,2088,0.0,2088,0.0,2088,0.0
584,1183,2744,2744,0.0,2744,0.0,2744,0.0,2744,0.0
585,1184,6118,6118,0.0,6118,0.0,6118,0.0,6118,0.0
586,1185,3901,3901,0.0,3901,0.0,3901,0.0,3901,0.0
587,1186,5020,5020,0.0,5020,0.0,5020,0.0,5020,0.0
588,1188,4815,4815,0.0,4815,0.0,4815,0.0,4815,0.0
589,1189,2675,2675,0.0,2675,0.0,2675,0.0,2675,0.0
590,1191,4307,4307,0.0,4307,0.0,4307,0.0,4307,0.0
591,1193,4933,4933,0.0,4933,0.0,4933,0.0,4933,0.0
592,1194,3982,3982,0.0,3982,0.0,3982,0.0,3835,0.03691612255148167
593,1195,3930,3930,0.0,3930,0.0,3930,0.0,3930,0.0
594,1196,5320,5320,0.0,5320,0.0,5320,0.0,5320,0.0
595,1201,4956,4956,0.0,4956,0.0,4956,0.0,4956,0.0
596,1202,8427,8427,0.0,8427,0.0,8427,0.0,8427,0.0
597,1203,2933,2933,0.0,2933,0.0,2933,0.0,2933,0.0
598,1204,2271,2271,0.0,2271,0.0,2271,0.0,2150,0.05328049317481286
599,1205,3785,3785,0.0,3785,0.0,3785,0.0,3785,0.0
600,1206,1588,1588,0.0,1588,0.0,1588,0.0,1588,0.0
601,1208,6153,6153,0.0,6153,0.0,6153,0.0,6153,0.0
602,1209,4711,4711,0.0,4711,0.0,4711,0.0,4711,0.0
603,1212,1395,1395,0.0,1395,0.0,1395,0.0,1395,0.0
604,1216,2123,2123,0.0,2123,0.0,2123,0.0,2123,0.0
605,1217,3899,3899,0.0,3899,0.0,3899,0.0,3899,0.0
606,1218,5167,5167,0.0,5167,0.0,5167,0.0,5167,0.0
607,1219,6255,6255,0.0,6255,0.0,6255,0.0,6255,0.0
608,1222,3670,3670,0.0,3670,0.0,3670,0.0,3670,0.0
609,1225,3696,3696,0.0,3696,0.0,3696,0.0,3696,0.0
610,1227,4909,4909,0.0,4909,0.0,4909,0.0,4909,0.0
611,1228,4299,4299,0.0,4299,0.0,4299,0.0,4299,0.0
612,1229,3397,3397,0.0,3397,0.0,3397,0.0,3397,0.0
613,1230,4613,4613,0.0,4613,0.0,4613,0.0,4613,0.0
614,1231,5601,5601,0.0,5601,0.0,5601,0.0,5601,0.0
615,1232,3392,3392,0.0,3392,0.0,3392,0.0,3392,0.0
616,1236,5017,5017,0.0,5017,0.0,5017,0.0,5017,0.0
617,1238,4846,4846,0.0,4846,0.0,4846,0.0,4846,0.0
618,1239,5439,5439,0.0,5439,0.0,5439,0.0,5439,0.0
619,1240,6219,6219,0.0,6219,0.0,6219,0.0,6219,0.0
620,1245,4033,4033,0.0,4033,0.0,4033,0.0,4033,0.0
621,1246,6047,6047,0.0,6047,0.0,6047,0.0,6047,0.0
622,1247,3110,3110,0.0,3110,0.0,3110,0.0,3110,0.0
623,1248,3804,3804,0.0,3804,0.0,3804,0.0,3804,0.0
624,1252,2626,2626,0.0,2626,0.0,2626,0.0,2626,0.0
625,1255,4276,4276,0.0,4276,0.0,4276,0.0,4276,0.0
626,1257,4410,4410,0.0,4410,0.0,4410,0.0,4410,0.0
627,1258,2660,2660,0.0,2660,0.0,2660,0.0,2660,0.0
628,1259,3545,3545,0.0,3545,0.0,3545,0.0,3545,0.0
629,1261,4138,4138,0.0,4138,0.0,4138,0.0,4138,0.0
630,1266,3763,3763,0.0,3763,0.0,3763,0.0,3763,0.0
631,1272,4420,4420,0.0,4420,0.0,4420,0.0,4420,0.0
632,1278,5095,5095,0.0,5095,0.0,5095,0.0,5095,0.0
633,1284,1817,1817,0.0,1817,0.0,1817,0.0,1817,0.0
634,1285,1960,1960,0.0,1960,0.0,1960,0.0,1960,0.0
635,1291,3734,3734,0.0,3734,0.0,3734,0.0,3734,0.0
636,1292,17569,17569,0.0,17569,0.0,17569,0.0,17569,0.0
637,1293,2431,2431,0.0,2431,0.0,2431,0.0,2397,0.013986013986013986
638,1294,8542,8542,0.0,8542,0.0,8542,0.0,8542,0.0
639,1295,4861,4861,0.0,4861,0.0,4861,0.0,4861,0.0
640,1298,8352,8352,0.0,8352,0.0,8352,0.0,8352,0.0
641,1299,16852,16852,0.0,16852,0.0,16852,0.0,16852,0.0
642,1304,4082,4082,0.0,4082,0.0,4082,0.0,4082,0.0
643,1305,4796,4796,0.0,4796,0.0,4796,0.0,4796,0.0
644,1307,4183,4183,0.0,4183,0.0,4183,0.0,4183,0.0
645,1308,1893,1893,0.0,1893,0.0,1893,0.0,1893,0.0
646,1312,2040,2040,0.0,2040,0.0,2040,0.0,2040,0.0
647,1313,18030,18030,0.0,18030,0.0,18030,0.0,18030,0.0
648,1314,270389,270389,0.0,270389,0.0,270389,0.0,270389,0.0
649,1317,8861,8861,0.0,8861,0.0,8861,0.0,8861,0.0
650,1320,4451,4451,0.0,4451,0.0,4451,0.0,4451,0.0
651,1321,6275,6275,0.0,6275,0.0,6275,0.0,6275,0.0
652,1324,7006,7006,0.0,7006,0.0,7006,0.0,7006,0.0
653,1325,3309,3309,0.0,3309,0.0,3309,0.0,3309,0.0
654,1327,2475,2475,0.0,2475,0.0,2475,0.0,2475,0.0
655,1328,3235,3235,0.0,3235,0.0,3235,0.0,3235,0.0
656,1332,3146,3146,0.0,3146,0.0,3146,0.0,3146,0.0
657,1334,2197,2197,0.0,2197,0.0,2197,0.0,2197,0.0
658,1335,5983,5983,0.0,5983,0.0,5983,0.0,5983,0.0
659,1337,8025,8025,0.0,8025,0.0,8025,0.0,8025,0.0
660,1338,4503,4503,0.0,4503,0.0,4503,0.0,4503,0.0
661,1339,3009,3009,0.0,3009,0.0,3009,0.0,3009,0.0
662,1341,2957,2957,0.0,2957,0.0,2957,0.0,2957,0.0
663,1342,4202,4202,0.0,4202,0.0,4202,0.0,4202,0.0
664,1344,4181,4181,0.0,4181,0.0,4181,0.0,4181,0.0
665,1347,6459,6459,0.0,6459,0.0,6459,0.0,6459,0.0
666,1348,4989,4989,0.0,4989,0.0,4989,0.0,4989,0.0
667,1350,3083,3083,0.0,3083,0.0,3083,0.0,3083,0.0
668,1354,8085,8085,0.0,8085,0.0,8085,0.0,8085,0.0
669,1357,2144,2144,0.0,2144,0.0,2144,0.0,2144,0.0
670,1358,2434,2434,0.0,2434,0.0,2434,0.0,2434,0.0
671,1361,3918,3918,0.0,3918,0.0,3918,0.0,3918,0.0
672,1363,943,943,0.0,943,0.0,943,0.0,943,0.0
673,1364,2740,2740,0.0,2740,0.0,2740,0.0,2740,0.0
674,1367,4097,4097,0.0,4097,0.0,4097,0.0,4072,0.0061020258725897
675,1368,8764,8764,0.0,8764,0.0,8764,0.0,8764,0.0
676,1369,5640,5640,0.0,5640,0.0,5640,0.0,5640,0.0
677,1370,1939,1939,0.0,1939,0.0,1939,0.0,1939,0.0
678,1371,1002,1002,0.0,1002,0.0,1002,0.0,1002,0.0
679,1372,2946,2946,0.0,2946,0.0,2946,0.0,2946,0.0
680,1375,6350,6350,0.0,6350,0.0,6350,0.0,6350,0.0
681,1377,1665,1665,0.0,1665,0.0,1665,0.0,1665,0.0
682,1380,2545,2545,0.0,2545,0.0,2545,0.0,2545,0.0
683,1383,2880,2880,0.0,2880,0.0,2880,0.0,2880,0.0
684,1384,2572,2572,0.0,2572,0.0,2572,0.0,2572,0.0
685,1385,3476,3476,0.0,3476,0.0,3476,0.0,3476,0.0
686,1386,3920,3920,0.0,3920,0.0,3920,0.0,3920,0.0
687,1388,2011,2011,0.0,2011,0.0,2011,0.0,2011,0.0
688,1390,5049,5049,0.0,5049,0.0,5049,0.0,5049,0.0
689,1391,4785,4785,0.0,4785,0.0,4785,0.0,4785,0.0
690,1393,5230,5230,0.0,5230,0.0,5230,0.0,5230,0.0
691,1394,6074,6074,0.0,6074,0.0,6074,0.0,6074,0.0
692,1396,646,646,0.0,646,0.0,646,0.0,646,0.0
693,1397,3344,3344,0.0,3344,0.0,3344,0.0,3344,0.0
694,1400,9085,9085,0.0,9085,0.0,9085,0.0,9085,0.0
695,1402,4753,4753,0.0,4753,0.0,4753,0.0,4753,0.0
696,1404,3890,3890,0.0,3890,0.0,3890,0.0,3890,0.0
697,1405,2046,2046,0.0,2046,0.0,2046,0.0,2046,0.0
698,1409,3166,3166,0.0,3166,0.0,3166,0.0,3166,0.0
699,1412,13840,13840,0.0,13840,0.0,13840,0.0,13840,0.0
700,1414,3982,3982,0.0,3982,0.0,3982,0.0,3982,0.0
701,1416,4230,4230,0.0,4230,0.0,4230,0.0,4230,0.0
702,1417,2929,2929,0.0,2929,0.0,2929,0.0,2929,0.0
703,1423,3373,3373,0.0,3373,0.0,3373,0.0,3373,0.0
704,1425,1870,1870,0.0,1870,0.0,1870,0.0,1870,0.0
705,1426,3031,3031,0.0,3031,0.0,3031,0.0,3031,0.0
706,1429,4608,4608,0.0,4608,0.0,4608,0.0,4608,0.0
707,1432,6515,6515,0.0,6515,0.0,6515,0.0,6515,0.0
708,1439,1336,1336,0.0,1336,0.0,1336,0.0,1336,0.0
709,1440,1005,1005,0.0,1005,0.0,1005,0.0,1005,0.0
710,1443,3475,3475,0.0,3475,0.0,3475,0.0,3475,0.0
711,1444,3498,3498,0.0,3498,0.0,3498,0.0,3498,0.0
712,1445,19847,19847,0.0,19847,0.0,19847,0.0,19847,0.0
713,1450,3482,3482,0.0,3482,0.0,3482,0.0,3482,0.0
714,1451,1625,1625,0.0,1625,0.0,1625,0.0,1625,0.0
715,1454,3300,3300,0.0,3300,0.0,3300,0.0,3300,0.0
716,1455,2207,2207,0.0,2207,0.0,2207,0.0,2207,0.0
717,1457,2955,2955,0.0,2955,0.0,2955,0.0,2955,0.0
718,1459,5153,5153,0.0,5153,0.0,5153,0.0,5153,0.0
719,1462,27227,27227,0.0,27227,0.0,27227,0.0,27227,0.0
720,1464,3544,3544,0.0,3544,0.0,3544,0.0,3544,0.0
721,1465,1232,1232,0.0,1232,0.0,1232,0.0,1232,0.0
722,1469,5367,5367,0.0,5367,0.0,5367,0.0,5367,0.0
723,1476,7201,7201,0.0,7201,0.0,7201,0.0,7201,0.0
724,1477,3458,3458,0.0,3458,0.0,3458,0.0,3458,0.0
725,1478,5268,5268,0.0,5268,0.0,5268,0.0,5268,0.0
726,1480,3197,3197,0.0,3197,0.0,3197,0.0,3197,0.0
727,1482,2779,2779,0.0,2779,0.0,2779,0.0,2779,0.0
728,1483,5831,5831,0.0,5831,0.0,5831,0.0,5831,0.0
729,1484,3399,3399,0.0,3399,0.0,3399,0.0,3399,0.0
730,1486,11355,11355,0.0,11355,0.0,11355,0.0,11355,0.0
731,1487,4299,4299,0.0,4299,0.0,4299,0.0,4299,0.0
732,1488,4277,4277,0.0,4277,0.0,4277,0.0,4277,0.0
733,1490,2757,2757,0.0,2757,0.0,2757,0.0,2757,0.0
734,1491,7713,7713,0.0,7713,0.0,7713,0.0,7713,0.0
735,1493,4095,4095,0.0,4095,0.0,4095,0.0,4095,0.0
736,1495,5530,5530,0.0,5530,0.0,5530,0.0,5530,0.0
737,1498,5724,5724,0.0,5724,0.0,5724,0.0,5724,0.0
738,1502,3673,3673,0.0,3673,0.0,3673,0.0,3673,0.0
739,1503,4236,4236,0.0,4236,0.0,4236,0.0,4236,0.0
740,1505,3683,3683,0.0,3683,0.0,3683,0.0,3683,0.0
741,1506,7729,7729,0.0,7729,0.0,7729,0.0,7729,0.0
742,1510,2964,2964,0.0,2964,0.0,2964,0.0,2964,0.0
743,1511,1821,1821,0.0,1821,0.0,1821,0.0,1821,0.0
744,1512,4041,4041,0.0,4041,0.0,4041,0.0,4041,0.0
745,1516,11480,11480,0.0,11480,0.0,11480,0.0,11480,0.0
746,1517,2073,2073,0.0,2073,0.0,2073,0.0,2073,0.0
747,1521,8258,8258,0.0,8258,0.0,8258,0.0,8258,0.0
748,1524,5639,5639,0.0,5639,0.0,5639,0.0,5639,0.0
749,1525,2601,2601,0.0,2601,0.0,2601,0.0,2601,0.0
750,1529,4640,4640,0.0,4640,0.0,4640,0.0,4640,0.0
751,1531,5788,5788,0.0,5788,0.0,5788,0.0,5788,0.0
752,1532,6938,6938,0.0,6938,0.0,6938,0.0,6938,0.0
753,1533,2241,2241,0.0,2241,0.0,2241,0.0,2241,0.0
754,1534,1910,1910,0.0,1910,0.0,1910,0.0,1910,0.0
755,1535,7525,7525,0.0,7525,0.0,7525,0.0,7525,0.0
756,1537,6826,6826,0.0,6826,0.0,6826,0.0,6826,0.0
757,1539,5548,5548,0.0,5548,0.0,5548,0.0,5548,0.0
758,1541,8751,8751,0.0,8751,0.0,8751,0.0,8751,0.0
759,1549,5337,5337,0.0,5337,0.0,5337,0.0,5337,0.0
760,1550,5737,5737,0.0,5737,0.0,5737,0.0,5737,0.0
761,1551,5713,5713,0.0,5713,0.0,5713,0.0,5713,0.0
762,1553,6416,6416,0.0,6416,0.0,6416,0.0,6416,0.0
763,1554,3597,3597,0.0,3597,0.0,3597,0.0,3597,0.0
764,1555,2707,2707,0.0,2707,0.0,2707,0.0,2707,0.0
765,1557,4045,4045,0.0,4045,0.0,4045,0.0,4045,0.0
766,1566,4419,4419,0.0,4419,0.0,4419,0.0,4419,0.0
767,1568,2626,2626,0.0,2626,0.0,2626,0.0,2626,0.0
768,1569,3668,3668,0.0,3668,0.0,3668,0.0,3668,0.0
769,1574,5050,5050,0.0,5050,0.0,5050,0.0,5050,0.0
770,1576,2198,2198,0.0,2198,0.0,2198,0.0,2198,0.0
771,1577,2666,2666,0.0,2666,0.0,2666,0.0,2666,0.0
772,1578,5247,5247,0.0,5247,0.0,5247,0.0,5247,0.0
773,1579,3986,3986,0.0,3986,0.0,3986,0.0,3986,0.0
774,1580,6271,6271,0.0,6271,0.0,6271,0.0,6271,0.0
775,1586,2300,2300,0.0,2300,0.0,2300,0.0,2300,0.0
776,1587,3934,3934,0.0,3934,0.0,3934,0.0,3934,0.0
777,1589,4213,4213,0.0,4213,0.0,4213,0.0,4213,0.0
778,1591,2666,2666,0.0,2666,0.0,2666,0.0,2666,0.0
779,1594,4205,4205,0.0,4205,0.0,4205,0.0,4205,0.0
780,1595,5034,5034,0.0,5034,0.0,5034,0.0,5034,0.0
781,1596,3270,3270,0.0,3270,0.0,3270,0.0,3270,0.0
782,1598,2916,2916,0.0,2916,0.0,2916,0.0,2916,0.0
783,1601,2628,2628,0.0,2628,0.0,2628,0.0,2628,0.0
784,1603,4922,4922,0.0,4922,0.0,4922,0.0,4922,0.0
785,1606,2006,2006,0.0,2006,0.0,2006,0.0,2006,0.0
786,1608,3494,3494,0.0,3494,0.0,3494,0.0,3494,0.0
787,1610,7470,7470,0.0,7470,0.0,7470,0.0,7470,0.0
788,1614,2751,2751,0.0,2751,0.0,2751,0.0,2751,0.0
789,1625,3669,3669,0.0,3669,0.0,3669,0.0,3669,0.0
790,1626,2713,2713,0.0,2713,0.0,2713,0.0,2713,0.0
791,1627,5618,5618,0.0,5618,0.0,5618,0.0,5618,0.0
792,1628,3474,3474,0.0,3474,0.0,3474,0.0,3474,0.0
793,1630,1915,1915,0.0,1915,0.0,1915,0.0,1915,0.0
794,1632,2680,2680,0.0,2680,0.0,2680,0.0,2680,0.0
795,1633,6623,6623,0.0,6623,0.0,6623,0.0,6623,0.0
796,1634,3874,3874,0.0,3874,0.0,3874,0.0,3874,0.0
797,1636,5692,5692,0.0,5692,0.0,5692,0.0,5692,0.0
798,1638,3535,3535,0.0,3535,0.0,3535,0.0,3535,0.0
799,1643,3055,3055,0.0,3055,0.0,3055,0.0,3055,0.0
800,1644,2870,2870,0.0,2870,0.0,2870,0.0,2870,0.0
801,1646,3001,3001,0.0,3001,0.0,3001,0.0,3001,0.0
802,1647,1526,1526,0.0,1526,0.0,1526,0.0,1526,0.0
803,1648,174002,174002,0.0,174002,0.0,174002,0.0,174002,0.0
804,1649,3669,3669,0.0,3669,0.0,3669,0.0,3669,0.0
805,1650,3578,3578,0.0,3578,0.0,3578,0.0,3578,0.0
806,1653,3792,3792,0.0,3792,0.0,3792,0.0,3792,0.0
807,1654,2063,2063,0.0,2063,0.0,2063,0.0,2063,0.0
808,1657,2751,2751,0.0,2751,0.0,2751,0.0,2751,0.0
809,1658,3113,3113,0.0,3113,0.0,3113,0.0,3113,0.0
810,1663,5816,5816,0.0,5816,0.0,5816,0.0,5816,0.0
811,1665,3339,3339,0.0,3339,0.0,3339,0.0,3186,0.04582210242587601
812,1667,2696,2696,0.0,2696,0.0,2696,0.0,2696,0.0
813,1671,26004,26004,0.0,26004,0.0,26004,0.0,26004,0.0
814,1681,7342,7342,0.0,7342,0.0,7342,0.0,7342,0.0
815,1682,2585,2585,0.0,2585,0.0,2585,0.0,2585,0.0
816,1683,5844,5844,0.0,5844,0.0,5844,0.0,5844,0.0
817,1685,5863,5863,0.0,5863,0.0,5863,0.0,5863,0.0
818,1689,2531,2531,0.0,2531,0.0,2531,0.0,2531,0.0
819,1691,2457,2457,0.0,2457,0.0,2457,0.0,2457,0.0
820,1694,3817,3817,0.0,3817,0.0,3817,0.0,3817,0.0
821,1695,3245,3245,0.0,3245,0.0,3245,0.0,3245,0.0
822,1700,3804,3804,0.0,3804,0.0,3804,0.0,3804,0.0
823,1702,5111,5111,0.0,5111,0.0,5111,0.0,5111,0.0
824,1703,4187,4187,0.0,4187,0.0,4187,0.0,4187,0.0
825,1707,5730,5730,0.0,5730,0.0,5730,0.0,5730,0.0
826,1708,3669,3669,0.0,3669,0.0,3669,0.0,3669,0.0
827,1709,3544,3544,0.0,3544,0.0,3544,0.0,3544,0.0
828,1710,7236,7236,0.0,7236,0.0,7236,0.0,7236,0.0
829,1711,4662,4662,0.0,4662,0.0,4662,0.0,4662,0.0
830,1712,4670,4670,0.0,4670,0.0,4670,0.0,4670,0.0
831,1714,3913,3913,0.0,3913,0.0,3913,0.0,3913,0.0
832,1717,8473,8473,0.0,8473,0.0,8473,0.0,8473,0.0
833,1720,1682,1682,0.0,1682,0.0,1682,0.0,1682,0.0
834,1721,2968,2968,0.0,2968,0.0,2912,0.018867924528301886,2912,0.018867924528301886
835,1727,3651,3651,0.0,3651,0.0,3651,0.0,3651,0.0
836,1730,4047,4047,0.0,4047,0.0,4047,0.0,4047,0.0
837,1731,2669,2669,0.0,2669,0.0,2669,0.0,2669,0.0
838,1732,4848,4848,0.0,4848,0.0,4848,0.0,4848,0.0
839,1734,16575,16575,0.0,16575,0.0,16575,0.0,16575,0.0
840,1738,3508,3508,0.0,3508,0.0,3508,0.0,3508,0.0
841,1739,8037,8037,0.0,8037,0.0,8037,0.0,8037,0.0
842,1742,2324,2324,0.0,2324,0.0,2324,0.0,2324,0.0
843,1743,4643,4643,0.0,4643,0.0,4643,0.0,4643,0.0
844,1748,5931,5931,0.0,5931,0.0,5931,0.0,5931,0.0
845,1750,2192,2192,0.0,2192,0.0,2192,0.0,2192,0.0
846,1752,3755,3755,0.0,3755,0.0,3755,0.0,3755,0.0
847,1756,3950,3950,0.0,3950,0.0,3950,0.0,3950,0.0
848,1760,3118,3118,0.0,3118,0.0,3118,0.0,3118,0.0
849,1766,3282,3282,0.0,3282,0.0,3249,0.010054844606946984,3249,0.010054844606946984
850,1767,5280,5280,0.0,5280,0.0,5280,0.0,5280,0.0
851,1772,3458,3458,0.0,3458,0.0,3458,0.0,3458,0.0
852,1773,4109,4108,0.0002433682161109759,4109,0.0,4109,0.0,4109,0.0
853,1776,3461,3461,0.0,3461,0.0,3461,0.0,3461,0.0
854,1777,8296,8296,0.0,8296,0.0,8296,0.0,8296,0.0
855,1781,1722,1722,0.0,1722,0.0,1722,0.0,1722,0.0
856,1783,2393,2393,0.0,2393,0.0,2393,0.0,2393,0.0
857,1785,5982,5982,0.0,5982,0.0,5982,0.0,5982,0.0
858,1790,5588,5588,0.0,5588,0.0,5588,0.0,5588,0.0
859,1792,3133,3133,0.0,3133,0.0,3133,0.0,3133,0.0
860,1795,7928,7928,0.0,7928,0.0,7928,0.0,7928,0.0
861,1796,1683,1683,0.0,1683,0.0,1683,0.0,1683,0.0
862,1802,2747,2747,0.0,2747,0.0,2747,0.0,2747,0.0
863,1807,4908,4908,0.0,4908,0.0,4908,0.0,4908,0.0
864,1810,3672,3672,0.0,3672,0.0,3672,0.0,3672,0.0
865,1812,7023,7023,0.0,7023,0.0,7023,0.0,7023,0.0
866,1813,9660,9660,0.0,9660,0.0,9660,0.0,9660,0.0
867,1815,23006,23006,0.0,23006,0.0,23006,0.0,23006,0.0
868,1817,1377,1377,0.0,1356,0.015250544662309368,1356,0.015250544662309368,1356,0.015250544662309368
869,1819,2348,2348,0.0,2348,0.0,2348,0.0,2348,0.0
870,1820,2275,2275,0.0,2275,0.0,2275,0.0,2275,0.0
871,1823,4592,4592,0.0,4592,0.0,4592,0.0,4592,0.0
872,1825,11116,11116,0.0,11116,0.0,11116,0.0,11116,0.0
873,1826,3960,3960,0.0,3960,0.0,3960,0.0,3960,0.0
874,1827,2395,2395,0.0,2395,0.0,2395,0.0,2395,0.0
875,1829,2358,2358,0.0,2358,0.0,2358,0.0,2221,0.05810008481764207
876,1830,4795,4795,0.0,4795,0.0,4795,0.0,4795,0.0
877,1831,5609,5609,0.0,5609,0.0,5609,0.0,5609,0.0
878,1832,2086,2086,0.0,2086,0.0,2086,0.0,2086,0.0
879,1833,12451,12451,0.0,12451,0.0,12451,0.0,12451,0.0
880,1834,6045,6045,0.0,6045,0.0,6045,0.0,6045,0.0
881,1835,3644,3644,0.0,3644,0.0,3644,0.0,3644,0.0
882,1837,4974,4974,0.0,4974,0.0,4974,0.0,4974,0.0
883,1840,3452,3452,0.0,3452,0.0,3452,0.0,3452,0.0
884,1843,13325,13325,0.0,13325,0.0,13325,0.0,13325,0.0
885,1844,9918,9918,0.0,9918,0.0,9918,0.0,9918,0.0
886,1845,4995,4995,0.0,4995,0.0,4995,0.0,4995,0.0
887,1846,3988,3988,0.0,3988,0.0,3988,0.0,3988,0.0
888,1850,2611,2611,0.0,2611,0.0,2611,0.0,2611,0.0
889,1851,1040,1040,0.0,1040,0.0,1040,0.0,1040,0.0
890,1852,1919,1919,0.0,1919,0.0,1919,0.0,1919,0.0
891,1854,4016,4016,0.0,4016,0.0,4016,0.0,4016,0.0
892,1857,3411,3411,0.0,3411,0.0,3411,0.0,3411,0.0
893,1862,4969,4969,0.0,4969,0.0,4969,0.0,4969,0.0
894,1864,4864,4864,0.0,4864,0.0,4864,0.0,4864,0.0
895,1865,4310,4310,0.0,4310,0.0,4310,0.0,4310,0.0
896,1866,3300,3300,0.0,3300,0.0,3300,0.0,3300,0.0
897,1867,5170,5170,0.0,5170,0.0,5170,0.0,5170,0.0
898,1868,3398,3398,0.0,3398,0.0,3398,0.0,3398,0.0
899,1869,1572,1572,0.0,1572,0.0,1572,0.0,1572,0.0
900,1870,5002,5002,0.0,5002,0.0,5002,0.0,5002,0.0
901,1871,2646,2646,0.0,2646,0.0,2646,0.0,2646,0.0
902,1873,4457,4457,0.0,4457,0.0,4457,0.0,4457,0.0
903,1877,36518,36518,0.0,36518,0.0,36518,0.0,36518,0.0
904,1883,3031,3031,0.0,3031,0.0,3031,0.0,3031,0.0
905,1884,8259,8259,0.0,8259,0.0,8259,0.0,8259,0.0
906,1885,4001,4001,0.0,4001,0.0,4001,0.0,4001,0.0
907,1887,1617,1617,0.0,1617,0.0,1617,0.0,1617,0.0
908,1889,2962,2962,0.0,2962,0.0,2962,0.0,2962,0.0
909,1891,4684,4684,0.0,4684,0.0,4684,0.0,4684,0.0
910,1893,5825,5825,0.0,5825,0.0,5825,0.0,5825,0.0
911,1897,1747,1747,0.0,1747,0.0,1703,0.025186033199771037,1703,0.025186033199771037
912,1899,3527,3527,0.0,3527,0.0,3527,0.0,3527,0.0
913,1904,4164,4164,0.0,4164,0.0,4164,0.0,4164,0.0
914,1905,3002,3002,0.0,3002,0.0,3002,0.0,3002,0.0
915,1909,6142,6142,0.0,6142,0.0,6142,0.0,6142,0.0
916,1910,4333,4333,0.0,4333,0.0,4333,0.0,4333,0.0
917,1911,4203,4203,0.0,4203,0.0,4203,0.0,4203,0.0
918,1912,3841,3841,0.0,3841,0.0,3841,0.0,3841,0.0
919,1913,2837,2837,0.0,2837,0.0,2837,0.0,2837,0.0
920,1916,4390,4390,0.0,4390,0.0,4390,0.0,4390,0.0
921,1917,3813,3813,0.0,3813,0.0,3813,0.0,3813,0.0
922,1922,3520,3520,0.0,3520,0.0,3520,0.0,3520,0.0
923,1923,6548,6548,0.0,6548,0.0,6548,0.0,6548,0.0
924,1925,3304,3304,0.0,3304,0.0,3304,0.0,3304,0.0
925,1926,2381,2381,0.0,2381,0.0,2381,0.0,2236,0.06089878202435951
926,1927,1194,1194,0.0,1194,0.0,1194,0.0,1194,0.0
927,1929,1966,1966,0.0,1966,0.0,1966,0.0,1966,0.0
928,1930,2308,2308,0.0,2308,0.0,2308,0.0,2308,0.0
929,1932,1124,1124,0.0,1124,0.0,1124,0.0,1124,0.0
930,1933,27127,27127,0.0,27127,0.0,27127,0.0,27127,0.0
931,1935,4512,4512,0.0,4512,0.0,4512,0.0,4512,0.0
932,1936,4162,4162,0.0,4162,0.0,4162,0.0,4162,0.0
933,1938,3874,3874,0.0,3874,0.0,3874,0.0,3874,0.0
934,1940,2068,2068,0.0,2068,0.0,2068,0.0,2068,0.0
935,1941,6617,6617,0.0,6617,0.0,6617,0.0,6617,0.0
936,1944,2496,2496,0.0,2477,0.007612179487179487,2496,0.0,2496,0.0
937,1945,242379,242379,0.0,242379,0.0,242379,0.0,242379,0.0
938,1946,4032,4032,0.0,4032,0.0,4032,0.0,4032,0.0
939,1952,2623,2623,0.0,2623,0.0,2623,0.0,2623,0.0
940,1956,2846,2846,0.0,2846,0.0,2846,0.0,2846,0.0
941,1960,3311,3311,0.0,3311,0.0,3263,0.014497130776200544,3263,0.014497130776200544
942,1969,4882,4882,0.0,4882,0.0,4882,0.0,4882,0.0
943,1971,4428,4428,0.0,4428,0.0,4428,0.0,4428,0.0
944,1974,51216,51216,0.0,51216,0.0,51216,0.0,51216,0.0
945,1979,1598,1598,0.0,1598,0.0,1598,0.0,1598,0.0
946,1980,11720,11720,0.0,11720,0.0,11720,0.0,11720,0.0
947,1981,8514,8514,0.0,8514,0.0,8514,0.0,8514,0.0
948,1983,2383,2383,0.0,2383,0.0,2383,0.0,2383,0.0
949,1985,4881,4881,0.0,4881,0.0,4881,0.0,4881,0.0
950,1992,2571,2571,0.0,2571,0.0,2571,0.0,2571,0.0
951,1995,2335,2335,0.0,2335,0.0,2335,0.0,2335,0.0
952,1996,4128,4128,0.0,4128,0.0,4128,0.0,4128,0.0
953,2000,5567,5567,0.0,5567,0.0,5567,0.0,5567,0.0
