,ID,status,opt price,max price,visited
0,1,1,1129,1129,3
1,2,1,2966,2966,9
2,3,1,0,0,1
3,4,1,70,70,2
4,5,1,2758,2758,8
5,6,1,1641,1641,2
6,7,1,4607,4607,15
7,8,1,4422,4422,4
8,9,1,3451,3451,12
9,10,1,744,744,2
10,11,1,4774,4774,10
11,12,1,1538,1538,4
12,13,1,5798,5798,12
13,14,1,3972,3972,9
14,15,1,4117,4117,10
15,16,1,2698,2698,8
16,17,1,0,0,1
17,18,1,2453,2453,4
18,19,1,3999,3999,10
19,20,1,4919,4919,13
20,21,1,2098,2098,2
21,22,1,1382,1382,2
22,23,1,4485,4485,15
23,24,1,3611,3611,10
24,25,1,3102,3102,12
25,26,1,2551,2551,6
26,27,1,3076,3076,8
27,28,1,1649,1649,2
28,29,1,2937,2937,8
29,30,1,5798,5798,14
30,31,1,4506,4506,15
31,32,1,5893,5893,15
32,33,1,2277,2277,3
33,34,1,2689,2689,6
34,35,1,2356,2356,3
35,36,1,1209,1209,4
36,37,1,0,0,1
37,38,1,3414,3414,7
38,39,1,4899,4899,12
39,40,1,2310,2310,8
40,41,1,2024,2024,2
41,42,1,2625,2625,5
42,43,1,3331,3331,4
43,44,1,3271,3271,15
44,45,1,4966,4966,12
45,46,1,1792,1792,4
46,47,1,4753,4753,11
47,48,1,3966,3966,5
48,49,1,0,0,1
49,50,1,2717,2717,4
50,51,1,0,0,1
51,52,1,3895,3895,12
52,53,1,4212,4212,6
53,54,1,523,523,4
54,55,1,4588,4588,14
55,56,1,2986,2986,9
56,57,1,3438,3438,10
57,58,1,2090,2090,2
58,59,1,4343,4343,11
59,60,1,4469,4469,8
60,61,1,0,0,1
61,62,1,2537,2537,9
62,63,1,1235,1235,4
63,64,1,4289,4289,14
64,65,1,6226,6226,13
65,66,1,4371,4371,6
66,67,1,3162,3162,9
67,68,1,4275,4275,14
68,69,1,0,0,1
69,70,1,5282,5282,14
70,71,1,2301,2301,4
71,72,1,2861,2861,12
72,73,1,2542,2542,7
73,74,1,0,0,1
74,75,1,2904,2904,10
75,76,1,3721,3721,6
76,77,1,5098,5098,14
77,78,1,3681,3681,12
78,79,1,5150,5150,10
79,80,1,1548,1548,3
80,81,1,3244,3244,9
81,82,1,5633,5633,15
82,83,1,0,0,1
83,84,1,1872,1872,2
84,85,1,6606,6606,12
85,86,1,2533,2533,4
86,87,1,2283,2283,4
87,88,1,161,161,2
88,89,1,927,927,5
89,90,1,4527,4527,12
90,91,1,3363,3363,14
91,92,1,3770,3770,13
92,93,1,1160,1160,2
93,94,1,1910,1910,9
94,95,1,5212,5212,15
95,96,1,2751,2751,13
96,97,1,3901,3901,4
97,98,1,1487,1487,5
98,99,1,4088,4088,8
99,100,1,1936,1936,2
100,101,1,5818,5818,14
101,102,1,3402,3402,7
102,103,1,1289,1289,2
103,104,1,2691,2691,8
104,105,1,2173,2173,5
105,106,1,3248,3248,8
106,107,1,3340,3340,6
107,108,1,3497,3497,8
108,109,1,5201,5201,8
109,110,1,1867,1867,2
110,111,1,5518,5518,12
111,112,1,2413,2413,3
112,113,1,3499,3499,8
113,114,1,3567,3567,14
114,115,1,5403,5403,13
115,116,1,3213,3213,5
116,117,1,2445,2445,5
117,118,1,0,0,1
118,119,1,2993,2993,4
119,120,1,3018,3018,6
120,121,1,4255,4255,15
121,122,1,4162,4162,8
122,123,1,5875,5875,12
123,124,1,2120,2120,2
124,125,1,3619,3619,11
125,126,1,0,0,1
126,127,1,4413,4413,7
127,128,1,2364,2364,2
128,129,1,3248,3248,6
129,130,1,5691,5691,15
130,131,1,2980,2980,6
131,132,1,4369,4369,13
132,133,1,1063,1063,6
133,134,1,3557,3557,8
134,135,1,4346,4346,15
135,136,1,1822,1822,8
136,137,1,2302,2302,12
137,138,1,2006,2006,5
138,139,1,1055,1055,2
139,140,1,5086,5086,14
140,141,1,1535,1535,12
141,142,1,6234,6234,13
142,143,1,2455,2455,14
143,144,1,0,0,1
144,145,1,0,0,1
145,146,1,4255,4255,8
146,147,1,4518,4518,12
147,148,1,3482,3482,8
148,149,1,2446,2446,3
149,150,1,3000,3000,13
150,151,1,3714,3714,15
151,152,1,2483,2483,3
152,153,1,475,475,5
153,154,1,3621,3621,8
154,155,1,1777,1777,4
155,156,1,4059,4059,14
156,157,1,3232,3232,8
157,158,1,4047,4047,12
158,159,1,2444,2444,5
159,160,1,2201,2201,9
160,161,1,1118,1118,2
161,162,1,0,0,1
162,163,1,3883,3883,12
163,164,1,4042,4042,8
164,165,1,1609,1609,4
165,166,1,1314,1314,2
166,167,1,3352,3352,6
167,168,1,4900,4900,13
168,169,1,6731,6731,14
169,170,1,2489,2489,6
170,171,1,2439,2439,3
171,172,1,3785,3785,10
172,173,1,4835,4835,12
173,174,1,103,103,2
174,175,1,4005,4005,10
175,176,1,2094,2094,6
176,177,1,0,0,1
177,178,1,3683,3683,8
178,179,1,3624,3624,9
179,180,1,4842,4842,12
180,181,1,3693,3693,14
181,182,1,3798,3798,8
182,183,1,0,0,1
183,184,1,4391,4391,15
184,185,1,3600,3600,15
185,186,1,3084,3084,5
186,187,1,4249,4249,8
187,188,1,636,636,3
188,189,1,2577,2577,15
189,190,1,5838,5838,15
190,191,1,3129,3129,11
191,192,1,4846,4846,7
192,193,1,4084,4084,12
193,194,1,1181,1181,2
194,195,1,3584,3584,12
195,196,1,1991,1991,5
196,197,1,6201,6201,13
197,198,1,2525,2525,10
198,199,1,3098,3098,5
199,200,1,2965,2965,9
200,201,1,0,0,1
201,202,1,2493,2493,2
202,203,1,4392,4392,11
203,204,1,0,0,1
204,205,1,2209,2209,4
205,206,1,2230,2230,10
206,207,1,0,0,1
207,208,1,1992,1992,5
208,209,1,2582,2582,10
209,210,1,924,924,2
210,211,1,3726,3726,10
211,212,1,0,0,1
212,213,1,2063,2063,5
213,214,1,3013,3013,8
214,215,1,0,0,1
215,216,1,0,0,1
216,217,1,1742,1742,3
217,218,1,1664,1664,2
218,219,1,2403,2403,3
219,220,1,2193,2193,8
220,221,1,1648,1648,4
221,222,1,2260,2260,4
222,223,1,4656,4656,14
223,224,1,1185,1185,2
224,225,1,3714,3714,8
225,226,1,1360,1360,2
226,227,1,365,365,2
227,228,1,4730,4730,14
228,229,1,184,184,2
229,230,1,6260,6260,8
230,231,1,4385,4385,14
231,232,1,5391,5391,14
232,233,1,5007,5007,12
233,234,1,5574,5574,15
234,235,1,3265,3265,14
235,236,1,2013,2013,2
236,237,1,1598,1598,2
237,238,1,5384,5384,12
238,239,1,3796,3796,6
239,240,1,1410,1410,2
240,241,1,4660,4660,14
241,242,1,5359,5359,15
242,243,1,1462,1462,6
243,244,1,2500,2500,2
244,245,1,3195,3195,5
245,246,1,3293,3293,6
246,247,1,5771,5771,8
247,248,1,3079,3079,9
248,249,1,3429,3429,6
249,250,1,4183,4183,8
250,251,1,0,0,1
251,252,1,3458,3458,12
252,253,1,2362,2362,4
253,254,1,1545,1545,2
254,255,1,0,0,1
255,256,1,1617,1617,14
256,257,1,2857,2857,14
257,258,1,3779,3779,8
258,259,1,3231,3231,8
259,260,1,3824,3824,6
260,261,1,4733,4733,13
261,262,1,5503,5503,12
262,263,1,1874,1874,10
263,264,1,4072,4072,10
264,265,1,3958,3958,8
265,266,1,1140,1140,5
266,267,1,2722,2722,8
267,268,1,2627,2627,11
268,269,1,5977,5977,15
269,270,1,1924,1924,8
270,271,1,5039,5039,15
271,272,1,3962,3962,4
272,273,1,2307,2307,4
273,274,1,2521,2521,10
274,275,1,3216,3216,9
275,276,1,4054,4054,5
276,277,1,4788,4788,13
277,278,1,631,631,3
278,279,1,4297,4297,12
279,280,1,3661,3661,11
280,281,1,875,875,3
281,282,1,2326,2326,3
282,283,1,4845,4845,7
283,284,1,0,0,1
284,285,1,3425,3425,13
285,286,1,6263,6263,13
286,287,1,1167,1167,5
287,288,1,3583,3583,8
288,289,1,5250,5250,14
289,290,1,2664,2664,7
290,291,1,1379,1379,2
291,292,1,5836,5836,15
292,293,1,4091,4091,10
293,294,1,4659,4659,15
294,295,1,3682,3682,8
295,296,1,1745,1745,10
296,297,1,3973,3973,8
297,298,1,3620,3620,13
298,299,1,2370,2370,6
299,300,1,0,0,1
300,301,1,3488,3488,14
301,302,1,2038,2038,3
302,303,1,1691,1691,3
303,304,1,5361,5361,12
304,305,1,4215,4215,11
305,306,1,2494,2494,2
306,307,1,2488,2488,5
307,308,1,3091,3091,7
308,309,1,4642,4642,13
309,310,1,4132,4132,4
310,311,1,3391,3391,8
311,312,1,3346,3346,8
312,313,1,2268,2268,4
313,314,1,3137,3137,14
314,315,1,6542,6542,12
315,316,1,1101,1101,2
316,317,1,4756,4756,13
317,318,1,2247,2247,2
318,319,1,1712,1712,4
319,320,1,2863,2863,11
320,321,1,3700,3700,6
321,322,1,0,0,1
322,323,1,4628,4628,15
323,324,1,6067,6067,15
324,325,1,4279,4279,8
325,326,1,2679,2679,13
326,327,1,3176,3176,4
327,328,1,3162,3162,8
328,329,1,2265,2265,4
329,330,1,5239,5239,12
330,331,1,2411,2411,5
331,332,1,6225,6225,12
332,333,1,4050,4050,8
333,334,1,701,701,4
334,335,1,3649,3649,11
335,336,1,2896,2896,10
336,337,1,2488,2488,4
337,338,1,2961,2961,15
338,339,1,6125,6125,11
339,340,1,1570,1570,5
340,341,1,2331,2331,10
341,342,1,2637,2637,7
342,343,1,2560,2560,14
343,344,1,3083,3083,11
344,345,1,4388,4388,7
345,346,1,4346,4346,10
346,347,1,4628,4628,15
347,348,1,0,0,1
348,349,1,3575,3575,15
349,350,1,2564,2564,4
350,351,1,4668,4668,13
351,352,1,5103,5103,9
352,353,1,2215,2215,13
353,354,1,3130,3130,4
354,355,1,1442,1442,8
355,356,1,4826,4826,12
356,357,1,3366,3366,9
357,358,1,2311,2311,7
358,359,1,2207,2207,10
359,360,1,3260,3260,5
360,361,1,2384,2384,4
361,362,1,0,0,1
362,363,1,348,348,2
363,364,1,2164,2164,5
364,365,1,5608,5608,12
365,366,1,3533,3533,11
366,367,1,3362,3362,11
367,368,1,3610,3610,5
368,369,1,3383,3383,12
369,370,1,1499,1499,2
370,371,1,3491,3491,10
371,372,1,6871,6871,15
372,373,1,2637,2637,8
373,374,1,3842,3842,14
374,375,1,0,0,1
375,376,1,4059,4059,14
376,377,1,2463,2463,3
377,378,1,1622,1622,12
378,379,1,804,804,4
379,380,1,3824,3824,8
380,381,1,0,0,1
381,382,1,6366,6366,14
382,383,1,2024,2024,3
383,384,1,2882,2882,4
384,385,1,3214,3214,14
385,386,1,4021,4021,8
386,387,1,2385,2385,3
387,388,1,2628,2628,9
388,389,1,5235,5235,13
389,390,1,4102,4102,15
390,391,1,3640,3640,11
391,392,1,3100,3100,15
392,393,1,4230,4230,11
393,394,1,4939,4939,12
394,395,1,0,0,1
395,396,1,396,396,2
396,397,1,4642,4642,10
397,398,1,3071,3071,8
398,399,1,3785,3785,8
399,400,1,2984,2984,9
400,401,1,1839,1839,3
401,402,1,3686,3686,12
402,403,1,2376,2376,7
403,404,1,3811,3811,11
404,405,1,1980,1980,5
405,406,1,1800,1800,3
406,407,1,1360,1360,3
407,408,1,2298,2298,4
408,409,1,2400,2400,3
409,410,1,1800,1800,15
410,411,1,5135,5135,15
411,412,1,4896,4896,15
412,413,1,3688,3688,4
413,414,1,3829,3829,14
414,415,1,0,0,1
415,416,1,4611,4611,6
416,417,1,2549,2549,8
417,418,1,1425,1425,2
418,419,1,5241,5241,12
419,420,1,6565,6565,15
420,421,1,3951,3951,12
421,422,1,5362,5362,15
422,423,1,5562,5562,15
423,424,1,2606,2606,10
424,425,1,5897,5897,12
425,426,1,2381,2381,2
426,427,1,1797,1797,7
427,428,1,0,0,1
428,429,1,2724,2724,10
429,430,1,2693,2693,14
430,431,1,3457,3457,14
431,432,1,3641,3641,8
432,433,1,3591,3591,10
433,434,1,1470,1470,6
434,435,1,2614,2614,12
435,436,1,4497,4497,14
436,437,1,3951,3951,15
437,438,1,4155,4155,9
438,439,1,0,0,1
439,440,1,4421,4421,14
440,441,1,5646,5646,14
441,442,1,3814,3814,10
442,443,1,4419,4419,12
443,444,1,5022,5022,14
444,445,1,2779,2779,11
445,446,1,2772,2772,7
446,447,1,2383,2383,5
447,448,1,4574,4574,15
448,449,1,3854,3854,8
449,450,1,2845,2845,4
450,451,1,4109,4109,8
451,452,1,2798,2798,8
452,453,1,3459,3459,11
453,454,1,5566,5566,15
454,455,1,3520,3520,11
455,456,1,4276,4276,15
456,457,1,4532,4532,15
457,458,1,1921,1921,9
458,459,1,2300,2300,3
459,460,1,5758,5758,12
460,461,1,4672,4672,10
461,462,1,2718,2718,12
462,463,1,2476,2476,4
463,464,1,4205,4205,11
464,465,1,2140,2140,10
465,466,1,418,418,2
466,467,1,3991,3991,11
467,468,1,3923,3923,15
468,469,1,4071,4071,13
469,470,1,2258,2258,4
470,471,1,802,802,4
471,472,1,2792,2792,12
472,473,1,420,420,2
473,474,1,4228,4228,10
474,475,1,6555,6555,15
475,476,1,237,237,2
476,477,1,0,0,1
477,478,1,3694,3694,8
478,479,1,3988,3988,6
479,480,1,3262,3262,12
480,481,1,5488,5488,14
481,482,1,215,215,2
482,483,1,3410,3410,15
483,484,1,168,168,2
484,485,1,2122,2122,2
485,486,1,2035,2035,2
486,487,1,1652,1652,6
487,488,1,4939,4939,15
488,489,1,0,0,1
489,490,1,2933,2933,6
490,491,1,4254,4254,11
491,492,1,5318,5318,9
492,493,1,2422,2422,14
493,494,1,2178,2178,8
494,495,1,2843,2843,9
495,496,1,3106,3106,8
496,497,1,4426,4426,12
497,498,1,2145,2145,2
498,499,1,2036,2036,2
499,500,1,3687,3687,14
