,Unnamed: 0,Unnamed: 0.1,4,10,15,20
0,0,0,0.001073945499911133,0.004484559500042451,1.4278175550000467,9.920840307000049
1,1,1,0.0005620750000616682,0.023918463999962114,1.3461124359999983,1.4055418259999897
2,2,2,0.0002838620000602532,0.008302969500164181,1.3854662500000359,0.39781963999996606
3,3,3,0.0004181484998753149,0.01651002599999174,1.1052198714999122,16.46115961050009
4,4,4,0.00016179199997168325,0.033819152999967635,1.4061998454999411,29.069354428999986
5,5,5,0.0007100254999841128,0.024650711500044054,0.5881135469999208,45.891822920499976
6,6,6,0.0006009589999393937,0.020443841999963297,0.2719489204999945,21.889352500499967
7,7,7,0.0005550035000396747,0.02570110600004228,0.6960120144999564,3.245359798499976
8,8,8,0.0003029479998986062,0.02805200449995482,1.3064356009999756,14.179455902499967
9,9,9,0.0003953489999730664,0.031040644999961838,0.4277700630000254,28.441934123999886
10,10,10,0.0006840994999492978,0.0371584495001116,0.9527719129998786,44.411969212500026
11,11,11,0.0006365650000361711,0.013121545999979393,0.49468539749989293,15.643040782000071
12,12,12,0.0002299935000564801,0.03705174000003808,0.4270024714998044,21.920708561000083
13,13,13,0.0005402795001145931,0.017831513000032828,1.4404050065001002,10.46463822450005
14,14,14,0.0004175519999307653,0.04036565999990671,0.01678293599991321,22.087297792000072
15,15,15,0.00036722700008340325,0.005520530000012514,1.410452712999927,44.07346582499986
16,16,16,0.0007036619999780669,0.01739361250008642,1.2756930634999435,38.2046186954999
17,17,17,0.00033343450002121244,0.04026301950000288,0.007962538000015229,54.48876065850004
18,18,18,0.00040283649991579296,0.0010559104999856572,0.03800155449994237,11.333237256000075
19,19,19,0.00015745649989185043,0.03345521750009084,0.4321075775000054,38.6534213020002
