best,eps,optimal,status
2593,0.0,2593,1
5226,0.0,5226,1
16056,0.0,16056,1
3829,0.0,3829,1
3283,0.0,3283,1
8423,0.0,8423,1
5157,0.0,5157,1
9108,0.05616580310880829,9650,0
6575,0.036912260143547676,6827,0
2731,0.0,2731,1
7490,0.0,7490,1
3129,0.0,3129,1
2730,0.0,2730,1
2404,0.0,2404,1
5498,0.0,5498,1
4887,0.0,4887,1
14154,0.0,14154,1
7395,0.0,7395,1
2932,0.0,2932,1
6845,0.0,6845,1
9048,0.0,9048,1
3703,0.0,3703,1
5842,0.0,5842,1
6213,0.0,6213,1
9511,0.0,9511,1
8308,0.0,8308,1
2175,0.0,2175,1
4476,0.0,4476,1
6180,0.0,6180,1
7294,0.0,7294,1
2421,0.0,2421,1
4023,0.0,4023,1
9018,0.0,9018,1
2981,0.0,2981,1
5842,0.0,5842,1
7599,0.0,7599,1
1895,0.0,1895,1
