4,10,15,20
4.1557333133823704e-05,0.0001730090001122638,8.39020000663974e-05,0.00015039099980640458
3.6249333485708725e-05,0.00014680333363988515,7.839600008689256e-05,0.00011612333370673393
3.929066648803806e-05,0.00012565166677328912,0.0001116740001331588,9.907233349319237e-05
4.5245000061792474e-05,0.0001291243333980674,0.0001254953334258365,9.973233348622064e-05
3.7809000180762574e-05,0.00010066666618513409,0.0001310606667175307,9.315966660021029e-05
4.142166653764434e-05,0.00011083833366380229,0.00017822400028914367,9.39063332528652e-05
4.1586000103658684e-05,7.973399988259189e-05,0.00012539199966947004,0.00011659999987993312
4.126133323249329e-05,7.960433291979523e-05,0.00010592099988571135,0.00014939833363314392
3.9386000025842804e-05,8.221100021425325e-05,7.992799964995356e-05,9.747999987060514e-05
4.1025332999803744e-05,7.977100024921431e-05,7.952033350496397e-05,0.00010183133326790994
4.105733326772073e-05,7.924900000944035e-05,8.825433330154435e-05,0.00012285766661079833
4.2752666862118836e-05,8.87039999118618e-05,8.394866654271027e-05,0.00010804166716601078
4.188533330307109e-05,8.484433328703744e-05,9.598199994798051e-05,0.00010619066658061153
4.0984000406751875e-05,0.00010200899972308737,0.00012382033340448592,0.0001087823332757883
4.108333359909011e-05,0.00013777666663372656,8.915400000356992e-05,0.00011110233360038062
6.972866655511704e-05,6.934999995185838e-05,7.08043332148615e-05,0.00010275833301420789
3.9233333457862805e-05,6.26573331222365e-05,0.00011703133319921714,0.00015095800002503287
3.8147333119316805e-05,0.00010697333345888183,7.061199994495837e-05,0.0001474659999682141
3.906166663606806e-05,5.279133347357856e-05,8.446200020747104e-05,0.00014606699975653706
3.8893333415520224e-05,5.262366630631732e-05,8.589899971411796e-05,0.00016045199966659615
3.58280003638356e-05,5.491400012639739e-05,8.108333349809982e-05,0.0001479399998061126
3.5767333126083635e-05,5.4429333431471605e-05,0.00015643466637508632,0.0001098863331208122
3.896933321811957e-05,5.2990666821036335e-05,0.00010542899963184027,8.942199959468174e-05
3.5713333393990375e-05,5.2393666616505165e-05,7.105366663987904e-05,0.00019282900029793382
3.8862333288610294e-05,5.30346666588836e-05,7.381766621013715e-05,9.251533265342005e-05
3.571733335168877e-05,5.338133329739018e-05,0.0001260733333765529,8.92483334003676e-05
5.94850001410426e-05,5.630533329773849e-05,0.00012398066670963695,0.00012392366685768744
3.6362333351765606e-05,5.297799998515984e-05,0.0001417406665495946,0.00010683166662298997
3.9074666347005405e-05,5.5623000359143283e-05,0.00013582500044625098,0.00010710366677812999
3.563799964467762e-05,5.1858333184403214e-05,0.00010688133321915909,0.00011396833360777237
3.817566660776114e-05,5.290333319862839e-05,7.172999994509155e-05,0.00012451566635718336
3.8683333211035155e-05,5.5420000232212864e-05,0.00019480300003730613,0.00021144566683991192
4.1276333528609634e-05,5.566566687775776e-05,6.520300000071681e-05,9.73899999128965e-05
3.9790333175915293e-05,6.723766667467619e-05,9.853766641754191e-05,8.468700040490755e-05
3.765400015254272e-05,9.703299959558838e-05,6.644533368671546e-05,8.906766621900412e-05
4.0453666770190466e-05,0.00011727833316399483,6.601733336234854e-05,8.652566672632626e-05
0.00010646133371968365,0.00011486066644768773,0.0001353813331661513,8.191600015076499e-05
4.029599980034012e-05,0.00011178133354405873,0.00019955500010837568,8.564566633140203e-05
4.352200024489624e-05,8.192033328668913e-05,0.00022192966662260005,0.00015224333340787174
4.192533318321997e-05,8.32980000874765e-05,0.00013829933322995203,8.274200020726614e-05
4.1802333422917094e-05,5.3155666743502174e-05,0.00012476866686483845,8.15116670006925e-05
4.3662999814841896e-05,5.279600039405826e-05,0.00021453233360565113,8.226800006620276e-05
4.24973335005537e-05,5.052466682779292e-05,0.00012789433336971948,8.498833358316915e-05
4.485933338097917e-05,5.28833328038066e-05,0.00011542566668746683,8.306866645095094e-05
4.0936000004876405e-05,5.035900024571068e-05,0.0001072456667922476,8.400300005935908e-05
4.428633352896819e-05,5.33513333114873e-05,0.00014476600032746015,8.29123334066632e-05
4.644999989977805e-05,5.3372333240986336e-05,0.00014880466672669476,8.30529994952182e-05
4.523933330347063e-05,5.558733331175366e-05,0.00014658333293482428,8.439200034141929e-05
4.076799996255431e-05,6.0868666272047754e-05,7.401433322229423e-05,8.593700022174744e-05
4.4983000407228246e-05,0.00012855300004351497,0.00015185333328796938,8.49839998409152e-05
4.285600001215547e-05,5.7208666779236715e-05,7.420133351843106e-05,8.14989998616511e-05
9.78713333097403e-05,5.299633357935818e-05,0.00011254133308587673,8.108566635200987e-05
4.137399992032442e-05,5.2937000570333716e-05,8.045066654934392e-05,8.616933337179944e-05
3.9405333457883294e-05,5.2587999865257494e-05,6.906100043124752e-05,8.505866662744666e-05
4.365933333853415e-05,4.966033369176633e-05,6.920800024090568e-05,9.339633318935132e-05
4.469599965280698e-05,5.5309999879682437e-05,6.861233305244241e-05,8.648099992569769e-05
4.092366695355546e-05,5.2445666672914136e-05,0.0001251559997399454,8.401499993245427e-05
4.385333310589582e-05,5.951000002824003e-05,0.00018870899990967396,8.121033382243088e-05
3.7826000455728113e-05,5.479300034494372e-05,0.00011843966634235888,8.162699972065941e-05
4.150466702412814e-05,5.274633319155934e-05,0.00012310033313648697,8.178266640849567e-05
4.105999990618633e-05,4.973933300789213e-05,8.096033313146715e-05,8.60799997705423e-05
3.831300030772885e-05,5.0395666827777554e-05,0.00020417566671919,8.106933334299053e-05
4.372100011096336e-05,4.9749333205303024e-05,6.73736661459164e-05,7.851966680997673e-05
9.035933332294614e-05,5.007933305023471e-05,7.808733334968565e-05,8.333733361117386e-05
4.084566686894201e-05,5.357299990767691e-05,9.061133338642928e-05,8.237100003801363e-05
3.924433318995094e-05,5.237866692671863e-05,6.880733296081114e-05,8.276833341369638e-05
3.832033326034434e-05,6.081666682196859e-05,7.232599970545077e-05,8.285233373802232e-05
3.9089333464895994e-05,6.223466668113058e-05,6.836033329212417e-05,8.571533332239294e-05
3.570466651581228e-05,5.276366664475063e-05,0.00014394433340688315,8.276166681753239e-05
3.591866637483084e-05,5.4043666750658303e-05,0.0001298379996417983,8.273200000985526e-05
3.602966626203852e-05,5.3400333551204916e-05,6.87909996486269e-05,8.209933336426427e-05
8.573500023582407e-05,5.603633326245472e-05,0.00015698699977898892,0.00011154966644729332
4.414333337384354e-05,0.00014562566684617195,0.0001139839999571753,8.456799969280837e-05
9.62296665723746e-05,5.902466637053294e-05,0.00012793599974732692,8.255333341367077e-05
4.9247666538576595e-05,5.448866644049607e-05,7.121099982517383e-05,7.858500005871367e-05
4.1490999744079694e-05,5.4119000196806155e-05,0.00017312200028148558,8.239966670468372e-05
3.9200000173877925e-05,0.00012721633296071863,0.00014841333389388942,8.370600032018653e-05
3.656666710109372e-05,0.00011608933315680285,0.0001597246664459817,8.986433355554861e-05
3.6127667044638656e-05,5.8974333417912327e-05,0.00013008533339113151,7.59030002276025e-05
4.344166670004294e-05,5.941366634942824e-05,6.999166665385322e-05,0.00010523100051311
3.9307999941229355e-05,6.605633370782016e-05,6.873866641399218e-05,0.00012998866683725888
7.002133346153035e-05,5.52046664476317e-05,0.00013685533364575045,0.00018233433365821838
4.159633378246023e-05,5.879433319933014e-05,0.00011907933306550451,0.0001408743334347188
3.891233336617006e-05,6.158199994388269e-05,0.0001395076666691845,8.69243331180769e-05
3.8512332745691914e-05,6.047166637775566e-05,7.818399990355829e-05,8.31139999111959e-05
3.634866667804696e-05,5.9905666603299323e-05,6.919399978263148e-05,0.00014100500023535764
4.216133341590952e-05,6.110933312205209e-05,7.888566688052379e-05,7.991066649992717e-05
4.005666657273347e-05,5.865300014799383e-05,8.942233337923729e-05,8.670899993982555e-05
3.6467666783816334e-05,5.650333332596347e-05,9.27366663745488e-05,9.335266683289471e-05
3.639399983512703e-05,5.6983333403574456e-05,0.0001282513330806978,0.00010547566641131804
3.920700025143257e-05,5.2400000034443415e-05,8.187899978414255e-05,8.227999963613304e-05
3.6024999947888624e-05,5.6181000218202826e-05,0.00014420733289928953,8.468333301910509e-05
7.0419999853281e-05,5.3078666496730875e-05,0.00014682833352708258,8.356666724769941e-05
6.0540999887355916e-05,0.00021654266674886458,0.00021810133330291137,8.54466670716647e-05
4.087000009652305e-05,5.210299999210596e-05,0.0001384706671766859,8.232166631690536e-05
3.9601333507259064e-05,4.972333317709854e-05,7.091166692892632e-05,8.406199989015779e-05
3.8886333337965574e-05,5.2641000062673506e-05,0.0001293380000788602,8.156966669048415e-05
3.938066674891161e-05,4.9770666616192706e-05,0.00010091366705940648,8.193433313863352e-05
3.862833333793484e-05,5.043999984385058e-05,8.55483337242428e-05,8.188233368855435e-05
4.7577333437705725e-05,4.999833314892991e-05,7.28330002554382e-05,8.156166677508736e-05
5.930566688524171e-05,5.29623330294271e-05,6.92510002409108e-05,8.524633328003499e-05
3.906300025846576e-05,7.302633336318347e-05,8.605266672626992e-05,0.00012294099997234298
3.675966703061325e-05,5.988566681480734e-05,8.756599982007174e-05,8.402100017216678e-05
3.873499978605347e-05,5.158266655295544e-05,6.858566697095132e-05,9.188599991224085e-05
3.548700018048597e-05,5.2474666517809965e-05,0.0001333953332505189,8.358033331508825e-05
3.5440333401008196e-05,5.2968332965974696e-05,0.000157714666480994,8.575266656407621e-05
3.8642666671269886e-05,5.3376666376910485e-05,0.00010524799987858084,8.192733336424378e-05
3.829933333084531e-05,5.3078666496730875e-05,7.399500009341864e-05,7.946200003061676e-05
4.9761333684728015e-05,7.1579000177735e-05,0.00013619200005147528,8.378533342086787e-05
3.995266676308044e-05,9.362200004640424e-05,9.753833334495236e-05,8.39086666625614e-05
3.5292666628568746e-05,0.00010516566635487834,6.988233326410409e-05,8.294100007333327e-05
4.072566662216559e-05,0.00011658400004913953,0.00011646133316389751,8.281566654962565e-05
5.876933331213271e-05,5.6384333220194094e-05,0.0001368896667675775,8.270833313872572e-05
3.999766674193476e-05,5.0550999731058255e-05,7.421399974797775e-05,8.015766676786977e-05
3.591899985622149e-05,6.208666673046537e-05,7.104566702764714e-05,8.229766657071498e-05
3.898133339437967e-05,8.408633342090373e-05,0.00024059800004276136,8.409466651452628e-05
3.8469000173790846e-05,7.041233341927484e-05,0.00010661500042867071,8.117266679619206e-05
3.849999969437098e-05,0.00010875033331103623,0.0001275356668581177,8.955433319594401e-05
6.08730000143017e-05,7.020233382111958e-05,6.948566685120265e-05,8.545566682490365e-05
3.6469333281274885e-05,4.998333315597847e-05,0.00010636100008317347,8.439833345619263e-05
3.579433299213027e-05,5.277200004153807e-05,0.00015731600008924337,8.11963336673216e-05
4.017766665735204e-05,4.964600005526639e-05,8.137866643664893e-05,8.129533307510428e-05
5.3169999773672316e-05,5.026033310665904e-05,9.468466669204645e-05,8.603300011600368e-05
3.587266655813437e-05,5.012533317009608e-05,0.00011602100009137455,8.516633351973724e-05
3.9464666770072654e-05,5.7773999894076646e-05,0.00010739533324037136,8.167766676100048e-05
3.959966670663562e-05,6.577433335526924e-05,7.414366640053534e-05,0.0002511990002555346
3.880499995527013e-05,0.00010207366631220793,0.00016435499977281628,9.11090003986222e-05
3.919700005402168e-05,5.611666711047292e-05,0.00016396499995607883,8.072000036918325e-05
3.914066655852366e-05,5.317666697616611e-05,0.00012442966666033803,0.00011242733307881281
3.625099968000237e-05,4.988900006234568e-05,0.00012829799986017557,0.00016017466653768983
3.883266648093316e-05,7.849166649975814e-05,0.00013522833311678065,8.446399988315534e-05
4.3989333486630734e-05,5.550733324829101e-05,9.169766660003613e-05,8.731499989759565e-05
3.9985999743900415e-05,8.474633341393201e-05,0.00011449766619383202,8.611200003845927e-05
3.600366684016384e-05,6.143866661053228e-05,0.00014246400011567553,8.283666678228958e-05
3.829033327444146e-05,5.507866656747259e-05,0.00010324733345138763,8.307333337143064e-05
3.8129999969290416e-05,5.293566725110092e-05,9.905933317592523e-05,8.517366647235274e-05
3.892899985658005e-05,5.031233316306801e-05,0.0001418900001226575,8.263300029890767e-05
3.588499991262021e-05,4.9867333170065344e-05,0.00018736700045944113,8.113999986865868e-05
6.491933315070735e-05,5.775499994342681e-05,7.936633361775118e-05,8.506466626082936e-05
3.6157666727376636e-05,5.004699990725688e-05,6.952399962756317e-05,8.923833289979181e-05
3.889433325336237e-05,7.581966625972807e-05,7.03350002974427e-05,0.00011458466694117912
3.797333344361201e-05,0.0001482826667900857,7.321066671768979e-05,8.288700034124001e-05
4.253500022362763e-05,0.00013901566671847831,0.00021656099973673312,8.220899962907424e-05
3.917466680528984e-05,6.15799996618686e-05,0.0004202063337288564,8.440866652866437e-05
3.6862333521033484e-05,5.3426000098018754e-05,7.175333303166553e-05,8.493599974220463e-05
3.603933328122366e-05,5.3267666771716904e-05,7.355566716190272e-05,7.914400005878026e-05
3.914900025847601e-05,5.307233368512243e-05,7.200733307399787e-05,8.145366670457103e-05
3.902833335208319e-05,6.515166660392424e-05,0.0001879666666961081,8.201400002387042e-05
3.705600011016941e-05,6.430600024032174e-05,0.00015931166641773112,8.326033336440257e-05
3.852933332382236e-05,5.235733321266404e-05,0.00016548833355045645,8.944700008820898e-05
3.599000016644519e-05,5.022133336751722e-05,0.00013842266707797535,8.665466672634163e-05
3.864666632580338e-05,5.031599994254066e-05,0.00010544433371251216,8.317000022846817e-05
4.120266657992033e-05,5.269800021778792e-05,0.00010211000001921396,9.153366651541243e-05
9.086266648713111e-05,5.2710000090883113e-05,0.00012240633350302232,8.366333319524226e-05
3.638466690366234e-05,5.318133359348091e-05,0.00012418233351733457,8.28943335970204e-05
3.6688333542163796e-05,5.0223333043201514e-05,0.00010170266674928523,0.00014708400006687347
3.901533333798094e-05,0.00041765633341128705,0.00016628766661597183,8.39750000523054e-05
3.586799994081957e-05,9.649266697427568e-05,0.00010986399987208036,8.525733361845293e-05
3.6101332928713724e-05,7.452733340566435e-05,0.00010280666689747402,8.419833344911846e-05
3.875900013857366e-05,5.5604999943170696e-05,0.00010206866681983229,8.366166700094861e-05
3.6121333020370607e-05,5.170033333949201e-05,0.00014231199990414703,8.681566669110907e-05
3.8939000053990945e-05,5.164500028816595e-05,0.00016439499995613005,9.025566669151885e-05
3.909100026551945e-05,0.00014637299985527838,0.00022739233342387402,8.856766665606604e-05
3.944666635410007e-05,0.0001431340003061147,0.00010821099992123588,8.791733337905801e-05
3.8433999786017616e-05,5.2623999787707966e-05,0.0001354370003051978,9.248900005331961e-05
5.92460000916617e-05,5.197100017539924e-05,0.00016758399973089885,8.651766681092947e-05
3.562533341513093e-05,5.2007666454301216e-05,0.00012621366659004707,8.317200020731737e-05
3.8888000441753924e-05,6.140700012717086e-05,0.00010332533292967128,8.039099975576391e-05
3.5463999968972835e-05,5.78480000209917e-05,0.00011526633352332283,8.395266680357356e-05
3.8723333394348934e-05,0.00013023200002256394,0.00015482366688956972,8.335499993942601e-05
3.5305666642670985e-05,0.0004982996664087599,0.00010375966667197645,8.363699998881202e-05
3.8875666480938285e-05,6.55216663290048e-05,0.00010363433284510393,8.60833333717892e-05
3.86173329995169e-05,8.509266687421284e-05,0.00022267466677779643,9.068299974993958e-05
3.873999988475892e-05,0.00015812200035725255,0.0001772700000704693,8.32920001509289e-05
6.535200009238906e-05,0.00014264566652855137,0.0001592906664882321,0.00016066300031525316
4.496333288746731e-05,9.173533301994515e-05,0.00011967433359435138,0.0001604449998922064
4.2128666791541036e-05,7.27393335182569e-05,0.00010512999991381851,8.102000022821206e-05
3.9037333105322127e-05,0.00014840066645168312,0.00011724566653962636,7.527500019932631e-05
3.904633346489087e-05,0.00014433733334347684,0.00015749066672772946,7.526666649937397e-05
3.5757332928672746e-05,0.00017873466640594415,0.00010876999992130247,7.548399995963943e-05
3.896066664310638e-05,6.177700015541632e-05,0.0001376979995863318,8.450800002416751e-05
3.893733325336749e-05,5.631300003490954e-05,0.0002219493329297014,7.536699983271926e-05
3.886733338731574e-05,0.0001067830001678279,0.0002124766663958629,7.810933311702684e-05
3.872066705904823e-05,0.00016732833349427287,0.00014963700020113416,7.573533366667107e-05
3.581100008887006e-05,6.322366637808348e-05,0.00027208966700224363,7.590333310266335e-05
4.5822666227953356e-05,5.35013329378368e-05,0.0001726259997667512,7.882366632353903e-05
4.112766661516313e-05,5.62263333752829e-05,0.00014732966640925346,7.488900003712236e-05
5.9393666864101156e-05,5.345966656022938e-05,0.00012184766668118148,7.540700001603302e-05
3.92373334155612e-05,5.584299985154454e-05,0.00010978133317015211,7.924166645049506e-05
3.875999967325091e-05,0.00016179033324685102,0.00010300433314114343,0.0001280350000646043
3.599733311906069e-05,6.392700015567243e-05,0.00013813466648571193,7.562033351860009e-05
3.8795333239249885e-05,9.496766657927462e-05,0.00010584266692603705,7.488899973395746e-05
3.864466695328398e-05,0.00014856266655745762,0.00010236233326092285,7.489433331405355e-05
3.868466713659776e-05,0.0001691150000624475,0.00015814066652334682,7.915333329340986e-05
3.855533365519174e-05,0.00015406333356319615,0.00016511866639727182,7.465999988198746e-05
3.903200013155583e-05,0.00015888400018108464,0.00020466666683205403,7.5376000192288e-05
3.8376666452677455e-05,0.00014069433321613664,0.00011047599946323317,7.852066664781887e-05
5.748866715293843e-05,0.00011622266629274236,0.00010605433362798067,7.495533342686637e-05
4.3748333458400644e-05,0.00011341633368526043,0.00010465400009707082,8.414933290623594e-05
4.1323000004922505e-05,0.00011526866668039777,0.00010556466622801963,7.859466677473392e-05
3.5974666692103106e-05,0.00010919499982264824,0.0001294806667525942,7.473133337043691e-05
3.887100046995329e-05,0.00011207600012615633,0.00010296833352185786,8.840666699446349e-05
3.5571333076707866e-05,0.0001608446664249641,0.00010203966636860666,7.489966659098475e-05
4.331400001926037e-05,0.0001015673336344965,0.0001465413333789911,0.0002150496666217805
3.9664666473981924e-05,8.776533347069441e-05,0.00010451499989964456,0.00014392766631014334
4.065599963117469e-05,9.412466624780791e-05,0.00010312033343022146,0.00014622700018662727
4.116333366255276e-05,0.00016770266665844247,0.00032620100015871384,0.00015589299982821103
6.360100026843914e-05,0.00018076799976067073,0.00019931499991798773,0.00010439699993488223
4.096733331001209e-05,0.000149033333400439,0.00015489433311207298,0.00010675733331784916
4.273933306346104e-05,0.00012230999982421054,0.00010484166644649424,0.00017728233312179023
8.956333355551276e-05,0.00010702533321212589,0.0001015116667986149,0.0001755473331286339
7.296266630874015e-05,0.00015055500019419318,0.00010186266626988072,9.43756664734489e-05
0.00010223999985707148,8.97243332171153e-05,0.00013799099997413578,0.00013810333318057624
4.7045999963302165e-05,8.401233329398868e-05,0.00013651333301822888,0.00020663400027842727
0.00015310300022974843,9.507633361257224e-05,0.00010537366658051421,9.27466665719597e-05
8.363899966449632e-05,0.0002636040001865088,0.0001443959999960498,0.00017783266654684363
4.5526333451562095e-05,0.00010916866691938291,0.00010393899992777733,0.00013704033305354338
4.1278000026068185e-05,0.00014729833340728268,0.0001017340003575858,8.827866622596048e-05
3.992866671372516e-05,9.34403336335284e-05,0.00016756466660202327,0.00010364733346553597
4.5331333543193374e-05,0.00011504466692713322,0.0001581423333239703,0.0001318783330740795
4.624033347984854e-05,0.00011285633293785698,0.00016040199989220127,0.00010322400006164874
4.4826999934836444e-05,0.00023312866657458167,0.00011762533328389206,0.00011883466625780177
4.674799977995766e-05,5.545933345274534e-05,0.00010451399975863751,0.00010908333297265926
5.0108000626399494e-05,6.14059999861638e-05,0.00010641999991397218,0.00011022633346631967
9.16446664026201e-05,6.704233328491682e-05,0.00010196666668586356,0.00011242299994288867
5.4457999794976786e-05,5.6648666334998175e-05,0.00020275866639470527,0.00012884233304551648
4.069466649525566e-05,5.499333383340854e-05,0.00017552533366445763,0.00012063033288238027
4.101533310555775e-05,5.719999990105862e-05,0.00012273066628646726,0.00013361133278522175
4.625166639016243e-05,6.267433339720203e-05,0.00011209299979479208,0.00012595166632915303
4.3573999694975406e-05,5.325366661660761e-05,0.00014292333313884834,0.00014878699979211282
8.346266652855168e-05,5.127366694068769e-05,0.00010419533312718461,0.00012404799993722312
9.519766657225166e-05,9.092266676210177e-05,0.00013139233336308584,0.00013786333359651812
7.690000014311711e-05,6.0987666680982024e-05,0.00012542133329892144,0.00011517366632081878
5.456333322702752e-05,6.455933331987278e-05,0.0001457786668955426,0.00013831766682415036
7.216000024830767e-05,7.60729999456089e-05,0.00014426500001718523,0.0001250923332918319
0.00011784766653969807,0.0001389480000095015,0.0001472336668181621,0.00012536100014888993
0.00022353733341636448,5.8363333361436766e-05,0.00011416233337513404,0.0001711509997524748
9.618900003260933e-05,5.1827999717109684e-05,0.00018783333295383878,0.00013374066717612246
7.900666666197746e-05,5.10253333535123e-05,0.00010071166677031822,0.00012395600000066528
0.0001758593331639228,5.710466666641878e-05,0.00016257733295788057,0.00012029299978166819
0.00012461733391925614,5.263700010497511e-05,0.00011290766663781444,0.0001166206666312064
4.1041999793378636e-05,7.351899997350604e-05,8.207366651428553e-05,0.00011995566698412101
4.397766648859639e-05,5.1200000295163285e-05,0.0001368350000727029,0.00016204499994879976
4.5013666749582626e-05,8.842133320285939e-05,0.00013958766673264714,0.00019001366672455333
4.3909333423168086e-05,5.05553334733122e-05,0.00010646266643258666,0.00010483633347272796
5.913533338267977e-05,5.617366665925753e-05,0.00013711033322276003,0.0001149989999854976
4.656866682732167e-05,5.356599983012226e-05,0.00013814566652096497,0.00010675266639736947
0.00010379666673543397,5.119066706053369e-05,0.0001421309998477227,0.00010420266668612992
6.0877666328451596e-05,5.6150999625970144e-05,7.45110000934801e-05,0.00010721433348711192
4.5136333028494846e-05,5.0550000196381006e-05,7.32850003259955e-05,0.00010441499974452502
3.879133328155149e-05,5.938199986606681e-05,7.372233327866222e-05,0.0001071599999704631
3.5568333260016516e-05,6.200666666700272e-05,9.236733361224954e-05,0.00010394300018864062
3.5850666790793184e-05,0.00016141266678459942,9.49306665158171e-05,0.00011086966696893796
3.8355333041787766e-05,0.00010150933303521015,8.329300029193594e-05,0.0001009706666081911
3.5477333161300827e-05,5.069433336757356e-05,8.688166659946243e-05,0.00014612900031352183
4.093066733427501e-05,5.1651332796609495e-05,0.0001115850003164572,0.0001762106661165793
3.939833368349355e-05,6.639299954258604e-05,0.00012307700004991298,0.0001465286665431146
4.0256333704746794e-05,5.454033331867928e-05,0.00012402733318594983,0.00017708466687812083
3.8762666614881404e-05,9.145999986988802e-05,9.80976665232447e-05,0.00014229466675412064
3.543733328115195e-05,9.115533309037953e-05,0.00013201433345481442,0.00015607066658655336
3.58246664594238e-05,0.00014129966681745523,0.0002178096662343402,0.00018573666663238933
3.877433300658595e-05,5.122700016120992e-05,0.00023707200034550624,8.665766684619787e-05
3.8268666685326025e-05,5.5655333198956214e-05,7.175000003674843e-05,8.762233331556975e-05
3.539766688239373e-05,5.350566698325565e-05,0.00014619999971425082,8.441033332928782e-05
3.568133342923829e-05,5.117133362849321e-05,0.0001197460002610266,0.00010415866624195284
4.418433309183456e-05,5.153266647539567e-05,0.00015540500044153305,8.424666642288987e-05
5.770933300179119e-05,8.161566681034553e-05,0.00014699233300537648,7.947466656332836e-05
4.122666662927562e-05,0.00015596999977181744,0.00015311933323876778,8.420033312480275e-05
3.895433352833303e-05,0.00010660666672871837,0.00011498999962592886,7.519466695763792e-05
3.532399993370442e-05,5.665933349519037e-05,7.142766692898779e-05,8.127700008723575e-05
3.8661000265468225e-05,5.088599997786029e-05,0.00012146866659653217,7.41943334408764e-05
3.55930002721531e-05,5.339499966794392e-05,0.00017619366644794354,7.468333327172634e-05
3.8661000265468225e-05,5.359266682110805e-05,0.00017482000021118438,7.457766666144987e-05
3.972233328871274e-05,5.365566691277005e-05,0.0001407350000590668,7.490233353261526e-05
3.552733323886059e-05,0.00012064433334065446,9.711133316159248e-05,7.414233308130254e-05
4.436633298610104e-05,6.092533324893642e-05,9.560200002548906e-05,0.0003147476669861741
5.805933354470957e-05,5.260366651782533e-05,6.814366679464001e-05,8.628500017948681e-05
3.742166700249072e-05,5.3317666546111773e-05,6.66136672104282e-05,7.69903329758866e-05
3.8518999948185716e-05,5.376200018266294e-05,0.0001025810000404211,0.00012422633365834676
3.838466667123915e-05,5.133833322664335e-05,6.61289999091726e-05,0.00011114100016129669
3.5553000088839326e-05,5.083533293751922e-05,6.352499985950999e-05,0.0001290200004101886
3.53553332388401e-05,5.139099963950381e-05,6.375400001464489e-05,0.00013636666638679648
3.865966664307052e-05,8.706733327320156e-05,0.00011108900010488772,7.554433310967094e-05
3.843333342956612e-05,0.00011314066675064775,0.00010410233304961973,7.542066638658677e-05
3.890399996938262e-05,0.0001577526666854586,6.321066636398125e-05,7.80723333567342e-05
7.36720000228767e-05,5.6245333325932734e-05,6.298000001455269e-05,7.794133368103455e-05
4.026966659390988e-05,5.370066689162437e-05,6.480433330580126e-05,7.417633332806872e-05
4.486399999829397e-05,5.046733349445276e-05,7.549866616803531e-05,7.796066680991014e-05
3.856966668536188e-05,5.301033312813767e-05,9.782966662896797e-05,7.441533368061452e-05
3.5196666431147605e-05,7.177766686557636e-05,0.00012006499976754033,7.427999995949601e-05
3.832633350005684e-05,0.0003108589999101241,9.175833323145828e-05,9.8406999920068e-05
3.839566640332729e-05,5.846033339670006e-05,9.344900020854159e-05,7.507999998779269e-05
3.874233304183387e-05,5.609166661694568e-05,6.82273333344104e-05,7.485600023452814e-05
3.857033364814318e-05,5.417233326928302e-05,6.652566662523896e-05,7.855933290557005e-05
3.5541333393969886e-05,6.4750333573708e-05,7.353999959984019e-05,7.770033334963955e-05
4.456499997710731e-05,7.170266720398406e-05,6.570466636427834e-05,7.783666660543531e-05
3.9675666509234965e-05,0.00014565699984814273,0.00010122800025177033,7.837799997408486e-05
3.909800003990919e-05,0.00022274100016754042,6.607766681554494e-05,7.44279999101612e-05
3.519066649460001e-05,0.00014245133358296394,6.331566631464132e-05,7.52883333916543e-05
3.7990333112247754e-05,9.090033321020503e-05,0.00017925599998610173,9.235933309052295e-05
3.7998666509035196e-05,0.000171186000140248,6.470266635005828e-05,7.484733365951494e-05
3.5442667164412946e-05,6.073433329826609e-05,6.328800009214319e-05,7.444699986081105e-05
3.545299993371979e-05,5.772499995752393e-05,6.299966692798382e-05,7.774833314518521e-05
3.806533307700496e-05,5.998099974628227e-05,6.27309997677609e-05,7.498600007238565e-05
3.838799966615625e-05,6.000766673726806e-05,8.097666644365138e-05,7.411300005818096e-05
3.518500003944306e-05,5.922900011986106e-05,7.644500025586846e-05,7.147033344760227e-05
8.820766652206657e-05,5.8992000352494266e-05,9.310733366874047e-05,7.424266671781272e-05
4.4208000266129e-05,0.0001501956664166452,0.00026027933320923086,7.776099998106172e-05
4.165033321138859e-05,0.00014466466654994292,6.5831000028993e-05,7.765466671116883e-05
3.5680666769621894e-05,0.00011642933350231033,6.286566682926302e-05,9.932733337336686e-05
3.5988000187595994e-05,6.739600030414294e-05,0.00010744833313462247,7.811133339904093e-05
3.846899987062594e-05,5.384866653912468e-05,9.197833333018934e-05,7.46736665557061e-05
3.5663999672882106e-05,6.214633322088048e-05,6.640966663932583e-05,7.812666626705322e-05
3.850266663600147e-05,0.00019875466720501814,6.377866672361658e-05,7.510433321537373e-05
3.863200011740749e-05,6.424633344674173e-05,0.00010775700017499427,7.431333354664578e-05
3.538766668498283e-05,6.130733345344197e-05,0.0001692139997733951,7.834299988947653e-05
9.912733336629269e-05,5.45966668141773e-05,6.659000003613376e-05,7.480899997365971e-05
4.643266644658676e-05,5.72319998658107e-05,6.618499992327997e-05,7.540700001603302e-05
4.46686666085346e-05,5.1201666792621836e-05,6.217999998625601e-05,0.0001015169997723812
4.2801666798671555e-05,5.3220999992239136e-05,9.141199977117746e-05,7.453766647813609e-05
4.085800022342786e-05,5.320933329736969e-05,9.495866652287077e-05,7.46756665345553e-05
3.772300018075233e-05,7.779600006567004e-05,0.0001203326667867562,7.49020000512246e-05
4.0387333380446457e-05,4.889799978021377e-05,0.00011237466666595235,7.698500030528521e-05
4.0254999779184196e-05,5.238033312101228e-05,0.000101279333345398,9.01776669100703e-05
4.5027666601527017e-05,5.099766652468437e-05,6.652133348931481e-05,7.497199991727636e-05
3.885533351422055e-05,5.35053331987001e-05,0.00010839899975204996,7.972900008705135e-05
8.914166664908407e-05,5.0942667257913854e-05,7.1735000043797e-05,7.609433335649858e-05
6.619300014184167e-05,5.377333339614173e-05,6.614866651943885e-05,9.556599979987368e-05
4.3434666622488294e-05,5.0842999977855165e-05,6.316300004982622e-05,7.58479997481724e-05
4.2615999821767524e-05,5.139400006252496e-05,6.736499987406812e-05,8.215266643674113e-05
4.0732666699720234e-05,5.145133339586513e-05,6.925866667491694e-05,7.918433342031979e-05
4.209099976530221e-05,6.491499971161829e-05,6.462633306606828e-05,7.816233331444285e-05
7.859166665487767e-05,5.197699980878193e-05,6.329166687161585e-05,7.74636667604985e-05
5.229533326200908e-05,6.234766654718744e-05,6.308666615950642e-05,7.869766704970971e-05
9.609766675566789e-05,5.052900026688197e-05,6.287633338312541e-05,7.474899969868905e-05
8.538999979161115e-05,5.322766658840313e-05,6.378566649800632e-05,7.516466666857013e-05
3.999900036433246e-05,5.0255666792509146e-05,6.589100000079877e-05,7.468933351143885e-05
4.2007333225531816e-05,5.029466653165097e-05,6.293199991584213e-05,7.720700007970056e-05
4.30350000897306e-05,5.0781333508590855e-05,6.238733324911057e-05,7.440833329989498e-05
9.599299998323356e-05,5.076099993554332e-05,6.972666657626785e-05,8.628899983402032e-05
0.00013023533332064593,5.334766683517955e-05,6.656300047325203e-05,8.974433330877218e-05
5.631433305097744e-05,6.7868333341418e-05,6.322366668124839e-05,7.81546671836016e-05
4.2489666460217755e-05,5.4010666644899175e-05,6.232933325615402e-05,7.744533286313526e-05
3.7373000244163755e-05,5.00196668629845e-05,6.550066670267067e-05,8.708400006677645e-05
0.00014565566713523972,8.310933359704602e-05,6.290900031065878e-05,8.638166643019456e-05
0.00012334299966217563,5.065433318425979e-05,6.310433309408836e-05,0.00012234566656843526
4.135333316905113e-05,5.0659999942581635e-05,6.542433311551576e-05,7.500933315895963e-05
3.842966634692857e-05,5.367166674356364e-05,6.513166681543225e-05,7.478799974099577e-05
3.819966665711642e-05,5.347966665188627e-05,6.288199983828235e-05,0.00014688833319572345
3.838066641037585e-05,5.038299968873616e-05,7.035900004363309e-05,7.699299991751711e-05
3.832566653727554e-05,5.334899985124745e-05,6.480799978210901e-05,0.0001028990000122576
4.2631666777500264e-05,5.0580666538735386e-05,6.282133320686019e-05,7.972366681012015e-05
4.5265000153449364e-05,7.458099995953187e-05,6.040933355203985e-05,7.469399982558873e-05
5.2962333332592e-05,5.013933332520537e-05,6.023433343216311e-05,7.571299981160944e-05
4.507466686239544e-05,5.351699989356954e-05,6.224000026122667e-05,7.780800024193013e-05
5.83146669062747e-05,5.338666687748628e-05,7.548466661925583e-05,0.00019633466702847122
5.108266668685246e-05,5.260166653897613e-05,6.979633326409385e-05,7.533699984681637e-05
9.86400000329013e-05,5.3298000239010435e-05,6.578033359498174e-05,7.833366695801185e-05
4.272466685506515e-05,5.072999980863339e-05,6.271000014142676e-05,7.266266644971135e-05
6.760533293951691e-05,5.09523333676043e-05,6.440433329165292e-05,7.486166638652018e-05
7.928033331457603e-05,5.321300007684234e-05,6.322433334086479e-05,8.503099979861872e-05
3.7898666353915665e-05,5.017133328995745e-05,6.343033298132165e-05,7.95539999671746e-05
6.258866687858244e-05,5.8751666680715665e-05,6.299433334788773e-05,7.437633303197799e-05
3.856733383145183e-05,5.430100009107264e-05,6.634033343289047e-05,7.881199993183448e-05
3.820633325328041e-05,5.022933328291401e-05,6.578333310850819e-05,8.516233356203884e-05
3.857766690392358e-05,5.0550333071441855e-05,6.333166675176471e-05,0.00012565133329189848
3.880866673474278e-05,5.0601999949625075e-05,6.229200001447073e-05,8.408733356191078e-05
3.8535667044925503e-05,5.051266665153283e-05,6.30596665966247e-05,7.477833363130533e-05
3.966233301374208e-05,5.074733326182468e-05,6.581933333412356e-05,8.682266707182862e-05
4.829733309937486e-05,5.087366692653935e-05,7.855000027727026e-05,7.530266642182444e-05
4.678266638317533e-05,5.3462000020469226e-05,6.245333315746393e-05,7.806733325802877e-05
4.167733307743523e-05,5.0769999991947166e-05,6.303733274156305e-05,7.80849998894458e-05
5.702366676511398e-05,5.9627333333385955e-05,6.24859997818324e-05,0.0001342363332999715
5.241566638384635e-05,5.0983000316288475e-05,6.289266699847455e-05,8.788233329444968e-05
7.87176665350368e-05,5.084233392456857e-05,6.229200001447073e-05,7.604133346224747e-05
5.004299964639358e-05,5.0595999709912576e-05,6.515199978214999e-05,7.47673335960523e-05
4.3539333091757726e-05,5.023133326176321e-05,6.422433307307074e-05,8.49083329133767e-05
3.935999999763832e-05,4.764333334605908e-05,6.380600007105386e-05,0.00010163633305637632
7.06509999872651e-05,5.060900002717972e-05,7.489333317304651e-05,7.434099976914392e-05
5.6979000267650313e-05,5.017066632717615e-05,8.434166678246886e-05,7.835233312410612e-05
5.6114999703519665e-05,5.072300003424365e-05,6.332266699852578e-05,7.481166661212531e-05
3.872066645271843e-05,5.9737666864142135e-05,6.578233327066603e-05,7.459099985377786e-05
3.881066671359198e-05,5.5870333198981825e-05,6.230433336895658e-05,8.649199996095074e-05
3.539700022277733e-05,5.219799974535514e-05,6.578900016999493e-05,7.860000035483002e-05
3.549399995487571e-05,5.3705333205774273e-05,6.602700038153368e-05,7.512033334933221e-05
4.980666684180809e-05,5.0798999836842995e-05,6.304666658252245e-05,7.528666689419576e-05
4.7219333585720356e-05,5.0641333170157545e-05,6.253866649785778e-05,7.603833303922632e-05
4.257133302113895e-05,7.238033322209958e-05,7.45959996493184e-05,7.869633342731201e-05
4.545600010411969e-05,5.039066672907211e-05,6.344600024021929e-05,9.363933319643063e-05
5.253066683508223e-05,5.3917333389108535e-05,6.580166700587142e-05,7.476933296857169e-05
5.5510333064982355e-05,5.5821666743819755e-05,6.944733286218252e-05,0.00013633300022775074
6.998466657629858e-05,5.096133372717304e-05,6.993399983912241e-05,7.496600028389366e-05
4.2269666664651595e-05,5.8062333058236014e-05,6.533266666034858e-05,7.488133360311622e-05
3.691500023705885e-05,5.1064666877209675e-05,6.564333337640467e-05,7.404633349021121e-05
3.6032332900504116e-05,5.1672333332438335e-05,6.518900014877242e-05,9.563766707287868e-05
5.8865666687779594e-05,5.059533335346108e-05,9.231933381670387e-05,7.602366683083044e-05
4.049866705220969e-05,5.0167999991875455e-05,6.556000031802493e-05,7.45959999524833e-05
3.597766681195935e-05,6.870233331331595e-05,6.96519997897364e-05,7.774566650671962e-05
3.6226666755586244e-05,4.99466671802414e-05,6.558633322129026e-05,8.75483331886547e-05
3.5679332844059296e-05,5.053466641887402e-05,6.263366716060166e-05,7.445033315889305e-05
3.518000024390252e-05,5.0519000069471076e-05,6.279566635688146e-05,8.276899977014789e-05
6.228433297413478e-05,5.053500020342957e-05,6.598100026167231e-05,7.883766678181321e-05
4.425366690459972e-05,5.056733304324249e-05,6.21900004868318e-05,7.482300012876901e-05
3.990733330283547e-05,5.5962666616930314e-05,6.549366692828092e-05,7.480399987495427e-05
6.496566644879447e-05,5.0844000422027115e-05,6.306300019787159e-05,7.49000000723754e-05
3.874666648092292e-05,5.0382999991901066e-05,6.286333336902317e-05,7.181033348994485e-05
8.590566661344685e-05,5.316066653904272e-05,6.510500012761138e-05,7.494233310959923e-05
9.503900006772407e-05,5.054133362136781e-05,7.311399986065226e-05,7.513000006535246e-05
5.12603331420299e-05,0.00011768366675823927,6.462800016985663e-05,0.00011747399973197996
8.20499999463209e-05,5.120899974523733e-05,6.356299976080966e-05,7.555733312377318e-05
4.794199988585509e-05,5.0625999998980355e-05,6.258666659656835e-05,7.562500013591489e-05
3.6205000166470804e-05,5.593833338934928e-05,6.307133329149413e-05,7.546533318721534e-05
3.5756666875386145e-05,5.2721666785752554e-05,6.588400022640901e-05,7.558466647121047e-05
4.407166670716833e-05,5.5467332761812337e-05,6.315000003572398e-05,7.464999998774147e-05
7.261066669646728e-05,5.3634000020489715e-05,6.23573329600428e-05,7.493533333520948e-05
3.927033382448523e-05,5.362100030955238e-05,6.687566656182753e-05,7.408866652743502e-05
6.217300021186627e-05,5.6231666652214095e-05,6.740366643498419e-05,7.82276668663447e-05
0.00010279000010389912,5.298966668002928e-05,0.00011589266705414047,7.513466668266726e-05
6.833666642099463e-05,6.0708332966896705e-05,6.535066646999137e-05,8.467099996778416e-05
3.59826666074999e-05,5.986166676545205e-05,6.335066670241456e-05,0.0001330806665767644
3.6127999919699505e-05,5.592766683548689e-05,6.256133322798026e-05,0.00013347266697868085
3.561033311901459e-05,6.231600006382602e-05,6.283266642033898e-05,7.533233353266648e-05
3.860633326742876e-05,6.245800007794362e-05,6.516100014171873e-05,7.479633344094812e-05
6.206666633564358e-05,5.838299997170301e-05,6.276066657543804e-05,7.44533335819142e-05
9.939033316186396e-05,5.9035666102621086e-05,6.563233303798673e-05,7.426766660501016e-05
9.375000020857745e-05,5.960299980264002e-05,6.255833341128891e-05,7.868400007282617e-05
4.466699980791115e-05,5.665300007725212e-05,0.00010027666636839665,9.95799997933015e-05
7.283599976896464e-05,6.028699984502358e-05,6.288133378499576e-05,7.601166665457033e-05
7.350966643571155e-05,5.872700027490888e-05,6.559633311553625e-05,7.534166707046097e-05
4.579366668622242e-05,6.180833346055199e-05,6.345866646976599e-05,0.0001265083331721447
6.387433313648216e-05,8.03419998192112e-05,6.239200016959028e-05,7.535966657693886e-05
5.013899984381472e-05,6.131400004960597e-05,6.268299997221523e-05,7.608066637961504e-05
4.0636000145847596e-05,6.106900006367748e-05,6.833133314406344e-05,7.448433370882412e-05
4.4157666404013675e-05,5.864666703322049e-05,6.550000004305427e-05,7.450566651338401e-05
0.00010591000015362322,5.995433336162629e-05,6.486733309429837e-05,7.833899993177813e-05
9.67880002159897e-05,6.260066675167764e-05,6.297699989469645e-05,7.493366683775093e-05
0.00014818466691698026,5.8076666694735955e-05,8.722266647964716e-05,8.441766658506822e-05
4.45876667072298e-05,5.9079666849963054e-05,6.713133340478332e-05,0.00014648866666296576
4.409566645335872e-05,6.11039998451209e-05,6.54400000712485e-05,7.966199973452603e-05
4.508699961055148e-05,0.00013899299998835582,6.58349996835265e-05,7.789933291254177e-05
7.015066633660656e-05,9.136666691726229e-05,6.279933374268391e-05,7.450466667554186e-05
4.8797000090416986e-05,5.6892999964475166e-05,6.616599997263013e-05,0.00010289066691863506
0.00021542833322503915,5.8398666624270845e-05,6.557966662512626e-05,7.487433352556157e-05
4.0406666509322044e-05,5.6710666588818036e-05,6.310633307293756e-05,7.437866679538274e-05
4.0799999927306395e-05,5.950266646929473e-05,6.280900015553925e-05,0.00011883433307957603
4.1281666502375934e-05,5.379966660257196e-05,6.306966679403558e-05,7.477966695053813e-05
4.4415000350757815e-05,5.6774000161870695e-05,0.00010215066686214413,7.6526333335399e-05
7.702166688735208e-05,6.765733299592587e-05,6.393199995121297e-05,7.49983334268715e-05
4.589233352210916e-05,6.622566615988035e-05,6.60666667802919e-05,7.769900033357165e-05
8.014400009415112e-05,5.358066634168305e-05,6.309200004276742e-05,7.444299990311265e-05
5.1267333522749446e-05,6.288499995813861e-05,6.516933323534128e-05,7.510966679546982e-05
4.2185666340325646e-05,5.057199996372219e-05,6.546100000074755e-05,7.439166711264988e-05
3.921433350721296e-05,5.075233305736523e-05,6.562299980335713e-05,9.183566635329043e-05
3.546066667089084e-05,5.0227999963681214e-05,6.283899983827723e-05,7.790566633048002e-05
3.869199978604835e-05,5.111666632728884e-05,6.217333339009201e-05,9.25786665296376e-05
4.058800004713703e-05,5.0244666757256105e-05,0.00010424666682714208,7.886533330747625e-05
4.430566696100868e-05,5.376166670127228e-05,6.458299958467251e-05,7.459766675310675e-05
4.78496667710715e-05,5.408799976673132e-05,6.618466674505423e-05,7.804533318752267e-05
4.1512666939524934e-05,5.3030000041568805e-05,7.04206665128974e-05,7.216733380725297e-05
3.564533320362292e-05,5.04133334591946e-05,6.283699955626314e-05,7.446200015692739e-05
3.865800014561197e-05,5.318433341017226e-05,6.589933370075111e-05,7.811333337789013e-05
3.847566676995484e-05,5.0515666468224175e-05,6.330266660370398e-05,7.868366659143551e-05
3.8619333281531e-05,5.073100025280534e-05,6.224966697724692e-05,0.00011729633327680251
4.787299985764548e-05,5.089766697589463e-05,6.298433345364174e-05,0.0001373203328209153
3.8225666988485805e-05,5.066566670090348e-05,6.559833339755035e-05,7.509333378645049e-05
3.648766657230832e-05,5.068466665155332e-05,8.863200006696086e-05,7.484066645702114e-05
4.863299970262839e-05,5.348766626411816e-05,9.574266641720897e-05,7.094999970528686e-05
8.745266647262422e-05,8.991133351325213e-05,9.196633315392926e-05,7.449566661913802e-05
5.213699993570723e-05,5.360200005573764e-05,9.178133283664162e-05,7.09536664847595e-05
4.20279999768051e-05,5.006600016107162e-05,9.228433373209555e-05,7.475733339864139e-05
3.8607000230210055e-05,5.332733295896711e-05,0.00014287799998176828,7.399633341265144e-05
3.5508666769601405e-05,5.047866670793155e-05,0.00012142099967604736,7.391599956463324e-05
6.495733335517191e-05,5.0038000154017936e-05,0.00014635933378788954,0.00014794433354836656
0.00011467933351620256,5.018833326175809e-05,0.00013823866690169476,0.0001325846669715247
7.008566687242516e-05,5.054133331820291e-05,6.387099983840017e-05,7.48449998961102e-05
3.598166707282265e-05,5.037066663741522e-05,6.329100021199945e-05,7.86186668240892e-05
3.5508332985045854e-05,5.0379666390654165e-05,6.576033320015995e-05,7.44499999806673e-05
3.897166698152432e-05,5.8784999964700546e-05,6.291466676581574e-05,7.835133358942888e-05
3.909800003990919e-05,5.040433340279075e-05,6.495166720317987e-05,7.385599959282747e-05
3.552733323886059e-05,5.048200030917845e-05,6.245100030355388e-05,7.497033311665291e-05
3.554233323181203e-05,5.108700042910641e-05,7.14973333136489e-05,0.0001460880002923659
3.9136667207155064e-05,5.027600006239178e-05,6.922233296791092e-05,0.0001891316666539448
3.980800011049723e-05,5.0517333572012525e-05,6.547733331293178e-05,7.482033349030341e-05
4.8611666594903603e-05,4.984966653864831e-05,9.643933390179882e-05,7.441566625251046e-05
7.87043336458737e-05,5.334366657431625e-05,6.949399994482519e-05,7.486100003006868e-05
5.570666659574878e-05,5.105299987917533e-05,6.753199977538316e-05,7.516799996665213e-05
4.043199987791013e-05,5.127200014006424e-05,6.53583332071624e-05,7.193400021302902e-05
3.538399990551019e-05,7.822566658433061e-05,6.598800003606205e-05,0.00010385500020978118
3.848166700966734e-05,5.2532666510766525e-05,6.905199976851388e-05,7.807233365989912e-05
4.1457332978704166e-05,5.108233350862671e-05,6.625933383475058e-05,0.00013883833344152663
4.130399975110777e-05,5.0828666644520126e-05,6.840633310882065e-05,8.673833326611202e-05
6.404833341851675e-05,5.020199993547673e-05,6.589199983864091e-05,7.553966649235615e-05
3.819033342248682e-05,5.05586667713942e-05,9.204000010261855e-05,7.762799972018304e-05
3.600666665685518e-05,5.079200006245325e-05,6.324866687161072e-05,7.791933300419866e-05
3.909633323928574e-05,5.280799996398855e-05,6.242266681510955e-05,7.833166637283284e-05
3.8316333302645944e-05,4.971433342385959e-05,6.381300014860851e-05,7.735666683098923e-05
3.90866665232655e-05,5.035766692647788e-05,6.294166663186236e-05,0.0001409719995232687
3.606833312611949e-05,5.432699981611222e-05,6.42086667236678e-05,9.340399992652237e-05
3.525533338688547e-05,5.522699999952844e-05,6.309433319984237e-05,7.684733342709175e-05
4.6240333176683635e-05,5.1035667032313846e-05,6.618700020529407e-05,7.760266665475986e-05
