,ID,status,opt price,max price,visited
0,1,0,10050,9713,13
1,2,0,13567,11760,12
2,3,1,12533,12533,12
3,4,0,13451,12002,12
4,5,0,13049,11867,12
5,6,0,15668,15601,12
6,7,0,12945,11450,12
7,8,0,14258,13821,12
8,9,0,12322,10779,12
9,10,0,13667,12046,12
10,11,0,15228,14150,12
11,12,0,15451,15031,12
12,13,1,12342,12342,13
13,14,0,13968,13940,12
14,15,0,12761,12131,12
15,16,0,14890,14105,12
16,17,0,14942,14571,12
17,18,1,14762,14762,13
18,19,0,12897,11026,12
19,20,0,13270,12014,12
20,21,0,12964,12026,12
21,22,0,11948,11337,12
22,23,0,13558,12420,12
23,24,0,14210,14038,13
24,25,0,11634,11272,13
25,26,0,12226,10842,12
26,27,0,13152,11300,12
27,28,0,13100,11445,12
28,29,0,11559,10440,13
29,30,0,13196,12949,13
30,31,0,13147,12800,13
31,32,0,13052,12194,12
32,33,0,13719,12526,12
33,34,0,16230,15145,12
34,35,0,12515,11538,12
35,36,0,12223,12022,13
36,37,0,15567,15408,12
37,38,0,14342,12706,12
38,39,0,14722,13038,12
39,40,0,11905,11798,13
40,41,0,12549,11333,12
41,42,0,12378,10707,12
42,43,0,15336,14773,12
43,44,0,14422,12947,12
44,45,0,11804,11679,12
45,46,0,12938,12914,13
46,47,1,12726,12726,13
47,48,0,14642,14389,12
48,49,0,13334,12237,12
49,50,0,13127,12287,12
50,51,0,11176,10590,12
51,52,0,15326,14046,12
52,53,0,11463,11301,13
53,54,0,14541,13273,12
54,55,0,15847,15354,12
55,56,0,10539,10460,13
56,57,0,13159,11818,12
57,58,0,13929,13394,13
58,59,0,14096,13793,12
59,60,0,13850,13603,12
60,61,0,14904,14035,12
61,62,0,12448,10867,12
62,63,0,14445,13733,12
63,64,0,12756,12661,13
64,65,0,13726,12633,12
65,66,0,16321,14785,11
66,67,0,12870,12302,13
67,68,0,11726,11309,12
68,69,0,16061,14843,12
69,70,0,12452,12396,13
70,71,1,12309,12309,13
71,72,0,13655,12469,12
72,73,0,15558,14660,12
73,74,0,12611,11711,13
74,75,1,11678,11678,13
75,76,0,14926,14493,12
76,77,0,13532,12582,12
77,78,0,14282,14195,12
78,79,0,13401,12023,12
79,80,0,13904,13721,12
80,81,0,13412,12954,12
81,82,0,13482,12087,12
82,83,1,13154,13154,13
83,84,0,12220,11171,13
84,85,0,13227,12276,12
85,86,0,13015,11369,12
86,87,0,14236,13690,12
87,88,0,12907,11232,12
88,89,0,13063,12206,12
89,90,0,11883,11798,13
90,91,0,13209,12001,12
91,92,0,13364,13233,13
92,93,0,12461,11129,12
93,94,0,11855,11379,12
94,95,0,15565,15008,12
95,96,0,12915,11989,13
96,97,0,14375,13044,12
97,98,1,14032,14032,13
98,99,0,13357,12443,12
99,100,0,10793,9698,13
100,101,0,14400,13864,12
101,102,1,13094,13094,13
102,103,0,10174,9969,13
103,104,0,14660,13865,12
104,105,0,13308,12115,12
105,106,0,13346,12332,12
106,107,0,13887,12474,12
107,108,0,14062,12808,12
108,109,0,13032,12130,12
109,110,0,13067,11974,12
110,111,0,14967,13809,12
111,112,0,12691,11830,12
112,113,0,14191,13046,12
113,114,1,13014,13014,13
114,115,0,13710,12972,12
115,116,0,11640,10511,12
116,117,0,12508,12121,12
117,118,0,12319,11256,12
118,119,0,12517,10917,12
119,120,0,14847,14484,12
120,121,0,12964,12146,13
121,122,1,13202,13202,13
122,123,0,12945,12546,13
123,124,1,12878,12878,13
124,125,0,10846,10615,13
125,126,0,13386,12935,12
126,127,0,12475,12146,12
127,128,0,10920,10276,13
128,129,0,16005,15140,12
129,130,0,13629,11974,12
130,131,0,13627,12987,12
131,132,0,14720,12914,11
132,133,0,12653,10933,12
133,134,0,13709,13561,12
134,135,0,14676,14259,12
135,136,0,14436,13329,12
136,137,0,12563,11844,12
137,138,0,14906,14313,12
138,139,0,12662,11373,12
139,140,0,12410,12274,13
140,141,0,14045,12910,12
141,142,0,11813,10484,12
142,143,0,11022,10044,13
143,144,0,11635,10126,13
144,145,0,11486,11386,13
145,146,0,12034,11576,12
146,147,0,14182,12596,12
147,148,0,12978,12117,12
148,149,0,15870,14643,12
149,150,0,11164,9837,12
150,151,0,13938,13659,12
151,152,0,12851,12642,13
152,153,1,15000,15000,12
153,154,0,12843,11650,12
154,155,0,12831,12266,12
155,156,0,12635,11090,12
156,157,0,14928,14285,12
157,158,0,14320,13635,12
158,159,0,11178,9447,13
159,160,0,13390,12981,13
160,161,0,14895,14280,12
161,162,0,10457,9675,12
162,163,0,13246,11933,12
163,164,0,13398,12901,12
164,165,0,13972,13149,12
165,166,0,13844,12574,12
166,167,0,9768,9600,13
167,168,0,13187,11507,12
168,169,0,12020,11779,13
169,170,0,13642,12854,12
170,171,1,13655,13655,13
171,172,0,16124,15940,12
172,173,0,12358,10687,12
173,174,0,14319,14061,12
174,175,0,13664,12495,12
175,176,0,12961,11298,12
176,177,0,13379,13286,13
177,178,0,12884,11991,13
178,179,1,13921,13921,13
179,180,0,13189,11783,12
180,181,0,11799,10514,12
181,182,0,12928,11682,12
182,183,0,15414,15013,12
183,184,0,12744,12227,13
184,185,0,14793,13487,12
185,186,0,14505,13461,12
186,187,0,14044,13006,12
187,188,0,9938,8763,13
188,189,0,14145,12706,12
189,190,0,12813,12706,13
190,191,0,14558,13076,12
191,192,0,13415,12306,12
192,193,0,11699,11376,13
193,194,0,15147,14448,12
194,195,0,14740,14223,12
195,196,0,15495,15039,12
196,197,0,14024,12681,12
197,198,0,13996,13017,12
198,199,0,12930,11397,12
199,200,0,11565,11031,13
200,201,0,12524,11590,12
201,202,0,10996,10292,12
202,203,0,13229,12922,13
203,204,0,11900,10733,12
204,205,0,13556,13254,13
205,206,0,13000,12279,12
206,207,0,13276,12326,12
207,208,0,12992,11825,12
208,209,0,14413,13715,12
209,210,0,16024,15421,12
210,211,0,10880,10194,13
211,212,0,13748,12472,12
212,213,1,8436,8436,14
213,214,0,13986,12570,12
214,215,0,15256,14355,12
215,216,0,10892,10114,12
216,217,0,14634,12733,12
217,218,0,13617,11706,12
218,219,0,12808,12178,12
219,220,0,16675,16110,12
220,221,0,14419,13958,12
221,222,0,16322,15872,12
222,223,0,13662,13295,13
223,224,0,14191,12738,11
224,225,0,14756,13996,12
225,226,0,12984,12698,12
226,227,0,12329,11590,13
227,228,0,12130,11898,13
228,229,0,11283,10330,12
229,230,0,11096,10209,13
230,231,1,12148,12148,13
231,232,0,15074,13896,12
232,233,0,15831,15066,12
233,234,0,14390,13749,12
234,235,0,14305,13911,12
235,236,0,14600,13707,12
236,237,0,15542,14529,12
237,238,0,14839,14207,12
238,239,0,13536,12354,12
239,240,0,14225,13650,12
240,241,0,13664,12787,12
241,242,0,11525,10791,13
242,243,0,14750,14541,12
243,244,0,13159,12925,13
244,245,0,12382,12356,13
245,246,0,15697,15354,12
246,247,0,14922,13673,12
247,248,0,12943,11615,12
248,249,1,13513,13513,13
249,250,1,12967,12967,13
250,251,0,12347,11933,13
251,252,0,16993,16754,12
252,253,0,13496,13088,12
253,254,0,12542,11346,12
254,255,0,14992,14936,12
255,256,0,12651,11968,13
256,257,0,14712,14364,12
257,258,0,12022,11410,13
258,259,0,13429,13256,13
259,260,0,13259,13074,13
260,261,0,11090,10003,13
261,262,0,12842,12004,12
262,263,0,11585,11453,13
263,264,0,13429,11736,12
264,265,0,10633,10040,12
265,266,0,13026,12503,13
266,267,0,14471,13447,12
267,268,0,11650,9938,13
268,269,0,13943,12306,11
269,270,0,13627,12681,12
270,271,0,13425,12145,12
271,272,0,12425,11906,13
272,273,0,10673,9816,13
273,274,0,10207,9983,13
274,275,0,14637,13642,12
275,276,0,12918,12706,13
276,277,0,12569,11783,12
277,278,1,11693,11693,13
278,279,0,12867,11489,12
279,280,0,14626,13649,12
280,281,0,13348,12181,12
281,282,0,14328,14175,13
282,283,0,13930,13809,12
283,284,0,14268,14143,12
284,285,1,12678,12678,13
285,286,0,13675,12122,12
286,287,0,12803,11232,12
287,288,0,11841,11524,13
288,289,0,10545,9138,13
289,290,0,12529,11733,12
290,291,0,13484,11955,12
291,292,0,13709,13107,12
292,293,0,14189,12547,12
293,294,0,12845,12076,13
294,295,0,15215,13691,12
295,296,0,14433,13365,12
296,297,0,12642,12550,13
297,298,0,13844,13496,12
298,299,0,12367,11825,12
299,300,0,12861,11126,12
300,301,0,12902,11736,12
301,302,0,14194,12760,12
302,303,0,12054,11529,13
303,304,0,14733,14581,12
304,305,0,10977,10569,13
305,306,0,13318,11629,12
306,307,0,13956,12174,12
307,308,0,13410,12655,12
308,309,0,12654,11953,12
309,310,0,13786,12549,12
310,311,0,13127,12110,12
311,312,0,13271,11989,12
312,313,0,16151,15227,12
313,314,0,14153,12866,12
314,315,0,15119,13486,12
315,316,0,11313,10157,12
316,317,0,14601,14107,12
317,318,0,18019,17064,11
318,319,0,11896,11403,13
319,320,0,10468,9410,13
320,321,0,12088,10893,13
321,322,0,11014,9718,13
322,323,0,15611,13908,11
323,324,0,15206,13951,12
324,325,1,12576,12576,13
325,326,0,12012,11850,13
326,327,0,14210,12488,12
327,328,0,14673,14051,12
328,329,0,13306,11657,12
329,330,0,11779,11375,13
330,331,0,12350,11506,13
331,332,0,11335,11223,13
332,333,0,11934,11762,13
333,334,0,14723,12933,12
334,335,0,12468,12005,13
335,336,0,13565,13472,13
336,337,0,12266,12053,13
337,338,0,13197,11774,12
338,339,0,14293,14273,12
339,340,0,13895,12849,12
340,341,0,13451,13335,13
341,342,0,12778,11755,12
342,343,1,13461,13461,13
343,344,0,9870,9325,13
344,345,0,11833,10917,12
345,346,0,14756,13159,12
346,347,0,12505,11201,12
347,348,0,14371,12812,12
348,349,1,12476,12476,13
349,350,0,15044,14199,12
350,351,0,13723,12231,12
351,352,0,13557,12842,12
352,353,0,11641,10675,12
353,354,0,13592,12151,12
354,355,0,12343,11455,12
355,356,0,13202,12768,13
356,357,0,13824,13207,12
357,358,1,10472,10472,13
358,359,1,12348,12348,13
359,360,0,11568,11339,13
360,361,0,14876,14155,12
361,362,0,12033,10435,12
362,363,0,14595,13075,12
363,364,0,13361,12087,12
364,365,0,15969,15539,12
365,366,0,12651,11665,12
366,367,0,14898,14860,12
367,368,0,11561,10607,13
368,369,1,12506,12506,13
369,370,1,14061,14061,13
370,371,0,14165,12807,12
371,372,0,11854,10829,12
372,373,0,13256,13082,13
373,374,0,13276,11848,12
374,375,0,12099,11248,12
375,376,0,12327,11736,13
376,377,0,11450,10896,13
377,378,0,11425,10851,13
378,379,0,10522,9874,13
379,380,0,16002,14867,11
380,381,0,12814,12361,12
381,382,0,12483,10955,12
382,383,0,11047,10538,13
383,384,0,15147,15069,12
384,385,0,13075,11329,12
385,386,1,12536,12536,13
386,387,0,14831,13599,12
387,388,1,13598,13598,13
388,389,0,14203,13022,11
389,390,0,12426,11930,13
390,391,1,11418,11418,13
391,392,0,11876,11818,13
392,393,0,13151,11688,12
393,394,0,13992,12748,12
394,395,1,12907,12907,13
395,396,0,10542,9999,13
396,397,0,13131,13090,13
397,398,0,12719,12617,13
398,399,0,13977,12377,11
399,400,0,11447,11128,13
400,401,0,10647,9560,12
401,402,0,14550,13036,12
402,403,1,13245,13245,13
403,404,0,9900,9183,13
404,405,0,13549,12247,12
405,406,0,12058,10558,12
406,407,0,14220,13575,12
407,408,0,15349,14284,12
408,409,0,13993,13506,12
409,410,0,13736,12608,12
410,411,0,13821,12397,12
411,412,0,13106,12346,12
412,413,0,14535,13919,12
413,414,0,15651,14705,12
414,415,0,13681,12055,12
415,416,0,15680,15485,12
416,417,0,12967,12083,12
417,418,1,13053,13053,13
418,419,0,12004,10703,12
419,420,0,13485,12724,12
420,421,0,12951,12595,13
421,422,0,11927,11428,13
422,423,0,9471,8023,13
423,424,0,13274,12280,12
424,425,0,14853,13395,12
425,426,0,12339,12017,12
426,427,0,12758,11244,12
427,428,0,15543,14243,12
428,429,0,14229,14081,13
429,430,0,13839,13308,12
430,431,0,13672,12491,12
431,432,0,12326,10810,12
432,433,0,13401,12856,13
433,434,0,14541,14159,12
434,435,0,13622,12441,12
435,436,0,14168,13919,12
436,437,0,15243,14485,12
437,438,0,11595,11281,13
438,439,0,12037,11761,13
439,440,0,12904,11408,12
440,441,0,11799,11159,13
441,442,0,13346,12604,12
442,443,0,12029,10931,12
443,444,0,17069,15120,11
444,445,0,14031,12697,12
445,446,0,11067,10402,13
446,447,0,9711,8537,12
447,448,0,13650,12788,12
448,449,0,13158,12734,13
449,450,0,12745,12492,12
450,451,0,13589,11692,12
451,452,0,15261,14440,12
452,453,0,13452,13436,13
453,454,0,12321,11400,13
454,455,0,14637,14631,12
455,456,0,10496,9480,13
456,457,0,13390,11984,12
457,458,0,10765,9906,13
458,459,0,13142,11363,12
459,460,0,10166,9284,13
460,461,0,13435,13175,13
461,462,0,11478,10847,13
462,463,0,15112,13510,11
463,464,1,11063,11063,13
464,465,0,13471,11982,12
465,466,0,13812,12344,12
466,467,0,12608,11337,12
467,468,0,12641,11299,12
468,469,0,9641,9454,12
469,470,0,13616,12420,12
470,471,0,14724,13351,12
471,472,0,11822,11650,13
472,473,0,12082,11142,12
473,474,0,12293,12113,13
474,475,0,12115,11361,13
475,476,0,14581,13752,12
476,477,0,13339,11941,12
477,478,0,14380,12991,12
478,479,1,12550,12550,13
479,480,0,13975,13009,12
480,481,0,12961,11855,12
481,482,0,12801,11342,12
482,483,0,13041,11619,12
483,484,0,11698,11179,13
484,485,0,13568,12244,12
485,486,0,11453,10395,12
486,487,0,14857,13414,12
487,488,0,13775,13076,12
488,489,0,11991,10957,12
489,490,0,10099,9003,13
490,491,0,12793,11979,12
491,492,0,14740,14357,12
492,493,0,13385,12476,12
493,494,0,16561,16241,12
494,495,0,13217,12656,12
495,496,0,12661,12331,13
496,497,0,12043,10864,12
497,498,0,11173,9963,13
498,499,1,10832,10832,13
499,500,0,15375,13516,11
