,ID,status,opt price,max price,visited
0,1,0,6515,5977,9
1,2,1,7842,7842,9
2,3,1,9119,9119,9
3,4,0,8050,6872,8
4,5,0,7726,7632,9
5,6,0,9269,8655,8
6,7,0,9119,9111,9
7,8,0,9394,7999,8
8,9,0,9776,8521,8
9,10,0,7501,7334,9
10,11,0,10069,8797,7
11,12,0,9567,8860,8
12,13,1,7461,7461,9
13,14,0,9128,8146,8
14,15,0,8953,7364,8
15,16,0,10810,9848,8
16,17,0,9464,8507,8
17,18,0,9952,9352,8
18,19,0,8495,6861,8
19,20,0,8770,7653,8
20,21,0,9542,8647,8
21,22,0,8302,6791,8
22,23,0,8879,7579,8
23,24,0,9894,8573,8
24,25,0,9352,8842,8
25,26,0,9607,8104,8
26,27,0,10466,9822,8
27,28,0,7881,7657,9
28,29,0,8537,8406,9
29,30,0,8735,7644,8
30,31,0,7292,7218,9
31,32,0,8207,7079,8
32,33,0,8373,6623,8
33,34,0,10350,9324,8
34,35,1,9058,9058,9
35,36,0,6607,6326,9
36,37,0,8876,8181,8
37,38,0,7591,7493,9
38,39,0,8900,8874,9
39,40,1,8204,8204,9
40,41,0,7689,7007,9
41,42,0,7866,7508,9
42,43,0,8754,7469,8
43,44,1,9088,9088,9
44,45,0,7900,7371,9
45,46,0,8476,7787,8
46,47,0,10141,9188,8
47,48,0,8048,6533,8
48,49,0,10749,9568,8
49,50,0,9609,8371,8
50,51,0,8264,7868,9
51,52,0,6396,5794,8
52,53,0,10433,9792,8
53,54,0,9217,7888,8
54,55,0,10307,10010,8
55,56,0,10624,10175,8
56,57,0,9654,8878,8
57,58,0,7907,6088,8
58,59,1,8195,8195,9
59,60,0,7136,6645,9
60,61,0,9051,7665,8
61,62,0,9673,8934,8
62,63,0,9274,7757,8
63,64,0,9739,8188,8
64,65,0,7994,7355,8
65,66,0,7795,6667,8
66,67,0,8917,7383,8
67,68,0,8205,8023,9
68,69,0,6682,6179,9
69,70,0,11897,11717,8
70,71,0,7981,7921,9
71,72,0,9418,8364,8
72,73,0,7108,6866,9
73,74,0,8225,7074,8
74,75,0,7856,7337,9
75,76,0,9638,8327,8
76,77,0,7082,5960,8
77,78,0,10215,8847,8
78,79,0,8877,7668,8
79,80,0,10785,10100,8
80,81,1,6890,6890,9
81,82,0,7765,7626,9
82,83,1,9221,9221,9
83,84,0,9852,8258,8
84,85,0,7419,6972,9
85,86,0,9904,8803,8
86,87,0,9282,8162,8
87,88,0,9417,8926,8
88,89,0,9673,8132,8
89,90,0,7400,6289,8
90,91,0,10212,9543,8
91,92,0,8563,8202,9
92,93,0,8253,7977,8
93,94,0,9964,9230,8
94,95,0,9121,7394,8
95,96,0,10711,10163,8
96,97,0,8505,8275,9
97,98,0,8293,8223,9
98,99,0,7318,6348,8
99,100,0,10019,8224,8
100,101,0,9839,8331,8
101,102,0,7929,6883,8
102,103,0,7616,6265,8
103,104,0,8936,8795,9
104,105,0,9514,8345,8
105,106,0,10356,10057,8
106,107,0,8921,7055,8
107,108,0,8910,8700,9
108,109,0,6379,5800,8
109,110,0,8146,7800,8
110,111,0,10929,10060,8
111,112,0,8747,7797,8
112,113,0,9316,8957,8
113,114,0,8706,7693,8
114,115,0,9014,7596,8
115,116,0,9756,8682,8
116,117,1,7710,7710,9
117,118,0,9504,8246,8
118,119,1,8222,8222,9
119,120,0,9736,8704,8
120,121,0,7385,7138,9
121,122,0,8499,7804,9
122,123,0,9322,8891,8
123,124,0,8823,6979,8
124,125,0,7797,7705,9
125,126,0,9666,8876,8
126,127,1,8676,8676,9
127,128,1,8013,8013,9
128,129,0,9170,7943,8
129,130,0,7540,7269,9
130,131,0,7456,6766,8
131,132,0,8541,7491,8
132,133,0,10433,9350,8
133,134,1,8919,8919,9
134,135,0,7976,6684,8
135,136,0,7762,6925,8
136,137,0,7462,6172,8
137,138,0,10620,9459,8
138,139,0,9633,8488,8
139,140,0,8630,8264,9
140,141,0,9049,8109,8
141,142,0,9838,8934,8
142,143,1,8922,8922,9
143,144,0,7962,6745,8
144,145,0,6482,6003,9
145,146,0,9531,7922,8
146,147,0,9040,7561,8
147,148,0,7793,7705,9
148,149,0,8099,7902,9
149,150,1,5883,5883,9
150,151,0,10053,8585,8
151,152,0,8705,7103,8
152,153,0,9935,9324,8
153,154,0,8286,7411,8
154,155,0,8789,7070,8
155,156,0,8803,7647,8
156,157,0,9678,8076,8
157,158,0,8871,7489,8
158,159,0,6920,6599,9
159,160,0,9879,9220,8
160,161,0,9976,9192,8
161,162,0,9936,9142,8
162,163,0,7752,6687,8
163,164,1,8759,8759,9
164,165,1,9633,9633,9
165,166,0,7771,7665,9
166,167,0,8807,7508,8
167,168,1,8202,8202,9
168,169,0,7623,6722,8
169,170,0,8363,7220,8
170,171,0,6947,6750,9
171,172,0,8876,7743,8
172,173,0,7873,7514,9
173,174,0,9645,9367,8
174,175,0,9246,7948,8
175,176,0,8832,8465,9
176,177,0,7514,7463,9
177,178,0,8994,7583,8
178,179,0,9299,7947,8
179,180,0,8627,6942,8
180,181,0,8682,7735,8
181,182,0,6210,6059,9
182,183,0,9376,8733,8
183,184,0,8688,7778,8
184,185,0,7146,6448,8
185,186,0,8031,6331,8
186,187,0,9988,8521,8
187,188,0,9102,7849,8
188,189,0,8940,7693,8
189,190,0,9342,7584,8
190,191,0,8756,8128,8
191,192,0,10231,9854,8
192,193,0,9227,8346,8
193,194,0,7035,5921,8
194,195,0,10334,10162,8
195,196,0,10342,9807,8
196,197,0,8255,7191,8
197,198,0,11161,10369,8
198,199,1,7669,7669,9
199,200,1,8417,8417,9
200,201,0,9689,9118,8
201,202,0,8290,6633,8
202,203,0,8738,7604,8
203,204,0,7599,7481,9
204,205,0,9365,8177,8
205,206,1,7997,7997,9
206,207,0,7712,6499,8
207,208,0,7439,7209,9
208,209,0,7713,7405,9
209,210,0,8315,7483,8
210,211,0,7522,6024,8
211,212,0,8040,7541,8
212,213,0,9190,7409,8
213,214,0,9171,7974,8
214,215,0,7960,6714,8
215,216,0,9443,8151,8
216,217,0,10385,9665,8
217,218,1,7927,7927,9
218,219,0,9962,9683,8
219,220,0,9471,7594,8
220,221,0,7108,6973,9
221,222,0,10342,10050,8
222,223,0,8417,7195,8
223,224,0,9210,8424,8
224,225,0,8052,6947,8
225,226,0,9937,8275,8
226,227,1,6403,6403,9
227,228,0,10138,8712,8
228,229,0,10026,9371,8
229,230,0,8264,7038,8
230,231,0,6805,6319,9
231,232,0,10876,9521,8
232,233,0,6974,6263,9
233,234,0,11164,10134,8
234,235,1,6937,6937,9
235,236,0,7607,6990,8
236,237,0,8648,6955,8
237,238,0,10069,9683,8
238,239,0,9101,7945,8
239,240,0,8341,7447,8
240,241,0,10411,10156,8
241,242,0,6405,5757,8
242,243,0,7075,6965,9
243,244,1,8026,8026,9
244,245,0,8019,7868,9
245,246,0,8282,6838,8
246,247,0,10265,9760,8
247,248,0,6972,6299,9
248,249,0,10647,10102,8
249,250,0,10450,9747,8
250,251,0,8777,7233,8
251,252,0,7829,7763,9
252,253,0,10072,8842,8
253,254,0,8666,7387,8
254,255,0,9212,7484,8
255,256,1,8417,8417,9
256,257,0,8217,7130,8
257,258,0,8672,6996,8
258,259,0,9157,7992,8
259,260,0,10524,9600,8
260,261,0,8006,7854,9
261,262,0,8771,7915,8
262,263,0,7764,7669,9
263,264,0,6917,6788,9
264,265,0,10094,9191,8
265,266,0,10658,10169,8
266,267,0,6755,6091,9
267,268,0,11079,10631,8
268,269,1,8612,8612,9
269,270,0,9000,7123,8
270,271,0,9576,8420,8
271,272,0,10200,9096,8
272,273,0,7904,7790,9
273,274,0,7099,6544,9
274,275,1,8989,8989,9
275,276,0,7718,6305,8
276,277,0,9402,7519,8
277,278,0,9355,7853,8
278,279,0,7656,7547,9
279,280,0,8046,7032,8
280,281,0,8026,6918,8
281,282,0,10874,10091,8
282,283,0,10347,9382,8
283,284,0,9365,8569,8
284,285,0,10028,9370,8
285,286,0,10181,9280,8
286,287,1,8769,8769,9
287,288,0,9233,8131,8
288,289,1,9347,9347,9
289,290,0,7655,6398,8
290,291,0,6834,6655,9
291,292,0,8293,7182,8
292,293,0,8004,7278,8
293,294,0,7681,7046,8
294,295,0,9629,8428,8
295,296,0,8201,8113,9
296,297,0,6561,6123,9
297,298,0,9826,9422,8
298,299,0,8509,7034,8
299,300,0,9348,8074,7
300,301,1,8182,8182,9
301,302,0,8849,7718,8
302,303,1,7922,7922,9
303,304,0,9813,8982,8
304,305,0,11972,10314,7
305,306,0,8202,6782,8
306,307,0,6043,4658,9
307,308,0,9028,7976,8
308,309,1,7395,7395,9
309,310,0,7121,6285,9
310,311,0,8801,7445,8
311,312,1,8911,8911,9
312,313,1,10716,10716,8
313,314,0,7098,6063,8
314,315,0,7423,6957,9
315,316,0,11074,9741,8
316,317,0,8509,7204,8
317,318,0,8486,7404,8
318,319,0,8650,7729,8
319,320,0,12268,11760,8
320,321,0,9331,7723,8
321,322,0,8930,7207,8
322,323,0,11777,11167,8
323,324,1,7939,7939,9
324,325,0,10316,8915,8
325,326,0,9024,7814,8
326,327,0,10231,9946,8
327,328,0,9802,9102,8
328,329,0,7671,7324,9
329,330,0,7468,6645,9
330,331,0,8217,6587,8
331,332,1,7364,7364,9
332,333,0,7616,6961,8
333,334,0,8120,6507,8
334,335,0,7325,7033,9
335,336,0,8105,6520,8
336,337,0,10038,9146,8
337,338,0,10631,10603,8
338,339,0,10709,9989,8
339,340,0,9209,8411,8
340,341,0,9993,8622,8
341,342,0,8790,7992,8
342,343,0,9357,7955,8
343,344,0,10124,9274,8
344,345,0,10416,9131,8
345,346,0,9795,8401,8
346,347,0,8312,6881,8
347,348,0,10194,9483,8
348,349,0,9660,8250,8
349,350,0,9798,8470,8
350,351,0,7844,7266,9
351,352,0,6819,6417,9
352,353,0,9983,9646,8
353,354,0,9047,8662,8
354,355,0,9155,7497,8
355,356,0,7711,7143,9
356,357,0,10297,9488,8
357,358,0,10355,9375,8
358,359,0,9318,8354,8
359,360,0,9165,7751,8
360,361,0,8809,7171,8
361,362,0,7951,7697,9
362,363,0,8352,6917,8
363,364,0,9532,9062,8
364,365,0,7147,6768,9
365,366,0,11742,11478,8
366,367,0,10624,10230,8
367,368,0,8264,7324,8
368,369,0,8948,7284,8
369,370,0,7652,6801,8
370,371,0,10561,9211,8
371,372,1,7116,7116,9
372,373,0,9498,8443,8
373,374,0,10341,9761,8
374,375,0,7152,6260,8
375,376,0,7870,6036,8
376,377,0,10715,10182,8
377,378,0,7916,7562,9
378,379,0,7855,7826,9
379,380,1,7586,7586,9
380,381,0,9161,8451,8
381,382,0,7449,7337,9
382,383,0,8828,8050,8
383,384,0,8323,7881,9
384,385,0,6645,6248,8
385,386,0,7481,6492,8
386,387,0,8884,7788,8
387,388,0,9631,8704,8
388,389,0,9307,7977,8
389,390,1,7778,7778,9
390,391,0,9764,8775,8
391,392,0,9156,7859,8
392,393,0,8969,8348,8
393,394,1,8428,8428,9
394,395,1,6056,6056,9
395,396,0,8582,7157,8
396,397,0,7896,7577,9
397,398,1,6013,6013,9
398,399,0,8055,8007,9
399,400,0,9780,8604,8
400,401,0,8316,7027,8
401,402,0,9590,8715,8
402,403,0,7238,5938,8
403,404,0,8019,6448,8
404,405,0,9202,8552,8
405,406,0,6963,6389,9
406,407,0,9915,9620,8
407,408,0,10249,9032,8
408,409,0,7719,6712,8
409,410,0,9573,9450,9
410,411,0,10475,10028,8
411,412,0,10136,9089,8
412,413,0,8274,7105,8
413,414,0,6321,5513,8
414,415,0,10926,9715,8
415,416,1,8129,8129,9
416,417,0,7994,6303,8
417,418,0,9304,9254,9
418,419,0,7458,6583,9
419,420,0,6870,6860,9
420,421,0,7368,6184,8
421,422,0,8166,7968,9
422,423,0,9304,8456,8
423,424,0,9802,9042,8
424,425,1,7959,7959,9
425,426,0,8961,8952,9
426,427,0,8927,7286,8
427,428,0,7332,7119,9
428,429,0,10887,10434,8
429,430,0,8681,8624,9
430,431,0,10572,9352,8
431,432,0,7646,7300,9
432,433,0,9955,8838,8
433,434,0,7768,6700,8
434,435,0,7458,6283,8
435,436,0,9866,9339,8
436,437,0,7996,6905,8
437,438,0,9034,7502,8
438,439,0,8429,8302,9
439,440,1,8712,8712,9
440,441,1,7898,7898,9
441,442,0,10386,9825,8
442,443,0,7687,7569,9
443,444,0,7849,6685,8
444,445,0,8344,7930,9
445,446,0,8604,8353,9
446,447,0,8671,7308,8
447,448,0,9726,9041,8
448,449,0,7506,5980,8
449,450,0,9898,9312,8
450,451,0,8690,7839,8
451,452,0,8612,7233,8
452,453,0,10593,9944,8
453,454,0,7822,7446,9
454,455,0,9575,8549,8
455,456,0,11512,10951,8
456,457,0,9527,8292,8
457,458,0,9548,7881,8
458,459,0,9078,8384,8
459,460,0,6707,5714,8
460,461,0,10013,9823,8
461,462,0,11672,10996,8
462,463,1,9440,9440,9
463,464,0,8710,6895,8
464,465,0,6010,4510,9
465,466,0,7105,6322,9
466,467,0,8458,6595,8
467,468,0,6366,6088,9
468,469,0,10123,9157,8
469,470,0,11888,11479,8
470,471,0,9391,8084,8
471,472,1,7505,7505,9
472,473,0,9402,8232,8
473,474,0,7459,7069,9
474,475,0,9277,7890,8
475,476,0,10046,9433,8
476,477,0,9994,8630,8
477,478,0,7210,6454,9
478,479,0,8591,7458,8
479,480,0,9207,8061,8
480,481,0,7934,6589,8
481,482,0,9035,7149,8
482,483,0,6324,5440,8
483,484,1,8577,8577,9
484,485,0,7727,7540,9
485,486,0,11173,10406,8
486,487,0,8308,6771,8
487,488,0,7022,6803,9
488,489,0,9551,8469,8
489,490,0,7849,7799,9
490,491,1,10435,10435,8
491,492,0,8077,6701,8
492,493,0,9719,9291,8
493,494,0,10026,9112,8
494,495,0,6388,5344,8
495,496,0,10096,8697,8
496,497,0,7598,7187,9
497,498,0,10420,10106,8
498,499,0,7964,6638,8
499,500,0,6436,6090,9
