,ID,status,opt price,max price,visited
0,1,0,14216,13700,17
1,2,0,17577,16902,16
2,3,0,17732,16356,16
3,4,1,17955,17955,17
4,5,0,19153,17657,16
5,6,0,18639,18403,16
6,7,0,17517,16367,16
7,8,0,19246,17919,16
8,9,0,19337,18147,15
9,10,0,19075,18359,16
10,11,0,18260,17846,16
11,12,0,17604,17172,16
12,13,0,19951,18545,15
13,14,0,20808,20007,16
14,15,0,17069,15417,16
15,16,0,16109,14970,16
16,17,0,16105,15788,17
17,18,0,18565,18011,16
18,19,0,16955,16767,17
19,20,0,17788,17562,17
20,21,1,16942,16942,17
21,22,0,16351,15600,17
22,23,0,17502,15768,16
23,24,0,17746,16195,16
24,25,0,18397,17002,16
25,26,0,20511,19686,16
26,27,0,15783,14600,16
27,28,0,19217,17810,15
28,29,0,20082,19188,16
29,30,0,18708,16760,16
30,31,0,17120,16638,17
31,32,0,15384,14876,17
32,33,0,19894,18969,16
33,34,0,18354,17209,16
34,35,0,16359,16236,17
35,36,0,16032,14649,16
36,37,0,19596,19231,16
37,38,0,18499,17651,16
38,39,0,15114,14761,17
39,40,0,18247,17080,16
40,41,0,18615,18014,16
41,42,0,19768,19315,16
42,43,0,15525,14098,16
43,44,0,19200,17567,16
44,45,0,17643,16251,16
45,46,0,19624,19045,16
46,47,0,17692,17527,17
47,48,0,18581,18016,16
48,49,0,18111,16949,16
49,50,0,20257,19042,16
50,51,0,17120,15559,16
51,52,1,17627,17627,17
52,53,0,19893,18085,15
53,54,0,15322,14608,16
54,55,0,19300,18617,16
55,56,0,19280,18044,16
56,57,0,15743,15170,17
57,58,0,20055,19237,16
58,59,0,18219,17469,16
59,60,0,18544,16993,16
60,61,0,16941,16231,16
61,62,0,19086,17573,15
62,63,0,17580,16132,16
63,64,0,16315,14968,17
64,65,0,19217,17618,16
65,66,0,17210,16122,16
66,67,0,16847,15609,16
67,68,0,17607,17092,16
68,69,0,14952,14512,16
69,70,0,19274,18160,16
70,71,0,17500,16324,16
71,72,0,16034,14675,16
72,73,0,18663,17387,16
73,74,0,20118,19304,16
74,75,0,19147,18058,16
75,76,0,14031,13176,17
76,77,0,19763,19046,16
77,78,0,16363,16009,17
78,79,0,16378,14970,16
79,80,0,18280,17550,16
80,81,0,17292,17197,17
81,82,0,18709,17905,16
82,83,0,18914,17263,16
83,84,0,16351,15252,16
84,85,1,20814,20814,16
85,86,0,17089,16411,17
86,87,0,17501,17252,17
87,88,1,17373,17373,17
88,89,0,16146,15655,16
89,90,0,16123,15585,16
90,91,0,18078,16908,16
91,92,0,19459,18151,16
92,93,1,16488,16488,17
93,94,0,17105,16439,17
94,95,0,17243,15545,16
95,96,0,16188,15224,16
96,97,0,15212,14538,16
97,98,0,19277,18055,16
98,99,0,18137,16479,16
99,100,0,18640,18261,16
100,101,0,18950,17331,15
101,102,0,17638,16725,16
102,103,0,18760,16913,15
103,104,0,18762,18383,16
104,105,0,18306,17978,16
105,106,0,18372,18280,16
106,107,0,16545,15346,16
107,108,0,18053,17409,16
108,109,0,14741,13652,17
109,110,0,16221,15962,17
110,111,0,15863,14905,16
111,112,0,18426,16758,16
112,113,0,18329,17536,16
113,114,0,16671,16546,17
114,115,0,19527,18555,15
115,116,0,17766,17364,17
116,117,0,17900,16984,16
117,118,0,17511,17050,16
118,119,0,17642,16987,17
119,120,0,19730,19575,16
120,121,0,15045,13792,17
121,122,0,18111,16560,16
122,123,0,19040,18222,16
123,124,0,16878,15972,16
124,125,0,17393,16641,16
125,126,0,19067,17533,16
126,127,0,14112,12938,16
127,128,0,17438,15708,16
128,129,0,16212,15597,17
129,130,0,17622,16051,16
130,131,0,21580,21216,16
131,132,0,17126,16948,17
132,133,0,19196,17657,15
133,134,0,16734,16613,17
134,135,0,17896,17414,17
135,136,0,18404,17271,16
136,137,0,17428,16325,16
137,138,0,16080,15533,16
138,139,0,18581,17498,16
139,140,1,18917,18917,17
140,141,0,18796,18355,16
141,142,0,19065,17824,16
142,143,0,17367,15696,16
143,144,0,16426,15573,17
144,145,0,17805,16663,16
145,146,0,18139,17418,16
146,147,1,16843,16843,17
147,148,1,19708,19708,16
148,149,0,21110,19682,15
149,150,0,18316,17622,16
150,151,0,18466,18152,16
151,152,0,17295,16095,16
152,153,0,16173,15994,17
153,154,0,15601,14324,15
154,155,0,18024,16275,16
155,156,0,17278,16020,16
156,157,0,17085,16032,16
157,158,0,17007,15806,16
158,159,0,18284,17734,16
159,160,0,21400,20773,16
160,161,0,14823,13438,17
161,162,0,15507,14183,17
162,163,0,16637,15258,16
163,164,0,19424,17996,15
164,165,0,15437,15213,17
165,166,0,20274,18389,15
166,167,0,16532,16166,16
167,168,0,22195,21949,16
168,169,0,20135,19738,16
169,170,0,19925,18564,16
170,171,0,19811,19742,16
171,172,0,17848,17103,16
172,173,0,15920,14213,16
173,174,0,15812,14866,16
174,175,0,16373,15072,16
175,176,0,15533,14463,17
176,177,0,20886,19680,15
177,178,0,19684,19204,16
178,179,0,19591,19092,16
179,180,0,20081,18685,16
180,181,0,19375,18504,16
181,182,0,18840,18656,17
182,183,0,18233,17327,16
183,184,0,18526,16851,16
184,185,0,16423,16061,17
185,186,0,18284,17314,16
186,187,0,18480,17400,16
187,188,0,20115,19791,16
188,189,0,18340,17029,16
189,190,0,16969,16060,16
190,191,0,17216,16714,16
191,192,0,21368,20957,16
192,193,0,18008,16458,16
193,194,0,17106,15702,16
194,195,0,17592,17036,17
195,196,1,19010,19010,16
196,197,0,16314,15394,17
197,198,1,18679,18679,17
198,199,0,16124,15412,17
199,200,0,16010,14665,16
200,201,0,16996,16770,17
201,202,0,15626,14605,16
202,203,0,17201,17012,17
203,204,0,18588,17759,16
204,205,0,18342,17722,16
205,206,0,17992,16982,16
206,207,0,16914,16366,17
207,208,0,15791,15623,17
208,209,0,14603,13574,17
209,210,0,18680,17923,16
210,211,0,17414,17330,16
211,212,0,15867,14361,16
212,213,0,16851,15497,16
213,214,0,19258,18127,16
214,215,0,19209,17643,16
215,216,0,19535,19362,16
216,217,0,15748,15364,17
217,218,0,17848,16373,16
218,219,0,17758,16687,16
219,220,0,15444,14995,17
220,221,0,15488,14580,16
221,222,0,19793,18746,16
222,223,0,16778,16435,16
223,224,0,18390,17888,17
224,225,0,19193,18180,16
225,226,0,21471,20152,16
226,227,0,16301,15135,16
227,228,0,14068,12944,16
228,229,0,20092,19414,16
229,230,0,17144,15648,16
230,231,0,16791,16325,17
231,232,0,18305,17950,16
232,233,0,16398,16184,17
233,234,0,18938,18751,16
234,235,0,17848,17273,16
235,236,1,17581,17581,17
236,237,0,17997,16793,16
237,238,0,19256,18591,16
238,239,0,20062,18339,15
239,240,0,19443,17675,16
240,241,0,16113,15386,16
241,242,0,21998,21891,16
242,243,0,18533,18133,17
243,244,0,13595,13538,18
244,245,0,16436,16276,17
245,246,0,19804,18471,16
246,247,0,19665,19006,16
247,248,0,15263,13931,16
248,249,0,19640,18534,16
249,250,0,19263,17472,15
250,251,0,15304,13694,16
251,252,0,17895,17463,16
252,253,0,16109,15902,17
253,254,0,16287,16115,17
254,255,0,20382,18999,16
255,256,0,16875,16455,17
256,257,0,17528,16380,16
257,258,0,17704,16744,16
258,259,0,18602,18088,16
259,260,0,16969,15519,16
260,261,0,18876,17427,15
261,262,0,14071,13520,17
262,263,1,16993,16993,17
263,264,0,18647,18158,16
264,265,0,18694,17137,16
265,266,0,17911,17117,17
266,267,0,20259,19186,15
267,268,0,16692,15617,16
268,269,0,15868,14771,16
269,270,0,18511,17567,16
270,271,0,15521,14041,16
271,272,0,19447,19011,16
272,273,1,14621,14621,17
273,274,0,15094,15067,17
274,275,0,18907,17481,16
275,276,0,16606,16254,17
276,277,0,20500,19136,16
277,278,0,19071,17284,15
278,279,0,18064,16817,16
279,280,0,16454,14928,16
280,281,0,17889,17225,17
281,282,0,18715,18319,17
282,283,0,18152,17189,16
283,284,0,15433,14750,17
284,285,0,18627,17449,16
285,286,0,15977,14636,16
286,287,0,15728,15578,17
287,288,0,15486,14325,17
288,289,0,15808,14664,17
289,290,0,18258,17310,16
290,291,0,17687,16169,16
291,292,0,15845,15271,17
292,293,0,19085,18772,16
293,294,1,17122,17122,17
294,295,0,19055,17826,16
295,296,0,20099,18947,16
296,297,0,15926,14773,16
297,298,0,15674,14397,16
298,299,0,15274,14984,17
299,300,0,20374,19114,16
300,301,0,16760,15423,16
301,302,0,15854,14287,16
302,303,1,16162,16162,17
303,304,0,18590,17238,15
304,305,0,15326,14474,17
305,306,1,18514,18514,17
306,307,0,16553,15899,17
307,308,0,13566,12954,17
308,309,0,17367,15609,16
309,310,0,18258,17929,16
310,311,0,20618,19250,16
311,312,0,18404,17123,16
312,313,0,17171,16039,16
313,314,0,18721,17200,16
314,315,0,19293,18985,16
315,316,0,20898,20522,16
316,317,0,19011,18299,16
317,318,0,17646,15840,16
318,319,0,16947,15426,16
319,320,0,17251,16024,16
320,321,0,15843,15426,17
321,322,0,14958,13743,17
322,323,0,18124,17083,16
323,324,0,19360,18190,16
324,325,0,15086,13935,16
325,326,0,20633,19885,16
326,327,0,19271,17415,16
327,328,0,18587,18525,17
328,329,0,16077,14621,16
329,330,0,18685,18606,17
330,331,0,20387,20083,16
331,332,0,17603,17415,16
332,333,0,19194,17586,15
333,334,0,16423,14588,16
334,335,0,16196,16008,17
335,336,0,16833,16563,17
336,337,0,17797,16376,16
337,338,1,19145,19145,17
338,339,0,19213,18855,16
339,340,0,16073,15242,17
340,341,0,14470,12936,17
341,342,0,16580,14906,16
342,343,0,19905,18908,16
343,344,0,17006,15734,16
344,345,0,19084,18010,16
345,346,0,17737,16016,16
346,347,0,17189,16390,16
347,348,0,15501,14699,17
348,349,0,16407,16139,17
349,350,0,16280,15654,17
350,351,1,15403,15403,17
351,352,0,17178,16644,17
352,353,0,19833,19252,16
353,354,0,16588,15714,17
354,355,0,16867,16192,16
355,356,0,16316,14871,16
356,357,0,16482,15367,16
357,358,0,16097,15880,17
358,359,0,18517,17660,16
359,360,0,15455,15007,17
360,361,0,18742,17204,16
361,362,0,15342,13735,17
362,363,0,19579,17608,16
363,364,0,17980,16032,16
364,365,0,16576,15660,16
365,366,0,18389,17895,16
366,367,0,17828,16294,16
367,368,0,17271,15847,16
368,369,0,16524,15722,17
369,370,1,15806,15806,17
370,371,0,18797,17671,16
371,372,0,18066,17272,16
372,373,0,15574,14785,17
373,374,0,16215,15930,17
374,375,0,18820,18054,16
375,376,0,19768,19633,16
376,377,0,19066,17924,15
377,378,0,17241,15646,16
378,379,0,14353,13794,17
379,380,0,15495,14930,17
380,381,0,20004,19204,16
381,382,0,16633,15353,16
382,383,0,16279,15757,17
383,384,1,19007,19007,17
384,385,0,18852,18614,16
385,386,0,17309,17069,17
386,387,1,18775,18775,16
387,388,1,18579,18579,16
388,389,0,18394,18124,16
389,390,0,16618,14996,16
390,391,0,17102,16634,16
391,392,0,17964,16497,16
392,393,1,16996,16996,17
393,394,0,22877,21878,15
394,395,0,17911,16795,16
395,396,0,17380,16856,16
396,397,0,17474,16368,16
397,398,0,18122,17317,16
398,399,0,18625,18224,17
399,400,0,18009,16335,16
400,401,0,18273,16885,16
401,402,0,19037,18824,16
402,403,0,19802,18547,16
403,404,0,18249,18107,17
404,405,0,17036,16585,17
405,406,0,15847,15481,17
406,407,0,18671,17084,16
407,408,0,17386,15822,16
408,409,0,16289,15129,16
409,410,0,17288,15672,16
410,411,0,18779,16896,16
411,412,0,17766,16150,16
412,413,0,20241,18989,16
413,414,0,15480,14323,17
414,415,0,16964,16843,17
415,416,0,20278,19334,16
416,417,0,17929,16429,15
417,418,0,17088,16072,16
418,419,0,12828,11843,17
419,420,0,18842,17806,16
420,421,0,14799,13943,17
421,422,0,18386,17570,16
422,423,0,17972,17889,16
423,424,0,15423,14022,16
424,425,0,19706,18220,15
425,426,0,16518,15619,16
426,427,0,16197,15338,16
427,428,0,16805,16603,17
428,429,0,20402,19098,15
429,430,0,18478,17065,16
430,431,0,15824,15067,17
431,432,0,20205,19190,16
432,433,0,16023,14584,16
433,434,0,20864,19993,16
434,435,0,20115,19270,16
435,436,0,20847,20466,16
436,437,0,18071,16645,15
437,438,0,17446,16236,16
438,439,0,16055,15389,16
439,440,0,17645,16017,16
440,441,0,16225,15226,17
441,442,0,17792,16618,16
442,443,0,16717,15707,16
443,444,0,15035,13355,17
444,445,0,16361,16154,17
445,446,0,17940,16211,16
446,447,0,19186,17584,16
447,448,0,17759,16417,16
448,449,0,19256,18149,16
449,450,0,17634,17399,16
450,451,0,18030,17611,16
451,452,0,18982,18300,16
452,453,0,17879,17376,16
453,454,0,15156,13817,17
454,455,0,19362,18934,16
455,456,0,18519,17723,16
456,457,0,17409,16119,15
457,458,0,17224,16021,16
458,459,0,19340,18393,16
459,460,0,18126,16541,16
460,461,0,18342,16642,16
461,462,0,15474,15111,17
462,463,0,19064,17777,16
463,464,0,17623,16561,16
464,465,0,18091,17606,16
465,466,0,16775,16751,17
466,467,0,18765,18352,16
467,468,0,16516,15006,16
468,469,0,18728,18162,16
469,470,0,18041,17069,16
470,471,0,17053,16940,17
471,472,0,16647,16026,16
472,473,0,16688,15008,16
473,474,1,15729,15729,17
474,475,0,17349,17097,17
475,476,0,15527,15081,17
476,477,0,18664,17020,16
477,478,0,17716,16527,16
478,479,0,19441,18329,15
479,480,0,16421,15251,17
480,481,0,19372,18756,16
481,482,0,20018,18714,16
482,483,0,20199,19827,15
483,484,0,17242,16838,16
484,485,0,19986,19559,16
485,486,0,15070,13452,17
486,487,0,18386,16911,16
487,488,0,17649,16652,16
488,489,0,17324,15458,16
489,490,0,18034,17098,16
490,491,0,18885,18609,17
491,492,0,17692,16596,16
492,493,0,17716,17574,16
493,494,0,19320,18512,16
494,495,0,19155,17937,16
495,496,0,18454,17777,16
496,497,0,17742,17460,17
497,498,0,19442,19027,16
498,499,0,18101,16685,15
499,500,0,18067,17565,16
