,ID,status,opt price,max price,visited
0,1,1,13383,13383,39709
1,2,1,16649,16649,48705
2,3,1,16292,16292,38963
3,4,1,7638,7638,473
4,5,1,18175,18175,65529
5,6,1,4823,4823,81
6,7,1,19142,19142,63421
7,8,1,20554,20554,65261
8,9,1,19936,19936,65505
9,10,1,18198,18198,65447
10,11,1,7079,7079,1853
11,12,1,11960,11960,16335
12,13,1,17760,17760,64259
13,14,1,14958,14958,56195
14,15,1,633,633,7
15,16,1,13365,13365,39249
16,17,1,6084,6084,275
17,18,1,13735,13735,37201
18,19,1,18478,18478,64919
19,20,1,18705,18705,60419
20,21,1,18689,18689,65439
21,22,1,12365,12365,7099
22,23,1,16774,16774,31743
23,24,1,14864,14864,34825
24,25,1,13565,13565,25613
25,26,1,14756,14756,15581
26,27,1,10468,10468,3017
27,28,1,15738,15738,61647
28,29,1,19972,19972,62455
29,30,1,16148,16148,61863
30,31,1,16020,16020,53461
31,32,1,10617,10617,2319
32,33,1,0,0,1
33,34,1,17001,17001,12317
34,35,1,14872,14872,26191
35,36,1,10645,10645,561
36,37,1,15789,15789,29899
37,38,1,8049,8049,153
38,39,1,10259,10259,5909
39,40,1,18306,18306,47023
40,41,1,17431,17431,64719
41,42,1,9945,9945,2373
42,43,1,17653,17653,65517
43,44,1,9670,9670,6483
44,45,1,9343,9343,6751
45,46,1,14049,14049,65527
46,47,1,20707,20707,65513
47,48,1,5814,5814,243
48,49,1,16613,16613,43875
49,50,1,14306,14306,41421
50,51,1,19732,19732,63211
51,52,1,12958,12958,32681
52,53,1,12993,12993,24955
53,54,1,11330,11330,8409
54,55,1,17675,17675,53807
55,56,1,16362,16362,31121
56,57,1,13005,13005,43615
57,58,1,1926,1926,21
58,59,1,2000,2000,3
59,60,1,9365,9365,7289
60,61,1,15023,15023,63871
61,62,1,21688,21688,65509
62,63,1,7478,7478,1395
63,64,1,11989,11989,33923
64,65,1,12577,12577,26793
65,66,1,4845,4845,121
66,67,1,11439,11439,15633
67,68,1,15565,15565,30747
68,69,1,9301,9301,4535
69,70,1,15262,15262,46893
70,71,1,10735,10735,6509
71,72,1,14892,14892,49063
72,73,1,12029,12029,20163
73,74,1,8464,8464,1525
74,75,1,8363,8363,585
75,76,1,19868,19868,59481
76,77,1,4268,4268,69
77,78,1,17700,17700,65439
78,79,1,17520,17520,65429
79,80,1,9776,9776,2927
80,81,1,16423,16423,60469
81,82,1,19080,19080,65495
82,83,1,19264,19264,65145
83,84,1,17301,17301,63093
84,85,1,6301,6301,255
85,86,1,4736,4736,109
86,87,1,10517,10517,4379
87,88,1,18643,18643,65439
88,89,1,17542,17542,63499
89,90,1,12066,12066,2295
90,91,1,8185,8185,501
91,92,1,15257,15257,65499
92,93,1,8584,8584,597
93,94,1,14760,14760,20375
94,95,1,18470,18470,56355
95,96,1,15726,15726,30105
96,97,1,6817,6817,1973
97,98,1,9800,9800,5389
98,99,1,20414,20414,50171
99,100,1,16143,16143,52551
100,101,1,17339,17339,60099
101,102,1,24347,24347,65503
102,103,1,7328,7328,13965
103,104,1,14938,14938,55249
104,105,1,14899,14899,44313
105,106,1,8780,8780,1957
106,107,1,2390,2390,21
107,108,1,23281,23281,65527
108,109,1,10604,10604,4767
109,110,1,13211,13211,44207
110,111,1,19936,19936,63565
111,112,1,17118,17118,62637
112,113,1,16532,16532,51673
113,114,1,21987,21987,65487
114,115,1,19123,19123,65529
115,116,1,16775,16775,39007
116,117,1,14266,14266,26463
117,118,1,15074,15074,62997
118,119,1,11394,11394,1875
119,120,1,18162,18162,53187
120,121,1,20020,20020,62125
121,122,1,0,0,1
122,123,1,3475,3475,37
123,124,1,21345,21345,64501
124,125,1,16267,16267,62231
125,126,1,15145,15145,21763
126,127,1,17632,17632,65491
127,128,1,13490,13490,51377
128,129,1,11035,11035,28063
129,130,1,18327,18327,40077
130,131,1,7866,7866,589
131,132,1,13306,13306,10675
132,133,1,16547,16547,39427
133,134,1,4437,4437,15
134,135,1,13198,13198,45801
135,136,1,16437,16437,65167
136,137,1,3220,3220,43
137,138,1,17999,17999,62385
138,139,1,12560,12560,11519
139,140,1,3286,3286,123
140,141,1,7915,7915,703
141,142,1,15829,15829,14959
142,143,1,4392,4392,85
143,144,1,13310,13310,11173
144,145,1,16262,16262,28369
145,146,1,18832,18832,54283
146,147,1,16020,16020,54699
147,148,1,17985,17985,65439
148,149,1,9785,9785,9167
149,150,1,13653,13653,64821
150,151,1,1427,1427,5
151,152,1,13036,13036,8017
152,153,1,14377,14377,5903
153,154,1,13185,13185,16131
154,155,1,4662,4662,103
155,156,1,16569,16569,60087
156,157,1,17977,17977,64723
157,158,1,10533,10533,4355
158,159,1,11394,11394,1423
159,160,1,15581,15581,62871
160,161,1,14069,14069,19759
161,162,1,11804,11804,4713
162,163,1,8296,8296,1135
163,164,1,9085,9085,3465
164,165,1,13687,13687,62317
165,166,1,12304,12304,6271
166,167,1,20819,20819,63663
167,168,1,2775,2775,13
168,169,1,19110,19110,58553
169,170,1,13083,13083,16447
170,171,1,6994,6994,223
171,172,1,16108,16108,65477
172,173,1,19348,19348,62577
173,174,1,18571,18571,53917
174,175,1,16561,16561,54719
175,176,1,15478,15478,52401
176,177,1,8217,8217,717
177,178,1,15713,15713,62277
178,179,1,7053,7053,947
179,180,1,12637,12637,47405
180,181,1,9056,9056,1267
181,182,1,14687,14687,32713
182,183,1,6166,6166,277
183,184,1,13397,13397,46153
184,185,1,9293,9293,9705
185,186,1,15526,15526,61737
186,187,1,13033,13033,5039
187,188,1,21645,21645,64319
188,189,1,20523,20523,65497
189,190,1,15391,15391,65521
190,191,1,12889,12889,40753
191,192,1,10947,10947,3955
192,193,1,17315,17315,45357
193,194,1,17065,17065,65481
194,195,1,15401,15401,56011
195,196,1,14957,14957,30767
196,197,1,9796,9796,1045
197,198,1,7728,7728,175
198,199,1,16316,16316,56303
199,200,1,22810,22810,65207
200,201,1,7626,7626,1519
201,202,1,11020,11020,2679
202,203,1,17315,17315,65459
203,204,1,16962,16962,64711
204,205,1,12286,12286,43061
205,206,1,15246,15246,46629
206,207,1,9971,9971,11595
207,208,1,17115,17115,31191
208,209,1,9031,9031,3183
209,210,1,5985,5985,51
210,211,1,12279,12279,11515
211,212,1,13221,13221,13879
212,213,1,11725,11725,17427
213,214,1,21292,21292,64313
214,215,1,17970,17970,26937
215,216,1,15436,15436,60771
216,217,1,11138,11138,4801
217,218,1,8222,8222,1563
218,219,1,18674,18674,53909
219,220,1,21144,21144,60825
220,221,1,18649,18649,65515
221,222,1,17496,17496,60347
222,223,1,13553,13553,8565
223,224,1,4496,4496,29
224,225,1,19544,19544,65351
225,226,1,14087,14087,65407
226,227,1,14215,14215,64547
227,228,1,11239,11239,14085
228,229,1,16060,16060,65273
229,230,1,2326,2326,11
230,231,1,12498,12498,21501
231,232,1,18621,18621,50421
232,233,1,11250,11250,61963
233,234,1,16863,16863,57475
234,235,1,12695,12695,18641
235,236,1,18585,18585,64641
236,237,1,2106,2106,5
237,238,1,16830,16830,64911
238,239,1,507,507,5
239,240,1,13378,13378,14055
240,241,1,4909,4909,57
241,242,1,1630,1630,9
242,243,1,14213,14213,25085
243,244,1,8541,8541,6923
244,245,1,11642,11642,65529
245,246,1,23596,23596,56973
246,247,1,13556,13556,12873
247,248,1,16789,16789,65451
248,249,1,13345,13345,64249
249,250,1,19272,19272,64735
250,251,1,16040,16040,65461
251,252,1,12367,12367,31945
252,253,1,12367,12367,62537
253,254,1,10550,10550,1913
254,255,1,16652,16652,41073
255,256,1,18125,18125,50809
256,257,1,12065,12065,22949
257,258,1,19787,19787,65521
258,259,1,9993,9993,5289
259,260,1,8533,8533,559
260,261,1,20102,20102,64935
261,262,1,3735,3735,15
262,263,1,15911,15911,34851
263,264,1,5347,5347,1273
264,265,1,9338,9338,20851
265,266,1,18933,18933,65531
266,267,1,11595,11595,1707
267,268,1,6500,6500,1325
268,269,1,16025,16025,50021
269,270,1,19454,19454,65527
270,271,1,15354,15354,65355
271,272,1,18458,18458,65387
272,273,1,18824,18824,64809
273,274,1,6352,6352,41
274,275,1,11143,11143,24293
275,276,1,22233,22233,65449
276,277,1,15858,15858,65201
277,278,1,18149,18149,58273
278,279,1,9986,9986,3589
279,280,1,22469,22469,64705
280,281,1,15534,15534,65451
281,282,1,17136,17136,37759
282,283,1,14404,14404,25627
283,284,1,9120,9120,49781
284,285,1,8336,8336,817
285,286,1,19612,19612,65167
286,287,1,17244,17244,40639
287,288,1,17499,17499,64677
288,289,1,16460,16460,60035
289,290,1,17688,17688,63679
290,291,1,3542,3542,15
291,292,1,14234,14234,63097
292,293,1,19570,19570,56335
293,294,1,17331,17331,60969
294,295,1,25129,25129,65189
295,296,1,7077,7077,849
296,297,1,11848,11848,1209
297,298,1,15974,15974,65533
298,299,1,17606,17606,65521
299,300,1,9819,9819,1119
300,301,1,6634,6634,7505
301,302,1,4742,4742,47
302,303,1,0,0,1
303,304,1,16437,16437,31097
304,305,1,18449,18449,65447
305,306,1,21261,21261,65483
306,307,1,7185,7185,489
307,308,1,19712,19712,65487
308,309,1,14719,14719,41225
309,310,1,8550,8550,4471
310,311,1,19873,19873,60623
311,312,1,13122,13122,23143
312,313,1,6751,6751,1831
313,314,1,15347,15347,61969
314,315,1,11644,11644,16039
315,316,1,4397,4397,31
316,317,1,13687,13687,18245
317,318,1,18496,18496,59967
318,319,1,6807,6807,2237
319,320,1,9150,9150,3621
320,321,1,13264,13264,49791
321,322,1,19213,19213,65509
322,323,1,12870,12870,11227
323,324,1,16317,16317,34293
324,325,1,13695,13695,21995
325,326,1,17830,17830,31985
326,327,1,15907,15907,53929
327,328,1,17675,17675,65527
328,329,1,14915,14915,19293
329,330,1,9330,9330,303
330,331,1,16661,16661,46021
331,332,1,11044,11044,15923
332,333,1,20273,20273,64713
333,334,1,11676,11676,8995
334,335,1,20009,20009,65143
335,336,1,16027,16027,28429
336,337,1,17635,17635,55915
337,338,1,17045,17045,65477
338,339,1,13366,13366,13915
339,340,1,9838,9838,2535
340,341,1,4929,4929,169
341,342,1,12976,12976,57531
342,343,1,18281,18281,65445
343,344,1,18162,18162,60005
344,345,1,8043,8043,2275
345,346,1,13636,13636,64223
346,347,1,16157,16157,58893
347,348,1,14326,14326,56055
348,349,1,12068,12068,31973
349,350,1,20075,20075,65475
350,351,1,16068,16068,53453
351,352,1,15236,15236,40887
352,353,1,15568,15568,21827
353,354,1,15249,15249,45521
354,355,1,13282,13282,24785
355,356,1,19532,19532,65321
356,357,1,2015,2015,9
357,358,1,6229,6229,451
358,359,1,18106,18106,61895
359,360,1,19713,19713,65507
360,361,1,17268,17268,63573
361,362,1,16531,16531,54341
362,363,1,21932,21932,62481
363,364,1,5147,5147,63
364,365,1,20665,20665,65479
365,366,1,11593,11593,3829
366,367,1,5070,5070,211
367,368,1,12196,12196,26859
368,369,1,21623,21623,65091
369,370,1,12988,12988,3697
370,371,1,6057,6057,173
371,372,1,10122,10122,15225
372,373,1,7545,7545,85
373,374,1,14693,14693,13451
374,375,1,16908,16908,64537
375,376,1,20454,20454,63869
376,377,1,7407,7407,105
377,378,1,17584,17584,44105
378,379,1,23457,23457,65523
379,380,1,12671,12671,55077
380,381,1,14633,14633,35635
381,382,1,15550,15550,60079
382,383,1,16747,16747,64825
383,384,1,15594,15594,65393
384,385,1,6808,6808,803
385,386,1,12707,12707,19845
386,387,1,18302,18302,65441
387,388,1,4437,4437,23
388,389,1,14874,14874,18053
389,390,1,11759,11759,13509
390,391,1,10116,10116,2813
391,392,1,18298,18298,65473
392,393,1,18416,18416,65531
393,394,1,14135,14135,15311
394,395,1,12562,12562,20689
395,396,1,12360,12360,12847
396,397,1,6970,6970,273
397,398,1,5443,5443,1055
398,399,1,15352,15352,65093
399,400,1,13318,13318,35791
400,401,1,17475,17475,59205
401,402,1,18128,18128,65523
402,403,1,3941,3941,11
403,404,1,4466,4466,43
404,405,1,14818,14818,27907
405,406,1,16573,16573,64805
406,407,1,15337,15337,64809
407,408,1,13835,13835,11151
408,409,1,9887,9887,3123
409,410,1,22314,22314,65505
410,411,1,7111,7111,2517
411,412,1,21921,21921,65373
412,413,1,22963,22963,65479
413,414,1,12188,12188,8729
414,415,1,16696,16696,35289
415,416,1,20819,20819,60043
416,417,1,11500,11500,9673
417,418,1,14531,14531,26631
418,419,1,9366,9366,3285
419,420,1,12810,12810,42653
420,421,1,17584,17584,65477
421,422,1,12136,12136,9563
422,423,1,6968,6968,961
423,424,1,17520,17520,65529
424,425,1,10751,10751,4911
425,426,1,10538,10538,5551
426,427,1,18486,18486,50839
427,428,1,7841,7841,4065
428,429,1,10393,10393,11033
429,430,1,17476,17476,19603
430,431,1,18015,18015,64775
431,432,1,14046,14046,49179
432,433,1,7212,7212,53
433,434,1,17656,17656,61903
434,435,1,9233,9233,6641
435,436,1,12937,12937,19179
436,437,1,17946,17946,65519
437,438,1,15066,15066,65235
438,439,1,13111,13111,29775
439,440,1,11868,11868,29971
440,441,1,18215,18215,64373
441,442,1,12610,12610,42183
442,443,1,17975,17975,65507
443,444,1,10068,10068,1389
444,445,1,17344,17344,63397
445,446,1,6014,6014,559
446,447,1,6909,6909,479
447,448,1,13769,13769,38359
448,449,1,4337,4337,15
449,450,1,21803,21803,65531
450,451,1,18274,18274,49355
451,452,1,10868,10868,6547
452,453,1,18760,18760,45083
453,454,1,10362,10362,469
454,455,1,10854,10854,4715
455,456,1,15161,15161,34499
456,457,1,24334,24334,65343
457,458,1,11297,11297,13743
458,459,1,11642,11642,23913
459,460,1,15672,15672,41305
460,461,1,9622,9622,1097
461,462,1,20498,20498,65485
462,463,1,1802,1802,11
463,464,1,19630,19630,65531
464,465,1,14034,14034,35055
465,466,1,8020,8020,3835
466,467,1,1274,1274,3
467,468,1,2171,2171,17
468,469,1,10706,10706,3581
469,470,1,11482,11482,36993
470,471,1,13239,13239,57671
471,472,1,18428,18428,65531
472,473,1,9264,9264,10009
473,474,1,17402,17402,65507
474,475,1,18150,18150,54527
475,476,1,15190,15190,55409
476,477,1,8388,8388,6279
477,478,1,8812,8812,2951
478,479,1,14571,14571,22399
479,480,1,16250,16250,41737
480,481,1,4869,4869,33
481,482,1,10348,10348,15723
482,483,1,12087,12087,4297
483,484,1,15328,15328,35777
484,485,1,15829,15829,25433
485,486,1,1396,1396,5
486,487,1,17882,17882,41191
487,488,1,12194,12194,16037
488,489,1,1148,1148,5
489,490,1,12249,12249,54693
490,491,1,14308,14308,47545
491,492,1,8895,8895,739
492,493,1,17644,17644,35753
493,494,1,9045,9045,3997
494,495,1,19692,19692,65527
495,496,1,14010,14010,35631
496,497,1,18358,18358,65271
497,498,1,9268,9268,2721
498,499,1,16543,16543,8511
499,500,1,23252,23252,65527
