,4,10,15
0,3.6674999989827484e-05,0.0018429584999921644,0.002956083500009754
1,8.102500004270041e-06,0.0042024075000028915,0.24251964400002635
2,4.1266000010864445e-05,0.004324050999969131,0.39037968650001176
3,4.284799999254574e-05,0.004136692000002995,0.002344292000003634
4,5.349250000108441e-05,0.002078768500012984,0.11282771749998233
5,8.758999999258776e-05,0.0016429554999888296,0.12623516649998123
6,3.5340000010819494e-05,0.002818146500004559,0.053193730000003825
7,2.0522999989225355e-05,0.00434815949998324,0.11921889600000668
8,4.8675500011086115e-05,0.003630596000022024,0.12645925200001784
9,6.0379999979431886e-05,0.0013107735000232879,0.018521448000001328
10,3.4198999998125146e-05,0.0028889749999905234,0.12383617550003123
11,4.951399998276429e-05,0.0038750404999916555,0.00016074399999865818
12,6.108700003437662e-05,0.0012937415000067176,0.0001977484999713397
13,2.1491000040896324e-05,0.0018092219999914505,0.120475590500007
14,4.446549999670424e-05,0.001014752999992652,0.021035164500034398
15,3.830149998407251e-05,0.004170745000010356,0.06711031450001315
16,3.5966000012876975e-05,0.002663147500015839,0.1018627034999895
17,3.735199999255201e-05,0.0003661290000138706,0.006752280499995322
18,2.0712500003128298e-05,0.000407830000000331,0.09158202399999027
19,5.629400001794238e-05,0.0034682179999947493,0.11279026400001158
20,5.286699999373923e-05,0.003826224500016906,0.049942676000000574
21,4.229799998256567e-05,0.0013547390000212545,0.003749784999996564
22,5.712750001407585e-05,0.0015464720000011312,0.03802320499997336
23,5.135850000215214e-05,0.002882714500003658,6.194699997763564e-05
24,4.6976499987749776e-05,0.001088548000012679,0.04979765899997801
25,3.3811999998079045e-05,0.0006399594999777491,0.1062966124999889
26,5.766699996456737e-05,0.0010957570000016403,0.12935320500000103
27,4.280899997866072e-05,0.00309719349999682,0.005094782000014675
28,5.7771000001594075e-05,0.002344200999999657,0.12676950049996094
29,3.740799999718547e-05,0.0036095135000380196,0.1271453935000295
30,1.594450000652614e-05,0.0011176020000220888,0.054633472500000835
31,2.825600000733175e-05,0.0014366645000052358,0.004262361500025236
32,2.385700000218094e-05,0.0057886084999836385,0.13769256249997852
33,4.1883500017547703e-05,0.005006394500014721,0.08049522999999681
34,2.1481000004541784e-05,0.008035349000010683,0.1303590345000032
35,7.985999985749004e-06,0.0016713384999889058,0.13237549049998165
36,4.8731999982010166e-05,0.005142424500007792,0.021915846499979352
37,5.188650001741735e-05,0.006481330500037075,0.07577881250000473
38,1.6227499997967243e-05,0.002285003000025654,0.09248571549997564
39,8.95900001296468e-06,0.003966312999978072,0.0002713800000151423
40,3.237850000914477e-05,0.0033602460000281553,0.0005153885000197533
41,5.2640000006931587e-05,0.0033954804999893895,0.06660724750000213
42,5.537449999337696e-05,0.00010126949996447365,0.040624930999968
43,5.519949996823925e-05,0.0021131324999998924,0.1467746944999817
44,3.5988000007591836e-05,0.0011396474999969541,0.0468731265000315
45,3.624300001092706e-05,0.004211392500025113,0.002743850000030079
46,7.83049998176466e-06,0.0008711129999880995,0.10735482399996954
47,5.534850001254199e-05,0.000639002499980279,0.14224492799999666
48,7.651499970506848e-06,0.0006058314999961567,0.009412196000027961
49,3.334249998943051e-05,0.004245716000013999,0.10928071699999009
50,3.246250003030582e-05,3.492000018923136e-06,0.0043572814999777165
51,1.830449997441974e-05,0.0016647504999980356,0.058038906999968276
52,4.760000001624576e-05,0.0034970144999988406,0.03033384549999596
53,4.2475500009686584e-05,0.003325045000025284,0.002529546499999924
54,4.800749999844811e-05,0.0036369935000095666,0.06624844249998318
55,4.6166000004177477e-05,0.0009044184999993377,0.060898858999991035
56,4.90239999919595e-05,0.0008394624999823463,0.0762448920000054
57,5.020849999937127e-05,0.0014641310000058638,0.038877358999997114
58,3.877299999999195e-05,0.00044906599998739694,0.05691377100001205
59,5.677699999750985e-05,6.11584999887782e-05,0.015906805500009114
60,3.476500000942906e-05,0.0037502714999959608,0.0039014225000073566
61,1.5072499991219956e-05,0.0012872389999927236,0.01652262700000051
62,4.277549999187613e-05,0.00259908399999631,0.1186581750000073
63,4.61399999949208e-05,0.0026366514999836,0.0005077874999983578
64,1.6075500013812416e-05,0.002525975499992228,0.12963327650001588
65,6.0562500010519216e-05,0.0010775099999875692,0.021673095500005957
66,2.7934499996717932e-05,0.0011447269999678156,0.080543737499994
67,6.283850001409519e-05,0.003395559500006584,0.06821664400001737
68,1.5528999995240156e-05,0.005240051999976458,0.04308189500000026
69,4.0753499973789076e-05,0.0016922239999814792,0.1267315089999954
70,2.706850000322447e-05,0.0015948914999910357,0.06487543700001197
71,4.0877999992972036e-05,0.003578342500020426,0.1417211930000235
72,5.30354999739302e-05,0.00030478549999202187,0.12952975050001214
73,4.794299999844043e-05,0.0010503375000041615,0.06511944150003046
74,1.3558499972532445e-05,0.004443884500005879,0.058491416500004334
75,4.426000000989916e-05,0.0021822134999922582,0.14087907750001705
76,1.5436499978704887e-05,0.0035283100000071954,0.05172679500000754
77,2.425649998372137e-05,5.036000001723551e-05,0.12379471049999324
78,8.634500005655354e-06,0.0018465714999820193,0.11058193350001488
79,4.9030999974775114e-05,0.0025170254999977715,7.294649998357272e-05
80,6.585150001114926e-05,0.001021855999994159,0.08407723050001437
81,4.428150000990172e-05,1.530800000182353e-05,0.13667898599999262
82,8.494000013570258e-06,0.0016764840000007553,0.14632341750001387
83,6.380249999438092e-05,0.004002779500012821,0.007490270000005239
84,8.4259999994174e-05,0.0019688399999893136,0.09317172250001704
85,6.020249998073268e-05,0.0007768480000152067,0.029106159000008347
86,3.719999997997547e-05,0.0039855719999764005,0.05863526799998908
87,5.7429500003536305e-05,0.007273819999994657,0.1278548525000076
88,6.012500000451837e-05,8.8338000011845e-05,0.11730205649999448
89,3.115449999313569e-05,0.00649301799998625,0.13527598099997817
90,6.408099997656791e-05,0.006439364499982503,0.02622867650001126
91,5.591100000401639e-05,0.0001547324999933153,0.04159224699998276
92,3.860949996692398e-05,0.012273708000009265,0.014010870000021214
93,2.84154999974362e-05,0.0002473314999917875,0.11154428300000063
94,4.857800001900614e-05,0.00036358450000761877,0.032193985000020575
95,1.2703500004818125e-05,0.017568281000023944,0.11608366050000996
96,2.988350001942308e-05,0.009130075999962628,0.07803558550000389
97,4.9621499982777095e-05,0.005621271500018565,0.00374313700001494
98,1.1913500031823787e-05,0.00825570250000851,0.13225722600000722
99,3.055999997059189e-05,0.008542470000008962,0.13179524499997797
