,ID,status,opt price,C,max price,Passed,visited,time
0,1,OK,6515,6328,6515,True,83,0
1,2,OK,7842,7528,7842,True,151,0
2,3,OK,9119,8879,9119,True,93,0
3,4,OK,8050,8019,8050,True,167,0
4,5,OK,7726,7916,7726,False,109,0
5,6,OK,9269,8925,9269,True,219,0
6,7,OK,9119,9187,9119,False,116,0
7,8,OK,9394,9644,9394,False,215,0
8,9,OK,9776,9469,9776,True,200,0
9,10,OK,7501,7355,7501,True,104,0
10,11,OK,10069,9840,10069,True,351,0
11,12,OK,9567,9409,9567,True,193,0
12,13,OK,7461,7511,7461,False,183,0
13,14,OK,9128,8849,9128,True,153,0
14,15,OK,8953,9025,8953,False,193,0
15,16,OK,10810,10586,10810,True,206,0
16,17,OK,9464,9130,9464,True,146,0
17,18,OK,9952,10006,9952,False,163,0
18,19,OK,8495,8736,8495,False,198,0
19,20,OK,8770,8739,8770,True,149,0
20,21,OK,9542,9365,9542,True,153,0
21,22,OK,8302,8569,8302,False,148,0
22,23,OK,8879,9199,8879,False,162,0
23,24,OK,9894,9985,9894,False,190,0
24,25,OK,9352,9709,9352,False,290,0
25,26,OK,9607,9657,9607,False,190,0
26,27,OK,10466,10071,10466,True,212,0
27,28,OK,7881,7620,7881,True,230,0
28,29,OK,8537,8214,8537,True,113,0
29,30,OK,8735,8927,8735,False,192,0
30,31,OK,7292,7319,7292,False,109,0
31,32,OK,8207,8215,8207,False,216,0
32,33,OK,8373,8479,8373,False,111,0
33,34,OK,10350,10325,10350,True,219,0
34,35,OK,9058,9225,9058,False,246,0
35,36,OK,6607,6447,6607,True,154,0
36,37,OK,8876,8865,8876,True,213,0
37,38,OK,7591,7657,7591,False,172,0
38,39,OK,8900,8607,8900,True,134,0
39,40,OK,8204,8138,8204,True,245,0
40,41,OK,7689,7715,7689,False,84,0
41,42,OK,7866,7606,7866,True,54,0
42,43,OK,8754,8964,8754,False,141,0
43,44,OK,9088,9234,9088,False,170,0
44,45,OK,7900,7904,7900,False,104,0
45,46,OK,8476,8337,8476,True,184,0
46,47,OK,10141,10295,10141,False,190,0
47,48,OK,8048,7746,8048,True,208,0
48,49,OK,10749,10883,10749,False,196,0
49,50,OK,9609,9944,9609,False,198,0
50,51,OK,8264,8276,8264,False,177,0
51,52,OK,6396,6310,6396,True,222,0
52,53,OK,10433,10123,10433,True,207,0
53,54,OK,9217,8869,9217,True,127,0
54,55,OK,10307,10597,10307,False,246,0
55,56,OK,10624,10768,10624,False,149,0
56,57,OK,9654,9397,9654,True,169,0
57,58,OK,7907,7952,7907,False,95,0
58,59,OK,8195,8226,8195,False,165,0
59,60,OK,7136,7050,7136,True,158,0
60,61,OK,9051,8824,9051,True,144,0
61,62,OK,9673,9751,9673,False,208,0
62,63,OK,9274,9628,9274,False,177,0
63,64,OK,9739,9847,9739,False,161,0
64,65,OK,7994,8179,7994,False,175,0
65,66,OK,7795,7586,7795,True,165,0
66,67,OK,8917,9228,8917,False,148,0
67,68,OK,8205,7914,8205,True,142,0
68,69,OK,6682,6860,6682,False,141,0
69,70,OK,11897,12209,11897,False,227,0
70,71,OK,7981,7705,7981,True,170,0
71,72,OK,9418,9307,9418,True,162,0
72,73,OK,7108,6990,7108,True,110,0
73,74,OK,8225,8326,8225,False,190,0
74,75,OK,7856,8007,7856,False,63,0
75,76,OK,9638,9377,9638,True,168,0
76,77,OK,7082,7296,7082,False,194,0
77,78,OK,10215,10239,10215,False,154,0
78,79,OK,8877,8687,8877,True,175,0
79,80,OK,10785,10522,10785,True,230,0
80,81,OK,6890,6986,6890,False,100,0
81,82,OK,7765,7666,7765,True,75,0
82,83,OK,9221,9071,9221,True,110,0
83,84,OK,9852,10131,9852,False,153,0
84,85,OK,7419,7448,7419,False,80,0
85,86,OK,9904,10255,9904,False,184,0
86,87,OK,9282,9377,9282,False,220,0
87,88,OK,9417,9758,9417,False,190,0
88,89,OK,9673,10025,9673,False,167,0
89,90,OK,7400,7230,7400,True,139,0
90,91,OK,10212,10283,10212,False,251,0
91,92,OK,8563,8811,8563,False,117,0
92,93,OK,8253,8276,8253,False,229,0
93,94,OK,9964,10229,9964,False,199,0
94,95,OK,9121,8900,9121,True,156,0
95,96,OK,10711,10466,10711,True,201,0
96,97,OK,8505,8812,8505,False,89,0
97,98,OK,8293,8244,8293,True,119,0
98,99,OK,7318,7371,7318,False,199,0
99,100,OK,10019,9671,10019,True,140,0
100,101,OK,9839,9716,9839,True,133,0
101,102,OK,7929,7656,7929,True,212,0
102,103,OK,7616,7475,7616,True,176,0
103,104,OK,8936,9042,8936,False,89,0
104,105,OK,9514,9615,9514,False,151,0
105,106,OK,10356,10528,10356,False,209,0
106,107,OK,8921,9064,8921,False,130,0
107,108,OK,8910,8729,8910,True,112,0
108,109,OK,6379,6166,6379,True,217,0
109,110,OK,8146,8447,8146,False,252,0
110,111,OK,10929,10908,10929,True,184,0
111,112,OK,8747,8821,8747,False,220,0
112,113,OK,9316,9496,9316,False,254,0
113,114,OK,8706,8673,8706,True,171,0
114,115,OK,9014,9217,9014,False,156,0
115,116,OK,9756,9951,9756,False,168,0
116,117,OK,7710,7827,7710,False,84,0
117,118,OK,9504,9356,9504,True,186,0
118,119,OK,8222,8358,8222,False,109,0
119,120,OK,9736,9979,9736,False,223,0
120,121,OK,7385,7116,7385,True,95,0
121,122,OK,8499,8463,8499,True,109,0
122,123,OK,9322,9503,9322,False,205,0
123,124,OK,8823,8577,8823,True,222,0
124,125,OK,7797,7570,7797,True,126,0
125,126,OK,9666,9698,9666,False,184,0
126,127,OK,8676,8809,8676,False,135,0
127,128,OK,8013,8192,8013,False,151,0
128,129,OK,9170,9144,9170,True,207,0
129,130,OK,7540,7761,7540,False,106,0
130,131,OK,7456,7588,7456,False,173,0
131,132,OK,8541,8567,8541,False,178,0
132,133,OK,10433,10292,10433,True,162,0
133,134,OK,8919,8703,8919,True,137,0
134,135,OK,7976,8052,7976,False,180,0
135,136,OK,7762,7668,7762,True,188,0
136,137,OK,7462,7703,7462,False,132,0
137,138,OK,10620,10463,10620,True,204,0
138,139,OK,9633,9381,9633,True,142,0
139,140,OK,8630,8815,8630,False,98,0
140,141,OK,9049,8764,9049,True,136,0
141,142,OK,9838,9703,9838,True,190,0
142,143,OK,8922,8662,8922,True,156,0
143,144,OK,7962,7943,7962,True,167,0
144,145,OK,6482,6518,6482,False,115,0
145,146,OK,9531,9381,9531,True,193,0
146,147,OK,9040,9171,9040,False,172,0
147,148,OK,7793,7991,7793,False,194,0
148,149,OK,8099,8254,8099,False,88,0
149,150,OK,5883,5694,5883,True,197,0
150,151,OK,10053,10414,10053,False,185,0
151,152,OK,8705,8820,8705,False,158,0
152,153,OK,9935,9574,9935,True,211,0
153,154,OK,8286,8167,8286,True,178,0
154,155,OK,8789,9127,8789,False,152,0
155,156,OK,8803,8717,8803,True,198,0
156,157,OK,9678,9906,9678,False,202,0
157,158,OK,8871,8671,8871,True,135,0
158,159,OK,6920,6698,6920,True,80,0
159,160,OK,9879,9991,9879,False,264,0
160,161,OK,9976,9889,9976,True,209,0
161,162,OK,9936,9745,9936,True,150,0
162,163,OK,7752,8020,7752,False,211,0
163,164,OK,8759,8760,8759,False,120,0
164,165,OK,9633,9488,9633,True,120,0
165,166,OK,7771,8036,7771,False,118,0
166,167,OK,8807,9107,8807,False,114,0
167,168,OK,8202,8212,8202,False,151,0
168,169,OK,7623,7584,7623,True,157,0
169,170,OK,8363,8478,8363,False,181,0
170,171,OK,6947,7023,6947,False,166,0
171,172,OK,8876,9191,8876,False,193,0
172,173,OK,7873,8166,7873,False,147,0
173,174,OK,9645,9418,9645,True,221,0
174,175,OK,9246,9024,9246,True,113,0
175,176,OK,8832,8884,8832,False,115,0
176,177,OK,7514,7694,7514,False,135,0
177,178,OK,8994,9187,8994,False,124,0
178,179,OK,9299,9502,9299,False,167,0
179,180,OK,8627,8786,8627,False,150,0
180,181,OK,8682,8381,8682,True,169,0
181,182,OK,6210,6378,6210,False,117,0
182,183,OK,9376,9171,9376,True,245,0
183,184,OK,8688,8769,8688,False,197,0
184,185,OK,7146,7136,7146,True,140,0
185,186,OK,8031,7774,8031,True,126,0
186,187,OK,9988,10208,9988,False,160,0
187,188,OK,9102,9300,9102,False,125,0
188,189,OK,8940,8680,8940,True,200,0
189,190,OK,9342,9630,9342,False,114,0
190,191,OK,8756,8947,8756,False,157,0
191,192,OK,10231,10563,10231,False,255,0
192,193,OK,9227,8927,9227,True,180,0
193,194,OK,7035,7241,7035,False,219,0
194,195,OK,10334,10448,10334,False,317,0
195,196,OK,10342,10266,10342,True,154,0
196,197,OK,8255,8289,8255,False,159,0
197,198,OK,11161,10878,11161,True,223,0
198,199,OK,7669,7521,7669,True,148,0
199,200,OK,8417,8357,8417,True,123,0
200,201,OK,9689,9425,9689,True,205,0
201,202,OK,8290,8374,8290,False,125,0
202,203,OK,8738,8501,8738,True,198,0
203,204,OK,7599,7753,7599,False,100,0
204,205,OK,9365,9190,9365,True,206,0
205,206,OK,7997,7920,7997,True,196,0
206,207,OK,7712,7950,7712,False,140,0
207,208,OK,7439,7612,7439,False,91,0
208,209,OK,7713,7895,7713,False,78,0
209,210,OK,8315,8384,8315,False,250,0
210,211,OK,7522,7259,7522,True,137,0
211,212,OK,8040,7781,8040,True,253,0
212,213,OK,9190,9172,9190,True,198,0
213,214,OK,9171,8941,9171,True,128,0
214,215,OK,7960,8217,7960,False,149,0
215,216,OK,9443,9486,9443,False,229,0
216,217,OK,10385,10620,10385,False,166,0
217,218,OK,7927,8012,7927,False,173,0
218,219,OK,9962,10114,9962,False,275,0
219,220,OK,9471,9451,9471,True,160,0
220,221,OK,7108,7319,7108,False,175,0
221,222,OK,10342,10258,10342,True,278,0
222,223,OK,8417,8597,8417,False,154,0
223,224,OK,9210,8937,9210,True,254,0
224,225,OK,8052,8202,8052,False,131,0
225,226,OK,9937,10151,9937,False,210,0
226,227,OK,6403,6447,6403,False,117,0
227,228,OK,10138,9782,10138,True,131,0
228,229,OK,10026,9931,10026,True,275,0
229,230,OK,8264,8560,8264,False,224,0
230,231,OK,6805,6676,6805,True,103,0
231,232,OK,10876,10548,10876,True,194,0
232,233,OK,6974,7050,6974,False,49,0
233,234,OK,11164,11122,11164,True,185,0
234,235,OK,6937,6805,6937,True,216,0
235,236,OK,7607,7787,7607,False,164,0
236,237,OK,8648,8497,8648,True,110,0
237,238,OK,10069,10015,10069,True,287,0
238,239,OK,9101,9228,9101,False,183,0
239,240,OK,8341,8035,8341,True,229,0
240,241,OK,10411,10735,10411,False,273,0
241,242,OK,6405,6479,6405,False,223,0
242,243,OK,7075,7091,7075,False,164,0
243,244,OK,8026,8295,8026,False,171,0
244,245,OK,8019,7846,8019,True,109,0
245,246,OK,8282,8371,8282,False,139,0
246,247,OK,10265,10384,10265,False,156,0
247,248,OK,6972,7182,6972,False,108,0
248,249,OK,10647,10496,10647,True,218,0
249,250,OK,10450,10078,10450,True,167,0
250,251,OK,8777,8889,8777,False,157,0
251,252,OK,7829,7621,7829,True,148,0
252,253,OK,10072,10132,10072,False,216,0
253,254,OK,8666,8718,8666,False,100,0
254,255,OK,9212,9439,9212,False,229,0
255,256,OK,8417,8522,8417,False,154,0
256,257,OK,8217,8047,8217,True,161,0
257,258,OK,8672,8562,8672,True,126,0
258,259,OK,9157,8873,9157,True,86,0
259,260,OK,10524,10606,10524,False,143,0
260,261,OK,8006,8006,8006,True,107,0
261,262,OK,8771,9025,8771,False,161,0
262,263,OK,7764,8062,7764,False,183,0
263,264,OK,6917,7055,6917,False,135,0
264,265,OK,10094,10208,10094,False,275,0
265,266,OK,10658,10959,10658,False,197,0
266,267,OK,6755,6801,6755,False,114,0
267,268,OK,11079,10908,11079,True,240,0
268,269,OK,8612,8748,8612,False,154,0
269,270,OK,9000,9235,9000,False,116,0
270,271,OK,9576,9553,9576,True,193,0
271,272,OK,10200,10098,10200,True,156,0
272,273,OK,7904,7859,7904,True,142,0
273,274,OK,7099,7008,7099,True,114,0
274,275,OK,8989,8830,8989,True,133,0
275,276,OK,7718,7933,7718,False,149,0
276,277,OK,9402,9150,9402,True,166,0
277,278,OK,9355,9413,9355,False,145,0
278,279,OK,7656,7921,7656,False,149,0
279,280,OK,8046,7848,8046,True,154,0
280,281,OK,8026,8341,8026,False,159,0
281,282,OK,10874,11051,10874,False,222,0
282,283,OK,10347,10152,10347,True,204,0
283,284,OK,9365,9377,9365,False,210,0
284,285,OK,10028,9945,10028,True,193,0
285,286,OK,10181,10183,10181,False,200,0
286,287,OK,8769,9098,8769,False,129,0
287,288,OK,9233,9587,9233,False,191,0
288,289,OK,9347,9314,9347,True,138,0
289,290,OK,7655,7957,7655,False,95,0
290,291,OK,6834,6661,6834,True,114,0
291,292,OK,8293,8565,8293,False,208,0
292,293,OK,8004,8244,8004,False,238,0
293,294,OK,7681,7713,7681,False,215,0
294,295,OK,9629,9569,9629,True,144,0
295,296,OK,8201,7993,8201,True,117,0
296,297,OK,6561,6419,6561,True,125,0
297,298,OK,9826,9609,9826,True,225,0
298,299,OK,8509,8371,8509,True,139,0
299,300,OK,9348,9320,9348,True,307,0
300,301,OK,8182,7999,8182,True,266,0
301,302,OK,8849,8801,8849,True,198,0
302,303,OK,7922,8203,7922,False,137,0
303,304,OK,9813,9591,9813,True,186,0
304,305,OK,11972,12236,11972,False,338,0
305,306,OK,8202,8141,8202,True,143,0
306,307,OK,6043,5919,6043,True,106,0
307,308,OK,9028,9348,9028,False,128,0
308,309,OK,7395,7142,7395,True,209,0
309,310,OK,7121,7353,7121,False,32,0
310,311,OK,8801,8672,8801,True,180,0
311,312,OK,8911,9027,8911,False,132,0
312,313,OK,10716,11073,10716,False,245,0
313,314,OK,7098,7301,7098,False,181,0
314,315,OK,7423,7224,7423,True,145,0
315,316,OK,11074,10701,11074,True,180,0
316,317,OK,8509,8372,8509,True,166,0
317,318,OK,8486,8408,8486,True,187,0
318,319,OK,8650,8789,8650,False,226,0
319,320,OK,12268,11871,12268,True,253,0
320,321,OK,9331,9093,9331,True,175,0
321,322,OK,8930,9079,8930,False,140,0
322,323,OK,11777,11786,11777,False,196,0
323,324,OK,7939,7799,7939,True,129,0
324,325,OK,10316,10584,10316,False,157,0
325,326,OK,9024,8935,9024,True,191,0
326,327,OK,10231,10338,10231,False,292,0
327,328,OK,9802,9832,9802,False,176,0
328,329,OK,7671,7880,7671,False,75,0
329,330,OK,7468,7443,7468,True,80,0
330,331,OK,8217,8496,8217,False,142,0
331,332,OK,7364,7277,7364,True,159,0
332,333,OK,7616,7317,7616,True,233,0
333,334,OK,8120,7838,8120,True,135,0
334,335,OK,7325,7505,7325,False,118,0
335,336,OK,8105,7847,8105,True,169,0
336,337,OK,10038,10085,10038,False,178,0
337,338,OK,10631,10487,10631,True,229,0
338,339,OK,10709,10589,10709,True,197,0
339,340,OK,9209,9233,9209,False,181,0
340,341,OK,9993,9770,9993,True,155,0
341,342,OK,8790,8753,8790,True,202,0
342,343,OK,9357,9454,9357,False,234,0
343,344,OK,10124,9846,10124,True,120,0
344,345,OK,10416,10244,10416,True,205,0
345,346,OK,9795,9817,9795,False,179,0
346,347,OK,8312,8113,8312,True,140,0
347,348,OK,10194,10586,10194,False,172,0
348,349,OK,9660,9495,9660,True,146,0
349,350,OK,9798,9758,9798,True,156,0
350,351,OK,7844,8025,7844,False,87,0
351,352,OK,6819,6591,6819,True,143,0
352,353,OK,9983,9681,9983,True,310,0
353,354,OK,9047,9252,9047,False,168,0
354,355,OK,9155,8910,9155,True,176,0
355,356,OK,7711,7704,7711,True,136,0
356,357,OK,10297,10544,10297,False,237,0
357,358,OK,10355,10622,10355,False,160,0
358,359,OK,9318,8997,9318,True,189,0
359,360,OK,9165,9149,9165,True,137,0
360,361,OK,8809,8492,8809,True,171,0
361,362,OK,7951,8148,7951,False,135,0
362,363,OK,8352,8567,8352,False,92,0
363,364,OK,9532,9456,9532,True,254,0
364,365,OK,7147,7128,7147,True,127,0
365,366,OK,11742,11698,11742,True,316,0
366,367,OK,10624,10927,10624,False,216,0
367,368,OK,8264,8491,8264,False,156,0
368,369,OK,8948,8674,8948,True,133,0
369,370,OK,7652,7952,7652,False,176,0
370,371,OK,10561,10738,10561,False,201,0
371,372,OK,7116,7060,7116,True,129,0
372,373,OK,9498,9735,9498,False,132,0
373,374,OK,10341,10435,10341,False,257,0
374,375,OK,7152,7119,7152,True,192,0
375,376,OK,7870,7716,7870,True,110,0
376,377,OK,10715,10488,10715,True,174,0
377,378,OK,7916,7830,7916,True,90,0
378,379,OK,7855,7726,7855,True,162,0
379,380,OK,7586,7528,7586,True,204,0
380,381,OK,9161,8972,9161,True,211,0
381,382,OK,7449,7703,7449,False,169,0
382,383,OK,8828,9103,8828,False,176,0
383,384,OK,8323,8620,8323,False,91,0
384,385,OK,6645,6735,6645,False,262,0
385,386,OK,7481,7479,7481,True,172,0
386,387,OK,8884,8750,8884,True,89,0
387,388,OK,9631,9378,9631,True,220,0
388,389,OK,9307,8980,9307,True,128,0
389,390,OK,7778,7606,7778,True,150,0
390,391,OK,9764,9672,9764,True,168,0
391,392,OK,9156,8899,9156,True,193,0
392,393,OK,8969,8695,8969,True,240,0
393,394,OK,8428,8433,8428,False,83,0
394,395,OK,6056,6204,6056,False,169,0
395,396,OK,8582,8835,8582,False,117,0
396,397,OK,7896,7785,7896,True,147,0
397,398,OK,6013,6011,6013,True,213,0
398,399,OK,8055,8004,8055,True,187,0
399,400,OK,9780,10005,9780,False,161,0
400,401,OK,8316,8275,8316,True,157,0
401,402,OK,9590,9743,9590,False,193,0
402,403,OK,7238,7412,7238,False,64,0
403,404,OK,8019,7944,8019,True,131,0
404,405,OK,9202,9362,9202,False,196,0
405,406,OK,6963,6732,6963,True,100,0
406,407,OK,9915,9735,9915,True,253,0
407,408,OK,10249,9936,10249,True,162,0
408,409,OK,7719,7683,7719,True,161,0
409,410,OK,9573,9947,9573,False,129,0
410,411,OK,10475,10307,10475,True,272,0
411,412,OK,10136,10194,10136,False,205,0
412,413,OK,8274,8015,8274,True,185,0
413,414,OK,6321,6200,6321,True,196,0
414,415,OK,10926,11016,10926,False,253,0
415,416,OK,8129,8064,8129,True,139,0
416,417,OK,7994,7823,7994,True,130,0
417,418,OK,9304,9586,9304,False,80,0
418,419,OK,7458,7384,7458,True,142,0
419,420,OK,6870,7111,6870,False,124,0
420,421,OK,7368,7300,7368,True,185,0
421,422,OK,8166,8467,8166,False,211,0
422,423,OK,9304,9394,9304,False,159,0
423,424,OK,9802,9771,9802,True,260,0
424,425,OK,7959,7958,7959,True,284,0
425,426,OK,8961,8632,8961,True,115,0
426,427,OK,8927,9040,8927,False,202,0
427,428,OK,7332,7042,7332,True,129,0
428,429,OK,10887,11260,10887,False,266,0
429,430,OK,8681,8501,8681,True,152,0
430,431,OK,10572,10375,10572,True,220,0
431,432,OK,7646,7541,7646,True,85,0
432,433,OK,9955,9833,9955,True,232,0
433,434,OK,7768,7877,7768,False,157,0
434,435,OK,7458,7703,7458,False,134,0
435,436,OK,9866,9704,9866,True,147,0
436,437,OK,7996,7840,7996,True,150,0
437,438,OK,9034,9390,9034,False,103,0
438,439,OK,8429,8320,8429,True,181,0
439,440,OK,8712,8583,8712,True,107,0
440,441,OK,7898,7643,7898,True,122,0
441,442,OK,10386,9972,10386,True,238,0
442,443,OK,7687,7960,7687,False,108,0
443,444,OK,7849,7891,7849,False,165,0
444,445,OK,8344,8438,8344,False,111,0
445,446,OK,8604,8479,8604,True,153,0
446,447,OK,8671,8970,8671,False,112,0
447,448,OK,9726,9468,9726,True,156,0
448,449,OK,7506,7290,7506,True,167,0
449,450,OK,9898,9726,9898,True,190,0
450,451,OK,8690,8745,8690,False,176,0
451,452,OK,8612,8900,8612,False,160,0
452,453,OK,10593,10890,10593,False,161,0
453,454,OK,7822,7542,7822,True,139,0
454,455,OK,9575,9413,9575,True,158,0
455,456,OK,11512,11803,11512,False,253,0
456,457,OK,9527,9215,9527,True,164,0
457,458,OK,9548,9210,9548,True,184,0
458,459,OK,9078,8738,9078,True,175,0
459,460,OK,6707,6574,6707,True,164,0
460,461,OK,10013,10394,10013,False,349,0
461,462,OK,11672,11497,11672,True,270,0
462,463,OK,9440,9357,9440,True,119,0
463,464,OK,8710,8778,8710,False,108,0
464,465,OK,6010,5776,6010,True,76,0
465,466,OK,7105,6977,7105,True,162,0
466,467,OK,8458,8248,8458,True,105,0
467,468,OK,6366,6491,6366,False,129,0
468,469,OK,10123,10366,10123,False,165,0
469,470,OK,11888,12264,11888,False,257,0
470,471,OK,9391,9766,9391,False,166,0
471,472,OK,7505,7399,7505,True,123,0
472,473,OK,9402,9028,9402,True,175,0
473,474,OK,7459,7630,7459,False,82,0
474,475,OK,9277,9224,9277,True,194,0
475,476,OK,10046,10365,10046,False,182,0
476,477,OK,9994,9896,9994,True,245,0
477,478,OK,7210,7071,7210,True,100,0
478,479,OK,8591,8390,8591,True,127,0
479,480,OK,9207,9304,9207,False,182,0
480,481,OK,7934,7678,7934,True,92,0
481,482,OK,9035,9370,9035,False,149,0
482,483,OK,6324,6251,6324,True,192,0
483,484,OK,8577,8686,8577,False,87,0
484,485,OK,7727,7421,7727,True,149,0
485,486,OK,11173,11022,11173,True,159,0
486,487,OK,8308,8260,8308,True,186,0
487,488,OK,7022,7175,7022,False,205,0
488,489,OK,9551,9409,9551,True,242,0
489,490,OK,7849,7738,7849,True,92,0
490,491,OK,10435,10837,10435,False,338,0
491,492,OK,8077,8306,8077,False,144,0
492,493,OK,9719,9330,9719,True,221,0
493,494,OK,10026,9790,10026,True,218,0
494,495,OK,6388,6606,6388,False,156,0
495,496,OK,10096,10125,10096,False,140,0
496,497,OK,7598,7591,7598,True,121,0
497,498,OK,10420,10061,10420,True,218,0
498,499,OK,7964,7740,7964,True,126,0
499,500,OK,6436,6452,6436,False,137,0
