,ID,status,opt price,max price,visited
0,1,0,17561,16956,14
1,2,0,20949,20216,11
2,3,0,26514,26194,16
3,4,0,20845,20015,12
4,5,0,19271,17942,11
5,6,1,26525,26525,16
6,7,1,27210,27210,20
7,8,1,19650,19650,15
8,9,0,10363,10150,8
9,10,1,23370,23370,20
10,11,0,19251,19109,14
11,12,1,19549,19549,18
12,13,0,10419,9511,7
13,14,1,16018,16018,11
14,15,1,30708,30708,20
15,16,0,8752,8710,6
16,17,0,20560,19459,14
17,18,0,24589,24541,19
18,19,1,24440,24440,20
19,20,0,24417,23828,18
20,21,1,12128,12128,9
21,22,1,19371,19371,15
22,23,1,28320,28320,18
23,24,0,22767,22533,14
24,25,1,22575,22575,19
25,26,0,29168,29141,20
26,27,1,28964,28964,18
27,28,1,11722,11722,8
28,29,1,22563,22563,13
29,30,0,4627,4254,4
30,31,1,24095,24095,18
31,32,0,22409,21699,14
32,33,0,24312,22967,15
33,34,0,25567,25293,17
34,35,0,21271,20806,14
35,36,0,18595,18252,12
36,37,1,25917,25917,20
37,38,1,21341,21341,18
38,39,0,13696,12878,10
39,40,0,10863,10164,7
40,41,0,21445,20803,17
41,42,0,13808,12580,10
42,43,1,15675,15675,12
43,44,1,18791,18791,17
44,45,0,17885,17536,10
45,46,1,16493,16493,11
46,47,1,20778,20778,19
47,48,1,25501,25501,20
48,49,0,18969,18127,13
49,50,0,21561,21201,16
50,51,0,9520,8256,6
51,52,0,14649,13851,9
52,53,0,28579,28272,18
53,54,0,18117,17146,12
54,55,1,20988,20988,15
55,56,1,17745,17745,20
56,57,1,13487,13487,11
57,58,0,27658,27490,16
58,59,0,25731,25426,18
59,60,1,24902,24902,18
60,61,0,21534,21370,17
61,62,1,26185,26185,20
62,63,0,18043,16593,11
63,64,0,18218,17857,12
64,65,1,15681,15681,11
65,66,1,15683,15683,12
66,67,1,25267,25267,20
67,68,1,28944,28944,18
68,69,0,21264,21151,15
69,70,0,4454,4310,3
70,71,1,24433,24433,19
71,72,0,20384,20300,14
72,73,0,24215,23164,15
73,74,1,19611,19611,18
74,75,1,7414,7414,5
75,76,0,27779,27768,18
76,77,1,20537,20537,16
77,78,0,12188,11770,8
78,79,0,21921,21819,18
79,80,1,22053,22053,19
80,81,1,21600,21600,17
81,82,1,8417,8417,5
82,83,0,4168,2946,4
83,84,0,12616,11869,8
84,85,0,23656,23531,17
85,86,0,21301,20533,13
86,87,0,8249,7884,5
87,88,0,26574,26309,17
88,89,0,13537,13129,9
89,90,1,18386,18386,20
90,91,0,22733,22364,13
91,92,1,16487,16487,10
92,93,0,5152,5142,4
93,94,1,12639,12639,8
94,95,1,20594,20594,20
95,96,1,18731,18731,11
96,97,0,26395,26274,18
97,98,0,26430,25630,16
98,99,0,25088,24761,15
99,100,0,11403,9853,7
100,101,1,12894,12894,8
101,102,1,14326,14326,10
102,103,1,23188,23188,20
103,104,1,22176,22176,20
104,105,1,19929,19929,13
105,106,0,18528,17838,16
106,107,0,7047,6994,5
107,108,1,25899,25899,15
108,109,0,12400,12094,10
109,110,0,25420,24676,16
110,111,0,8172,7710,6
111,112,0,7900,7713,6
112,113,0,17301,16795,12
113,114,0,14603,13493,9
114,115,0,19343,19074,12
115,116,1,24546,24546,19
116,117,0,7323,6917,6
117,118,1,5594,5594,4
118,119,0,3493,3274,4
119,120,1,25569,25569,20
120,121,1,10705,10705,7
121,122,0,24974,23843,14
122,123,0,22479,22323,13
123,124,1,12423,12423,8
124,125,0,13051,12540,9
125,126,1,23503,23503,17
126,127,0,22037,21479,16
127,128,1,16729,16729,11
128,129,1,21529,21529,17
129,130,0,14486,13625,9
130,131,0,26050,25799,17
131,132,1,13386,13386,9
132,133,1,24554,24554,20
133,134,1,18640,18640,12
134,135,0,17035,16968,18
135,136,1,13811,13811,12
136,137,0,24197,22712,15
137,138,0,22671,22582,18
138,139,1,23369,23369,19
139,140,0,10706,10430,8
140,141,1,4784,4784,4
141,142,0,11333,9283,6
142,143,0,25671,25524,18
143,144,1,9458,9458,7
144,145,1,23048,23048,17
145,146,1,18679,18679,13
146,147,0,7412,6043,5
147,148,1,18742,18742,18
148,149,1,24947,24947,18
149,150,0,20184,19855,13
150,151,1,22638,22638,16
151,152,1,3931,3931,4
152,153,0,8374,8250,7
153,154,0,24742,24379,17
154,155,0,17636,16888,13
155,156,0,8346,8196,6
156,157,1,19955,19955,20
157,158,0,15751,15116,10
158,159,1,26737,26737,19
159,160,1,24950,24950,15
160,161,1,9697,9697,6
161,162,0,26722,26663,17
162,163,1,27575,27575,16
163,164,0,7332,6446,6
164,165,0,9893,8880,7
165,166,0,17769,17491,11
166,167,0,13261,12929,11
167,168,1,24594,24594,17
168,169,0,8908,7763,5
169,170,0,18571,17890,12
170,171,1,30509,30509,20
171,172,1,19832,19832,18
172,173,1,19608,19608,20
173,174,1,14176,14176,10
174,175,0,21034,20992,19
175,176,1,18385,18385,13
176,177,0,11157,9405,6
177,178,1,1914,1914,2
178,179,0,14152,12957,8
179,180,0,5807,4814,4
180,181,0,12553,12207,9
181,182,0,22347,21904,15
182,183,0,10005,8830,7
183,184,0,22078,22005,19
184,185,0,18496,17749,15
185,186,0,31330,31104,18
186,187,0,14787,13794,9
187,188,0,20431,19728,13
188,189,0,18910,18723,18
189,190,1,18041,18041,12
190,191,1,5950,5950,5
191,192,0,24612,24454,17
192,193,1,17346,17346,11
193,194,1,18578,18578,13
194,195,0,17600,17249,15
195,196,0,20230,20227,19
196,197,0,23841,23501,18
197,198,0,16059,15758,11
198,199,0,17333,17045,11
199,200,0,14503,13443,10
200,201,1,17156,17156,13
201,202,0,7602,7094,6
202,203,1,10510,10510,9
203,204,0,5646,5389,4
204,205,0,9157,9108,6
205,206,1,24781,24781,20
206,207,1,24445,24445,20
207,208,0,15440,13919,10
208,209,0,21621,21595,16
209,210,0,23026,22722,15
210,211,0,19365,18983,12
211,212,0,24074,23767,15
212,213,1,27628,27628,20
213,214,1,19258,19258,13
214,215,0,23934,23902,16
215,216,1,20126,20126,14
216,217,0,23263,22173,15
217,218,1,10821,10821,8
218,219,1,16384,16384,13
219,220,0,28199,27902,17
220,221,0,10482,9099,6
221,222,1,26199,26199,19
222,223,0,19207,18880,11
223,224,0,13684,13183,8
224,225,0,26875,26405,18
225,226,1,9324,9324,8
226,227,0,6596,6115,5
227,228,0,24750,24339,17
228,229,0,16183,16074,12
229,230,0,24368,24324,17
230,231,1,13428,13428,9
231,232,1,28544,28544,20
232,233,1,21952,21952,17
233,234,0,21974,21428,15
234,235,0,8945,8319,6
235,236,1,22164,22164,17
236,237,0,21426,21396,17
237,238,0,20635,20569,14
238,239,0,20138,19762,14
239,240,1,25520,25520,20
240,241,0,11406,11082,7
241,242,1,602,602,2
242,243,0,17095,16562,13
243,244,0,18042,17332,12
244,245,0,21473,21040,14
245,246,1,22918,22918,14
246,247,0,25147,24510,18
247,248,1,24975,24975,20
248,249,0,13610,12644,8
249,250,0,17124,15264,10
250,251,0,19278,19075,12
251,252,0,14494,13530,9
252,253,1,26409,26409,19
253,254,0,11552,10516,7
254,255,0,17681,15597,11
255,256,0,13652,13074,9
256,257,1,20737,20737,19
257,258,0,11561,11317,11
258,259,0,22087,21879,16
259,260,0,20066,19494,13
260,261,0,7483,6493,7
261,262,1,6560,6560,6
262,263,1,14012,14012,8
263,264,1,18589,18589,20
264,265,0,11547,11400,7
265,266,0,11792,10696,7
266,267,1,25602,25602,20
267,268,0,10702,10659,6
268,269,0,20443,20166,17
269,270,1,22250,22250,15
270,271,1,15737,15737,10
271,272,0,21704,21079,12
272,273,1,1806,1806,2
273,274,1,25057,25057,20
274,275,0,26743,26122,17
275,276,0,19147,18622,12
276,277,1,26395,26395,19
277,278,1,23796,23796,20
278,279,0,28066,27404,18
279,280,0,25753,25683,20
280,281,1,20490,20490,16
281,282,0,12018,11621,8
282,283,0,19370,18266,15
283,284,0,17617,17237,13
284,285,1,28078,28078,17
285,286,0,21006,20944,13
286,287,1,25238,25238,15
287,288,0,9282,9239,9
288,289,0,17047,16459,12
289,290,1,26696,26696,16
290,291,0,20591,20534,18
291,292,0,13462,12887,11
292,293,1,26552,26552,19
293,294,0,19081,18422,12
294,295,0,25145,25115,17
295,296,0,13238,12728,8
296,297,1,24651,24651,18
297,298,1,24180,24180,14
298,299,0,23795,23790,19
299,300,0,21084,19980,14
300,301,1,25085,25085,18
301,302,0,21977,21124,13
302,303,0,24277,24180,18
303,304,0,13390,13199,8
304,305,1,23668,23668,16
305,306,0,22705,22156,14
306,307,1,23013,23013,20
307,308,0,16978,16599,11
308,309,1,16001,16001,12
309,310,1,25823,25823,20
310,311,0,16580,16017,12
311,312,0,16784,16217,9
312,313,1,17175,17175,14
313,314,0,9079,7790,5
314,315,0,24830,24794,19
315,316,0,5679,4838,4
316,317,1,1513,1513,2
317,318,1,21659,21659,16
318,319,0,20442,20190,17
319,320,0,13822,12186,9
320,321,0,24125,23373,18
321,322,1,8416,8416,6
322,323,0,25381,25284,17
323,324,0,19917,18379,12
324,325,0,19065,18921,16
325,326,0,25967,25618,20
326,327,1,25740,25740,18
327,328,1,22507,22507,20
328,329,1,17514,17514,15
329,330,0,19925,19129,13
330,331,0,21227,21110,18
331,332,0,20591,20565,19
332,333,0,3796,3643,3
333,334,1,25903,25903,20
334,335,0,16380,14804,10
335,336,0,10068,9530,6
336,337,1,20678,20678,14
337,338,0,13432,13047,10
338,339,1,21165,21165,13
339,340,0,25798,25761,16
340,341,1,24971,24971,15
341,342,1,11291,11291,9
342,343,0,27066,26978,18
343,344,1,11174,11174,8
344,345,0,18361,18345,17
345,346,0,11955,11611,8
346,347,1,18177,18177,17
347,348,0,20514,19811,13
348,349,0,22592,22441,16
349,350,0,16000,15939,12
350,351,0,2409,1373,2
351,352,0,12855,11396,10
352,353,0,20833,20653,15
353,354,1,24338,24338,18
354,355,0,13867,13230,7
355,356,0,18985,18597,11
356,357,0,24072,23951,18
357,358,1,13520,13520,9
358,359,1,27711,27711,17
359,360,0,22181,21956,17
360,361,0,20933,20761,18
361,362,0,23255,23249,16
362,363,1,26778,26778,15
363,364,0,18030,17679,14
364,365,1,14156,14156,9
365,366,1,24983,24983,17
366,367,0,20766,20672,16
367,368,0,21301,20968,16
368,369,1,23858,23858,17
369,370,1,3230,3230,3
370,371,1,21477,21477,14
371,372,0,11289,10338,6
372,373,0,17079,15198,10
373,374,0,22014,20388,15
374,375,0,23237,23150,16
375,376,1,21375,21375,14
376,377,0,29029,29020,20
377,378,0,8495,8383,5
378,379,1,20914,20914,17
379,380,1,5535,5535,4
380,381,0,16863,15093,10
381,382,0,24566,24372,15
382,383,1,9746,9746,8
383,384,1,22664,22664,20
384,385,0,23081,22970,18
385,386,1,2206,2206,2
386,387,0,26815,26512,19
387,388,1,18791,18791,12
388,389,1,2451,2451,2
389,390,1,27545,27545,19
390,391,1,15552,15552,11
391,392,0,30067,28640,17
392,393,1,14390,14390,8
393,394,0,24009,23003,14
394,395,1,25228,25228,17
395,396,1,27402,27402,20
396,397,1,27207,27207,19
397,398,0,17406,16431,12
398,399,1,20608,20608,17
399,400,0,23138,22491,17
400,401,1,27176,27176,19
401,402,0,10422,10195,7
402,403,0,18706,18154,12
403,404,1,33433,33433,20
404,405,0,22900,22468,14
405,406,0,20013,18878,13
406,407,1,23126,23126,20
407,408,0,11120,11110,8
408,409,1,21840,21840,20
409,410,1,23681,23681,20
410,411,0,13812,12951,7
411,412,0,20154,19548,12
412,413,0,12694,12447,8
413,414,1,25078,25078,18
414,415,1,23311,23311,19
415,416,1,18341,18341,14
416,417,0,21095,20336,15
417,418,1,20096,20096,20
418,419,0,18464,17179,11
419,420,1,26945,26945,19
420,421,1,17155,17155,14
421,422,0,15421,14940,10
422,423,1,14807,14807,11
423,424,0,22249,22213,14
424,425,0,18212,18010,17
425,426,0,8212,7286,6
426,427,1,19737,19737,12
427,428,1,21684,21684,13
428,429,0,21118,21039,15
429,430,0,28753,28635,18
430,431,0,6012,5833,5
431,432,1,25868,25868,20
432,433,0,21553,20703,13
433,434,0,23948,22922,13
434,435,0,16183,15212,12
435,436,0,19456,19191,12
436,437,0,17007,16055,10
437,438,0,19173,19119,14
438,439,1,22636,22636,19
439,440,1,23058,23058,15
440,441,1,19710,19710,14
441,442,0,20666,20453,15
442,443,1,24123,24123,20
443,444,0,15074,14827,12
444,445,0,10367,10217,6
445,446,0,22166,21832,17
446,447,0,26145,25523,14
447,448,0,23116,23035,14
448,449,1,21632,21632,16
449,450,0,19223,19122,14
450,451,0,16061,15562,10
451,452,0,16494,15266,8
452,453,0,23017,22791,14
453,454,0,17648,17592,12
454,455,0,26894,25615,16
455,456,0,18681,17506,12
456,457,1,2151,2151,2
457,458,1,17230,17230,12
458,459,1,24281,24281,20
459,460,0,19002,18886,14
460,461,1,21981,21981,18
461,462,1,22899,22899,20
462,463,1,28197,28197,19
463,464,0,24019,23619,14
464,465,0,12124,11289,8
465,466,0,19744,19703,15
466,467,0,26098,25725,18
467,468,1,22963,22963,16
468,469,1,25698,25698,20
469,470,0,10177,9062,8
470,471,0,16946,15312,12
471,472,0,19900,19616,13
472,473,1,19917,19917,13
473,474,0,14463,14154,10
474,475,0,15259,14866,8
475,476,0,18752,18164,13
476,477,0,11,0,1
477,478,1,24526,24526,17
478,479,1,23921,23921,18
479,480,0,29006,28706,17
480,481,1,18695,18695,12
481,482,0,22054,20769,16
482,483,1,10151,10151,7
483,484,1,25036,25036,20
484,485,0,27918,27775,18
485,486,0,21635,21449,16
486,487,0,12231,11893,8
487,488,1,18516,18516,14
488,489,0,13496,13229,10
489,490,1,15100,15100,10
490,491,0,20725,20114,15
491,492,1,23189,23189,20
492,493,0,23587,23016,14
493,494,1,0,0,1
494,495,0,12450,11738,9
495,496,0,4851,3611,3
496,497,0,6256,4790,4
497,498,0,23883,23810,19
498,499,1,26504,26504,19
499,500,0,16897,15898,9
