,ID,status,opt price,C,max price,Passed,visited,time
0,1,OK,17561,5042,17561,True,624,0
1,2,OK,20949,49,20949,True,1681,0
2,3,OK,26514,9090,26514,True,174,0
3,4,OK,20845,18819,20845,True,946,0
4,5,OK,19271,31140,19271,False,2678,0
5,6,OK,26525,1973,26525,True,530,0
6,7,OK,27210,32348,27210,False,42,0
7,8,OK,19650,32755,19650,False,726,0
8,9,OK,10363,2250,10363,True,439,0
9,10,OK,23370,12069,23370,True,49,0
10,11,OK,19251,8314,19251,True,440,0
11,12,OK,19549,11518,19549,True,26,0
12,13,OK,10419,12191,10419,False,386,0
13,14,OK,16018,3832,16018,True,1127,0
14,15,OK,30708,36923,30708,False,20,0
15,16,OK,8752,4233,8752,True,132,0
16,17,OK,20560,2481,20560,True,630,0
17,18,OK,24589,27923,24589,False,32,0
18,19,OK,24440,41822,24440,False,62,0
19,20,OK,24417,22298,24417,True,130,0
20,21,OK,12128,6517,12128,True,443,0
21,22,OK,19371,34906,19371,False,80,0
22,23,OK,28320,53824,28320,False,152,0
23,24,OK,22767,28054,22767,False,1633,0
24,25,OK,22575,44105,22575,False,51,0
25,26,OK,29168,32962,29168,False,72,0
26,27,OK,28964,1676,28964,True,87,0
27,28,OK,11722,2070,11722,True,205,0
28,29,OK,22563,1257,22563,True,802,0
29,30,OK,4627,7177,4627,False,53,0
30,31,OK,24095,26344,24095,False,80,0
31,32,OK,22409,23015,22409,False,1179,0
32,33,OK,24312,32058,24312,False,507,0
33,34,OK,25567,24001,25567,True,319,0
34,35,OK,21271,31065,21271,False,1218,0
35,36,OK,18595,7430,18595,True,576,0
36,37,OK,25917,25151,25917,True,44,0
37,38,OK,21341,26022,21341,False,46,0
38,39,OK,13696,2437,13696,True,855,0
39,40,OK,10863,8709,10863,True,541,0
40,41,OK,21445,23270,21445,False,226,0
41,42,OK,13808,2435,13808,True,1656,0
42,43,OK,15675,25073,15675,False,2069,0
43,44,OK,18791,26375,18791,False,121,0
44,45,OK,17885,18086,17885,False,1452,0
45,46,OK,16493,9769,16493,True,745,0
46,47,OK,20778,28661,20778,False,30,0
47,48,OK,25501,1613,25501,True,20,0
48,49,OK,18969,24896,18969,False,1289,0
49,50,OK,21561,40333,21561,False,135,0
50,51,OK,9520,9887,9520,False,114,0
51,52,OK,14649,9765,14649,True,2877,0
52,53,OK,28579,7399,28579,True,123,0
53,54,OK,18117,1077,18117,True,3208,0
54,55,OK,20988,35758,20988,False,452,0
55,56,OK,17745,23791,17745,False,23,0
56,57,OK,13487,4565,13487,True,2225,0
57,58,OK,27658,31588,27658,False,330,0
58,59,OK,25731,28183,25731,False,129,0
59,60,OK,24902,17421,24902,True,223,0
60,61,OK,21534,8126,21534,True,83,0
61,62,OK,26185,31477,26185,False,64,0
62,63,OK,18043,35268,18043,False,569,0
63,64,OK,18218,23304,18218,False,2598,0
64,65,OK,15681,24772,15681,False,2803,0
65,66,OK,15683,5205,15683,True,1059,0
66,67,OK,25267,47305,25267,False,25,0
67,68,OK,28944,3391,28944,True,160,0
68,69,OK,21264,35390,21264,False,403,0
69,70,OK,4454,7382,4454,False,8,0
70,71,OK,24433,3383,24433,True,76,0
71,72,OK,20384,14391,20384,True,1495,0
72,73,OK,24215,14191,24215,True,120,0
73,74,OK,19611,25645,19611,False,127,0
74,75,OK,7414,10979,7414,False,24,0
75,76,OK,27779,8998,27779,True,133,0
76,77,OK,20537,36016,20537,False,104,0
77,78,OK,12188,12906,12188,False,519,0
78,79,OK,21921,10265,21921,True,182,0
79,80,OK,22053,8669,22053,True,61,0
80,81,OK,21600,29126,21600,False,723,0
81,82,OK,8417,5745,8417,True,53,0
82,83,OK,4168,2479,4168,True,14,0
83,84,OK,12616,21546,12616,False,816,0
84,85,OK,23656,25967,23656,False,130,0
85,86,OK,21301,40173,21301,False,837,0
86,87,OK,8249,10361,8249,False,37,0
87,88,OK,26574,50676,26574,False,257,0
88,89,OK,13537,25857,13537,False,475,0
89,90,OK,18386,7829,18386,True,56,0
90,91,OK,22733,26696,22733,False,1305,0
91,92,OK,16487,28421,16487,False,2384,0
92,93,OK,5152,5510,5152,False,41,0
93,94,OK,12639,21036,12639,False,484,0
94,95,OK,20594,8160,20594,True,37,0
95,96,OK,18731,8059,18731,True,1208,0
96,97,OK,26395,50185,26395,False,128,0
97,98,OK,26430,22557,26430,True,295,0
98,99,OK,25088,29677,25088,False,593,0
99,100,OK,11403,1522,11403,True,549,0
100,101,OK,12894,8892,12894,True,632,0
101,102,OK,14326,2037,14326,True,647,0
102,103,OK,23188,12505,23188,True,49,0
103,104,OK,22176,28790,22176,False,63,0
104,105,OK,19929,25251,19929,False,931,0
105,106,OK,18528,26226,18528,False,1360,0
106,107,OK,7047,9871,7047,False,35,0
107,108,OK,25899,12837,25899,True,987,0
108,109,OK,12400,2131,12400,True,300,0
109,110,OK,25420,48908,25420,False,157,0
110,111,OK,8172,7795,8172,True,233,0
111,112,OK,7900,9580,7900,False,89,0
112,113,OK,17301,25692,17301,False,747,0
113,114,OK,14603,13253,14603,True,1670,0
114,115,OK,19343,30237,19343,False,2765,0
115,116,OK,24546,36842,24546,False,90,0
116,117,OK,7323,10116,7323,False,165,0
117,118,OK,5594,3428,5594,True,16,0
118,119,OK,3493,4941,3493,False,11,0
119,120,OK,25569,41526,25569,False,42,0
120,121,OK,10705,983,10705,True,180,0
121,122,OK,24974,22347,24974,True,435,0
122,123,OK,22479,33404,22479,False,1466,0
123,124,OK,12423,3773,12423,True,2681,0
124,125,OK,13051,3595,13051,True,180,0
125,126,OK,23503,25483,23503,False,95,0
126,127,OK,22037,30504,22037,False,751,0
127,128,OK,16729,26095,16729,False,2881,0
128,129,OK,21529,20046,21529,True,61,0
129,130,OK,14486,25110,14486,False,682,0
130,131,OK,26050,37615,26050,False,388,0
131,132,OK,13386,14410,13386,False,1309,0
132,133,OK,24554,16303,24554,True,26,0
133,134,OK,18640,7373,18640,True,422,0
134,135,OK,17035,21114,17035,False,94,0
135,136,OK,13811,9667,13811,True,912,0
136,137,OK,24197,43761,24197,False,2400,0
137,138,OK,22671,14300,22671,True,153,0
138,139,OK,23369,8157,23369,True,75,0
139,140,OK,10706,16441,10706,False,537,0
140,141,OK,4784,1025,4784,True,55,0
141,142,OK,11333,7462,11333,True,456,0
142,143,OK,25671,7020,25671,True,116,0
143,144,OK,9458,8909,9458,True,165,0
144,145,OK,23048,26314,23048,False,210,0
145,146,OK,18679,11364,18679,True,803,0
146,147,OK,7412,10107,7412,False,47,0
147,148,OK,18742,30661,18742,False,47,0
148,149,OK,24947,36909,24947,False,73,0
149,150,OK,20184,4084,20184,True,364,0
150,151,OK,22638,42969,22638,False,98,0
151,152,OK,3931,5234,3931,False,7,0
152,153,OK,8374,788,8374,True,343,0
153,154,OK,24742,15908,24742,True,145,0
154,155,OK,17636,34606,17636,False,274,0
155,156,OK,8346,6324,8346,True,101,0
156,157,OK,19955,31722,19955,False,24,0
157,158,OK,15751,6892,15751,True,271,0
158,159,OK,26737,5345,26737,True,33,0
159,160,OK,24950,32037,24950,False,611,0
160,161,OK,9697,7591,9697,True,190,0
161,162,OK,26722,13918,26722,True,224,0
162,163,OK,27575,51417,27575,False,317,0
163,164,OK,7332,7365,7332,False,147,0
164,165,OK,9893,6183,9893,True,148,0
165,166,OK,17769,32957,17769,False,947,0
166,167,OK,13261,24564,13261,False,2028,0
167,168,OK,24594,25364,24594,False,114,0
168,169,OK,8908,7780,8908,True,125,0
169,170,OK,18571,24953,18571,False,4307,0
170,171,OK,30509,38908,30509,False,99,0
171,172,OK,19832,37414,19832,False,198,0
172,173,OK,19608,37866,19608,False,20,0
173,174,OK,14176,5874,14176,True,2436,0
174,175,OK,21034,8469,21034,True,145,0
175,176,OK,18385,21134,18385,False,2169,0
176,177,OK,11157,17853,11157,False,77,0
177,178,OK,1914,2945,1914,False,3,0
178,179,OK,14152,21904,14152,False,1019,0
179,180,OK,5807,8479,5807,False,59,0
180,181,OK,12553,1704,12553,True,1116,0
181,182,OK,22347,37492,22347,False,353,0
182,183,OK,10005,4552,10005,True,983,0
183,184,OK,22078,27244,22078,False,50,0
184,185,OK,18496,17896,18496,True,442,0
185,186,OK,31330,6358,31330,True,720,0
186,187,OK,14787,22941,14787,False,1451,0
187,188,OK,20431,31553,20431,False,2653,0
188,189,OK,18910,5192,18910,True,61,0
189,190,OK,18041,31960,18041,False,983,0
190,191,OK,5950,9190,5950,False,35,0
191,192,OK,24612,44556,24612,False,852,0
192,193,OK,17346,3325,17346,True,3927,0
193,194,OK,18578,32170,18578,False,281,0
194,195,OK,17600,22475,17600,False,618,0
195,196,OK,20230,16538,20230,True,68,0
196,197,OK,23841,26357,23841,False,148,0
197,198,OK,16059,5904,16059,True,3551,0
198,199,OK,17333,9001,17333,True,3909,0
199,200,OK,14503,11940,14503,True,2582,0
200,201,OK,17156,5490,17156,True,1211,0
201,202,OK,7602,9544,7602,False,177,0
202,203,OK,10510,3398,10510,True,466,0
203,204,OK,5646,8513,5646,False,26,0
204,205,OK,9157,4904,9157,True,93,0
205,206,OK,24781,18892,24781,True,40,0
206,207,OK,24445,43347,24445,False,40,0
207,208,OK,15440,24412,15440,False,1051,0
208,209,OK,21621,34409,21621,False,159,0
209,210,OK,23026,27849,23026,False,81,0
210,211,OK,19365,2488,19365,True,859,0
211,212,OK,24074,4756,24074,True,103,0
212,213,OK,27628,26292,27628,True,45,0
213,214,OK,19258,7225,19258,True,3008,0
214,215,OK,23934,43261,23934,False,139,0
215,216,OK,20126,22432,20126,False,716,0
216,217,OK,23263,36437,23263,False,1202,0
217,218,OK,10821,13716,10821,False,1621,0
218,219,OK,16384,22662,16384,False,335,0
219,220,OK,28199,26778,28199,True,792,0
220,221,OK,10482,18262,10482,False,214,0
221,222,OK,26199,20889,26199,True,95,0
222,223,OK,19207,29521,19207,False,3581,0
223,224,OK,13684,3593,13684,True,1553,0
224,225,OK,26875,39397,26875,False,162,0
225,226,OK,9324,14353,9324,False,228,0
226,227,OK,6596,7727,6596,False,173,0
227,228,OK,24750,3095,24750,True,216,0
228,229,OK,16183,12392,16183,True,4491,0
229,230,OK,24368,46200,24368,False,523,0
230,231,OK,13428,7117,13428,True,937,0
231,232,OK,28544,7098,28544,True,21,0
232,233,OK,21952,27963,21952,False,68,0
233,234,OK,21974,19929,21974,True,1554,0
234,235,OK,8945,4715,8945,True,322,0
235,236,OK,22164,35278,22164,False,119,0
236,237,OK,21426,12114,21426,True,37,0
237,238,OK,20635,17916,20635,True,154,0
238,239,OK,20138,27194,20138,False,808,0
239,240,OK,25520,2201,25520,True,48,0
240,241,OK,11406,20290,11406,False,2025,0
241,242,OK,602,776,602,False,2,0
242,243,OK,17095,18040,17095,False,443,0
243,244,OK,18042,33139,18042,False,1162,0
244,245,OK,21473,9946,21473,True,2814,0
245,246,OK,22918,29073,22918,False,607,0
246,247,OK,25147,32478,25147,False,31,0
247,248,OK,24975,43796,24975,False,21,0
248,249,OK,13610,8809,13610,True,653,0
249,250,OK,17124,1910,17124,True,1980,0
250,251,OK,19278,25422,19278,False,1243,0
251,252,OK,14494,4930,14494,True,859,0
252,253,OK,26409,30359,26409,False,77,0
253,254,OK,11552,13309,11552,False,503,0
254,255,OK,17681,28578,17681,False,2514,0
255,256,OK,13652,17938,13652,False,2513,0
256,257,OK,20737,10031,20737,True,79,0
257,258,OK,11561,7920,11561,True,937,0
258,259,OK,22087,5027,22087,True,535,0
259,260,OK,20066,24004,20066,False,5363,0
260,261,OK,7483,7503,7483,False,241,0
261,262,OK,6560,11316,6560,False,25,0
262,263,OK,14012,27458,14012,False,721,0
263,264,OK,18589,27903,18589,False,41,0
264,265,OK,11547,14806,11547,False,808,0
265,266,OK,11792,20108,11792,False,423,0
266,267,OK,25602,29992,25602,False,64,0
267,268,OK,10702,6594,10702,True,2107,0
268,269,OK,20443,28523,20443,False,154,0
269,270,OK,22250,36725,22250,False,649,0
270,271,OK,15737,14824,15737,True,3251,0
271,272,OK,21704,16263,21704,True,1070,0
272,273,OK,1806,1551,1806,True,2,0
273,274,OK,25057,17078,25057,True,25,0
274,275,OK,26743,14977,26743,True,739,0
275,276,OK,19147,32510,19147,False,3115,0
276,277,OK,26395,8806,26395,True,66,0
277,278,OK,23796,27521,23796,False,60,0
278,279,OK,28066,52359,28066,False,189,0
279,280,OK,25753,9985,25753,True,53,0
280,281,OK,20490,40551,20490,False,413,0
281,282,OK,12018,16924,12018,False,676,0
282,283,OK,19370,10248,19370,True,1036,0
283,284,OK,17617,18219,17617,False,1042,0
284,285,OK,28078,22310,28078,True,107,0
285,286,OK,21006,21122,21006,False,928,0
286,287,OK,25238,48962,25238,False,5947,0
287,288,OK,9282,18185,9282,False,360,0
288,289,OK,17047,15575,17047,True,608,0
289,290,OK,26696,52965,26696,False,567,0
290,291,OK,20591,7602,20591,True,41,0
291,292,OK,13462,24520,13462,False,2184,0
292,293,OK,26552,46440,26552,False,127,0
293,294,OK,19081,21095,19081,False,514,0
294,295,OK,25145,21240,25145,True,219,0
295,296,OK,13238,4878,13238,True,624,0
296,297,OK,24651,11427,24651,True,94,0
297,298,OK,24180,10909,24180,True,1036,0
298,299,OK,23795,14229,23795,True,27,0
299,300,OK,21084,19516,21084,True,1263,0
300,301,OK,25085,11150,25085,True,77,0
301,302,OK,21977,19047,21977,True,1086,0
302,303,OK,24277,45812,24277,False,53,0
303,304,OK,13390,5832,13390,True,1316,0
304,305,OK,23668,36745,23668,False,761,0
305,306,OK,22705,18500,22705,True,474,0
306,307,OK,23013,11244,23013,True,29,0
307,308,OK,16978,31993,16978,False,1411,0
308,309,OK,16001,2375,16001,True,1452,0
309,310,OK,25823,46900,25823,False,20,0
310,311,OK,16580,10548,16580,True,1319,0
311,312,OK,16784,22246,16784,False,621,0
312,313,OK,17175,31485,17175,False,2813,0
313,314,OK,9079,15589,9079,False,354,0
314,315,OK,24830,8214,24830,True,105,0
315,316,OK,5679,906,5679,True,28,0
316,317,OK,1513,908,1513,True,3,0
317,318,OK,21659,16732,21659,True,147,0
318,319,OK,20442,28634,20442,False,69,0
319,320,OK,13822,2673,13822,True,3786,0
320,321,OK,24125,8822,24125,True,166,0
321,322,OK,8416,11940,8416,False,205,0
322,323,OK,25381,25911,25381,False,765,0
323,324,OK,19917,11161,19917,True,972,0
324,325,OK,19065,31446,19065,False,338,0
325,326,OK,25967,19634,25967,True,54,0
326,327,OK,25740,32473,25740,False,76,0
327,328,OK,22507,24249,22507,False,25,0
328,329,OK,17514,29450,17514,False,359,0
329,330,OK,19925,18290,19925,True,1986,0
330,331,OK,21227,39259,21227,False,73,0
331,332,OK,20591,14552,20591,True,24,0
332,333,OK,3796,75,3796,True,7,0
333,334,OK,25903,3468,25903,True,26,0
334,335,OK,16380,26422,16380,False,1145,0
335,336,OK,10068,2080,10068,True,182,0
336,337,OK,20678,23104,20678,False,531,0
337,338,OK,13432,8907,13432,True,1410,0
338,339,OK,21165,15250,21165,True,525,0
339,340,OK,25798,27510,25798,False,62,0
340,341,OK,24971,11110,24971,True,673,0
341,342,OK,11291,10113,11291,True,1274,0
342,343,OK,27066,34136,27066,False,100,0
343,344,OK,11174,3506,11174,True,236,0
344,345,OK,18361,10799,18361,True,454,0
345,346,OK,11955,12629,11955,False,1327,0
346,347,OK,18177,7366,18177,True,85,0
347,348,OK,20514,40241,20514,False,575,0
348,349,OK,22592,12986,22592,True,790,0
349,350,OK,16000,14394,16000,True,2148,0
350,351,OK,2409,3801,2409,False,3,0
351,352,OK,12855,2147,12855,True,1679,0
352,353,OK,20833,5133,20833,True,714,0
353,354,OK,24338,38164,24338,False,104,0
354,355,OK,13867,4620,13867,True,428,0
355,356,OK,18985,18594,18985,True,883,0
356,357,OK,24072,38524,24072,False,91,0
357,358,OK,13520,22235,13520,False,465,0
358,359,OK,27711,3880,27711,True,131,0
359,360,OK,22181,21272,22181,True,139,0
360,361,OK,20933,2147,20933,True,57,0
361,362,OK,23255,37649,23255,False,370,0
362,363,OK,26778,43975,26778,False,358,0
363,364,OK,18030,14469,18030,True,385,0
364,365,OK,14156,13227,14156,True,1836,0
365,366,OK,24983,22647,24983,True,215,0
366,367,OK,20766,35593,20766,False,1058,0
367,368,OK,21301,35971,21301,False,136,0
368,369,OK,23858,5627,23858,True,77,0
369,370,OK,3230,6396,3230,False,12,0
370,371,OK,21477,30511,21477,False,843,0
371,372,OK,11289,9077,11289,True,814,0
372,373,OK,17079,27765,17079,False,1303,0
373,374,OK,22014,27036,22014,False,1372,0
374,375,OK,23237,20627,23237,True,251,0
375,376,OK,21375,10932,21375,True,1874,0
376,377,OK,29029,13735,29029,True,56,0
377,378,OK,8495,6205,8495,True,323,0
378,379,OK,20914,12399,20914,True,193,0
379,380,OK,5535,4489,5535,True,56,0
380,381,OK,16863,8189,16863,True,1274,0
381,382,OK,24566,45536,24566,False,350,0
382,383,OK,9746,17329,9746,False,572,0
383,384,OK,22664,42900,22664,False,29,0
384,385,OK,23081,30894,23081,False,78,0
385,386,OK,2206,2196,2206,True,9,0
386,387,OK,26815,16724,26815,True,138,0
387,388,OK,18791,6485,18791,True,5815,0
388,389,OK,2451,303,2451,True,3,0
389,390,OK,27545,12374,27545,True,97,0
390,391,OK,15552,11928,15552,True,1006,0
391,392,OK,30067,9016,30067,True,305,0
392,393,OK,14390,3417,14390,True,673,0
393,394,OK,24009,24402,24009,False,1662,0
394,395,OK,25228,40654,25228,False,183,0
395,396,OK,27402,47631,27402,False,26,0
396,397,OK,27207,17693,27207,True,89,0
397,398,OK,17406,17311,17406,True,727,0
398,399,OK,20608,17412,20608,True,277,0
399,400,OK,23138,36470,23138,False,486,0
400,401,OK,27176,23903,27176,True,158,0
401,402,OK,10422,14592,10422,False,213,0
402,403,OK,18706,29963,18706,False,543,0
403,404,OK,33433,25688,33433,True,53,0
404,405,OK,22900,32886,22900,False,850,0
405,406,OK,20013,3509,20013,True,2829,0
406,407,OK,23126,12661,23126,True,37,0
407,408,OK,11120,2642,11120,True,1150,0
408,409,OK,21840,19335,21840,True,43,0
409,410,OK,23681,46864,23681,False,72,0
410,411,OK,13812,8280,13812,True,515,0
411,412,OK,20154,23061,20154,False,1235,0
412,413,OK,12694,2773,12694,True,983,0
413,414,OK,25078,13169,25078,True,381,0
414,415,OK,23311,28142,23311,False,66,0
415,416,OK,18341,14694,18341,True,506,0
416,417,OK,21095,9870,21095,True,492,0
417,418,OK,20096,35313,20096,False,27,0
418,419,OK,18464,13923,18464,True,878,0
419,420,OK,26945,50655,26945,False,147,0
420,421,OK,17155,13241,17155,True,502,0
421,422,OK,15421,29644,15421,False,1629,0
422,423,OK,14807,18410,14807,False,845,0
423,424,OK,22249,20521,22249,True,944,0
424,425,OK,18212,18196,18212,True,130,0
425,426,OK,8212,687,8212,True,324,0
426,427,OK,19737,25988,19737,False,1094,0
427,428,OK,21684,309,21684,True,1018,0
428,429,OK,21118,39195,21118,False,553,0
429,430,OK,28753,13927,28753,True,82,0
430,431,OK,6012,3224,6012,True,54,0
431,432,OK,25868,17022,25868,True,27,0
432,433,OK,21553,14981,21553,True,3167,0
433,434,OK,23948,32400,23948,False,1276,0
434,435,OK,16183,29450,16183,False,1114,0
435,436,OK,19456,11483,19456,True,929,0
436,437,OK,17007,8760,17007,True,1425,0
437,438,OK,19173,38080,19173,False,3598,0
438,439,OK,22636,15389,22636,True,71,0
439,440,OK,23058,14596,23058,True,390,0
440,441,OK,19710,3846,19710,True,1664,0
441,442,OK,20666,148,20666,True,267,0
442,443,OK,24123,45580,24123,False,28,0
443,444,OK,15074,17096,15074,False,1289,0
444,445,OK,10367,13303,10367,False,143,0
445,446,OK,22166,14156,22166,True,222,0
446,447,OK,26145,48738,26145,False,1926,0
447,448,OK,23116,7845,23116,True,1971,0
448,449,OK,21632,6139,21632,True,292,0
449,450,OK,19223,10876,19223,True,534,0
450,451,OK,16061,18619,16061,False,1075,0
451,452,OK,16494,30280,16494,False,1055,0
452,453,OK,23017,39180,23017,False,2176,0
453,454,OK,17648,1901,17648,True,725,0
454,455,OK,26894,15507,26894,True,113,0
455,456,OK,18681,30493,18681,False,1563,0
456,457,OK,2151,396,2151,True,2,0
457,458,OK,17230,1997,17230,True,844,0
458,459,OK,24281,1629,24281,True,27,0
459,460,OK,19002,9610,19002,True,628,0
460,461,OK,21981,42871,21981,False,71,0
461,462,OK,22899,14330,22899,True,24,0
462,463,OK,28197,22075,28197,True,92,0
463,464,OK,24019,28738,24019,False,8109,0
464,465,OK,12124,354,12124,True,557,0
465,466,OK,19744,10897,19744,True,92,0
466,467,OK,26098,9971,26098,True,223,0
467,468,OK,22963,34241,22963,False,134,0
468,469,OK,25698,41133,25698,False,59,0
469,470,OK,10177,18217,10177,False,312,0
470,471,OK,16946,33887,16946,False,5120,0
471,472,OK,19900,12894,19900,True,481,0
472,473,OK,19917,206,19917,True,1089,0
473,474,OK,14463,22770,14463,False,1111,0
474,475,OK,15259,13092,15259,True,785,0
475,476,OK,18752,33649,18752,False,630,0
476,477,OK,11,8,11,True,2,0
477,478,OK,24526,12753,24526,True,66,0
478,479,OK,23921,9992,23921,True,71,0
479,480,OK,29006,36648,29006,False,282,0
480,481,OK,18695,3646,18695,True,1088,0
481,482,OK,22054,42470,22054,False,945,0
482,483,OK,10151,7226,10151,True,74,0
483,484,OK,25036,33027,25036,False,81,0
484,485,OK,27918,360,27918,True,96,0
485,486,OK,21635,14365,21635,True,127,0
486,487,OK,12231,10475,12231,True,537,0
487,488,OK,18516,28639,18516,False,203,0
488,489,OK,13496,8509,13496,True,680,0
489,490,OK,15100,9764,15100,True,921,0
490,491,OK,20725,40665,20725,False,288,0
491,492,OK,23189,39630,23189,False,31,0
492,493,OK,23587,2,23587,True,171,0
493,494,OK,0,0,0,True,1,0
494,495,OK,12450,23098,12450,False,489,0
495,496,OK,4851,5201,4851,False,16,0
496,497,OK,6256,6115,6256,True,24,0
497,498,OK,23883,3377,23883,True,56,0
498,499,OK,26504,7899,26504,True,44,0
499,500,OK,16897,17991,16897,False,3774,0
