,ID,opt price,0.01 max price,0.01 err:,0.05 max price,0.05 err:,0.1 max price,0.1 err:,0.2 max price,0.2 err:
0,1,13383,13383,0.0,13383,0.0,13383,0.0,13383,0.0
1,2,16649,16649,0.0,16649,0.0,16649,0.0,16649,0.0
2,3,16292,16292,0.0,16292,0.0,16292,0.0,16292,0.0
3,4,7638,7638,0.0,7638,0.0,7638,0.0,7638,0.0
4,5,18175,18175,0.0,18175,0.0,18175,0.0,18175,0.0
5,6,4823,4823,0.0,4823,0.0,4823,0.0,4823,0.0
6,7,19142,19142,0.0,19142,0.0,19142,0.0,19142,0.0
7,8,20554,20554,0.0,20554,0.0,20554,0.0,20554,0.0
8,9,19936,19936,0.0,19936,0.0,19936,0.0,19936,0.0
9,10,18198,18198,0.0,18198,0.0,18198,0.0,18198,0.0
10,11,7079,7079,0.0,7079,0.0,7079,0.0,7079,0.0
11,12,11960,11960,0.0,11960,0.0,11960,0.0,11960,0.0
12,13,17760,17760,0.0,17760,0.0,17760,0.0,17760,0.0
13,14,14958,14958,0.0,14958,0.0,14958,0.0,14958,0.0
14,15,633,633,0.0,633,0.0,633,0.0,633,0.0
15,16,13365,13365,0.0,13365,0.0,13365,0.0,13365,0.0
16,17,6084,6084,0.0,6084,0.0,6084,0.0,6084,0.0
17,18,13735,13735,0.0,13735,0.0,13728,0.0005096468875136512,13728,0.0005096468875136512
18,19,18478,18478,0.0,18478,0.0,18478,0.0,18478,0.0
19,20,18705,18705,0.0,18705,0.0,18705,0.0,18705,0.0
20,21,18689,18689,0.0,18689,0.0,18689,0.0,18663,0.0013911926801862058
21,22,12365,12365,0.0,12365,0.0,12365,0.0,12365,0.0
22,23,16774,16774,0.0,16774,0.0,16774,0.0,16774,0.0
23,24,14864,14864,0.0,14864,0.0,14864,0.0,14864,0.0
24,25,13565,13565,0.0,13565,0.0,13565,0.0,13565,0.0
25,26,14756,14756,0.0,14756,0.0,14756,0.0,14756,0.0
26,27,10468,10468,0.0,10468,0.0,10468,0.0,10468,0.0
27,28,15738,15738,0.0,15738,0.0,15738,0.0,15738,0.0
28,29,19972,19972,0.0,19972,0.0,19972,0.0,19972,0.0
29,30,16148,16148,0.0,16148,0.0,16148,0.0,16148,0.0
30,31,16020,16020,0.0,16020,0.0,16020,0.0,16020,0.0
31,32,10617,10617,0.0,10617,0.0,10617,0.0,10617,0.0
32,33,0,0,,0,,0,,0,
33,34,17001,17001,0.0,17001,0.0,17001,0.0,17001,0.0
34,35,14872,14872,0.0,14872,0.0,14872,0.0,14872,0.0
35,36,10645,10645,0.0,10645,0.0,10645,0.0,10645,0.0
36,37,15789,15789,0.0,15789,0.0,15789,0.0,15789,0.0
37,38,8049,8049,0.0,8049,0.0,8049,0.0,8049,0.0
38,39,10259,10259,0.0,10259,0.0,10259,0.0,10259,0.0
39,40,18306,18306,0.0,18306,0.0,18306,0.0,18306,0.0
40,41,17431,17431,0.0,17431,0.0,17431,0.0,17431,0.0
41,42,9945,9945,0.0,9945,0.0,9945,0.0,9945,0.0
42,43,17653,17653,0.0,17653,0.0,17653,0.0,17653,0.0
43,44,9670,9670,0.0,9670,0.0,9670,0.0,9670,0.0
44,45,9343,9343,0.0,9343,0.0,9343,0.0,9343,0.0
45,46,14049,14049,0.0,14049,0.0,14049,0.0,14049,0.0
46,47,20707,20707,0.0,20707,0.0,20707,0.0,20707,0.0
47,48,5814,5814,0.0,5809,0.0008599931200550396,5809,0.0008599931200550396,5809,0.0008599931200550396
48,49,16613,16613,0.0,16613,0.0,16613,0.0,16613,0.0
49,50,14306,14306,0.0,14306,0.0,14306,0.0,14306,0.0
50,51,19732,19732,0.0,19732,0.0,19732,0.0,19732,0.0
51,52,12958,12958,0.0,12958,0.0,12958,0.0,12958,0.0
52,53,12993,12993,0.0,12993,0.0,12993,0.0,12993,0.0
53,54,11330,11330,0.0,11330,0.0,11330,0.0,11330,0.0
54,55,17675,17675,0.0,17675,0.0,17675,0.0,17675,0.0
55,56,16362,16362,0.0,16362,0.0,16362,0.0,16362,0.0
56,57,13005,13005,0.0,13005,0.0,13005,0.0,13005,0.0
57,58,1926,1926,0.0,1926,0.0,1926,0.0,1926,0.0
58,59,2000,2000,0.0,2000,0.0,2000,0.0,2000,0.0
59,60,9365,9365,0.0,9365,0.0,9365,0.0,9365,0.0
60,61,15023,15023,0.0,15023,0.0,15023,0.0,15023,0.0
61,62,21688,21688,0.0,21688,0.0,21688,0.0,21688,0.0
62,63,7478,7478,0.0,7478,0.0,7478,0.0,7478,0.0
63,64,11989,11989,0.0,11989,0.0,11989,0.0,11989,0.0
64,65,12577,12577,0.0,12577,0.0,12577,0.0,12577,0.0
65,66,4845,4845,0.0,4845,0.0,4845,0.0,4816,0.005985552115583075
66,67,11439,11439,0.0,11439,0.0,11439,0.0,11439,0.0
67,68,15565,15565,0.0,15565,0.0,15565,0.0,15565,0.0
68,69,9301,9301,0.0,9301,0.0,9301,0.0,9301,0.0
69,70,15262,15262,0.0,15255,0.0004586554842091469,15255,0.0004586554842091469,15255,0.0004586554842091469
70,71,10735,10735,0.0,10735,0.0,10735,0.0,10735,0.0
71,72,14892,14892,0.0,14890,0.00013430029546065002,14890,0.00013430029546065002,14890,0.00013430029546065002
72,73,12029,12029,0.0,12029,0.0,12029,0.0,12029,0.0
73,74,8464,8464,0.0,8464,0.0,8464,0.0,8464,0.0
74,75,8363,8363,0.0,8363,0.0,8363,0.0,8363,0.0
75,76,19868,19868,0.0,19868,0.0,19868,0.0,19868,0.0
76,77,4268,4268,0.0,4268,0.0,4268,0.0,4268,0.0
77,78,17700,17700,0.0,17700,0.0,17700,0.0,17700,0.0
78,79,17520,17520,0.0,17520,0.0,17520,0.0,17520,0.0
79,80,9776,9776,0.0,9776,0.0,9776,0.0,9776,0.0
80,81,16423,16423,0.0,16423,0.0,16423,0.0,16423,0.0
81,82,19080,19080,0.0,19080,0.0,19080,0.0,19080,0.0
82,83,19264,19264,0.0,19264,0.0,19264,0.0,19264,0.0
83,84,17301,17301,0.0,17301,0.0,17301,0.0,17301,0.0
84,85,6301,6301,0.0,6301,0.0,6301,0.0,6301,0.0
85,86,4736,4736,0.0,4736,0.0,4736,0.0,4736,0.0
86,87,10517,10517,0.0,10517,0.0,10501,0.0015213463915565275,10501,0.0015213463915565275
87,88,18643,18643,0.0,18643,0.0,18643,0.0,18643,0.0
88,89,17542,17542,0.0,17542,0.0,17542,0.0,17542,0.0
89,90,12066,12066,0.0,12066,0.0,12066,0.0,12066,0.0
90,91,8185,8185,0.0,8185,0.0,8185,0.0,8185,0.0
91,92,15257,15257,0.0,15257,0.0,15257,0.0,15257,0.0
92,93,8584,8584,0.0,8584,0.0,8584,0.0,8584,0.0
93,94,14760,14760,0.0,14760,0.0,14760,0.0,14760,0.0
94,95,18470,18470,0.0,18470,0.0,18470,0.0,18470,0.0
95,96,15726,15726,0.0,15726,0.0,15726,0.0,15726,0.0
96,97,6817,6817,0.0,6817,0.0,6817,0.0,6817,0.0
97,98,9800,9800,0.0,9800,0.0,9800,0.0,9800,0.0
98,99,20414,20414,0.0,20414,0.0,20414,0.0,20414,0.0
99,100,16143,16143,0.0,16143,0.0,16143,0.0,16143,0.0
100,101,17339,17339,0.0,17339,0.0,17339,0.0,17339,0.0
101,102,24347,24347,0.0,24347,0.0,24347,0.0,24347,0.0
102,103,7328,7328,0.0,7328,0.0,7328,0.0,7328,0.0
103,104,14938,14938,0.0,14938,0.0,14938,0.0,14938,0.0
104,105,14899,14899,0.0,14899,0.0,14899,0.0,14899,0.0
105,106,8780,8780,0.0,8780,0.0,8780,0.0,8780,0.0
106,107,2390,2390,0.0,2390,0.0,2390,0.0,2390,0.0
107,108,23281,23281,0.0,23281,0.0,23271,0.00042953481379665823,23271,0.00042953481379665823
108,109,10604,10604,0.0,10604,0.0,10604,0.0,10604,0.0
109,110,13211,13211,0.0,13207,0.00030277798804026945,13207,0.00030277798804026945,13207,0.00030277798804026945
110,111,19936,19936,0.0,19936,0.0,19936,0.0,19936,0.0
111,112,17118,17118,0.0,17118,0.0,17118,0.0,17118,0.0
112,113,16532,16532,0.0,16532,0.0,16532,0.0,16532,0.0
113,114,21987,21987,0.0,21987,0.0,21987,0.0,21987,0.0
114,115,19123,19123,0.0,19123,0.0,19123,0.0,19123,0.0
115,116,16775,16775,0.0,16775,0.0,16775,0.0,16775,0.0
116,117,14266,14266,0.0,14266,0.0,14266,0.0,14266,0.0
117,118,15074,15074,0.0,15074,0.0,15074,0.0,15074,0.0
118,119,11394,11394,0.0,11394,0.0,11394,0.0,11394,0.0
119,120,18162,18162,0.0,18162,0.0,18162,0.0,18162,0.0
120,121,20020,20020,0.0,20020,0.0,20020,0.0,20020,0.0
121,122,0,0,,0,,0,,0,
122,123,3475,3475,0.0,3475,0.0,3475,0.0,3475,0.0
123,124,21345,21345,0.0,21345,0.0,21345,0.0,21345,0.0
124,125,16267,16267,0.0,16267,0.0,16267,0.0,16267,0.0
125,126,15145,15145,0.0,15145,0.0,15145,0.0,15145,0.0
126,127,17632,17632,0.0,17632,0.0,17632,0.0,17632,0.0
127,128,13490,13490,0.0,13490,0.0,13490,0.0,13490,0.0
128,129,11035,11035,0.0,11035,0.0,11035,0.0,11035,0.0
129,130,18327,18327,0.0,18327,0.0,18327,0.0,18327,0.0
130,131,7866,7866,0.0,7866,0.0,7866,0.0,7866,0.0
131,132,13306,13306,0.0,13306,0.0,13306,0.0,13306,0.0
132,133,16547,16547,0.0,16547,0.0,16547,0.0,16547,0.0
133,134,4437,4437,0.0,4437,0.0,4437,0.0,4437,0.0
134,135,13198,13198,0.0,13198,0.0,13198,0.0,13198,0.0
135,136,16437,16437,0.0,16437,0.0,16437,0.0,16437,0.0
136,137,3220,3220,0.0,3220,0.0,3220,0.0,3220,0.0
137,138,17999,17999,0.0,17999,0.0,17999,0.0,17999,0.0
138,139,12560,12560,0.0,12560,0.0,12560,0.0,12560,0.0
139,140,3286,3286,0.0,3286,0.0,3286,0.0,3286,0.0
140,141,7915,7915,0.0,7915,0.0,7915,0.0,7915,0.0
141,142,15829,15829,0.0,15829,0.0,15829,0.0,15829,0.0
142,143,4392,4392,0.0,4392,0.0,4392,0.0,4392,0.0
143,144,13310,13310,0.0,13310,0.0,13310,0.0,13310,0.0
144,145,16262,16262,0.0,16262,0.0,16262,0.0,16262,0.0
145,146,18832,18832,0.0,18832,0.0,18832,0.0,18832,0.0
146,147,16020,16020,0.0,16020,0.0,16020,0.0,16020,0.0
147,148,17985,17985,0.0,17985,0.0,17985,0.0,17985,0.0
148,149,9785,9785,0.0,9785,0.0,9785,0.0,9785,0.0
149,150,13653,13653,0.0,13653,0.0,13653,0.0,13653,0.0
150,151,1427,1427,0.0,1427,0.0,1427,0.0,1427,0.0
151,152,13036,13036,0.0,13036,0.0,13036,0.0,13036,0.0
152,153,14377,14377,0.0,14377,0.0,14377,0.0,14377,0.0
153,154,13185,13185,0.0,13185,0.0,13185,0.0,13185,0.0
154,155,4662,4662,0.0,4662,0.0,4648,0.003003003003003003,4648,0.003003003003003003
155,156,16569,16569,0.0,16569,0.0,16569,0.0,16569,0.0
156,157,17977,17977,0.0,17977,0.0,17977,0.0,17977,0.0
157,158,10533,10533,0.0,10533,0.0,10533,0.0,10533,0.0
158,159,11394,11394,0.0,11394,0.0,11394,0.0,11394,0.0
159,160,15581,15581,0.0,15581,0.0,15581,0.0,15581,0.0
160,161,14069,14069,0.0,14069,0.0,14069,0.0,14069,0.0
161,162,11804,11804,0.0,11804,0.0,11804,0.0,11804,0.0
162,163,8296,8296,0.0,8296,0.0,8296,0.0,8296,0.0
163,164,9085,9085,0.0,9085,0.0,9085,0.0,9085,0.0
164,165,13687,13687,0.0,13687,0.0,13687,0.0,13687,0.0
165,166,12304,12304,0.0,12304,0.0,12304,0.0,12304,0.0
166,167,20819,20819,0.0,20819,0.0,20819,0.0,20819,0.0
167,168,2775,2775,0.0,2775,0.0,2775,0.0,2775,0.0
168,169,19110,19110,0.0,19110,0.0,19110,0.0,19110,0.0
169,170,13083,13083,0.0,13083,0.0,13083,0.0,13059,0.0018344416418252694
170,171,6994,6994,0.0,6994,0.0,6994,0.0,6994,0.0
171,172,16108,16108,0.0,16108,0.0,16108,0.0,16108,0.0
172,173,19348,19348,0.0,19348,0.0,19348,0.0,19348,0.0
173,174,18571,18571,0.0,18571,0.0,18571,0.0,18571,0.0
174,175,16561,16561,0.0,16561,0.0,16561,0.0,16561,0.0
175,176,15478,15478,0.0,15478,0.0,15478,0.0,15478,0.0
176,177,8217,8217,0.0,8217,0.0,8217,0.0,8217,0.0
177,178,15713,15713,0.0,15713,0.0,15713,0.0,15713,0.0
178,179,7053,7053,0.0,7053,0.0,7053,0.0,7053,0.0
179,180,12637,12637,0.0,12637,0.0,12637,0.0,12637,0.0
180,181,9056,9056,0.0,9056,0.0,9056,0.0,9056,0.0
181,182,14687,14687,0.0,14687,0.0,14687,0.0,14687,0.0
182,183,6166,6166,0.0,6166,0.0,6166,0.0,6166,0.0
183,184,13397,13397,0.0,13397,0.0,13397,0.0,13397,0.0
184,185,9293,9293,0.0,9293,0.0,9293,0.0,9293,0.0
185,186,15526,15526,0.0,15526,0.0,15526,0.0,15526,0.0
186,187,13033,13033,0.0,13033,0.0,13033,0.0,13033,0.0
187,188,21645,21645,0.0,21645,0.0,21645,0.0,21645,0.0
188,189,20523,20523,0.0,20523,0.0,20523,0.0,20523,0.0
189,190,15391,15391,0.0,15391,0.0,15391,0.0,15391,0.0
190,191,12889,12889,0.0,12889,0.0,12889,0.0,12889,0.0
191,192,10947,10947,0.0,10947,0.0,10947,0.0,10947,0.0
192,193,17315,17315,0.0,17315,0.0,17315,0.0,17315,0.0
193,194,17065,17065,0.0,17065,0.0,17065,0.0,17065,0.0
194,195,15401,15401,0.0,15401,0.0,15401,0.0,15401,0.0
195,196,14957,14957,0.0,14957,0.0,14957,0.0,14957,0.0
196,197,9796,9796,0.0,9796,0.0,9796,0.0,9796,0.0
197,198,7728,7728,0.0,7728,0.0,7728,0.0,7728,0.0
198,199,16316,16316,0.0,16316,0.0,16316,0.0,16316,0.0
199,200,22810,22810,0.0,22810,0.0,22810,0.0,22810,0.0
200,201,7626,7626,0.0,7626,0.0,7626,0.0,7626,0.0
201,202,11020,11020,0.0,11020,0.0,11020,0.0,11020,0.0
202,203,17315,17315,0.0,17315,0.0,17315,0.0,17315,0.0
203,204,16962,16962,0.0,16962,0.0,16962,0.0,16962,0.0
204,205,12286,12286,0.0,12286,0.0,12286,0.0,12286,0.0
205,206,15246,15246,0.0,15246,0.0,15246,0.0,15246,0.0
206,207,9971,9971,0.0,9971,0.0,9971,0.0,9971,0.0
207,208,17115,17115,0.0,17115,0.0,17115,0.0,17115,0.0
208,209,9031,9031,0.0,9031,0.0,9031,0.0,9031,0.0
209,210,5985,5985,0.0,5985,0.0,5985,0.0,5985,0.0
210,211,12279,12279,0.0,12279,0.0,12279,0.0,12279,0.0
211,212,13221,13221,0.0,13221,0.0,13221,0.0,13221,0.0
212,213,11725,11725,0.0,11725,0.0,11725,0.0,11725,0.0
213,214,21292,21292,0.0,21292,0.0,21292,0.0,21292,0.0
214,215,17970,17970,0.0,17970,0.0,17970,0.0,17970,0.0
215,216,15436,15436,0.0,15436,0.0,15436,0.0,15436,0.0
216,217,11138,11138,0.0,11138,0.0,11138,0.0,11138,0.0
217,218,8222,8222,0.0,8222,0.0,8222,0.0,8222,0.0
218,219,18674,18674,0.0,18674,0.0,18674,0.0,18674,0.0
219,220,21144,21144,0.0,21144,0.0,21130,0.0006621263715474839,21130,0.0006621263715474839
220,221,18649,18649,0.0,18649,0.0,18649,0.0,18649,0.0
221,222,17496,17496,0.0,17496,0.0,17496,0.0,17496,0.0
222,223,13553,13553,0.0,13553,0.0,13553,0.0,13553,0.0
223,224,4496,4496,0.0,4496,0.0,4496,0.0,4496,0.0
224,225,19544,19544,0.0,19544,0.0,19544,0.0,19544,0.0
225,226,14087,14087,0.0,14087,0.0,14087,0.0,14087,0.0
226,227,14215,14215,0.0,14215,0.0,14215,0.0,14215,0.0
227,228,11239,11239,0.0,11239,0.0,11239,0.0,11239,0.0
228,229,16060,16060,0.0,16060,0.0,16051,0.000560398505603985,16051,0.000560398505603985
229,230,2326,2326,0.0,2326,0.0,2326,0.0,2326,0.0
230,231,12498,12498,0.0,12498,0.0,12498,0.0,12498,0.0
231,232,18621,18621,0.0,18621,0.0,18621,0.0,18621,0.0
232,233,11250,11250,0.0,11250,0.0,11250,0.0,11250,0.0
233,234,16863,16863,0.0,16863,0.0,16863,0.0,16863,0.0
234,235,12695,12695,0.0,12695,0.0,12695,0.0,12695,0.0
235,236,18585,18585,0.0,18585,0.0,18585,0.0,18585,0.0
236,237,2106,2106,0.0,2106,0.0,2106,0.0,2106,0.0
237,238,16830,16830,0.0,16830,0.0,16830,0.0,16830,0.0
238,239,507,507,0.0,507,0.0,507,0.0,507,0.0
239,240,13378,13378,0.0,13378,0.0,13378,0.0,13378,0.0
240,241,4909,4909,0.0,4909,0.0,4909,0.0,4909,0.0
241,242,1630,1630,0.0,1630,0.0,1630,0.0,1630,0.0
242,243,14213,14213,0.0,14213,0.0,14213,0.0,14213,0.0
243,244,8541,8541,0.0,8541,0.0,8541,0.0,8541,0.0
244,245,11642,11642,0.0,11641,8.589589417625838e-05,11641,8.589589417625838e-05,11641,8.589589417625838e-05
245,246,23596,23596,0.0,23596,0.0,23596,0.0,23596,0.0
246,247,13556,13556,0.0,13556,0.0,13556,0.0,13525,0.0022868102685157862
247,248,16789,16789,0.0,16789,0.0,16789,0.0,16789,0.0
248,249,13345,13345,0.0,13345,0.0,13345,0.0,13345,0.0
249,250,19272,19272,0.0,19272,0.0,19272,0.0,19272,0.0
250,251,16040,16040,0.0,16040,0.0,16040,0.0,16040,0.0
251,252,12367,12367,0.0,12367,0.0,12367,0.0,12367,0.0
252,253,12367,12367,0.0,12367,0.0,12367,0.0,12367,0.0
253,254,10550,10550,0.0,10550,0.0,10534,0.0015165876777251184,10534,0.0015165876777251184
254,255,16652,16652,0.0,16652,0.0,16652,0.0,16652,0.0
255,256,18125,18125,0.0,18125,0.0,18125,0.0,18125,0.0
256,257,12065,12065,0.0,12065,0.0,12065,0.0,12065,0.0
257,258,19787,19787,0.0,19787,0.0,19787,0.0,19787,0.0
258,259,9993,9993,0.0,9993,0.0,9993,0.0,9993,0.0
259,260,8533,8533,0.0,8533,0.0,8533,0.0,8533,0.0
260,261,20102,20102,0.0,20102,0.0,20102,0.0,20102,0.0
261,262,3735,3735,0.0,3735,0.0,3735,0.0,3735,0.0
262,263,15911,15911,0.0,15911,0.0,15911,0.0,15911,0.0
263,264,5347,5347,0.0,5347,0.0,5347,0.0,5347,0.0
264,265,9338,9338,0.0,9338,0.0,9338,0.0,9338,0.0
265,266,18933,18933,0.0,18933,0.0,18933,0.0,18933,0.0
266,267,11595,11595,0.0,11595,0.0,11595,0.0,11595,0.0
267,268,6500,6500,0.0,6500,0.0,6500,0.0,6500,0.0
268,269,16025,16025,0.0,16025,0.0,16025,0.0,16025,0.0
269,270,19454,19454,0.0,19454,0.0,19454,0.0,19454,0.0
270,271,15354,15353,6.512960791976033e-05,15353,6.512960791976033e-05,15353,6.512960791976033e-05,15353,6.512960791976033e-05
271,272,18458,18458,0.0,18458,0.0,18458,0.0,18458,0.0
272,273,18824,18824,0.0,18824,0.0,18824,0.0,18824,0.0
273,274,6352,6352,0.0,6352,0.0,6352,0.0,6352,0.0
274,275,11143,11143,0.0,11143,0.0,11143,0.0,11143,0.0
275,276,22233,22233,0.0,22233,0.0,22233,0.0,22233,0.0
276,277,15858,15858,0.0,15858,0.0,15858,0.0,15858,0.0
277,278,18149,18149,0.0,18149,0.0,18140,0.0004958950906386026,18140,0.0004958950906386026
278,279,9986,9986,0.0,9986,0.0,9986,0.0,9969,0.00170238333667134
279,280,22469,22469,0.0,22469,0.0,22469,0.0,22469,0.0
280,281,15534,15534,0.0,15534,0.0,15534,0.0,15534,0.0
281,282,17136,17136,0.0,17136,0.0,17136,0.0,17136,0.0
282,283,14404,14404,0.0,14404,0.0,14404,0.0,14404,0.0
283,284,9120,9120,0.0,9120,0.0,9120,0.0,9120,0.0
284,285,8336,8336,0.0,8336,0.0,8336,0.0,8336,0.0
285,286,19612,19612,0.0,19612,0.0,19612,0.0,19612,0.0
286,287,17244,17244,0.0,17244,0.0,17244,0.0,17244,0.0
287,288,17499,17499,0.0,17499,0.0,17499,0.0,17499,0.0
288,289,16460,16460,0.0,16460,0.0,16460,0.0,16460,0.0
289,290,17688,17688,0.0,17688,0.0,17688,0.0,17688,0.0
290,291,3542,3542,0.0,3542,0.0,3542,0.0,3542,0.0
291,292,14234,14234,0.0,14234,0.0,14234,0.0,14234,0.0
292,293,19570,19570,0.0,19570,0.0,19570,0.0,19570,0.0
293,294,17331,17331,0.0,17331,0.0,17331,0.0,17331,0.0
294,295,25129,25129,0.0,25129,0.0,25129,0.0,25129,0.0
295,296,7077,7077,0.0,7077,0.0,7077,0.0,7077,0.0
296,297,11848,11848,0.0,11848,0.0,11848,0.0,11848,0.0
297,298,15974,15974,0.0,15974,0.0,15974,0.0,15974,0.0
298,299,17606,17606,0.0,17606,0.0,17606,0.0,17606,0.0
299,300,9819,9819,0.0,9819,0.0,9819,0.0,9819,0.0
300,301,6634,6634,0.0,6634,0.0,6634,0.0,6634,0.0
301,302,4742,4742,0.0,4742,0.0,4742,0.0,4731,0.002319696330662168
302,303,0,0,,0,,0,,0,
303,304,16437,16437,0.0,16437,0.0,16437,0.0,16437,0.0
304,305,18449,18449,0.0,18449,0.0,18449,0.0,18449,0.0
305,306,21261,21261,0.0,21261,0.0,21261,0.0,21261,0.0
306,307,7185,7185,0.0,7185,0.0,7185,0.0,7185,0.0
307,308,19712,19712,0.0,19712,0.0,19712,0.0,19712,0.0
308,309,14719,14719,0.0,14719,0.0,14719,0.0,14719,0.0
309,310,8550,8550,0.0,8550,0.0,8550,0.0,8550,0.0
310,311,19873,19873,0.0,19873,0.0,19873,0.0,19873,0.0
311,312,13122,13122,0.0,13122,0.0,13122,0.0,13122,0.0
312,313,6751,6751,0.0,6751,0.0,6751,0.0,6726,0.0037031550881350913
313,314,15347,15347,0.0,15347,0.0,15347,0.0,15347,0.0
314,315,11644,11644,0.0,11644,0.0,11644,0.0,11644,0.0
315,316,4397,4397,0.0,4397,0.0,4397,0.0,4397,0.0
316,317,13687,13687,0.0,13687,0.0,13687,0.0,13687,0.0
317,318,18496,18496,0.0,18496,0.0,18496,0.0,18477,0.0010272491349480968
318,319,6807,6807,0.0,6807,0.0,6807,0.0,6807,0.0
319,320,9150,9150,0.0,9150,0.0,9150,0.0,9150,0.0
320,321,13264,13264,0.0,13264,0.0,13264,0.0,13264,0.0
321,322,19213,19213,0.0,19213,0.0,19213,0.0,19213,0.0
322,323,12870,12870,0.0,12870,0.0,12870,0.0,12870,0.0
323,324,16317,16317,0.0,16317,0.0,16317,0.0,16317,0.0
324,325,13695,13695,0.0,13695,0.0,13695,0.0,13695,0.0
325,326,17830,17830,0.0,17830,0.0,17830,0.0,17830,0.0
326,327,15907,15907,0.0,15907,0.0,15907,0.0,15907,0.0
327,328,17675,17675,0.0,17675,0.0,17675,0.0,17675,0.0
328,329,14915,14915,0.0,14915,0.0,14915,0.0,14915,0.0
329,330,9330,9330,0.0,9330,0.0,9330,0.0,9330,0.0
330,331,16661,16661,0.0,16661,0.0,16661,0.0,16661,0.0
331,332,11044,11044,0.0,11044,0.0,11044,0.0,11044,0.0
332,333,20273,20273,0.0,20273,0.0,20273,0.0,20273,0.0
333,334,11676,11676,0.0,11676,0.0,11676,0.0,11676,0.0
334,335,20009,20009,0.0,20009,0.0,20009,0.0,20009,0.0
335,336,16027,16027,0.0,16027,0.0,16027,0.0,16027,0.0
336,337,17635,17635,0.0,17635,0.0,17635,0.0,17635,0.0
337,338,17045,17045,0.0,17045,0.0,17045,0.0,17045,0.0
338,339,13366,13366,0.0,13366,0.0,13366,0.0,13366,0.0
339,340,9838,9838,0.0,9838,0.0,9838,0.0,9838,0.0
340,341,4929,4929,0.0,4929,0.0,4929,0.0,4929,0.0
341,342,12976,12976,0.0,12976,0.0,12976,0.0,12976,0.0
342,343,18281,18281,0.0,18281,0.0,18281,0.0,18281,0.0
343,344,18162,18162,0.0,18162,0.0,18162,0.0,18162,0.0
344,345,8043,8043,0.0,8043,0.0,8043,0.0,8043,0.0
345,346,13636,13636,0.0,13636,0.0,13636,0.0,13636,0.0
346,347,16157,16157,0.0,16157,0.0,16157,0.0,16157,0.0
347,348,14326,14326,0.0,14326,0.0,14326,0.0,14326,0.0
348,349,12068,12068,0.0,12068,0.0,12068,0.0,12068,0.0
349,350,20075,20075,0.0,20075,0.0,20075,0.0,20075,0.0
350,351,16068,16068,0.0,16068,0.0,16068,0.0,16068,0.0
351,352,15236,15236,0.0,15236,0.0,15236,0.0,15236,0.0
352,353,15568,15568,0.0,15568,0.0,15568,0.0,15568,0.0
353,354,15249,15249,0.0,15249,0.0,15249,0.0,15249,0.0
354,355,13282,13282,0.0,13282,0.0,13282,0.0,13282,0.0
355,356,19532,19532,0.0,19532,0.0,19532,0.0,19532,0.0
356,357,2015,2015,0.0,2015,0.0,2015,0.0,2015,0.0
357,358,6229,6229,0.0,6229,0.0,6229,0.0,6229,0.0
358,359,18106,18106,0.0,18106,0.0,18106,0.0,18106,0.0
359,360,19713,19713,0.0,19713,0.0,19713,0.0,19713,0.0
360,361,17268,17268,0.0,17268,0.0,17268,0.0,17268,0.0
361,362,16531,16531,0.0,16531,0.0,16531,0.0,16531,0.0
362,363,21932,21932,0.0,21932,0.0,21932,0.0,21932,0.0
363,364,5147,5147,0.0,5147,0.0,5147,0.0,5147,0.0
364,365,20665,20665,0.0,20665,0.0,20665,0.0,20665,0.0
365,366,11593,11593,0.0,11593,0.0,11593,0.0,11593,0.0
366,367,5070,5070,0.0,5070,0.0,5070,0.0,5070,0.0
367,368,12196,12196,0.0,12196,0.0,12196,0.0,12196,0.0
368,369,21623,21623,0.0,21623,0.0,21623,0.0,21623,0.0
369,370,12988,12988,0.0,12988,0.0,12988,0.0,12988,0.0
370,371,6057,6057,0.0,6057,0.0,6057,0.0,6057,0.0
371,372,10122,10122,0.0,10122,0.0,10122,0.0,10122,0.0
372,373,7545,7545,0.0,7545,0.0,7545,0.0,7545,0.0
373,374,14693,14693,0.0,14693,0.0,14683,0.0006805962022731914,14683,0.0006805962022731914
374,375,16908,16908,0.0,16908,0.0,16908,0.0,16908,0.0
375,376,20454,20454,0.0,20454,0.0,20454,0.0,20454,0.0
376,377,7407,7407,0.0,7407,0.0,7407,0.0,7407,0.0
377,378,17584,17584,0.0,17584,0.0,17584,0.0,17584,0.0
378,379,23457,23457,0.0,23457,0.0,23457,0.0,23457,0.0
379,380,12671,12671,0.0,12671,0.0,12671,0.0,12671,0.0
380,381,14633,14633,0.0,14633,0.0,14633,0.0,14633,0.0
381,382,15550,15550,0.0,15550,0.0,15550,0.0,15550,0.0
382,383,16747,16747,0.0,16747,0.0,16747,0.0,16747,0.0
383,384,15594,15594,0.0,15594,0.0,15594,0.0,15594,0.0
384,385,6808,6808,0.0,6808,0.0,6808,0.0,6808,0.0
385,386,12707,12707,0.0,12707,0.0,12707,0.0,12707,0.0
386,387,18302,18302,0.0,18302,0.0,18302,0.0,18302,0.0
387,388,4437,4437,0.0,4437,0.0,4437,0.0,4437,0.0
388,389,14874,14874,0.0,14874,0.0,14874,0.0,14874,0.0
389,390,11759,11759,0.0,11759,0.0,11759,0.0,11759,0.0
390,391,10116,10116,0.0,10116,0.0,10116,0.0,10116,0.0
391,392,18298,18298,0.0,18298,0.0,18298,0.0,18298,0.0
392,393,18416,18416,0.0,18416,0.0,18416,0.0,18416,0.0
393,394,14135,14135,0.0,14135,0.0,14135,0.0,14135,0.0
394,395,12562,12562,0.0,12562,0.0,12562,0.0,12562,0.0
395,396,12360,12360,0.0,12360,0.0,12360,0.0,12360,0.0
396,397,6970,6970,0.0,6970,0.0,6970,0.0,6970,0.0
397,398,5443,5443,0.0,5443,0.0,5443,0.0,5443,0.0
398,399,15352,15352,0.0,15352,0.0,15352,0.0,15352,0.0
399,400,13318,13318,0.0,13318,0.0,13318,0.0,13318,0.0
400,401,17475,17475,0.0,17475,0.0,17475,0.0,17475,0.0
401,402,18128,18128,0.0,18128,0.0,18128,0.0,18128,0.0
402,403,3941,3941,0.0,3941,0.0,3941,0.0,3941,0.0
403,404,4466,4466,0.0,4466,0.0,4466,0.0,4466,0.0
404,405,14818,14818,0.0,14818,0.0,14818,0.0,14818,0.0
405,406,16573,16573,0.0,16573,0.0,16573,0.0,16573,0.0
406,407,15337,15337,0.0,15337,0.0,15337,0.0,15337,0.0
407,408,13835,13835,0.0,13835,0.0,13835,0.0,13835,0.0
408,409,9887,9887,0.0,9887,0.0,9887,0.0,9887,0.0
409,410,22314,22314,0.0,22314,0.0,22314,0.0,22314,0.0
410,411,7111,7111,0.0,7111,0.0,7111,0.0,7111,0.0
411,412,21921,21921,0.0,21921,0.0,21921,0.0,21921,0.0
412,413,22963,22963,0.0,22963,0.0,22963,0.0,22963,0.0
413,414,12188,12188,0.0,12188,0.0,12188,0.0,12188,0.0
414,415,16696,16696,0.0,16696,0.0,16696,0.0,16696,0.0
415,416,20819,20819,0.0,20819,0.0,20819,0.0,20819,0.0
416,417,11500,11500,0.0,11500,0.0,11500,0.0,11500,0.0
417,418,14531,14531,0.0,14531,0.0,14531,0.0,14531,0.0
418,419,9366,9366,0.0,9366,0.0,9366,0.0,9366,0.0
419,420,12810,12810,0.0,12806,0.000312256049960968,12806,0.000312256049960968,12806,0.000312256049960968
420,421,17584,17584,0.0,17584,0.0,17574,0.0005686988171064604,17574,0.0005686988171064604
421,422,12136,12136,0.0,12136,0.0,12136,0.0,12136,0.0
422,423,6968,6968,0.0,6968,0.0,6968,0.0,6968,0.0
423,424,17520,17520,0.0,17520,0.0,17520,0.0,17520,0.0
424,425,10751,10751,0.0,10751,0.0,10751,0.0,10751,0.0
425,426,10538,10538,0.0,10538,0.0,10538,0.0,10538,0.0
426,427,18486,18486,0.0,18486,0.0,18486,0.0,18486,0.0
427,428,7841,7841,0.0,7841,0.0,7841,0.0,7841,0.0
428,429,10393,10393,0.0,10393,0.0,10393,0.0,10393,0.0
429,430,17476,17476,0.0,17476,0.0,17476,0.0,17476,0.0
430,431,18015,18015,0.0,18015,0.0,18015,0.0,18015,0.0
431,432,14046,14046,0.0,14046,0.0,14046,0.0,14046,0.0
432,433,7212,7212,0.0,7212,0.0,7212,0.0,7212,0.0
433,434,17656,17656,0.0,17656,0.0,17656,0.0,17656,0.0
434,435,9233,9233,0.0,9233,0.0,9233,0.0,9233,0.0
435,436,12937,12937,0.0,12937,0.0,12937,0.0,12937,0.0
436,437,17946,17946,0.0,17946,0.0,17946,0.0,17946,0.0
437,438,15066,15066,0.0,15066,0.0,15066,0.0,15039,0.0017921146953405018
438,439,13111,13111,0.0,13111,0.0,13111,0.0,13111,0.0
439,440,11868,11868,0.0,11868,0.0,11868,0.0,11868,0.0
440,441,18215,18215,0.0,18215,0.0,18215,0.0,18215,0.0
441,442,12610,12610,0.0,12610,0.0,12610,0.0,12610,0.0
442,443,17975,17975,0.0,17975,0.0,17975,0.0,17975,0.0
443,444,10068,10068,0.0,10068,0.0,10068,0.0,10068,0.0
444,445,17344,17344,0.0,17344,0.0,17344,0.0,17344,0.0
445,446,6014,6014,0.0,6014,0.0,6014,0.0,6014,0.0
446,447,6909,6909,0.0,6909,0.0,6909,0.0,6909,0.0
447,448,13769,13769,0.0,13769,0.0,13769,0.0,13769,0.0
448,449,4337,4337,0.0,4337,0.0,4337,0.0,4337,0.0
449,450,21803,21803,0.0,21803,0.0,21803,0.0,21803,0.0
450,451,18274,18274,0.0,18274,0.0,18274,0.0,18274,0.0
451,452,10868,10868,0.0,10868,0.0,10868,0.0,10868,0.0
452,453,18760,18760,0.0,18760,0.0,18760,0.0,18760,0.0
453,454,10362,10362,0.0,10362,0.0,10362,0.0,10362,0.0
454,455,10854,10854,0.0,10854,0.0,10854,0.0,10854,0.0
455,456,15161,15161,0.0,15161,0.0,15161,0.0,15161,0.0
456,457,24334,24334,0.0,24334,0.0,24334,0.0,24334,0.0
457,458,11297,11297,0.0,11297,0.0,11297,0.0,11297,0.0
458,459,11642,11642,0.0,11642,0.0,11642,0.0,11642,0.0
459,460,15672,15672,0.0,15672,0.0,15672,0.0,15672,0.0
460,461,9622,9622,0.0,9622,0.0,9622,0.0,9622,0.0
461,462,20498,20498,0.0,20498,0.0,20498,0.0,20498,0.0
462,463,1802,1802,0.0,1802,0.0,1802,0.0,1802,0.0
463,464,19630,19630,0.0,19630,0.0,19630,0.0,19630,0.0
464,465,14034,14034,0.0,14034,0.0,14034,0.0,14034,0.0
465,466,8020,8020,0.0,8020,0.0,8020,0.0,8020,0.0
466,467,1274,1274,0.0,1274,0.0,1274,0.0,1274,0.0
467,468,2171,2171,0.0,2171,0.0,2171,0.0,2171,0.0
468,469,10706,10706,0.0,10706,0.0,10706,0.0,10706,0.0
469,470,11482,11482,0.0,11482,0.0,11482,0.0,11482,0.0
470,471,13239,13239,0.0,13239,0.0,13239,0.0,13239,0.0
471,472,18428,18428,0.0,18428,0.0,18428,0.0,18428,0.0
472,473,9264,9264,0.0,9260,0.0004317789291882556,9264,0.0,9260,0.0004317789291882556
473,474,17402,17402,0.0,17402,0.0,17402,0.0,17402,0.0
474,475,18150,18150,0.0,18150,0.0,18150,0.0,18150,0.0
475,476,15190,15190,0.0,15190,0.0,15190,0.0,15190,0.0
476,477,8388,8388,0.0,8388,0.0,8388,0.0,8388,0.0
477,478,8812,8812,0.0,8812,0.0,8812,0.0,8812,0.0
478,479,14571,14571,0.0,14571,0.0,14560,0.0007549241644362089,14560,0.0007549241644362089
479,480,16250,16250,0.0,16250,0.0,16250,0.0,16250,0.0
480,481,4869,4869,0.0,4869,0.0,4869,0.0,4869,0.0
481,482,10348,10348,0.0,10348,0.0,10348,0.0,10348,0.0
482,483,12087,12087,0.0,12087,0.0,12087,0.0,12087,0.0
483,484,15328,15328,0.0,15328,0.0,15328,0.0,15328,0.0
484,485,15829,15829,0.0,15829,0.0,15829,0.0,15829,0.0
485,486,1396,1396,0.0,1396,0.0,1396,0.0,1396,0.0
486,487,17882,17882,0.0,17882,0.0,17882,0.0,17882,0.0
487,488,12194,12194,0.0,12194,0.0,12194,0.0,12194,0.0
488,489,1148,1148,0.0,1148,0.0,1148,0.0,1148,0.0
489,490,12249,12249,0.0,12249,0.0,12249,0.0,12249,0.0
490,491,14308,14308,0.0,14308,0.0,14308,0.0,14308,0.0
491,492,8895,8895,0.0,8895,0.0,8895,0.0,8895,0.0
492,493,17644,17644,0.0,17644,0.0,17644,0.0,17644,0.0
493,494,9045,9045,0.0,9045,0.0,9045,0.0,9045,0.0
494,495,19692,19692,0.0,19692,0.0,19692,0.0,19692,0.0
495,496,14010,14010,0.0,14010,0.0,14010,0.0,14010,0.0
496,497,18358,18358,0.0,18358,0.0,18358,0.0,18358,0.0
497,498,9268,9268,0.0,9268,0.0,9268,0.0,9268,0.0
498,499,16543,16543,0.0,16543,0.0,16543,0.0,16543,0.0
499,500,23252,23252,0.0,23252,0.0,23252,0.0,23252,0.0
