4,10,15,20
0.0011129055001219967,0.03820403899999292,0.0008601815000019997,1.5211999880193616e-05
0.0027101929999844288,0.025963024500015308,0.002245056000219847,0.22711910149973846
0.0013308454997513763,0.03306948299996293,0.10160120000000461,0.19424041150000448
0.0023895219999303663,0.028758745000004637,0.08130758000015703,0.2122479290001138
0.0012428080001427588,0.020995463499957623,0.08326502999989316,0.20228247549994194
0.0028278449999561417,0.03276073350002662,0.08204311799977404,0.1965804424999078
0.001981224000246584,0.03044267850009419,0.0034954005000145116,0.1999571685000774
0.002106444500213911,0.02885660199990525,0.07934714500015616,0.17426846250009476
1.1455500043666689e-05,0.023189665999780118,0.034980064999899696,0.1925828164999075
1.1238499837418203e-05,0.02189605250009663,0.08679219200007537,0.07257569350008453
0.002245345499886753,0.02978074700013167,0.08591226500016091,0.12171818449996863
0.0020108425001126307,0.033340302499937025,0.09440445399968667,0.18200849400000152
0.0008381830000416812,0.024256310499822575,0.0816126140000506,0.17482779150009264
0.002265886000031969,0.025585149499875115,0.05040727250002419,0.2345660515002237
0.0019443690000571223,0.00326424600007158,0.10633601950007687,0.21164320700017925
1.0921000011876458e-05,0.025986928500060458,0.07748303300013504,0.1863057100001697
0.00025701200002004043,0.030874616000119204,0.08915519050015064,0.20142117399996096
0.00041263200000685174,1.4992500155130983e-05,0.08431560599979093,0.1730926274999547
0.0020611359998383705,0.031532781499890916,0.08274592649991064,0.19021661650003807
0.0012148670000442507,0.00795374700010143,0.07749983150006301,0.20269701799998074
0.0019491870000365452,0.025505323500055965,0.07882859350024773,0.18612951450018045
0.002636604000144871,0.026362339499883092,0.08014598600016143,0.20835131850003563
0.00015548999999737134,0.028537948000121105,0.07960778250003386,0.25058913350017065
0.0019069360000685265,0.030648170499944172,0.10454373350012247,0.19461573500007034
0.0019018774996766297,0.022861723500000153,0.07975396550000369,0.23769147400025759
0.0015965190000315488,0.021024407500135567,0.09933335650021036,0.20217552750000323
0.0008568394998746953,0.023647987499998635,0.08934890950013141,0.17740367499982312
0.0003974220001055073,0.02350748549997661,0.09563126550028755,0.15138096500004394
0.000530344500020874,0.02920859349978855,0.10343221649986845,0.07819537099976515
1.1549499959073728e-05,0.004556463000199074,0.010558296499993958,0.20416610150027736
0.00042248449994986004,0.02155071000015596,0.09571136450017548,0.22485689050017754
0.00238705999981903,0.029087796000112576,0.1186353030002465,0.16928459450014088
0.001710819999971136,0.022902077500020823,0.08467811200034703,0.19029119599986188
0.0021437484999751177,0.023166042999946512,0.08334493250004016,0.2535071814997991
0.002201657999876261,1.4015000033396063e-05,0.06644955899992055,0.19171248800012108
0.002014250499996706,0.031257547499990324,0.09795466099990335,0.17882241800020893
0.0005027924999012612,0.027094440000155373,0.07022468800005299,0.1956837865000125
0.0009227065002050949,0.020422315999894636,0.07713935050014697,0.00022941999986869632
0.0002482994998445065,0.01993054349986778,0.11708517050010414,0.2220798759999525
0.002195956999912596,0.024904556499905084,0.08153888950027977,0.22318876350004757
0.001947254000015164,0.032418863500197403,0.0850540970000111,0.1780263975001617
0.0004946130000007543,0.024418827500312545,0.06465507500001877,0.22164376750015435
0.0002516110000669869,0.025471650500094256,0.0634672280000359,0.2299217619997762
0.0017769674998362461,0.029664842000102,0.10908711949991812,0.12923092249980073
0.0017463710000811261,0.02250222800012125,0.0491689950001728,0.23374510950020522
0.0009227619998455339,0.027625685499970132,0.07023479200006477,0.20586794549990373
0.0012893304999579414,0.019954425000150877,0.09809873499989408,0.1659890399998858
0.0014032535000296775,0.031419933500274055,0.10070179000013013,0.22350287499989463
0.0021982849998494203,0.026233173500031626,0.08595133249991704,0.19259149449999313
0.001658223500044187,0.02303101000006791,0.0905061140001635,0.19744484950024344
0.0021503160000975186,0.028850088999888612,0.0791115735000858,0.16255976000002192
0.00022917950013834343,0.03435541749990989,0.1053478475000702,0.19875139750024573
0.0009841055000379129,0.026795494499992856,0.08387295800002903,0.19451699199998984
0.0021284570000261738,0.02213770799971826,0.06936535100021501,0.21856489049991978
0.002051484999810782,0.02847979399984979,0.07929533950004952,0.059221311000101196
0.001965559999916877,0.02644058949999817,0.08646400550014732,0.21804903350016502
0.0002221185000053083,0.026332547500032888,0.06427699250002661,0.17175038050004332
0.0027991659999315743,0.027662851500053875,0.10289753899996867,0.20171307100008562
0.0019988654998996935,0.021611117000020386,0.07757106650001333,0.07476145499981612
0.0025080314997012465,0.0166062124999371,0.08377706700025556,0.17502473549984643
0.0021633290000409033,0.029430014000126903,0.09465703749992826,0.1785764134999681
0.0024699370001144416,0.031527731499863876,0.09581821849997141,0.17744276400026138
0.002116846000035366,0.021099159999948824,0.06719536149989835,0.24706754050021118
0.00022126250019027793,0.005668452500003696,0.0005751925000367919,0.21703470349984855
0.0022221764997993887,0.023518364000210568,0.09982536749998872,0.2066512444998807
0.0002550335000250925,0.0031571490001169877,0.07482183349998195,0.22053564950010696
0.002588462499943489,0.0210948584997368,0.10742512100000567,0.22352932100011458
0.0009038685000177793,0.0005507895000391727,0.018229173500003526,0.18200842350006496
0.0017199819999405008,0.018069754499720148,0.09931879199984905,0.20623392099992088
0.00026173099968218594,0.027023111000062272,0.09451514300008057,0.22259740300000885
0.0010897674999341689,0.01981493399989631,0.09239780299981248,0.18511288750005406
1.1516000085975975e-05,0.019569023499798277,0.0786737375001394,0.18419604700011405
0.0019887830001152906,0.0179253475000678,0.09092836399986481,0.21159683800010498
0.0019072505003805418,0.029135724500065407,0.09021970100002363,0.02982018199986669
0.0024908755001433747,0.02649896950015318,0.08973251849988628,0.1858748449999439
0.0010807045000547078,0.028529548999813414,0.004477917000031084,0.19914780399972187
0.0011592744999688875,0.02475339450006686,0.09361414699992565,0.22977379300027678
0.001988124500030608,0.0009200969998346409,0.09388180099972487,0.2031401654999172
0.00015182500010268996,0.029913564500020584,0.08789169749979919,0.2242307639999126
0.0001535214998966694,0.007876260000330149,0.07630139149978277,0.15703709350009376
1.2867999885202153e-05,0.02866954450018966,0.09799154600000293,0.18754350300014266
0.0020761490000040794,0.020607941499974913,0.088573998000129,0.21663955450003414
0.0011297870000817056,0.02129776149990903,0.07194183100000373,0.1441445885000121
0.0021370150000166177,0.029836623500159476,0.07331559149974964,0.16873951749994376
0.0025360699999055214,0.0287550969997028,0.0963559004999297,0.19233659649989931
0.0013064825000128621,0.014803324500007875,0.0007294999998066487,0.2137090265000552
0.002172129499967923,0.023945565500071098,0.08247886500021195,0.16217054050002844
0.00015922600005069398,0.023621806999926775,0.08271781949974866,0.19561340749964984
0.0019914805000098568,0.028212422500018874,0.09745657749999737,0.2013154349999695
0.0023743890001242107,0.0168865400003142,0.11171642750014144,0.2126233774999946
0.0024358354999094445,0.02572108749996005,0.10065838750006151,0.1963468159999593
0.002379861500003244,0.027402510499996424,0.08784187200012639,0.21026476900010493
0.0009426395001810306,0.02497596600005636,0.009633908500063626,0.1583137689999603
0.0004434049999417766,0.017696482000019387,1.4186000043991953e-05,0.21188836399983302
0.00034131200004594575,0.028669007499956933,0.09030893849990207,0.1956708109998999
0.0023811730000034004,0.028054654000243318,0.083146288999842,0.1969687050000175
0.0022193294998942292,0.0003714009999384871,0.09546457200008263,0.21210477250019721
0.00021625049998874601,0.002425478000077419,0.07278503349994025,0.19746359600003416
0.0016296130002046993,0.0012261570000191568,0.10127773799990791,0.17122316399991178
0.0021715244999995775,0.03100389650012403,0.1016399714999352,0.20139210749994163
0.00040794499977891974,0.020355627999833814,1.6445999790448695e-05,0.2073417110000264
0.00018586250007501803,0.00036589050000657153,0.09793541800013372,0.059859815500203695
0.0018149254999570985,0.02588235150028595,0.09097606299997096,0.15441602099986085
0.0014400055001715373,0.02320991600004163,0.0827280084999984,0.20623074500008443
0.0009074325000710814,0.030609729499929017,0.09336949199996525,0.2592497179998645
0.0006794265000280575,0.014581128000145327,0.07043233350009359,0.18667510400018728
0.0019943305001106637,0.02901708299987149,0.09405034600013096,0.1918402994999724
0.001883493999912389,0.03184448299998621,0.077360374500131,0.20949293600006058
0.0002106650001678645,0.02346728449992952,0.09209770450001997,0.26049272700015536
0.00021165549992474553,0.02377636050005094,0.09193662749999021,0.005136000999982571
0.0019197794999854523,0.01619012550008847,0.086053075999871,0.17575008249991697
0.0003461604999301926,0.008741311999983736,0.10092389300007198,0.20631249750022107
1.1661500138870906e-05,0.01671038150016102,0.08354329700000562,0.005515134000233957
0.002453287000207638,0.029545588999781103,0.07916099449994363,0.21156214500001624
0.0014313850001599349,0.02196531050003614,0.08388006849986596,0.2188324690000627
0.0010909070001616783,0.0243937284999447,0.0758758174997638,0.17752496399998563
0.0015718600002401217,0.02360342349993516,0.09442898649990639,0.19080751050023537
0.0016006355001536576,0.029393492500048524,0.0825152090001211,0.173531167000192
0.0016221809999024117,0.027580823000107557,0.08020066249991942,0.2126482855001086
0.002536392999900272,0.0326178944997082,0.06841804549981134,0.014776414999914778
0.001971669000113252,0.027228148499943927,0.0923210180001206,0.15801823850028995
0.0016453934999844932,0.024528673000077106,0.08079324900018037,0.20698090950031656
0.004119466000020111,0.020504169500100033,0.07068046449990106,0.22687562750002144
0.001614655499906803,0.02963027200007673,0.08117570750005143,0.1491388449999249
0.0014956624997921608,0.025746881500026575,0.09466086199972779,0.21316950149980585
0.0017545834998600185,0.0199892569999065,0.08097520900014388,0.20705017550017146
0.0020522340000752592,0.029023593500141942,0.09350033400005486,0.0001465875002395478
0.0023987769998257136,0.030676494500085028,0.07956060349988547,0.20137801250007215
0.0021173689999614,0.021526203500116026,0.07598115900009361,0.2114480329998969
0.002040565000015704,0.03375423850025072,0.07042073299976437,0.19693494850002935
0.0023160250000273663,1.3492999869413325e-05,0.09493447149998246,0.23446793650009568
0.0003753660000711534,0.02930417850006961,0.09390564000000268,0.17867749050014936
0.0021111570001721702,0.02160806999995657,0.10616854200020498,0.18967781549986285
0.0020232219999343215,0.023613636999925802,0.00018458250019648403,0.1885532350001995
0.0022901944998920953,0.026036655499865446,0.09071659849973912,0.20416369150007085
1.1744999937945977e-05,0.020064684500084695,0.07640071350010658,0.21686590650028847
0.0023156830000061746,0.027861256500045783,0.08278398750007909,0.16411385999981576
0.0029375795002124505,0.02294597500031159,0.10854748649990142,0.21343959899991205
0.0004899045000001934,0.03014263849991039,0.07433459250000851,0.20348800550004853
0.0003130790000795969,0.029559657999925548,0.08947344600028373,0.25349606050008333
0.00027295049972053675,0.022810368499904143,0.08688342000004923,0.22186114750002162
0.0002541139999721054,1.3234499874670291e-05,0.08999288999984856,0.2106381205001071
0.002222587499772999,0.00017295550014750916,0.080119627500153,0.23294001549993482
1.1784999969677301e-05,0.024670980500104633,0.10084429649987214,0.21891054200000326
0.0003714435001711536,0.021949229999790987,0.09873817050015532,0.1941969260001315
0.0013370325000323646,0.02346233749995008,0.0791093954999269,0.21269019049987037
1.1572499943213188e-05,0.028711387499924967,0.07653143700008513,0.20684858649997295
0.0002544675000990537,0.0013176110001040797,0.08730841950000467,0.1976963215001888
0.0002324600000065402,0.027802944499853766,0.003177677499706988,0.2189233604999572
0.00023929550002321776,0.0016351199999462551,0.09083091100001184,0.12108052900020994
